from,to,t00,t01,t02,t03,t04,t05,t06,t07,t08,t09,t10,t11,t12,t13,t14,t15,t16,t17,t18,t19,t20,t21,t22,t23
Onslow 67N,Brushy Hill 120H,167.18885333333333,160.87893999999997,157.55042799999995,144.611516,153.8830265,167.55607466666663,164.73750533333333,127.4102328333331,194.26170666666664,194.19960632666678,218.890984,39.68092666666666,156.5545173333333,166.80452,193.02748133333333,134.99408799999998,184.8106933333333,190.78994333333333,128.726352,222.3333333333333,180.75932704000007,173.76889999999997,177.95799466666668,99.14801866666666
Onslow 67N,Brushy Hill 120H,167.18885333333333,160.87893999999997,157.55042799999995,144.611516,153.8830265,167.55607466666663,164.73750533333333,127.4102328333331,194.26170666666664,194.19960632666678,218.890984,39.68092666666666,156.5545173333333,166.80452,193.02748133333333,134.99408799999998,184.8106933333333,190.78994333333333,128.726352,222.3333333333333,180.75932704000007,173.76889999999997,177.95799466666668,99.14801866666666
Onslow 67N,Port Hastings 3C,-138.10856445147488,-139.8947048383739,-130.2599658870894,-114.94240793101973,-128.65336902238315,-138.43354846847836,-176.3792856368874,-108.24651045937269,-164.33292065969798,-167.2374637610221,-187.41249666341446,-66.62831522796745,-142.66898448144937,-141.16665828199757,-161.69058156393956,-129.81226575029956,-155.64887585895457,-170.87572946899868,-135.64866529999526,-188.045612405742,-161.15615354796742,-146.19327684747958,-147.6259355678326,-80.60852752152383
Port Hastings 3C,Dalhousie Mountain 91N,142.8277709944895,145.23096303730796,135.0860779457814,119.30511882182472,133.41299766065032,143.14372767768734,179.92430548030723,113.46188516883456,169.4347839747064,172.4808675454381,192.87326064498643,74.55530647163502,148.48373491252025,145.91202888527545,166.7547320760524,136.31748059056903,160.65862930731697,176.79584809485988,142.4362023749954,193.37767872780472,166.7907048383017,151.24346360171631,152.41410402428176,86.25829064592598
Onslow 67N,Port Hastings 3C,-138.10856445147488,-139.8947048383739,-130.2599658870894,-114.94240793101973,-128.65336902238315,-138.43354846847836,-176.3792856368874,-108.24651045937269,-164.33292065969798,-167.2374637610221,-187.41249666341446,-66.62831522796745,-142.66898448144937,-141.16665828199757,-161.69058156393956,-129.81226575029956,-155.64887585895457,-170.87572946899868,-135.64866529999526,-188.045612405742,-161.15615354796742,-146.19327684747958,-147.6259355678326,-80.60852752152383
Brushy Hill 120H,Bridgewater 99W,84.78328,57.92776,72.63610299999998,75.417274,68.64879575,83.89775999999999,82.897242,47.62166999999999,97.46,99.86309,110.530248,-135.870596,38.83177600000001,80.23167000000002,97.782025,-2.2588680000000068,91.569468,116.24002,26.466566999999998,117.5,108.578368,79.738292,92.01214399999999,46.5
Brushy Hill 120H,Bridgewater 99W,84.78328,57.92776,72.63610299999998,75.417274,68.64879575,83.89775999999999,82.897242,47.62166999999999,97.46,99.86309,110.530248,-135.870596,38.83177600000001,80.23167000000002,97.782025,-2.2588680000000068,91.569468,116.24002,26.466566999999998,117.5,108.578368,79.738292,92.01214399999999,46.5
Port Hastings 3C,Lingan 88S,-247.11908799871966,-251.5047564570279,-232.3838911299801,-205.0478557219321,-229.94431872270832,-247.04461870732197,-301.4418829870409,-196.92919989379,-288.39099104705133,-293.14958129374116,-329.09717956590765,-145.19687982378497,-258.8074639377095,-250.66579522463527,-283.83670088196584,-237.90877435558403,-275.6317372026131,-305.7941240914288,-252.78272690249298,-330.0864817696444,-287.61263044711836,-261.87569813333766,-260.9283246999736,-158.9321046244868
Port Hastings 3C,Lingan 88S,-247.11908799871966,-251.5047564570279,-232.3838911299801,-205.0478557219321,-229.94431872270832,-247.04461870732197,-301.4418829870409,-196.92919989379,-288.39099104705133,-293.14958129374116,-329.09717956590765,-145.19687982378497,-258.8074639377095,-250.66579522463527,-283.83670088196584,-237.90877435558403,-275.6317372026131,-305.7941240914288,-252.78272690249298,-330.0864817696444,-287.61263044711836,-261.87569813333766,-260.9283246999736,-158.9321046244868
Lingan 88S,Woodbine 101S,57.48524500256076,51.94382508594414,99.2799513400398,138.75159771613608,88.97312615458327,28.65586604535315,-40.767288974082476,140.0542116124193,-24.511438094102232,-30.38120338748286,-121.3246839318158,113.21378945242976,24.2326561245809,62.35609255072927,-9.449872863932342,78.09189198883178,5.591734594774152,-77.69363918285717,37.105707595013655,-118.61047273928853,-27.920880094236963,19.781783533324415,40.893985800053095,-79.21048240897358
Point Aconi 89S,Woodbine 101S,85.90926559999936,96.93551669999964,14.711179919999038,-61.609035999999826,35.57821435999904,-70.03277759999992,246.5483009999998,-66.84213099999988,224.7403319999989,234.66282959999992,174.07261179999932,-79.90801279999994,146.86553663999942,76.47199699999919,198.34627401000057,56.17636093999864,172.99030809999888,226.13961699999984,126.21009042999935,168.1304635199981,231.90959040000007,151.42735514999936,112.3471411199987,-65.51923160000001
Onslow 67N,Brushy Hill 120H,167.18885333333333,160.87893999999997,157.55042799999995,144.611516,153.8830265,167.55607466666663,164.73750533333333,127.4102328333331,194.26170666666664,194.19960632666678,218.890984,39.68092666666666,156.5545173333333,166.80452,193.02748133333333,134.99408799999998,184.8106933333333,190.78994333333333,128.726352,222.3333333333333,180.75932704000007,173.76889999999997,177.95799466666668,99.14801866666666
Onslow 67N,Dalhousie Mountain 91N,-104.32777099448951,-103.730963037308,-97.08607794578144,-85.30511882182475,-95.91299766065036,-104.64372767768737,-141.92430548030717,-76.46188516883456,-125.93478397470652,-127.98086754543823,-144.87326064498643,-30.555306471635017,-104.48373491252028,-106.9120288852755,-123.75473207605243,-90.81748059056906,-118.65862930731704,-128.79584809485988,-94.93620237499545,-145.87767872780458,-121.29070483830162,-110.24346360171627,-112.41410402428171,-50.75829064592594
Onslow 67N,NB Border,46.00000000000003,50.0,45.0,41.0,45.00000000000003,46.0,46.00000000000003,44.0,52.00000000000003,52.99999999999997,58.000000000000064,53.00000000000001,53.0,47.0,52.00000000000003,55.00000000000003,50.00000000000003,58.00000000000003,57.000000000000036,57.000000000000064,54.99999999999997,49.0,48.0,43.00000000000003
Onslow 67N,Lakeside 103H,334.5742255,363.2816445,329.80947498,295.04278839999995,328.64617872,339.36903712,331.9581826600001,323.5316832,382.4495192,389.0892223,417.89725384,384.87348158,385.62952864,344.5,378.87490985000017,396.48955552000007,365.5421307200001,421.02493639000005,419.5,418.75113632000006,400.73905312,361.1351289800001,351.22432608,313.91073368
Onslow 67N,Hopewell 79N,-190.5703856025601,-192.4550917859437,-171.27203126003974,-143.24206171613568,-170.76349051458288,-194.94712450535562,-261.5808870259184,-131.3959556124195,-239.05489390589744,-243.67392621251796,-287.8017278681839,-72.33937665242995,-200.35419276458055,-193.4482145507288,-232.9414386460685,-170.73561542883138,-222.96241769477314,-257.23491535714203,-187.39552302501357,-288.8264407807103,-235.31391030576327,-207.68096368332414,-205.83492692005245,-124.87323599102643
Hopewell 79N,Woodbine 101S,-229.0703856025601,-233.95509178594392,-209.2720312600397,-177.24206171613568,-208.26349051458286,-233.44712450535562,-299.5808870259184,-168.3959556124195,-282.5548939058976,-288.17392621251787,-335.80172786818406,-116.33937665243,-244.35419276458055,-232.44821455072898,-275.9414386460685,-216.2356154288314,-264.96241769477325,-305.23491535714214,-234.89552302501374,-336.32644078071047,-280.8139103057634,-248.68096368332417,-245.83492692005245,-160.3732359910265
