,g0,g2,g7,g8,g11,g12,g26,g1,g9,g13,g40,g3,g10,g20,g21,g22,g27,g28,g29,g30,g33,g34,g36,g4,g32,g5,g35,g6,g41,g14,g15,g16,g17,g23,g24,g18,g19,g25,g31,g37,g38,g39,Total,dr
bus,Brushy Hill 120H,Bridgewater 99W,Brushy Hill 120H,Port Hastings 3C,Lingan 88S,Point Aconi 89S,Onslow 67N,Brushy Hill 120H,Brushy Hill 120H,Bridgewater 99W,Port Hastings 3C,Brushy Hill 120H,Brushy Hill 120H,Bridgewater 99W,Woodbine 101S,Woodbine 101S,Woodbine 101S,Woodbine 101S,Lakeside 103H,Lakeside 103H,Port Hastings 3C,Port Hastings 3C,Port Hastings 3C,Woodbine 101S,Woodbine 101S,Lakeside 103H,Brushy Hill 120H,Port Hastings 3C,Port Hastings 3C,Port Hastings 3C,Port Hastings 3C,Lakeside 103H,Lingan 88S,Port Hastings 3C,Port Hastings 3C,Point Aconi 89S,Port Hastings 3C,Lakeside 103H,Lakeside 103H,Lakeside 103H,Bridgewater 99W,Onslow 67N,,
cascade group name,,,,,,,,,,,,,,,,,,,,,,,,,,,,,,,,,,,,,,,,,,,,
cost curve equation,40P,40P,40P,40P,30P,30P,30P,49P,172P,172P,172P,172P,6.4P,6.4P,6.4P,6.4P,0P,0P,0P,0P,0P,0P,0P,0P,0P,0P,0P,0P,0P,0P,0P,0P,0P,0P,0P,0P,0P,0P,0P,0P,0P,0P,,
efficiency,,,,,,,,,,,,,,,,,,,,,,,,,,,,,,,,,,,,,,,,,,,,
h factor,,,,,,,,,,,,,,,,,,,,,,,,,,,,,,,,,,,,,,,,,,,,
kind,biomass,biomass,biomass,biomass,coal,coal,coal,NG_CC,fuel oil,fuel oil,fuel oil,fuel oil,hydro_daily,hydro_daily,hydro_daily,hydro_monthly,Wind,Wind,Wind,Wind,Wind,Wind,Wind,Wind,Wind,Wind,Wind,Wind,Wind,Wind,Wind,Wind,Wind,Wind,Wind,Wind,Wind,Wind,Wind,Wind,Wind,Wind,,
max storage,,,,,,,,,,,,,,,,,,,,,,,,,,,,,,,,,,,,,,,,,,,,
max water discharge,,,,,,,,,,,,,,,,,,,,,,,,,,,,,,,,,,,,,,,,,,,,
min down time,8.0,8.0,8.0,8.0,8.0,8.0,8.0,2.0,,,,,,,,,,,,,,,,,,,,,,,,,,,,,,,,,,,,
min storage,,,,,,,,,,,,,,,,,,,,,,,,,,,,,,,,,,,,,,,,,,,,
min up time,,,,,,,,,,,,,,,,,,,,,,,,,,,,,,,,,,,,,,,,,,,,
min water discharge,,,,,,,,,,,,,,,,,,,,,,,,,,,,,,,,,,,,,,,,,,,,
mustrun,,,,,,,,,,,,,,,,,,,,,,,,,,,,,,,,,,,,,,,,,,,,
name,Biomass_1,Biomass_2,Biomass_3,Biomass_4,Coal_1,Coal_5,Coal_7,NG_CC_1,fuel oil_1,fuel oil_5,fuel oil_6,fuel oil_8,hydro_daily_1,hydro_daily_22,hydro_daily_48,hydro_monthly_1,Wind_6,Wind_7,Wind_11,Wind_12,Wind_13,Wind_20,Wind_21,Wind_22,Wind_23,Wind_25,Wind_26,Wind_30,Wind_31,Wind_32,Wind_33,Wind_35,Wind_37,Wind_48,Wind_49,Wind_50,Wind_51,Wind_58,Wind_59,Wind_60,Wind_61,Wind_62,,
number,,,,,,,,,,,,,,,,,,,,,,,,,,,,,,,,,,,,,,,,,,,,
pmax,2.0,30.0,61.0,1.2,603.0,315.0,310.0,143.0,120.0,24.0,60.0,350.0,98.5,82.0,216.0,153.0,4.0,2.3,10.0,0.9,1.99,1.4,2.3,5.4,0.8,0.6,2.0,4.0,1.99,1.99,2.0,4.6,16.3,2.0,1.6,1.9,22.8,2.1,1.99,7.05,502.0,266.0,,
pmin,1,12,24,0,0,0,0,57,0,0,0,0,0,21,47,50,0,0,0,0,0,0,0,0,0,0,0,0,0,0,0,0,0,0,0,0,0,0,0,0,0,0,,
pumprampmax,,,,,,,,,,,,,,,,,,,,,,,,,,,,,,,,,,,,,,,,,,,,
ramp rate max,2.0,30.0,61.0,1.2,603.0,315.0,310.0,143.0,,,,,,,,,,,,,,,,,,,,,,,,,,,,,,,,,,,,
ramp rate min,-2.0,-30.0,-61.0,-1.2,-603.0,-315.0,-310.0,-143.0,,,,,,,,,,,,,,,,,,,,,,,,,,,,,,,,,,,,
schedule filename,,,,,,,,,,,,,,,,,vre_schedule_Wind_6_fc.csv,vre_schedule_Wind_7_fc.csv,vre_schedule_Wind_11_fc.csv,vre_schedule_Wind_12_fc.csv,vre_schedule_Wind_13_fc.csv,vre_schedule_Wind_20_fc.csv,vre_schedule_Wind_21_fc.csv,vre_schedule_Wind_22_fc.csv,vre_schedule_Wind_23_fc.csv,vre_schedule_Wind_25_fc.csv,vre_schedule_Wind_26_fc.csv,vre_schedule_Wind_30_fc.csv,vre_schedule_Wind_31_fc.csv,vre_schedule_Wind_32_fc.csv,vre_schedule_Wind_33_fc.csv,vre_schedule_Wind_35_fc.csv,vre_schedule_Wind_37_fc.csv,vre_schedule_Wind_48_fc.csv,vre_schedule_Wind_49_fc.csv,vre_schedule_Wind_50_fc.csv,vre_schedule_Wind_51_fc.csv,vre_schedule_Wind_58_fc.csv,vre_schedule_Wind_59_fc.csv,vre_schedule_Wind_60_fc.csv,vre_schedule_Wind_61_fc.csv,vre_schedule_Wind_62_fc.csv,,
shedding_allowed,,,,,,,,,,,,,,,,,1,1,1,1,1,1,1,1,1,1,1,1,1,1,1,1,1,1,1,1,1,1,1,1,1,1,,
shut down cost,,,,,,,,,,,,,,,,,,,,,,,,,,,,,,,,,,,,,,,,,,,,
shut down ramp limit,0.0,0.0,0.0,0.0,198.99,103.95,102.30000000000001,41.47,,,,,,,,,,,,,,,,,,,,,,,,,,,,,,,,,,,,
start up cost,108.0,1620.0,3294.0,64.8,32562.0,17010.0,16740.0,9438.0,,,,,,,,,0.0,0.0,0.0,0.0,0.0,0.0,0.0,0.0,0.0,0.0,0.0,0.0,0.0,0.0,0.0,0.0,0.0,0.0,0.0,0.0,0.0,0.0,0.0,0.0,0.0,0.0,,
start up ramp limit,0.0,0.0,0.0,0.0,198.99,103.95,102.30000000000001,41.47,,,,,,,,,,,,,,,,,,,,,,,,,,,,,,,,,,,,
storagecapacitymax,,,,,,,,,,,,,,,,,,,,,,,,,,,,,,,,,,,,,,,,,,,,
tripenergy,,,,,,,,,,,,,,,,,,,,,,,,,,,,,,,,,,,,,,,,,,,,
unpluggedhours,,,,,,,,,,,,,,,,,,,,,,,,,,,,,,,,,,,,,,,,,,,,
2012-01-01 00:00:00,1.0,24.0,57.0,0.0,0.0,0.0,0.0,12.0,0.0,0.0,18.43344,0.0,0.0,0.013432499999999998,0.027594,0.22728600000000002,1.10268,0.039222900000000005,0.013432499999999998,0.19764,0.0,0.031536,0.15389999999999998,603.0,4.4934210000000006,156.15549259999943,0.5237729999999999,310.0,1.7955,0.0,153.0,1.10268,0.634041,1.4886180000000002,0.22053600000000004,0.9882,0.006075,0.059292,0.45457200000000003,0.20752199999999998,0.013432499999999998,0.696681,,
2012-01-01 01:00:00,1.0,24.0,57.0,0.0,0.0,0.0,0.2187,12.0,0.0,82.0,6.1444800000000015,0.0,0.0,0.080595,0.061488000000000015,0.245709,3.02904,0.0874008,0.080595,0.21366,0.2187,0.07027200000000003,0.9234,603.0,12.343338000000001,172.88672269999984,1.438794,310.0,10.773,0.0,153.0,3.02904,1.741698,4.0892040000000005,0.605808,1.0683,0.03645,0.06409799999999999,0.491418,0.224343,0.080595,0.7531515000000001,,
2012-01-01 02:00:00,1.0,24.0,57.0,0.0,0.0,0.0,0.120922,12.0,0.0,0.0,38.727794,0.0,0.0,0.06989477000000001,0.0498932,0.3390039,3.965088,0.07091962,0.06989477000000001,0.294786,0.120922,0.05702080000000001,0.8008043999999999,603.0,16.157733600000004,82.93776311999885,1.8834168,310.0,9.342718,0.0,153.0,3.965088,2.2799256000000003,5.3528688,0.7930176000000001,1.4739300000000002,0.031610700000000005,0.08843580000000002,0.6780078,0.30952529999999995,0.06989477000000001,1.03912065,,
2012-01-01 03:00:00,1.0,24.0,57.0,0.0,0.0,0.0,0.0,12.0,0.0,0.0,13.165451999999998,0.0,0.0,0.0159001,0.9125144000000001,0.18268900000000002,3.2862400000000003,1.29707404,0.0159001,0.15886,0.0,1.0428735999999998,0.18217200000000008,584.6258811600004,13.391428,0.0,1.560964,310.0,2.12534,0.0,153.0,3.2862400000000003,1.889588,4.4364240000000015,0.6572479999999999,0.7943,0.0071909999999999995,0.047658,0.36537800000000004,0.166803,0.0159001,0.5599814999999999,,
2012-01-01 04:00:00,1.0,24.0,57.0,0.0,0.0,0.0,0.14851199999999998,12.0,0.0,23.17264849999998,22.529760000000003,0.0,0.0,0.01542648,1.351602,0.267444,0.15748800000000002,1.9212057,0.01542648,0.23256,0.14851199999999998,1.5446880000000005,0.17674560000000006,603.0,0.6417636000000001,105.28340755999899,0.07480679999999998,310.0,2.062032,0.0,153.0,0.15748800000000002,0.0905556,0.2126088,0.031497600000000014,1.1628,0.0069768,0.06976800000000001,0.534888,0.24418800000000004,0.01542648,0.819774,,
2012-01-01 05:00:00,1.0,24.0,57.0,0.0,0.0,0.0,0.127296,12.0,0.0,0.0,21.20448,0.0,0.0,0.017575679999999996,0.05725439999999999,0.0571872,2.246784,0.08138304,0.017575679999999996,0.049727999999999994,0.127296,0.0654336,0.2013696,569.6894586599973,9.1556448,0.0,1.0672224,310.0,2.349312,185.9028360600016,153.0,2.246784,1.2919007999999998,3.0331584,0.4493568,0.24864,0.0079488,0.014918399999999997,0.11437439999999995,0.0522144,0.017575679999999996,0.17529119999999998,,
2012-01-01 06:00:00,1.0,24.0,57.0,0.0,0.0,0.0,0.081968,12.0,0.0,0.0,19.205516,0.0,0.0,0.02600134,0.12172999999999999,0.23652279999999995,3.49116,0.17303049999999998,0.02600134,0.205672,0.081968,0.13912,0.29790479999999997,603.0,14.226477,315.0,1.6583009999999998,113.19137887999958,3.4755559999999988,0.0,153.0,3.49116,2.007417,4.713066,0.698232,1.0283599999999995,0.0117594,0.0617016,0.4730455999999999,0.2159556,0.02600134,0.7249938,,
2012-01-01 07:00:00,1.0,24.0,57.0,0.0,0.0,28.58490150000074,0.92774,12.0,0.0,0.0,85.75666000000002,0.0,0.0,0.12083280000000005,1.4018620000000002,0.07488800000000001,3.4060400000000004,1.9926467,0.12083280000000005,0.06512000000000001,0.92774,1.6021280000000002,1.3844160000000003,573.4929983999992,13.879613000000004,0.0,1.6178690000000002,310.0,16.15152,0.0,153.0,3.4060400000000004,1.958473,4.598154000000001,0.6812080000000001,0.3256000000000001,0.05464800000000001,0.019536000000000005,0.14977600000000002,0.06837599999999999,0.12083280000000005,0.2295480000000001,,
2012-01-01 08:00:00,1.0,24.0,57.0,0.0,0.0,0.0,0.13488,12.0,0.0,0.0,20.08,0.0,0.0,0.1080968,0.998816,0.037168,3.09952,1.4197456000000002,0.1080968,0.03232,0.13488,1.141504,1.2384960000000005,603.0,12.630544,303.62805999999887,1.472272,310.0,14.44912,0.0,153.0,3.09952,1.7822239999999998,4.1843520000000005,0.619904,0.1616,0.04888800000000002,0.009696,0.074336,0.033936,0.1080968,0.113928,,
2012-01-01 09:00:00,1.0,24.0,57.0,0.0,0.0,13.433111019999616,0.19425,12.0,0.0,0.0,17.27382,0.0,0.0,0.0706848,0.9031848,0.029104200000000007,4.237536,1.2838126800000005,0.0706848,0.025308000000000004,0.19425,1.0322112,0.8098560000000001,603.0,17.267959200000004,315.0,2.0128296000000003,310.0,9.44832,0.0,153.0,4.237536,2.4365832000000003,5.7206736000000005,0.8475072000000001,0.12654,0.031968,0.007592399999999998,0.058208400000000014,0.026573400000000004,0.0706848,0.0892107,,
2012-01-01 10:00:00,1.0,24.0,57.0,0.0,0.0,0.0,0.887544,12.0,0.0,0.0,15.939504,0.0,0.0,0.11992536,0.10145520000000002,0.41830559999999994,0.858816,0.14421132000000006,0.11992536,0.363744,0.887544,0.11594880000000002,1.3740192000000002,603.0,3.4996752000000013,262.2946741999994,0.40793759999999996,310.0,16.030224,216.0,153.0,0.858816,0.4938192,1.1594016000000005,0.17176320000000006,1.8187200000000001,0.0542376,0.1091232,0.8366111999999999,0.38193119999999997,0.11992536,1.2821976000000002,,
2012-01-01 11:00:00,1.0,24.0,57.0,0.0,0.0,0.0,0.21602800000000005,12.0,0.0,0.0,487.741192,0.0,0.0,0.08711822000000001,0.0780584,0.0,3.751552,0.11095444000000004,0.08711822000000001,0.0,0.21602800000000005,0.08920960000000001,0.9981384000000002,452.00997469999976,15.2875744,0.0,1.7819872,310.0,11.644948,0.0,153.0,3.751552,2.1571424,5.064595200000001,0.7503104,0.0,0.039400199999999996,0.0,0.0,0.0,0.08711822000000001,0.0,,
2012-01-01 12:00:00,1.0,24.0,57.0,0.0,0.0,0.0,0.0,12.0,0.0,82.0,56.336448,0.0,0.0,0.06730976000000001,0.7379008,0.02576,0.6227200000000002,1.0488732800000002,0.06730976000000001,0.022400000000000003,0.0,0.8433152000000002,0.7711872000000003,603.0,2.5375840000000007,228.25974463999958,0.29579200000000005,310.0,8.997184000000003,0.0,153.0,0.6227200000000002,0.358064,0.8406720000000003,0.12454400000000004,0.11200000000000004,0.030441600000000013,0.006720000000000001,0.05152,0.023520000000000003,0.06730976000000001,0.07896,,
2012-01-01 13:00:00,1.0,24.0,57.0,0.0,0.0,0.0,0.54978,12.0,0.0,0.0,30.53666,0.0,0.0,0.0,0.0231,0.0,4.28164,0.032835,0.0,0.0,0.54978,0.026400000000000003,0.0,603.0,17.447682999999998,147.1982179999991,2.033779,310.0,0.0,0.0,153.0,4.28164,2.461943,5.780214000000001,0.8563280000000002,0.0,0.0,0.0,0.0,0.0,0.0,0.0,,
2012-01-01 14:00:00,1.0,24.0,57.0,0.0,0.0,0.0,0.48160600000000003,12.0,0.0,0.0,18.43595,0.0,0.0,0.15516029999999995,0.6552644,0.0849873,4.398412,0.93141154,0.15516029999999995,0.07390199999999998,0.48160600000000003,0.7488736,1.777716,603.0,17.923528899999994,275.9570283100006,2.0892456999999998,310.0,20.74002,0.0,153.0,4.398412,2.5290869,5.9378562000000015,0.8796824000000002,0.36951,0.070173,0.022170599999999995,0.16997459999999998,0.0775971,0.15516029999999995,0.26050454999999995,,
2012-01-01 15:00:00,1.0,24.0,57.0,0.0,0.0,0.0,0.0,12.0,0.0,82.0,146.517736,0.0,0.0,0.19603888,0.7515732,0.3519184,4.1495560000000005,1.06830762,0.19603888,0.306016,0.0,0.8589408000000002,2.2460736000000003,603.0,16.9094407,138.2053218399985,1.9710391,310.0,26.204192000000006,0.0,153.0,4.1495560000000005,2.3859947,5.601900600000001,0.8299112000000003,1.5300799999999999,0.08866080000000001,0.0918048,0.7038368,0.3213168000000001,0.19603888,1.0787064,,
2012-01-01 16:00:00,1.0,24.0,57.0,0.0,0.0,0.0,0.20685599999999998,12.0,0.0,0.0,23.861064,0.0,0.0,0.05906718,0.0981036,0.3657414,3.65772,0.13944726000000002,0.05906718,0.31803600000000004,0.20685599999999998,0.1121184,0.6767496000000001,603.0,14.905209,249.30289109999882,1.7374169999999998,310.0,7.8954119999999985,0.0,153.0,3.65772,2.103189,4.937922,0.731544,1.59018,0.026713800000000003,0.0954108,0.7314828,0.33393779999999995,0.05906718,1.1210769000000005,,
2012-01-01 17:00:00,1.0,24.0,57.0,0.0,0.0,98.5,0.11020999999999999,12.0,0.0,0.0,7.51996,0.0,0.0,0.10902016000000002,0.4450558,0.3132853,0.20972,0.63261503,0.10902016000000002,0.272422,0.11020999999999999,0.5086352000000001,1.2490752000000005,603.0,0.8546090000000002,315.0,0.099617,310.0,14.572544000000002,92.09356253999846,153.0,0.20972,0.12058900000000003,0.28312200000000004,0.04194400000000001,1.36211,0.049305600000000005,0.08172660000000001,0.6265706,0.28604310000000005,0.10902016000000002,0.9602875500000002,,
2012-01-01 18:00:00,1.0,24.0,57.0,0.0,0.0,98.5,0.7540779999999998,12.0,0.0,0.0,182.066866,0.0,0.0,0.0,0.059616199999999994,0.0,2.201512,0.08474017,0.0,0.0,0.7540779999999998,0.06813280000000001,0.0,603.0,8.9711614,213.46437222999933,1.0457181999999998,310.0,0.0,0.0,153.0,2.201512,1.2658694,2.9720412,0.44030240000000004,0.0,0.0,0.0,0.0,0.0,0.0,0.0,,
2012-01-01 19:00:00,1.0,24.0,57.0,0.0,0.0,0.0,0.0,12.0,0.0,0.0,0.0,0.0,0.0,0.17136288000000002,0.0396704,0.0,1.8484639999999999,0.05638864,0.17136288000000002,0.0,0.0,0.045337600000000006,1.9633536,603.0,7.5324908000000015,255.222443119998,0.8780203999999998,310.0,22.905792,216.0,153.0,1.8484639999999999,1.0628668,2.4954264,0.3696928,0.0,0.07750080000000002,0.0,0.0,0.0,0.17136288000000002,0.0,,
2012-01-01 20:00:00,1.0,24.0,57.0,0.0,0.0,85.33997087999967,0.038784,12.0,0.0,0.0,6.843264,0.0,0.0,0.07488768,0.0298368,0.06160319999999999,2.609664,0.04241088,0.07488768,0.053568,0.038784,0.034099199999999996,0.8580095999999998,603.0,10.6343808,315.0,1.2395903999999998,310.0,10.010112,0.0,153.0,2.609664,1.5005567999999998,3.5230464,0.5219328000000001,0.26784,0.033868800000000004,0.016070400000000002,0.12320639999999998,0.056246400000000016,0.07488768,0.18882720000000006,,
2012-01-01 21:00:00,1.0,24.0,57.0,0.0,0.0,0.0,0.16988399999999998,12.0,0.0,0.0,42.52341600000001,0.0,0.0,0.08940671999999998,0.08730539999999998,0.0694278,0.06458399999999999,0.12409839,0.08940671999999998,0.060372,0.16988399999999998,0.09977760000000001,1.0243584,603.0,0.26317979999999996,227.1266777499993,0.0306774,310.0,11.950847999999999,0.0,153.0,0.06458399999999999,0.037135800000000004,0.08718839999999999,0.0129168,0.30186,0.0404352,0.0181116,0.1388556,0.06339059999999999,0.08940671999999998,0.21281129999999998,,
2012-01-01 22:00:00,1.0,24.0,57.0,0.0,0.0,0.0,0.15030400000000002,12.0,0.0,0.0,11.975712,0.0,0.0,0.07778512,0.033555199999999986,0.06259680000000001,4.375616000000001,0.04769632,0.07778512,0.054432000000000015,0.15030400000000002,0.0383488,0.8912064000000001,603.0,17.830635200000003,184.34872351999863,2.0784176,310.0,10.397408000000002,0.0,153.0,4.375616000000001,2.5159792000000003,5.9070816000000015,0.8751232000000001,0.27216,0.0351792,0.0163296,0.12519360000000002,0.05715360000000001,0.07778512,0.19187279999999998,,
2012-01-01 23:00:00,1.0,24.0,57.0,0.0,0.0,98.5,0.055944000000000015,12.0,0.0,82.0,0.0,0.0,0.0,0.06146712,0.032507999999999995,0.0,0.6121439999999999,0.0462078,0.06146712,0.0,0.055944000000000015,0.037152,0.7042463999999999,287.96924003999993,2.4944868,0.0,0.29076840000000004,310.0,8.216208,216.0,153.0,0.6121439999999999,0.3519828,0.8263943999999999,0.1224288,0.0,0.027799200000000003,0.0,0.0,0.0,0.06146712,0.0,,
"('kind',)",,,,,,,,,,,,,,,,,,,,,,,,,,,,,,,,,,,,,,,,,,,,
"('cost curve equation',)",,,,,,,,,,,,,,,,,,,,,,,,,,,,,,,,,,,,,,,,,,,,
"('pmax',)",,,,,,,,,,,,,,,,,,,,,,,,,,,,,,,,,,,,,,,,,,,,
"('pmin',)",,,,,,,,,,,,,,,,,,,,,,,,,,,,,,,,,,,,,,,,,,,,
"('storagecapacitymax',)",,,,,,,,,,,,,,,,,,,,,,,,,,,,,,,,,,,,,,,,,,,,
"('pumprampmax',)",,,,,,,,,,,,,,,,,,,,,,,,,,,,,,,,,,,,,,,,,,,,
"('unpluggedhours',)",,,,,,,,,,,,,,,,,,,,,,,,,,,,,,,,,,,,,,,,,,,,
"('tripenergy',)",,,,,,,,,,,,,,,,,,,,,,,,,,,,,,,,,,,,,,,,,,,,
"('schedule filename',)",,,,,,,,,,,,,,,,,,,,,,,,,,,,,,,,,,,,,,,,,,,,
"('shedding_allowed',)",,,,,,,,,,,,,,,,,,,,,,,,,,,,,,,,,,,,,,,,,,,,
"('start up cost',)",,,,,,,,,,,,,,,,,,,,,,,,,,,,,,,,,,,,,,,,,,,,
"('shut down cost',)",,,,,,,,,,,,,,,,,,,,,,,,,,,,,,,,,,,,,,,,,,,,
"('min up time',)",,,,,,,,,,,,,,,,,,,,,,,,,,,,,,,,,,,,,,,,,,,,
"('min down time',)",,,,,,,,,,,,,,,,,,,,,,,,,,,,,,,,,,,,,,,,,,,,
"('ramp rate max',)",,,,,,,,,,,,,,,,,,,,,,,,,,,,,,,,,,,,,,,,,,,,
"('ramp rate min',)",,,,,,,,,,,,,,,,,,,,,,,,,,,,,,,,,,,,,,,,,,,,
"('start up ramp limit',)",,,,,,,,,,,,,,,,,,,,,,,,,,,,,,,,,,,,,,,,,,,,
"('shut down ramp limit',)",,,,,,,,,,,,,,,,,,,,,,,,,,,,,,,,,,,,,,,,,,,,
"('mustrun',)",,,,,,,,,,,,,,,,,,,,,,,,,,,,,,,,,,,,,,,,,,,,
"('cascade group name',)",,,,,,,,,,,,,,,,,,,,,,,,,,,,,,,,,,,,,,,,,,,,
"('number',)",,,,,,,,,,,,,,,,,,,,,,,,,,,,,,,,,,,,,,,,,,,,
"('min storage',)",,,,,,,,,,,,,,,,,,,,,,,,,,,,,,,,,,,,,,,,,,,,
"('max storage',)",,,,,,,,,,,,,,,,,,,,,,,,,,,,,,,,,,,,,,,,,,,,
"('min water discharge',)",,,,,,,,,,,,,,,,,,,,,,,,,,,,,,,,,,,,,,,,,,,,
"('max water discharge',)",,,,,,,,,,,,,,,,,,,,,,,,,,,,,,,,,,,,,,,,,,,,
"('h factor',)",,,,,,,,,,,,,,,,,,,,,,,,,,,,,,,,,,,,,,,,,,,,
"('efficiency',)",,,,,,,,,,,,,,,,,,,,,,,,,,,,,,,,,,,,,,,,,,,,
"('name',)",,,,,,,,,,,,,,,,,,,,,,,,,,,,,,,,,,,,,,,,,,,,
"('bus',)",,,,,,,,,,,,,,,,,,,,,,,,,,,,,,,,,,,,,,,,,,,,
1325376000000000000,,,,,,,,,,,,,,,,,,,,,,,,,,,,,,,,,,,,,,,,,,,1574.0,0.0
1325379600000000000,,,,,,,,,,,,,,,,,,,,,,,,,,,,,,,,,,,,,,,,,,,1638.0,0.0
1325383200000000000,,,,,,,,,,,,,,,,,,,,,,,,,,,,,,,,,,,,,,,,,,,1480.0,0.0
1325386800000000000,,,,,,,,,,,,,,,,,,,,,,,,,,,,,,,,,,,,,,,,,,,1404.0,0.0
1325390400000000000,,,,,,,,,,,,,,,,,,,,,,,,,,,,,,,,,,,,,,,,,,,1446.0,0.0
1325394000000000000,,,,,,,,,,,,,,,,,,,,,,,,,,,,,,,,,,,,,,,,,,,1486.0,0.0
1325397600000000000,,,,,,,,,,,,,,,,,,,,,,,,,,,,,,,,,,,,,,,,,,,1512.0,0.0
1325401200000000000,,,,,,,,,,,,,,,,,,,,,,,,,,,,,,,,,,,,,,,,,,,1521.0,0.0
1325404800000000000,,,,,,,,,,,,,,,,,,,,,,,,,,,,,,,,,,,,,,,,,,,1717.0,0.0
1325408400000000000,,,,,,,,,,,,,,,,,,,,,,,,,,,,,,,,,,,,,,,,,,,1735.0,0.0
1325412000000000000,,,,,,,,,,,,,,,,,,,,,,,,,,,,,,,,,,,,,,,,,,,1825.0,0.0
1325415600000000000,,,,,,,,,,,,,,,,,,,,,,,,,,,,,,,,,,,,,,,,,,,1731.0,0.0
1325419200000000000,,,,,,,,,,,,,,,,,,,,,,,,,,,,,,,,,,,,,,,,,,,1823.0,0.0
1325422800000000000,,,,,,,,,,,,,,,,,,,,,,,,,,,,,,,,,,,,,,,,,,,1597.0,0.0
1325426400000000000,,,,,,,,,,,,,,,,,,,,,,,,,,,,,,,,,,,,,,,,,,,1698.0,0.0
1325430000000000000,,,,,,,,,,,,,,,,,,,,,,,,,,,,,,,,,,,,,,,,,,,1751.0,0.0
1325433600000000000,,,,,,,,,,,,,,,,,,,,,,,,,,,,,,,,,,,,,,,,,,,1716.0,0.0
1325437200000000000,,,,,,,,,,,,,,,,,,,,,,,,,,,,,,,,,,,,,,,,,,,1918.0,0.0
1325440800000000000,,,,,,,,,,,,,,,,,,,,,,,,,,,,,,,,,,,,,,,,,,,1851.0,0.0
1325444400000000000,,,,,,,,,,,,,,,,,,,,,,,,,,,,,,,,,,,,,,,,,,,1832.0,0.0
1325448000000000000,,,,,,,,,,,,,,,,,,,,,,,,,,,,,,,,,,,,,,,,,,,1739.0,0.0
1325451600000000000,,,,,,,,,,,,,,,,,,,,,,,,,,,,,,,,,,,,,,,,,,,1722.0,0.0
1325455200000000000,,,,,,,,,,,,,,,,,,,,,,,,,,,,,,,,,,,,,,,,,,,1538.0,0.0
1325458800000000000,,,,,,,,,,,,,,,,,,,,,,,,,,,,,,,,,,,,,,,,,,,1450.0,0.0
