,date,Solar_1,Wind_1,Wind_13,Wind_17,Wind_26
6480,9/27/2012 0:00,0.0,650.5445,291.342,31.262,0.0
6481,9/27/2012 1:00,0.0,653.6270000000001,290.5455,0.0,0.0
6482,9/27/2012 2:00,0.0,643.9,288.4215,99.594,0.0
6483,9/27/2012 3:00,0.0,618.692,285.61899999999997,101.95899999999999,0.0
6484,9/27/2012 4:00,0.0,564.6455,281.1645,11.77,496.33540000000005
6485,9/27/2012 5:00,0.0,265.369,270.515,13.2,592.4432
6486,9/27/2012 6:00,0.181364557,195.29350000000002,13.629,18.832,504.07719999999995
6487,9/27/2012 7:00,1.202056603,0.0,15.222,20.713,443.8632
6488,9/27/2012 8:00,1.1806750289999999,461.279,163.076,17.325,304.90180000000004
6489,9/27/2012 9:00,0.566506489,282.5625,108.855,1.111,80.3114
6490,9/27/2012 10:00,1.162596643,251.943,66.6405,1.034,86.6456
6491,9/27/2012 11:00,2.675833783,10.3435,56.699000000000005,1.023,717.4068
6492,9/27/2012 12:00,2.8085258879999997,128.9855,0.0,1.067,681.8258
6493,9/27/2012 13:00,6.194129029,363.05,0.0,13.992,568.905
6494,9/27/2012 14:00,2.839411832,0.0,0.0,62.79899999999999,326.2504
6495,9/27/2012 15:00,2.504052826,477.23949999999996,2.3895,19.107,55.678399999999996
6496,9/27/2012 16:00,1.5879606819999998,8.288499999999999,6.372000000000001,4.07,11.0262
6497,9/27/2012 17:00,0.691074859,0.0,14.8975,0.7919999999999999,575.943
6498,9/27/2012 18:00,0.0,0.0,0.0,0.0,624.1924
6499,9/27/2012 19:00,0.0,552.8635,0.0,0.0,688.0036
6500,9/27/2012 20:00,0.0,542.794,2.6255,19.118000000000002,731.7955999999999
6501,9/27/2012 21:00,0.0,539.4375,284.64549999999997,24.849,696.6838
6502,9/27/2012 22:00,0.0,535.3275,253.25750000000002,42.449000000000005,666.7332
6503,9/27/2012 23:00,0.0,527.7239999999999,14.690999999999999,65.39500000000001,634.0455999999999
6504,9/28/2012 0:00,0.0,507.31100000000004,21.358,82.357,625.6
6505,9/28/2012 1:00,0.0,0.0,0.0,89.75999999999999,642.8040000000001
6506,9/28/2012 2:00,0.0,5.206,83.7505,44.627,673.9276
6507,9/28/2012 3:00,0.0,6.7815,112.98499999999999,50.721000000000004,71.6312
6508,9/28/2012 4:00,0.0,6.7815,14.985999999999999,56.111,71.16199999999999
6509,9/28/2012 5:00,0.0,84.5975,0.0,62.777,58.415400000000005
6510,9/28/2012 6:00,0.943054056,0.0,74.399,66.792,47.311
6511,9/28/2012 7:00,6.941159590999999,16.2345,112.63099999999999,75.328,45.1214
6512,9/28/2012 8:00,5.780422839,549.3014999999999,167.26500000000001,79.88199999999999,41.9152
6513,9/28/2012 9:00,2.873156402,13.3575,209.5385,80.63,35.4246
6514,9/28/2012 10:00,3.9880064820000003,36.2365,233.404,83.611,31.7492
6515,9/28/2012 11:00,3.897603418,35.140499999999996,248.803,89.452,29.0904
6516,9/28/2012 12:00,4.40600215,0.0,267.093,0.946,24.867600000000003
6517,9/28/2012 13:00,6.802307344000001,18.084,295.0,0.8140000000000001,14.2324
6518,9/28/2012 14:00,7.283567768,15.960500000000001,147.9425,0.0,12.5902
6519,9/28/2012 15:00,6.790366927,0.0,132.27800000000002,0.0,13.9978
6520,9/28/2012 16:00,4.821192202000001,0.0,260.78000000000003,0.0,16.031000000000002
6521,9/28/2012 17:00,2.625612489,0.0,0.0,0.0,16.813
6522,9/28/2012 18:00,0.0,0.0,0.0,0.0,17.0476
6523,9/28/2012 19:00,0.0,4.9319999999999995,0.0,0.0,55.8348
6524,9/28/2012 20:00,0.0,0.0,220.365,0.0,78.3564
6525,9/28/2012 21:00,0.0,0.0,209.0075,0.0,99.0012
6526,9/28/2012 22:00,0.0,5.5485,143.1635,0.0,89.22619999999999
6527,9/28/2012 23:00,0.0,10.96,186.4695,0.0,62.24720000000001
6528,9/29/2012 0:00,0.0,31.921000000000003,209.47949999999997,0.0,82.6574
6529,9/29/2012 1:00,0.0,81.8575,209.568,0.0,77.5744
6530,9/29/2012 2:00,0.0,92.33800000000001,213.4915,0.0,67.33019999999999
6531,9/29/2012 3:00,0.0,101.243,227.65150000000003,0.0,46.6072
6532,9/29/2012 4:00,0.0,0.0,226.147,0.0,38.1616
6533,9/29/2012 5:00,0.0,0.0,196.5585,3.355,19.0808
6534,9/29/2012 6:00,0.23844544,0.0,162.368,3.124,127.62240000000001
6535,9/29/2012 7:00,1.210196203,0.0,114.106,92.653,147.4852
6536,9/29/2012 8:00,2.0647990270000003,57.88250000000001,113.044,42.878,162.8124
6537,9/29/2012 9:00,3.397278736,71.4455,7.8175,1.199,155.227
6538,9/29/2012 10:00,3.6082675609999995,87.3375,286.8875,5.885,89.539
6539,9/29/2012 11:00,4.6024487359999995,91.5845,7.9355,4.4,124.65079999999999
6540,9/29/2012 12:00,6.278103481,108.915,10.531500000000001,2.596,209.4978
6541,9/29/2012 13:00,6.539134924,124.19049999999999,11.033000000000001,1.331,283.3186
6542,9/29/2012 14:00,6.076487736,120.423,12.8915,0.0,782.0
6543,9/29/2012 15:00,5.401703439000001,118.2995,0.0,0.781,329.3784
6544,9/29/2012 16:00,4.34220243,122.20400000000001,0.0,0.0,316.1626
6545,9/29/2012 17:00,1.3412111210000002,116.861,0.0,0.0,285.6646
6546,9/29/2012 18:00,0.0,102.95549999999999,0.0,0.0,229.908
6547,9/29/2012 19:00,0.0,666.7105,3.1270000000000002,0.0,185.6468
6548,9/29/2012 20:00,0.0,670.067,4.6315,99.176,155.4616
6549,9/29/2012 21:00,0.0,672.1904999999999,5.723,50.908,138.023
6550,9/29/2012 22:00,0.0,671.437,6.342499999999999,46.112,92.97980000000001
6551,9/29/2012 23:00,0.0,666.9845,10.915000000000001,38.456,660.008
6552,9/30/2012 0:00,0.0,101.9965,28.290499999999998,103.32300000000001,587.5165999999999
6553,9/30/2012 1:00,0.0,92.9545,57.82,104.709,531.6035999999999
6554,9/30/2012 2:00,0.0,81.926,92.30550000000001,104.48899999999999,690.1932
6555,9/30/2012 3:00,0.0,630.2685,115.404,103.565,683.1552
6556,9/30/2012 4:00,0.0,213.5145,120.09450000000001,101.739,693.3994
6557,9/30/2012 5:00,0.0,42.2645,6.136,98.263,699.1080000000001
6558,9/30/2012 6:00,0.0,27.810999999999996,5.4575,93.016,709.7432
6559,9/30/2012 7:00,10.159192384,13.905499999999998,4.779,92.983,714.9044
6560,9/30/2012 8:00,10.041992784,18.8375,3.1270000000000002,86.834,717.876
6561,9/30/2012 9:00,7.728508913000001,30.8935,184.72899999999998,13.100999999999999,706.1460000000001
6562,9/30/2012 10:00,9.564583071,31.0305,183.1065,0.0,681.904
6563,9/30/2012 11:00,10.617196295000001,19.18,186.67600000000002,0.957,599.403
6564,9/30/2012 12:00,11.845040667,10.686,180.599,0.9680000000000001,547.0872
6565,9/30/2012 13:00,12.218319816,10.412,169.8905,89.089,547.9474
6566,9/30/2012 14:00,12.326439734000001,279.343,160.775,18.194,521.9068
6567,9/30/2012 15:00,11.644639990999998,217.96699999999998,116.64299999999999,0.847,400.07120000000003
6568,9/30/2012 16:00,9.879690831999998,171.25,73.986,0.0,362.84799999999996
6569,9/30/2012 17:00,5.239765052,145.2885,40.3855,0.0,0.0
6570,9/30/2012 18:00,0.0,142.2745,295.0,1.144,0.0
6571,9/30/2012 19:00,0.0,12.5355,295.0,3.0140000000000002,616.2942
6572,9/30/2012 20:00,0.0,6.6445,52.451,37.917,659.0696
6573,9/30/2012 21:00,0.0,0.0,37.406,86.097,702.9398
6574,9/30/2012 22:00,0.0,0.0,29.352500000000003,81.598,456.53159999999997
6575,9/30/2012 23:00,0.0,0.0,22.361,82.819,330.3168
6576,10/1/2012 0:00,0.0,0.0,16.401999999999997,103.75200000000001,349.0066
6577,10/1/2012 1:00,0.0,72.884,14.779499999999999,81.82900000000001,390.6872
6578,10/1/2012 2:00,0.0,73.5005,13.629,88.407,0.0
6579,10/1/2012 3:00,0.0,0.0,10.915000000000001,0.0,763.9358
6580,10/1/2012 4:00,0.0,0.0,9.499,0.0,726.1652
6581,10/1/2012 5:00,0.0,0.0,5.1625000000000005,3.3770000000000002,64.0458
6582,10/1/2012 6:00,0.0,0.0,3.4219999999999997,1.155,199.41
6583,10/1/2012 7:00,0.42161157699999996,0.0,2.832,9.163,0.0
6584,10/1/2012 8:00,1.6561324920000002,0.0,2.773,1.023,154.05399999999997
6585,10/1/2012 9:00,2.555339735,0.0,3.9530000000000003,0.0,222.86999999999998
6586,10/1/2012 10:00,3.613832395,68.2945,3.6285,77.979,30.4198
6587,10/1/2012 11:00,5.133744083000001,45.00449999999999,56.404,85.734,32.062
6588,10/1/2012 12:00,5.053606339,0.0,31.506,91.894,782.0
6589,10/1/2012 13:00,3.698173338,24.660000000000004,14.3665,91.938,782.0
6590,10/1/2012 14:00,4.965398497000001,21.851499999999998,5.664,90.97000000000001,782.0
6591,10/1/2012 15:00,6.160578202000001,16.576999999999998,3.363,91.597,782.0
6592,10/1/2012 16:00,5.058172419000001,28.7015,19.204500000000003,92.455,782.0
6593,10/1/2012 17:00,2.369157063,6.302,15.2515,91.96,782.0
6594,10/1/2012 18:00,0.0,29.181,10.826500000000001,90.662,782.0
6595,10/1/2012 19:00,0.0,7.535000000000001,7.2275,98.45,782.0
6596,10/1/2012 20:00,0.0,29.317999999999998,33.7185,105.149,265.0198
6597,10/1/2012 21:00,0.0,29.6605,49.530499999999996,106.90899999999999,31.9838
6598,10/1/2012 22:00,0.0,21.646,94.282,107.074,526.3642
6599,10/1/2012 23:00,0.0,10.686,164.138,4.268,108.69800000000001
6600,10/2/2012 0:00,0.0,11.1655,202.429,17.798,19.3154
6601,10/2/2012 1:00,0.0,0.0,203.49099999999999,23.804000000000002,19.941
6602,10/2/2012 2:00,0.0,0.0,27.612000000000002,24.53,0.0
6603,10/2/2012 3:00,0.0,17.673,44.722,35.035000000000004,35.580999999999996
6604,10/2/2012 4:00,0.0,17.0565,157.41199999999998,28.479000000000003,652.2661999999999
6605,10/2/2012 5:00,0.0,15.1385,101.598,25.828,599.794
6606,10/2/2012 6:00,0.0,55.6905,116.22999999999999,21.175,623.254
6607,10/2/2012 7:00,0.177688342,52.059999999999995,117.9115,18.018,617.2326
6608,10/2/2012 8:00,1.844371667,433.605,94.48849999999999,13.222,775.8222
6609,10/2/2012 9:00,2.247227204,36.305,3.3335,3.069,107.525
6610,10/2/2012 10:00,3.4160309759999996,0.0,2.9205,3.058,774.18
6611,10/2/2012 11:00,4.029073785,38.908,16.933,1.6280000000000001,22.5998
6612,10/2/2012 12:00,3.6902362590000006,241.531,16.048,0.902,32.844
6613,10/2/2012 13:00,3.802025438,5.343,21.122,0.0,34.0952
6614,10/2/2012 14:00,4.337188843,0.0,6.785,0.0,29.9506
6615,10/2/2012 15:00,2.8749272589999997,0.0,3.068,0.0,22.677999999999997
6616,10/2/2012 16:00,1.541425141,0.0,3.7464999999999997,23.496000000000002,13.528599999999999
6617,10/2/2012 17:00,0.8470037739999998,0.0,0.0,42.801,5.5522
6618,10/2/2012 18:00,0.0,17.1935,264.55600000000004,57.783,774.571
6619,10/2/2012 19:00,0.0,15.8235,217.061,75.977,774.7274
6620,10/2/2012 20:00,0.0,12.878,137.11599999999999,89.441,782.0
6621,10/2/2012 21:00,0.0,10.2065,79.886,0.8140000000000001,766.751
6622,10/2/2012 22:00,0.0,8.0145,0.0,0.0,756.1158
6623,10/2/2012 23:00,0.0,6.0965,0.0,0.0,772.616
6624,10/3/2012 0:00,0.0,0.0,0.0,0.0,772.4596
6625,10/3/2012 1:00,0.0,107.13400000000001,0.0,0.0,6.647
6626,10/3/2012 2:00,0.0,90.968,0.0,0.0,0.0
6627,10/3/2012 3:00,0.0,76.035,0.0,0.0,768.7841999999999
6628,10/3/2012 4:00,0.0,54.1835,4.7495,82.918,0.0
6629,10/3/2012 5:00,0.0,47.675999999999995,133.163,79.387,0.0
6630,10/3/2012 6:00,0.0,40.4835,0.0,96.602,0.0
6631,10/3/2012 7:00,6.9647148219999995,27.0575,0.0,1.661,0.0
6632,10/3/2012 8:00,6.032493483,19.043,0.0,1.661,762.6845999999999
6633,10/3/2012 9:00,3.2767982159999995,16.029,2.6845000000000003,12.562,0.0
6634,10/3/2012 10:00,4.090263456,27.3315,191.1895,10.45,9.227599999999999
6635,10/3/2012 11:00,5.368090235,12.809500000000002,34.6625,8.074000000000002,20.4102
6636,10/3/2012 12:00,6.319279388,10.275,88.5,6.412999999999999,42.619
6637,10/3/2012 13:00,6.332819262999999,12.056000000000001,208.7125,4.565,76.8706
6638,10/3/2012 14:00,6.892757946,8.1515,272.167,3.355,85.629
6639,10/3/2012 15:00,6.114221432,16.6455,277.89000000000004,2.6950000000000003,0.0
6640,10/3/2012 16:00,5.289683695000001,14.111,270.0725,1.903,0.0
6641,10/3/2012 17:00,1.6533486120000003,13.152,49.56,1.177,62.0908
6642,10/3/2012 18:00,0.0,13.563,250.101,0.9239999999999999,78.0436
6643,10/3/2012 19:00,0.0,16.303,238.419,1.342,95.9514
6644,10/3/2012 20:00,0.0,18.8375,228.9495,2.3760000000000003,87.4276
6645,10/3/2012 21:00,0.0,18.0155,10.089,4.763,45.1214
6646,10/3/2012 22:00,0.0,20.2075,4.1594999999999995,54.153,12.277399999999998
6647,10/3/2012 23:00,0.0,18.495,189.8915,58.806,22.4434
6648,10/4/2012 0:00,0.0,15.275500000000001,197.35500000000002,57.541000000000004,57.320600000000006
6649,10/4/2012 1:00,0.0,12.6725,214.701,55.231,17.125799999999998
6650,10/4/2012 2:00,0.0,18.769000000000002,218.83100000000002,54.648,14.2324
6651,10/4/2012 3:00,0.0,23.427,211.633,50.655,19.2372
6652,10/4/2012 4:00,0.0,18.631999999999998,198.12199999999999,58.706999999999994,41.602399999999996
6653,10/4/2012 5:00,0.0,32.4005,153.1345,66.143,77.027
6654,10/4/2012 6:00,0.0,30.003,101.539,67.518,102.2074
6655,10/4/2012 7:00,6.8588770509999994,0.0,68.735,72.501,129.1082
6656,10/4/2012 8:00,5.993927549,0.0,79.3845,81.56500000000001,782.0
6657,10/4/2012 9:00,3.1236985720000003,0.0,58.941,5.159,782.0
6658,10/4/2012 10:00,3.740973004,6.8500000000000005,25.547,5.4559999999999995,782.0
6659,10/4/2012 11:00,5.255991945,12.809500000000002,7.08,6.644,774.4146
6660,10/4/2012 12:00,6.272146449000001,16.2345,0.0,9.350000000000001,768.2368
6661,10/4/2012 13:00,6.821643891,16.988,0.0,12.43,754.9428
6662,10/4/2012 14:00,5.1813853100000005,50.964,0.0,13.167,193.154
6663,10/4/2012 15:00,4.322752833,37.401,4.3365,10.406,229.8298
6664,10/4/2012 16:00,3.310362419,28.084999999999997,2.3009999999999997,106.86500000000001,329.6912
6665,10/4/2012 17:00,0.717114131,27.194499999999998,0.0,106.095,403.90299999999996
6666,10/4/2012 18:00,0.0,30.825,25.104499999999998,104.19200000000001,420.325
6667,10/4/2012 19:00,0.0,309.757,69.7675,98.659,412.3486
6668,10/4/2012 20:00,0.0,300.57800000000003,173.4895,8.36,417.0406
6669,10/4/2012 21:00,0.0,287.563,242.6375,8.063,464.97720000000004
6670,10/4/2012 22:00,0.0,349.4185,268.2435,108.405,7.6636
6671,10/4/2012 23:00,0.0,61.170500000000004,275.0285,0.0,258.5292
6672,10/5/2012 0:00,0.0,76.72,275.7365,0.9239999999999999,0.0
6673,10/5/2012 1:00,0.0,66.719,272.7865,12.177000000000001,0.0
6674,10/5/2012 2:00,0.0,0.0,263.258,34.958000000000006,5.5522
6675,10/5/2012 3:00,0.0,358.11800000000005,251.45800000000003,58.85,0.0
6676,10/5/2012 4:00,0.0,381.271,29.352500000000003,85.59100000000001,0.0
6677,10/5/2012 5:00,0.0,11.439499999999999,56.2565,87.681,26.0406
6678,10/5/2012 6:00,0.0,28.770000000000003,126.4075,86.372,17.2822
6679,10/5/2012 7:00,0.48435362400000004,31.9895,0.0,82.66499999999999,8.4456
6680,10/5/2012 8:00,0.6010471589999999,44.251000000000005,219.27349999999998,69.68499999999999,6.4906
6681,10/5/2012 9:00,0.820759777,75.14450000000001,242.2835,0.0,8.836599999999999
6682,10/5/2012 10:00,1.2353679160000002,124.259,254.1425,0.0,18.9244
6683,10/5/2012 11:00,3.18301224,75.5555,254.349,95.172,50.986399999999996
6684,10/5/2012 12:00,2.825144865,54.4575,245.49900000000002,0.0,20.6448
6685,10/5/2012 13:00,4.1858377120000005,23.427,0.0,0.0,24.3202
6686,10/5/2012 14:00,3.877674926,10.138,27.4055,0.803,32.062
6687,10/5/2012 15:00,3.021343292,6.3705,38.527,0.0,55.13099999999999
6688,10/5/2012 16:00,4.197070892,5.5485,45.076,0.0,89.148
6689,10/5/2012 17:00,0.972149098,6.987,47.7015,0.0,0.0
6690,10/5/2012 18:00,0.0,13.905499999999998,238.478,83.501,0.0
6691,10/5/2012 19:00,0.0,34.934999999999995,231.9585,103.75200000000001,0.0
6692,10/5/2012 20:00,0.0,74.802,224.05249999999998,109.04299999999999,57.1642
6693,10/5/2012 21:00,0.0,11.439499999999999,222.28249999999997,3.8609999999999998,53.8016
6694,10/5/2012 22:00,0.0,20.0705,217.12,3.894,5.7086
6695,10/5/2012 23:00,0.0,199.2665,21.210500000000003,13.123000000000001,0.0
6696,10/6/2012 0:00,0.0,221.7345,230.159,5.885,0.0
6697,10/6/2012 1:00,0.0,0.0,233.4925,4.928,0.0
6698,10/6/2012 2:00,0.0,12.124500000000001,7.8765,2.7720000000000002,478.19300000000004
6699,10/6/2012 3:00,0.0,0.0,2.8024999999999998,1.2759999999999998,666.8114
6700,10/6/2012 4:00,0.0,103.0925,2.6255,0.0,59.9012
6701,10/6/2012 5:00,0.0,103.161,46.4035,0.0,92.1978
6702,10/6/2012 6:00,0.0,66.6505,76.34599999999999,1.661,136.06799999999998
6703,10/6/2012 7:00,0.999036036,82.4055,205.4675,0.0,743.4474
6704,10/6/2012 8:00,1.371696887,444.42800000000005,267.5945,0.0,41.602399999999996
6705,10/6/2012 9:00,1.468886276,8.4255,266.149,0.0,8.3674
6706,10/6/2012 10:00,1.1928183280000002,7.8774999999999995,248.154,0.0,22.8344
6707,10/6/2012 11:00,1.372128662,28.907,6.195,0.0,226.8582
6708,10/6/2012 12:00,1.202773682,18.1525,3.0385,0.0,267.5222
6709,10/6/2012 13:00,2.7392715340000002,12.3985,0.0,0.0,372.70120000000003
6710,10/6/2012 14:00,2.261657685,0.0,0.0,0.0,464.899
6711,10/6/2012 15:00,0.8133263119999999,0.0,0.0,0.0,16.813
6712,10/6/2012 16:00,1.8242817510000002,0.0,0.0,0.0,17.5168
6713,10/6/2012 17:00,0.256727373,252.69650000000001,0.0,0.0,760.7296
6714,10/6/2012 18:00,0.0,5.48,0.0,0.0,740.8668
6715,10/6/2012 19:00,0.0,6.713,0.0,0.0,50.7518
6716,10/6/2012 20:00,0.0,5.0005,101.39150000000001,0.0,32.2184
6717,10/6/2012 21:00,0.0,248.44950000000003,72.157,0.0,19.3936
6718,10/6/2012 22:00,0.0,7.0555,42.804500000000004,0.0,10.400599999999999
6719,10/6/2012 23:00,0.0,8.0145,47.731,0.0,89.4608
6720,10/7/2012 0:00,0.0,9.727,10.856,1.562,0.0
6721,10/7/2012 1:00,0.0,11.439499999999999,24.5735,15.818000000000001,6.881600000000001
6722,10/7/2012 2:00,0.0,337.3625,33.335,7.7219999999999995,375.751
6723,10/7/2012 3:00,0.0,413.74,19.204500000000003,7.524,13.215799999999998
6724,10/7/2012 4:00,0.0,494.9125,8.083,1.9800000000000002,0.0
6725,10/7/2012 5:00,0.0,546.219,107.203,6.666,0.0
6726,10/7/2012 6:00,0.0,558.8915,118.0295,5.588,6.5687999999999995
6727,10/7/2012 7:00,2.148219515,544.3695,118.56049999999999,4.829,13.9978
6728,10/7/2012 8:00,1.4714512380000002,502.653,110.1825,4.235,0.0
6729,10/7/2012 9:00,1.9703313310000001,5.754,111.7165,4.146999999999999,0.0
6730,10/7/2012 10:00,1.1045180700000001,348.528,107.2325,4.807,0.0
6731,10/7/2012 11:00,1.612387063,0.0,90.8305,5.907,5.9432
6732,10/7/2012 12:00,2.426051252,0.0,17.228,6.654999999999999,9.227599999999999
6733,10/7/2012 13:00,4.216854338,42.744,20.060000000000002,5.7749999999999995,94.3874
6734,10/7/2012 14:00,3.71894638,233.85899999999998,16.874,27.049,43.2446
6735,10/7/2012 15:00,3.7392579309999996,221.803,70.6525,20.977,14.857999999999999
6736,10/7/2012 16:00,1.8621357550000002,0.0,48.7635,25.355,8.9148
6737,10/7/2012 17:00,0.339633854,0.0,6.549,18.105999999999998,0.0
6738,10/7/2012 18:00,0.0,47.95,7.1685,13.475,0.0
6739,10/7/2012 19:00,0.0,81.515,6.608,6.556,0.0
6740,10/7/2012 20:00,0.0,99.5305,217.0905,2.4200000000000004,0.0
6741,10/7/2012 21:00,0.0,109.189,204.70049999999998,1.232,0.0
6742,10/7/2012 22:00,0.0,101.0375,179.56650000000002,0.0,0.0
6743,10/7/2012 23:00,0.0,0.0,5.428,0.0,0.0
6744,10/8/2012 0:00,0.0,0.0,290.221,0.0,0.0
6745,10/8/2012 1:00,0.0,7.7405,8.909,0.0,21.505
6746,10/8/2012 2:00,0.0,16.44,0.0,0.0,108.30700000000002
6747,10/8/2012 3:00,0.0,20.824,4.071,0.8140000000000001,160.31
6748,10/8/2012 4:00,0.0,78.775,257.65299999999996,14.871999999999998,0.0
6749,10/8/2012 5:00,0.0,85.2825,244.64350000000002,15.466000000000001,276.2806
6750,10/8/2012 6:00,0.0,7.535000000000001,6.608,25.080000000000002,0.0
6751,10/8/2012 7:00,5.332071707000001,7.946,173.54850000000002,24.464,0.0
6752,10/8/2012 8:00,5.210172552,8.9735,154.9635,20.724,741.336
6753,10/8/2012 9:00,2.721923774,88.4335,131.334,18.502,6.881600000000001
6754,10/8/2012 10:00,2.893830492,30.277,119.88799999999999,17.259,10.3224
6755,10/8/2012 11:00,4.3817811209999995,542.52,25.665,15.884,13.763200000000001
6756,10/8/2012 12:00,5.508955798,30.277,47.7015,15.389,244.14039999999997
6757,10/8/2012 13:00,5.962744711,25.345000000000002,64.7525,0.0,234.9128
6758,10/8/2012 14:00,6.024332052,571.7695,68.6465,0.836,191.6682
6759,10/8/2012 15:00,4.665298152,13.7685,59.265499999999996,9.998999999999999,115.2668
6760,10/8/2012 16:00,2.8764875389999998,11.439499999999999,48.822500000000005,13.189,50.20439999999999
6761,10/8/2012 17:00,0.21795981099999998,22.2625,50.061499999999995,11.781,269.32079999999996
6762,10/8/2012 18:00,0.0,34.7295,295.0,6.281,288.71439999999996
6763,10/8/2012 19:00,0.0,37.6065,295.0,75.284,221.8534
6764,10/8/2012 20:00,0.0,37.126999999999995,13.098,78.848,321.5584
6765,10/8/2012 21:00,0.0,37.263999999999996,13.009500000000001,94.56700000000001,449.4154
6766,10/8/2012 22:00,0.0,37.401,26.904,101.134,756.976
6767,10/8/2012 23:00,0.0,38.7025,18.467000000000002,102.476,773.398
6768,10/9/2012 0:00,0.0,38.497,2.9205,101.04599999999999,709.8213999999999
6769,10/9/2012 1:00,0.0,37.4695,2.7434999999999996,32.868,715.6864
6770,10/9/2012 2:00,0.0,36.853,49.8255,28.215,766.2036
6771,10/9/2012 3:00,0.0,35.757000000000005,77.08349999999999,16.863,746.81
6772,10/9/2012 4:00,0.0,32.743,161.8665,11.274999999999999,724.2102
6773,10/9/2012 5:00,0.0,21.508999999999997,214.7895,9.592,455.7496
6774,10/9/2012 6:00,0.0,13.905499999999998,237.9175,1.2870000000000001,457.0008
6775,10/9/2012 7:00,0.678156493,18.221,208.00449999999998,0.0,475.76880000000006
6776,10/9/2012 8:00,0.873916476,23.3585,135.5525,0.0,496.7264
6777,10/9/2012 9:00,1.283140205,26.3725,57.348,0.0,492.8164
6778,10/9/2012 10:00,1.774445169,34.4555,18.7325,0.0,146.625
6779,10/9/2012 11:00,2.518398795,582.7295,13.481499999999999,1.012,88.8352
6780,10/9/2012 12:00,4.7562680429999995,566.4265,14.632,22.418,56.22580000000001
6781,10/9/2012 13:00,4.7514274510000005,534.9849999999999,81.62650000000001,22.737,44.0266
6782,10/9/2012 14:00,5.110929984999999,482.103,18.2015,4.829,43.7138
6783,10/9/2012 15:00,5.022566514,382.367,246.738,6.061,42.6972
6784,10/9/2012 16:00,3.8635266329999998,36.853,269.3055,8.525,122.46119999999999
6785,10/9/2012 17:00,0.464414777,48.8405,230.513,7.469,93.449
6786,10/9/2012 18:00,0.0,162.0025,182.251,4.609,35.6592
6787,10/9/2012 19:00,0.0,191.04649999999998,289.572,3.6959999999999997,17.595
6788,10/9/2012 20:00,0.0,178.37400000000002,287.24150000000003,4.675000000000001,32.062
6789,10/9/2012 21:00,0.0,4.9319999999999995,5.6049999999999995,9.514999999999999,32.687599999999996
6790,10/9/2012 22:00,0.0,8.083,0.0,91.003,34.486200000000004
6791,10/9/2012 23:00,0.0,10.412,61.4485,81.213,444.72339999999997
6792,10/10/2012 0:00,0.0,58.9785,30.974999999999998,2.134,506.8142
6793,10/10/2012 1:00,0.0,44.799,0.0,2.761,558.1134
6794,10/10/2012 2:00,0.0,37.675,2.6255,2.288,602.0618000000001
6795,10/10/2012 3:00,0.0,462.23799999999994,4.779,4.994000000000001,626.5384
6796,10/10/2012 4:00,0.0,490.597,4.425,3.388,635.1404
6797,10/10/2012 5:00,0.0,18.769000000000002,16.1955,103.301,659.9298
6798,10/10/2012 6:00,0.0,10.001,41.74249999999999,0.847,687.0652
6799,10/10/2012 7:00,5.570129053,11.508,105.905,2.1780000000000004,720.3002
6800,10/10/2012 8:00,2.197053999,7.946,154.816,3.685,742.7436
6801,10/10/2012 9:00,2.055462712,9.863999999999999,167.796,101.04599999999999,759.5566
6802,10/10/2012 10:00,2.584672315,12.604,40.5035,89.54,742.509
6803,10/10/2012 11:00,2.270975418,14.8645,47.347500000000004,0.0,8.680200000000001
6804,10/10/2012 12:00,5.310720742,19.3855,55.46,67.90299999999999,461.9274
6805,10/10/2012 13:00,5.745479672999999,134.1915,60.2685,48.367,260.797
6806,10/10/2012 14:00,5.523762118,129.5335,62.0975,61.666,465.8374
6807,10/10/2012 15:00,5.293140916,82.2685,53.5425,31.404999999999998,618.953
6808,10/10/2012 16:00,3.1917378,89.461,40.769,19.349,474.5176
6809,10/10/2012 17:00,0.281079179,113.29899999999999,35.931000000000004,2.783,0.0
6810,10/10/2012 18:00,0.0,185.36100000000002,18.231,0.9900000000000001,8.9148
6811,10/10/2012 19:00,0.0,255.36800000000002,22.8035,68.156,731.952
6812,10/10/2012 20:00,0.0,289.07000000000005,0.0,88.649,762.841
6813,10/10/2012 21:00,0.0,296.9475,7.611,0.0,775.0402
6814,10/10/2012 22:00,0.0,309.6885,4.307,0.0,782.0
6815,10/10/2012 23:00,0.0,337.979,2.3009999999999997,0.0,782.0
6816,10/11/2012 0:00,0.0,400.999,0.0,0.0,782.0
6817,10/11/2012 1:00,0.0,446.757,2.3305000000000002,0.836,382.3198
6818,10/11/2012 2:00,0.0,231.18750000000003,2.8615,1.023,0.0
6819,10/11/2012 3:00,0.0,97.47550000000001,2.8615,1.034,0.0
6820,10/11/2012 4:00,0.0,81.9945,2.5075000000000003,1.0559999999999998,77.1052
6821,10/11/2012 5:00,0.0,0.0,2.419,1.133,50.5172
6822,10/11/2012 6:00,0.0,0.0,10.708499999999999,0.0,773.1634
6823,10/11/2012 7:00,1.250574414,0.0,27.936500000000002,0.0,762.6064
6824,10/11/2012 8:00,0.7763671129999999,0.0,52.716499999999996,34.749,14.6234
6825,10/11/2012 9:00,1.188740206,0.0,82.128,0.0,0.0
6826,10/11/2012 10:00,1.827976244,0.0,7.492999999999999,64.537,84.9252
6827,10/11/2012 11:00,3.827281758,0.0,9.086,70.378,205.9788
6828,10/11/2012 12:00,4.5121378409999995,0.0,9.8825,0.0,26.6662
6829,10/11/2012 13:00,4.889819005,0.0,14.484499999999999,108.867,19.3936
6830,10/11/2012 14:00,4.326124972,597.32,237.9175,2.7720000000000002,13.137599999999999
6831,10/11/2012 15:00,3.6632748790000003,7.809,185.99749999999997,2.761,8.9148
6832,10/11/2012 16:00,2.0782222420000003,14.933,25.724,82.313,5.5522
6833,10/11/2012 17:00,0.0,12.2615,21.416999999999998,0.0,0.0
6834,10/11/2012 18:00,0.0,10.4805,12.98,1.3860000000000001,8.0546
6835,10/11/2012 19:00,0.0,7.809,6.195,1.32,0.0
6836,10/11/2012 20:00,0.0,321.4705,3.9234999999999998,109.142,0.0
6837,10/11/2012 21:00,0.0,146.6585,4.601999999999999,107.723,88.757
6838,10/11/2012 22:00,0.0,47.4705,8.378,101.739,86.8802
6839,10/11/2012 23:00,0.0,37.401,57.6135,81.202,82.50099999999999
6840,10/12/2012 0:00,0.0,29.592000000000002,26.2845,81.774,30.3416
6841,10/12/2012 1:00,0.0,5.5485,34.456,26.268,0.0
6842,10/12/2012 2:00,0.0,8.083,52.3625,30.976000000000003,0.0
6843,10/12/2012 3:00,0.0,12.878,188.328,108.999,222.40079999999998
6844,10/12/2012 4:00,0.0,19.1115,62.569500000000005,108.52600000000001,775.6658
6845,10/12/2012 5:00,0.0,26.0985,72.4815,42.471,49.81340000000001
6846,10/12/2012 6:00,0.0,43.908500000000004,96.052,105.765,100.48700000000001
6847,10/12/2012 7:00,0.808980385,78.15849999999999,125.9355,14.652000000000001,147.9544
6848,10/12/2012 8:00,1.4785439,121.9985,159.949,19.701,158.58960000000002
6849,10/12/2012 9:00,1.6321126160000001,163.715,187.85600000000002,110.0,154.05399999999997
6850,10/12/2012 10:00,2.188221545,217.28199999999998,170.95250000000001,102.828,360.7366
6851,10/12/2012 11:00,4.0906909559999995,6.2335,186.6465,103.444,491.7998
6852,10/12/2012 12:00,3.9837965759999996,25.619000000000003,212.518,1.155,101.8946
6853,10/12/2012 13:00,2.522530725,0.0,221.39749999999998,105.534,63.6548
6854,10/12/2012 14:00,3.1933642570000003,0.0,88.58850000000001,103.565,39.7256
6855,10/12/2012 15:00,3.142484328,39.319,78.7945,102.96,24.867600000000003
6856,10/12/2012 16:00,3.7758901970000003,41.853500000000004,42.480000000000004,98.53800000000001,9.0712
6857,10/12/2012 17:00,0.0,70.4865,26.845,1.2870000000000001,8.680200000000001
6858,10/12/2012 18:00,0.0,374.7635,18.7325,102.036,7.1162
6859,10/12/2012 19:00,0.0,0.0,15.222,1.221,7.428999999999999
6860,10/12/2012 20:00,0.0,0.0,16.4905,1.144,0.0
6861,10/12/2012 21:00,0.0,0.0,22.3905,1.0559999999999998,0.0
6862,10/12/2012 22:00,0.0,487.5145,34.3085,0.88,737.8952
6863,10/12/2012 23:00,0.0,543.616,256.06,0.0,727.3382
6864,10/13/2012 0:00,0.0,506.9,240.307,1.342,715.2954
6865,10/13/2012 1:00,0.0,455.4565,259.246,3.223,706.5369999999999
6866,10/13/2012 2:00,0.0,374.421,5.015000000000001,5.841,59.1192
6867,10/13/2012 3:00,0.0,329.1425,3.6875,11.065999999999999,513.5394
6868,10/13/2012 4:00,0.0,337.568,4.6610000000000005,33.846999999999994,749.4688
6869,10/13/2012 5:00,0.0,462.8545,2.8615,68.222,231.31560000000002
6870,10/13/2012 6:00,0.0,5.0005,0.0,92.444,747.6701999999999
6871,10/13/2012 7:00,3.4930074240000004,0.0,228.4185,18.700000000000003,8.211
6872,10/13/2012 8:00,2.7926984889999997,0.0,0.0,0.957,674.5532000000001
6873,10/13/2012 9:00,2.683732596,15.960500000000001,0.0,0.0,16.1874
6874,10/13/2012 10:00,2.7879821000000002,16.576999999999998,0.0,0.0,0.0
6875,10/13/2012 11:00,1.2041741719999999,108.915,0.0,0.0,0.0
6876,10/13/2012 12:00,0.9543921539999999,10.4805,0.0,0.0,0.0
6877,10/13/2012 13:00,2.475810352,12.809500000000002,0.0,1.045,0.0
6878,10/13/2012 14:00,1.9841452620000002,14.3165,0.0,1.672,12.0428
6879,10/13/2012 15:00,0.7028365240000001,14.658999999999999,17.877,39.402,0.0
6880,10/13/2012 16:00,0.275396906,15.070000000000002,2.596,46.266,0.0
6881,10/13/2012 17:00,0.0,12.124500000000001,274.3795,60.863,0.0
6882,10/13/2012 18:00,0.0,9.042,0.0,3.3659999999999997,6.8034
6883,10/13/2012 19:00,0.0,7.8774999999999995,4.3365,3.542,0.0
6884,10/13/2012 20:00,0.0,36.0995,11.092,3.597,0.0
6885,10/13/2012 21:00,0.0,39.1135,26.019000000000002,2.4200000000000004,0.0
6886,10/13/2012 22:00,0.0,42.059000000000005,33.453,1.353,0.0
6887,10/13/2012 23:00,0.0,41.922,87.674,0.979,0.0
6888,10/14/2012 0:00,0.0,36.168,148.17849999999999,63.898999999999994,0.0
6889,10/14/2012 1:00,0.0,31.099,13.865,72.314,0.0
6890,10/14/2012 2:00,0.0,58.773,12.8325,4.994000000000001,0.0
6891,10/14/2012 3:00,0.0,60.006,2.714,11.231,0.0
6892,10/14/2012 4:00,0.0,13.3575,2.3895,8.701,0.0
6893,10/14/2012 5:00,0.0,55.211000000000006,255.588,10.791,195.3436
6894,10/14/2012 6:00,0.0,83.70700000000001,255.2045,7.5569999999999995,236.7896
6895,10/14/2012 7:00,2.916580864,118.9845,237.8585,4.312,479.2096
6896,10/14/2012 8:00,1.8881757870000002,177.826,207.857,3.7950000000000004,579.6184
6897,10/14/2012 9:00,3.086423916,107.408,198.0925,26.587,624.5834
6898,10/14/2012 10:00,3.855689912,120.3545,253.1395,15.091999999999999,617.4671999999999
6899,10/14/2012 11:00,3.1073293879999997,331.403,282.04949999999997,2.871,618.3274
6900,10/14/2012 12:00,2.17920405,380.24350000000004,288.3625,3.4760000000000004,611.524
6901,10/14/2012 13:00,1.18492037,393.053,5.9295,4.664,586.7346
6902,10/14/2012 14:00,1.010205072,0.0,5.516500000000001,1.012,629.0408
6903,10/14/2012 15:00,0.354064943,6.3705,5.1034999999999995,0.8690000000000001,39.5692
6904,10/14/2012 16:00,1.0873876510000002,14.7275,5.1625000000000005,0.0,37.8488
6905,10/14/2012 17:00,0.0,25.1395,3.9234999999999998,0.0,38.8654
6906,10/14/2012 18:00,0.0,30.482499999999998,4.985499999999999,0.858,47.9366
6907,10/14/2012 19:00,0.0,33.839,8.200999999999999,1.617,57.78979999999999
6908,10/14/2012 20:00,0.0,35.620000000000005,122.2185,2.64,61.934400000000004
6909,10/14/2012 21:00,0.0,6.713,96.40599999999999,3.7179999999999995,62.24720000000001
6910,10/14/2012 22:00,0.0,6.7815,81.68549999999999,4.9719999999999995,64.515
6911,10/14/2012 23:00,0.0,6.9185,75.19550000000001,9.592,77.88719999999999
6912,10/15/2012 0:00,0.0,7.946,59.2065,11.088000000000001,86.4892
6913,10/15/2012 1:00,0.0,43.2235,53.749,9.273,442.06460000000004
6914,10/15/2012 2:00,0.0,51.30649999999999,25.0455,8.184,433.14979999999997
6915,10/15/2012 3:00,0.0,48.7035,67.26,6.49,443.5504
6916,10/15/2012 4:00,0.0,39.6615,58.941,32.054,468.418
6917,10/15/2012 5:00,0.0,34.387,40.5625,24.596,486.01300000000003
6918,10/15/2012 6:00,0.0,37.8805,28.7625,16.357,69.2852
6919,10/15/2012 7:00,3.6681232990000003,51.375,33.7185,10.769,65.37519999999999
6920,10/15/2012 8:00,4.877959034,56.375499999999995,49.76649999999999,8.404,31.358199999999997
6921,10/15/2012 9:00,2.685854592,11.7135,68.853,6.962999999999999,39.8038
6922,10/15/2012 10:00,2.8395747570000003,13.563,77.526,5.995,62.71639999999999
6923,10/15/2012 11:00,3.7162205259999994,22.468000000000004,117.70499999999998,0.0,103.1458
6924,10/15/2012 12:00,3.8510694920000006,16.9195,153.54749999999999,93.214,175.4026
6925,10/15/2012 13:00,3.4088851709999997,570.1255,53.4245,18.468999999999998,261.3444
6926,10/15/2012 14:00,3.929707243,535.533,43.364999999999995,3.19,255.1666
6927,10/15/2012 15:00,3.608091868,496.6935,37.288000000000004,71.47800000000001,448.5552
6928,10/15/2012 16:00,1.838171625,346.6785,34.102,73.458,628.1806
6929,10/15/2012 17:00,0.0,62.198,33.8365,85.492,610.5074
6930,10/15/2012 18:00,0.0,7.946,30.8865,94.45700000000001,595.102
6931,10/15/2012 19:00,0.0,6.576,33.2465,15.774,662.8232
6932,10/15/2012 20:00,0.0,0.0,34.692,28.127,728.3548
6933,10/15/2012 21:00,0.0,0.0,65.1065,20.581,14.466999999999999
6934,10/15/2012 22:00,0.0,0.0,49.235499999999995,91.575,17.8296
6935,10/15/2012 23:00,0.0,103.846,35.282,79.893,0.0
6936,10/16/2012 0:00,0.0,79.2545,295.0,9.504000000000001,0.0
6937,10/16/2012 1:00,0.0,63.3625,295.0,37.839999999999996,0.0
6938,10/16/2012 2:00,0.0,55.896,295.0,14.707,0.0
6939,10/16/2012 3:00,0.0,40.072500000000005,20.0305,6.1930000000000005,0.0
6940,10/16/2012 4:00,0.0,25.482,17.346,2.75,0.0
6941,10/16/2012 5:00,0.0,180.7715,13.481499999999999,1.441,0.0
6942,10/16/2012 6:00,0.0,63.2255,9.970999999999998,0.902,760.4168000000001
6943,10/16/2012 7:00,2.60249422,80.556,11.564,0.0,741.727
6944,10/16/2012 8:00,4.821522213000001,92.47500000000001,14.690999999999999,22.528000000000002,26.979000000000003
6945,10/16/2012 9:00,2.902484479,46.580000000000005,284.5865,1.045,12.277399999999998
6946,10/16/2012 10:00,2.252560485,40.963,280.8105,53.229,21.2704
6947,10/16/2012 11:00,3.5877479979999998,400.93050000000005,271.9605,0.0,701.5322
6948,10/16/2012 12:00,5.0977925299999995,309.346,11.7705,0.935,597.8389999999999
6949,10/16/2012 13:00,5.564952883,21.3035,11.475499999999998,63.217,270.3374
6950,10/16/2012 14:00,5.083139350000001,26.029999999999998,85.7565,50.831,760.7296
6951,10/16/2012 15:00,3.133433127,24.7285,3.8645,92.147,269.9464
6952,10/16/2012 16:00,1.856917025,17.673,3.0090000000000003,86.911,276.2024
6953,10/16/2012 17:00,0.0,501.2145,0.0,49.049,43.401
6954,10/16/2012 18:00,0.0,505.804,0.0,72.842,47.9366
6955,10/16/2012 19:00,0.0,514.435,0.0,60.852000000000004,37.927
6956,10/16/2012 20:00,0.0,10.412,4.012,42.724000000000004,35.1118
6957,10/16/2012 21:00,0.0,146.316,18.0835,24.244,34.8772
6958,10/16/2012 22:00,0.0,0.0,64.487,13.035,32.296600000000005
6959,10/16/2012 23:00,0.0,137.4795,151.6595,7.061999999999999,31.358199999999997
6960,10/17/2012 0:00,0.0,115.90199999999999,261.36999999999995,2.222,30.3416
6961,10/17/2012 1:00,0.0,88.02250000000001,288.628,2.09,729.2932
6962,10/17/2012 2:00,0.0,23.564,7.316,2.024,457.1572
6963,10/17/2012 3:00,0.0,25.756,3.363,1.76,405.7798
6964,10/17/2012 4:00,0.0,56.444,0.0,1.749,283.63140000000004
6965,10/17/2012 5:00,0.0,17.262,0.0,2.299,332.1154
6966,10/17/2012 6:00,0.0,0.0,0.0,3.0799999999999996,760.3386
6967,10/17/2012 7:00,0.09151205600000001,0.0,2.2715,3.498,748.0612
6968,10/17/2012 8:00,3.8759063109999996,0.0,2.7434999999999996,110.0,36.2848
6969,10/17/2012 9:00,2.667741569,5.069,2.5075000000000003,110.0,560.7722
6970,10/17/2012 10:00,2.4322724410000003,5.48,5.988499999999999,1.529,564.8386
6971,10/17/2012 11:00,3.420217455,0.0,98.23499999999999,108.93299999999999,540.362
6972,10/17/2012 12:00,3.3977663329999994,188.238,19.5585,108.306,44.7304
6973,10/17/2012 13:00,3.8860841170000002,11.371,18.8505,107.36,775.4312
6974,10/17/2012 14:00,2.85433124,0.0,204.848,79.40899999999999,774.7274
6975,10/17/2012 15:00,2.249599126,26.3725,6.372000000000001,37.059,14.7798
6976,10/17/2012 16:00,1.594391384,6.713,16.579,102.421,385.2132
6977,10/17/2012 17:00,0.0,9.315999999999999,20.413999999999998,102.267,368.4784
6978,10/17/2012 18:00,0.0,10.3435,14.219,103.521,377.9406
6979,10/17/2012 19:00,0.0,13.7685,3.6285,105.006,432.36779999999993
6980,10/17/2012 20:00,0.0,10.001,15.487499999999999,106.128,502.1222
6981,10/17/2012 21:00,0.0,7.8774999999999995,2.5665,106.876,553.0304
6982,10/17/2012 22:00,0.0,7.261,3.068,106.986,636.3915999999999
6983,10/17/2012 23:00,0.0,5.5485,9.616999999999999,106.293,0.0
6984,10/18/2012 0:00,0.0,98.229,25.930500000000002,104.907,772.7724
6985,10/18/2012 1:00,0.0,90.968,50.917,101.76100000000001,0.0
6986,10/18/2012 2:00,0.0,72.6785,71.86200000000001,100.93599999999999,774.4928
6987,10/18/2012 3:00,0.0,61.3075,3.9234999999999998,100.42999999999999,0.0
6988,10/18/2012 4:00,0.0,56.717999999999996,2.9205,97.691,736.9568
6989,10/18/2012 5:00,0.0,49.594,62.628499999999995,95.68900000000001,44.183
6990,10/18/2012 6:00,0.0,39.9355,35.754,92.554,755.0210000000001
6991,10/18/2012 7:00,2.48871044,28.358999999999998,18.4965,87.241,48.875
6992,10/18/2012 8:00,3.7558273370000004,35.414500000000004,0.0,110.0,720.6129999999999
6993,10/18/2012 9:00,2.231304121,26.304,225.88150000000002,106.139,264.2378
6994,10/18/2012 10:00,2.149133073,18.631999999999998,244.23049999999998,105.644,247.5812
6995,10/18/2012 11:00,3.3994581120000005,15.4125,266.62100000000004,106.128,16.2656
6996,10/18/2012 12:00,4.453134690000001,8.494,284.4685,106.249,13.294
6997,10/18/2012 13:00,4.939466271,0.0,289.69,1.562,11.1826
6998,10/18/2012 14:00,4.565074368,0.0,6.431,1.155,759.1656
6999,10/18/2012 15:00,4.057666258,0.0,10.738000000000001,96.547,752.6750000000001
7000,10/18/2012 16:00,2.757865276,7.3294999999999995,67.791,94.56700000000001,743.8384000000001
7001,10/18/2012 17:00,0.0,228.7215,14.042000000000002,83.12700000000001,738.0516
7002,10/18/2012 18:00,0.0,571.975,2.419,83.094,734.7672
7003,10/18/2012 19:00,0.0,560.3985,0.0,82.027,44.4176
7004,10/18/2012 20:00,0.0,0.0,65.19500000000001,86.251,20.723
7005,10/18/2012 21:00,0.0,8.357000000000001,287.0055,22.473000000000003,0.0
7006,10/18/2012 22:00,0.0,11.1655,288.628,16.676000000000002,0.0
7007,10/18/2012 23:00,0.0,11.9875,289.395,11.418000000000001,0.0
7008,10/19/2012 0:00,0.0,13.152,0.0,7.3919999999999995,0.0
7009,10/19/2012 1:00,0.0,67.267,11.7705,76.615,0.0
7010,10/19/2012 2:00,0.0,92.886,193.75600000000003,52.635,24.7894
7011,10/19/2012 3:00,0.0,86.03599999999999,0.0,53.669,20.9576
7012,10/19/2012 4:00,0.0,72.747,15.6645,104.654,21.2704
7013,10/19/2012 5:00,0.0,61.3075,15.3695,104.654,15.561800000000002
7014,10/19/2012 6:00,0.0,55.348,13.924,101.145,17.7514
7015,10/19/2012 7:00,1.376378677,45.621,17.8475,86.251,6.412400000000001
7016,10/19/2012 8:00,2.419194817,36.0995,24.9865,48.521,10.8698
7017,10/19/2012 9:00,2.611079712,609.4445000000001,20.9745,52.107,9.227599999999999
7018,10/19/2012 10:00,2.256250779,602.937,10.030000000000001,53.9,6.881600000000001
7019,10/19/2012 11:00,4.057666904,593.2785,0.0,34.639,6.0996
7020,10/19/2012 12:00,5.171746724,580.469,0.0,40.161,145.6866
7021,10/19/2012 13:00,2.902907571,570.1255,3.363,54.89,146.1558
7022,10/19/2012 14:00,1.572575185,504.6395,9.676,110.0,126.684
7023,10/19/2012 15:00,1.004133546,417.50750000000005,263.73,110.0,454.49840000000006
7024,10/19/2012 16:00,0.32574491099999997,41.853500000000004,7.4635,110.0,462.7876
7025,10/19/2012 17:00,0.0,41.3055,4.867500000000001,110.0,510.17679999999996
7026,10/19/2012 18:00,0.0,30.482499999999998,3.5694999999999997,110.0,545.9142
7027,10/19/2012 19:00,0.0,17.6045,0.0,110.0,554.5944000000001
7028,10/19/2012 20:00,0.0,184.539,4.3660000000000005,110.0,16.5002
7029,10/19/2012 21:00,0.0,219.4055,12.9505,109.15299999999999,18.611600000000003
7030,10/19/2012 22:00,0.0,250.025,71.8325,102.795,20.1756
7031,10/19/2012 23:00,0.0,276.877,39.471000000000004,1.397,638.1902
7032,10/20/2012 0:00,0.0,311.127,54.899499999999996,7.623,0.0
7033,10/20/2012 1:00,0.0,332.088,277.949,12.825999999999999,688.6292000000001
7034,10/20/2012 2:00,0.0,7.809,60.4455,19.987,361.5186
7035,10/20/2012 3:00,0.0,0.0,29.7065,108.801,0.0
7036,10/20/2012 4:00,0.0,0.0,25.075000000000003,110.0,27.839199999999998
7037,10/20/2012 5:00,0.0,0.0,36.786500000000004,110.0,300.67900000000003
7038,10/20/2012 6:00,0.0,59.2525,26.9925,109.01,234.28719999999998
7039,10/20/2012 7:00,2.148570977,54.252,25.193,108.96600000000001,188.85299999999998
7040,10/20/2012 8:00,4.768519091,0.0,2.124,109.109,160.31
7041,10/20/2012 9:00,2.4350204300000002,376.61299999999994,0.0,108.96600000000001,6.4906
7042,10/20/2012 10:00,1.9482009479999998,150.563,206.0575,108.405,6.256
7043,10/20/2012 11:00,3.304900546,165.76999999999998,219.775,106.04,0.0
7044,10/20/2012 12:00,4.429948306,175.42849999999999,264.025,72.457,0.0
7045,10/20/2012 13:00,5.133581595000001,190.70399999999998,278.9815,64.89999999999999,0.0
7046,10/20/2012 14:00,5.227046660999999,206.25349999999997,281.253,6.093999999999999,0.0
7047,10/20/2012 15:00,4.399380061,223.9265,273.7305,63.668,0.0
7048,10/20/2012 16:00,2.9772516639999997,231.0505,248.921,42.878,101.5036
7049,10/20/2012 17:00,0.0,241.257,207.7095,49.016,165.3148
7050,10/20/2012 18:00,0.0,249.614,135.3165,0.0,199.1754
7051,10/20/2012 19:00,0.0,248.72349999999997,66.2865,0.836,184.4738
7052,10/20/2012 20:00,0.0,225.091,29.381999999999998,50.721000000000004,136.9282
7053,10/20/2012 21:00,0.0,196.732,14.189499999999999,0.0,73.1952
7054,10/20/2012 22:00,0.0,170.154,4.897,22.583000000000002,51.299200000000006
7055,10/20/2012 23:00,0.0,18.1525,4.1594999999999995,15.763000000000002,40.3512
7056,10/21/2012 0:00,0.0,14.248,9.145,108.24000000000001,0.0
7057,10/21/2012 1:00,0.0,0.0,5.959,0.825,0.0
7058,10/21/2012 2:00,0.0,187.4845,3.4219999999999997,1.749,9.775
7059,10/21/2012 3:00,0.0,110.3535,0.0,7.953,16.1874
7060,10/21/2012 4:00,0.0,173.853,4.3955,3.828,24.7112
7061,10/21/2012 5:00,0.0,8.8365,2.891,3.806,30.498
7062,10/21/2012 6:00,0.0,102.6815,0.0,4.345,33.4696
7063,10/21/2012 7:00,1.7836018200000001,17.1935,0.0,7.843,41.446
7064,10/21/2012 8:00,3.0741857880000003,11.8505,48.1735,13.904000000000002,83.20479999999999
7065,10/21/2012 9:00,2.462521505,9.384500000000001,48.7635,0.0,0.0
7066,10/21/2012 10:00,2.4368723979999998,8.5625,39.53,91.66300000000001,0.0
7067,10/21/2012 11:00,3.0947112220000004,9.453,98.0875,2.4200000000000004,775.9004
7068,10/21/2012 12:00,3.95104677,103.98299999999999,103.1615,80.718,266.1928
7069,10/21/2012 13:00,4.887642745,139.603,130.5965,80.10199999999999,215.2064
7070,10/21/2012 14:00,4.462639136,354.14500000000004,176.11499999999998,0.836,546.3833999999999
7071,10/21/2012 15:00,3.5262567209999998,331.26599999999996,235.4985,0.0,633.811
7072,10/21/2012 16:00,1.632590694,13.905499999999998,10.2955,43.978,681.2784
7073,10/21/2012 17:00,0.0,16.2345,14.0125,104.786,717.094
7074,10/21/2012 18:00,0.0,14.3165,18.3785,0.0,218.4126
7075,10/21/2012 19:00,0.0,12.2615,27.228499999999997,51.799,109.5582
7076,10/21/2012 20:00,0.0,10.686,37.6125,45.661,31.9838
7077,10/21/2012 21:00,0.0,149.467,47.141,35.761,177.6704
7078,10/21/2012 22:00,0.0,459.224,112.0115,26.598,389.5142
7079,10/21/2012 23:00,0.0,10.3435,100.12299999999999,101.84899999999999,709.665
7080,10/22/2012 0:00,0.0,216.186,77.998,98.97800000000001,666.264
7081,10/22/2012 1:00,0.0,16.029,56.109,89.28699999999999,609.96
7082,10/22/2012 2:00,0.0,13.426,48.675000000000004,85.184,0.0
7083,10/22/2012 3:00,0.0,71.10300000000001,78.7945,21.197000000000003,102.051
7084,10/22/2012 4:00,0.0,60.0745,5.841,11.065999999999999,121.4446
7085,10/22/2012 5:00,0.0,55.1425,5.369000000000001,13.925999999999998,161.092
7086,10/22/2012 6:00,0.0,10.3435,5.546,14.178999999999998,0.0
7087,10/22/2012 7:00,0.6872183909999999,6.576,10.0595,96.44800000000001,346.1914
7088,10/22/2012 8:00,2.900189013,0.0,24.337500000000002,88.132,327.34520000000003
7089,10/22/2012 9:00,2.030184447,327.293,37.730500000000006,86.02000000000001,0.0
7090,10/22/2012 10:00,2.385110033,295.235,35.0165,1.716,5.5522
7091,10/22/2012 11:00,2.776585615,262.766,21.063000000000002,6.259,0.0
7092,10/22/2012 12:00,3.1973561379999995,9.453,8.4075,78.386,6.0214
7093,10/22/2012 13:00,4.567517654,33.291,3.304,59.994,10.947999999999999
7094,10/22/2012 14:00,4.157321657,5.206,2.124,65.241,20.5666
7095,10/22/2012 15:00,2.793216448,9.384500000000001,2.124,75.636,27.37
7096,10/22/2012 16:00,1.992585746,0.0,3.0975,76.58200000000001,27.761
7097,10/22/2012 17:00,0.0,22.331,26.372999999999998,38.687000000000005,26.275199999999998
7098,10/22/2012 18:00,0.0,17.467499999999998,21.5645,36.696,22.677999999999997
7099,10/22/2012 19:00,0.0,15.960500000000001,0.0,26.51,12.512
7100,10/22/2012 20:00,0.0,9.2475,4.3365,19.349,13.215799999999998
7101,10/22/2012 21:00,0.0,7.6035,20.650000000000002,16.28,23.7728
7102,10/22/2012 22:00,0.0,17.878500000000003,11.209999999999999,7.435999999999999,32.296600000000005
7103,10/22/2012 23:00,0.0,5.2745,14.0125,6.523,519.4044
7104,10/23/2012 0:00,0.0,0.0,17.8475,16.302,0.0
7105,10/23/2012 1:00,0.0,0.0,17.936,3.674,736.8004000000001
7106,10/23/2012 2:00,0.0,0.0,15.693999999999999,5.082,733.9852
7107,10/23/2012 3:00,0.0,63.0885,285.38300000000004,4.576,728.433
7108,10/23/2012 4:00,0.0,78.84349999999999,7.375,4.4,730.6226
7109,10/23/2012 5:00,0.0,84.94,74.517,4.807,35.580999999999996
7110,10/23/2012 6:00,0.0,100.14699999999999,39.2055,5.973,29.403200000000002
7111,10/23/2012 7:00,1.053246494,97.3385,61.8615,6.49,51.690200000000004
7112,10/23/2012 8:00,3.96268693,0.0,265.913,8.876999999999999,46.6854
7113,10/23/2012 9:00,2.797884083,0.0,20.413999999999998,17.259,33.8606
7114,10/23/2012 10:00,1.839816208,58.773,0.0,29.127999999999997,14.857999999999999
7115,10/23/2012 11:00,3.884137795,10.754499999999998,0.0,14.783999999999999,13.685
7116,10/23/2012 12:00,4.225382488,169.469,160.80450000000002,73.46900000000001,219.1164
7117,10/23/2012 13:00,4.438801812,0.0,153.37050000000002,86.9,644.2116
7118,10/23/2012 14:00,4.161639710999999,149.604,125.96500000000002,71.797,34.408
7119,10/23/2012 15:00,2.49834572,162.756,107.3505,81.43299999999999,8.836599999999999
7120,10/23/2012 16:00,1.735809448,156.3855,126.8205,82.44500000000001,112.9208
7121,10/23/2012 17:00,0.0,163.3725,138.9745,92.136,158.35500000000002
7122,10/23/2012 18:00,0.0,489.4325,130.744,97.361,202.929
7123,10/23/2012 19:00,0.0,208.0345,111.097,98.835,246.5646
7124,10/23/2012 20:00,0.0,186.66250000000002,84.1045,96.074,319.83799999999997
7125,10/23/2012 21:00,0.0,181.8675,282.256,89.32000000000001,385.526
7126,10/23/2012 22:00,0.0,511.07849999999996,60.17999999999999,81.059,416.72780000000006
7127,10/23/2012 23:00,0.0,489.4325,47.613,91.66300000000001,563.1182
7128,10/24/2012 0:00,0.0,468.60850000000005,39.825,81.4,576.1776
7129,10/24/2012 1:00,0.0,451.8945,14.868,75.57000000000001,526.5206000000001
7130,10/24/2012 2:00,0.0,447.7845,182.9295,70.477,548.8858
7131,10/24/2012 3:00,0.0,294.07050000000004,12.862,106.656,625.0526
7132,10/24/2012 4:00,0.0,391.409,10.8855,107.547,0.0
7133,10/24/2012 5:00,0.0,360.858,46.196999999999996,0.0,0.0
7134,10/24/2012 6:00,0.0,303.9345,0.0,0.0,712.2456000000001
7135,10/24/2012 7:00,0.6001670219999999,277.836,96.642,0.0,688.5509999999999
7136,10/24/2012 8:00,0.7155227480000002,295.5775,0.0,0.0,138.023
7137,10/24/2012 9:00,1.563547715,370.7905,0.0,98.86800000000001,67.0956
7138,10/24/2012 10:00,2.3452365379999995,415.24699999999996,21.299,102.99300000000001,44.4176
7139,10/24/2012 11:00,3.2849054209999995,430.591,18.407999999999998,11.858,40.5858
7140,10/24/2012 12:00,3.6825855859999996,432.646,16.0185,36.707,40.272999999999996
7141,10/24/2012 13:00,4.649698886,433.74199999999996,11.092,70.664,245.46980000000002
7142,10/24/2012 14:00,4.64932698,401.95799999999997,9.263,87.45,186.81980000000001
7143,10/24/2012 15:00,3.883539371,334.4855,8.142,97.31700000000001,128.9518
7144,10/24/2012 16:00,1.7321700170000003,0.0,28.0545,97.9,96.3424
7145,10/24/2012 17:00,0.0,0.0,10.561,0.0,82.2664
7146,10/24/2012 18:00,0.0,0.0,73.1895,0.0,81.24980000000001
7147,10/24/2012 19:00,0.0,0.0,190.0685,0.0,130.203
7148,10/24/2012 20:00,0.0,0.0,60.239,0.0,630.7612
7149,10/24/2012 21:00,0.0,0.0,282.04949999999997,1.5399999999999998,740.7886
7150,10/24/2012 22:00,0.0,8.8365,5.7525,4.4,766.6728
7151,10/24/2012 23:00,0.0,0.0,8.024,8.58,765.969
7152,10/25/2012 0:00,0.0,0.0,5.1625000000000005,9.680000000000001,676.039
7153,10/25/2012 1:00,0.0,12.9465,4.6905,8.657,125.902
7154,10/25/2012 2:00,0.0,25.276500000000002,58.3805,6.941000000000001,128.4044
7155,10/25/2012 3:00,0.0,18.084,158.887,4.697,128.4044
7156,10/25/2012 4:00,0.0,0.0,69.85600000000001,108.361,145.6866
7157,10/25/2012 5:00,0.0,0.0,0.0,108.361,207.1518
7158,10/25/2012 6:00,0.0,0.0,0.0,108.042,267.3658
7159,10/25/2012 7:00,0.6912641939999999,0.0,2.2715,0.0,652.8136
7160,10/25/2012 8:00,3.7557934790000003,0.0,3.6875,0.0,299.7406
7161,10/25/2012 9:00,2.758638918,0.0,5.6935,2.508,136.3808
7162,10/25/2012 10:00,2.427026712,0.0,8.7615,1.8479999999999999,199.64460000000003
7163,10/25/2012 11:00,3.297884397,5.48,32.7155,1.4300000000000002,320.1508
7164,10/25/2012 12:00,4.004197275,7.4665,55.106,1.2100000000000002,389.9052
7165,10/25/2012 13:00,4.179127596,12.193,60.474999999999994,84.678,0.0
7166,10/25/2012 14:00,2.926950342,230.84500000000003,155.406,0.0,5.5522
7167,10/25/2012 15:00,2.0768785050000003,255.4365,109.2975,0.0,9.775
7168,10/25/2012 16:00,1.046255273,293.9335,45.990500000000004,0.0,9.1494
7169,10/25/2012 17:00,0.0,309.346,22.361,0.0,10.7134
7170,10/25/2012 18:00,0.0,20.8925,25.6355,34.375,12.6684
7171,10/25/2012 19:00,0.0,69.18499999999999,36.4915,28.346999999999998,11.808200000000001
7172,10/25/2012 20:00,0.0,64.664,47.7015,24.046,10.8698
7173,10/25/2012 21:00,0.0,30.140000000000004,55.3125,0.0,432.44599999999997
7174,10/25/2012 22:00,0.0,52.9505,33.217,22.033,360.6584
7175,10/25/2012 23:00,0.0,91.5845,51.0055,29.898,25.493199999999998
7176,10/26/2012 0:00,0.0,130.561,105.04950000000001,25.058,782.0
7177,10/26/2012 1:00,0.0,149.05599999999998,0.0,29.116999999999997,782.0
7178,10/26/2012 2:00,0.0,143.02800000000002,0.0,0.0,782.0
7179,10/26/2012 3:00,0.0,441.962,0.0,0.0,20.723
7180,10/26/2012 4:00,0.0,401.3415,0.0,0.0,18.768
7181,10/26/2012 5:00,0.0,344.2125,0.0,0.0,782.0
7182,10/26/2012 6:00,0.0,53.841,32.7745,0.0,352.291
7183,10/26/2012 7:00,0.498311214,13.905499999999998,60.7995,0.0,302.55580000000003
7184,10/26/2012 8:00,3.7354635170000003,13.974,102.71900000000001,0.0,774.8838
7185,10/26/2012 9:00,2.736565231,14.111,76.05099999999999,0.0,770.9738
7186,10/26/2012 10:00,1.7739025670000004,15.8235,64.074,46.057,0.0
7187,10/26/2012 11:00,3.020707476,18.358,63.425,9.581,8.7584
7188,10/26/2012 12:00,3.943398054,20.687,65.0475,88.561,10.0878
7189,10/26/2012 13:00,4.48006168,0.0,62.54,11.935,14.3106
7190,10/26/2012 14:00,4.14943261,0.0,61.6255,9.141,0.0
7191,10/26/2012 15:00,3.8364461609999996,578.2769999999999,53.1885,81.972,605.8936
7192,10/26/2012 16:00,1.348074225,585.538,40.827999999999996,33.22,703.2526
7193,10/26/2012 17:00,0.0,592.0455,223.01999999999998,86.306,13.4504
7194,10/26/2012 18:00,0.0,27.537,211.4855,0.0,15.405399999999998
7195,10/26/2012 19:00,0.0,5.6855,16.284,70.50999999999999,0.0
7196,10/26/2012 20:00,0.0,6.987,132.7795,0.0,120.74080000000001
7197,10/26/2012 21:00,0.0,0.0,81.36099999999999,2.684,128.7954
7198,10/26/2012 22:00,0.0,0.0,58.4985,0.7919999999999999,0.0
7199,10/26/2012 23:00,0.0,9.7955,60.592999999999996,110.0,724.2884
