,date,Solar_1,Wind_1,Wind_13,Wind_17,Wind_26
0,1/1/2012 0:00,0.0,256.8065,56.345,101.255,59.431999999999995
1,1/1/2012 1:00,0.0,8.288499999999999,163.31199999999998,1.8589999999999998,64.2022
2,1/1/2012 2:00,0.0,628.5559999999999,4.4545,16.874000000000002,223.41740000000001
3,1/1/2012 3:00,0.0,325.44350000000003,151.0695,0.0,262.20459999999997
4,1/1/2012 4:00,0.0,624.6515,54.103,4.367,462.39660000000003
5,1/1/2012 5:00,0.0,600.4024999999999,295.0,7.007000000000001,516.1982
6,1/1/2012 6:00,0.0,617.2535,224.49499999999998,101.673,39.2564
7,1/1/2012 7:00,0.0,17.3305,6.726,26.312,215.5192
8,1/1/2012 8:00,0.0,200.36249999999998,41.123,0.803,22.2088
9,1/1/2012 9:00,0.0,646.7085000000001,13.452,104.995,106.1956
10,1/1/2012 10:00,0.0,5.5485,13.982999999999999,0.0,373.9524
11,1/1/2012 11:00,0.0,353.5285,212.695,0.7919999999999999,79.2166
12,1/1/2012 12:00,0.0,335.51300000000003,191.0125,0.0,62.951
13,1/1/2012 13:00,0.0,0.0,295.0,0.0,149.28379999999999
14,1/1/2012 14:00,0.0,13.014999999999999,290.4865,0.0,110.8876
15,1/1/2012 15:00,0.0,111.3125,149.211,97.658,340.3264
16,1/1/2012 16:00,0.495821511,595.3335,166.43900000000002,20.746,316.7882
17,1/1/2012 17:00,1.036088392,24.043499999999998,55.991,99.682,12.433800000000002
18,1/1/2012 18:00,0.42368014499999995,62.4035,28.6445,5.609999999999999,464.117
19,1/1/2012 19:00,0.47079482500000003,526.4225,288.51,0.0,367.6964
20,1/1/2012 20:00,1.885129384,4.9319999999999995,15.163,0.0,124.25980000000001
21,1/1/2012 21:00,1.172392568,0.0,42.008,104.467,118.86399999999999
22,1/1/2012 22:00,0.18995609100000002,0.0,152.279,7.7219999999999995,283.3968
23,1/1/2012 23:00,0.0,0.0,20.826999999999998,108.691,710.9944
