,date,Wind1,Wind2,Wind3
1440,3/1/2012 0:00,0.0,46.875,1.0665
1441,3/1/2012 1:00,0.0,52.92,1.377
1442,3/1/2012 2:00,0.0,55.98,1.6335
1443,3/1/2012 3:00,0.0,55.26,1.8179999999999998
1444,3/1/2012 4:00,0.0,52.230000000000004,1.4445
1445,3/1/2012 5:00,0.0,47.61,1.2465
1446,3/1/2012 6:00,0.0,44.13,1.287
1447,3/1/2012 7:00,0.0,39.855,1.2285000000000001
1448,3/1/2012 8:00,35.1747,34.59,1.179
1449,3/1/2012 9:00,34.8777,31.14,1.1115
1450,3/1/2012 10:00,40.1445,27.855,0.9900000000000001
1451,3/1/2012 11:00,39.9564,21.195,0.9045
1452,3/1/2012 12:00,34.1748,18.0,0.8055
1453,3/1/2012 13:00,24.977700000000002,67.275,0.594
1454,3/1/2012 14:00,26.0271,65.07000000000001,0.333
1455,3/1/2012 15:00,23.264999999999997,64.065,0.0
1456,3/1/2012 16:00,18.6219,64.365,0.0
1457,3/1/2012 17:00,16.8993,62.535,0.6930000000000001
1458,3/1/2012 18:00,13.434299999999999,61.26,1.1835
1459,3/1/2012 19:00,11.2563,58.98,1.6155000000000002
1460,3/1/2012 20:00,7.1874,54.660000000000004,1.908
1461,3/1/2012 21:00,6.029100000000001,43.545,2.0655
1462,3/1/2012 22:00,4.2075000000000005,48.765,3.204
1463,3/1/2012 23:00,3.2571,55.67999999999999,6.0525
1464,3/2/2012 0:00,2.0988,54.525,10.953
1465,3/2/2012 1:00,1.7028,60.675000000000004,14.8365
1466,3/2/2012 2:00,3.1383,68.61,17.6985
1467,3/2/2012 3:00,5.0589,70.755,21.3165
1468,3/2/2012 4:00,6.138,70.035,22.5405
1469,3/2/2012 5:00,8.385299999999999,66.86999999999999,24.669
1470,3/2/2012 6:00,11.8998,69.735,27.0855
1471,3/2/2012 7:00,12.9987,64.05000000000001,29.466
1472,3/2/2012 8:00,9.5931,53.400000000000006,31.806
1473,3/2/2012 9:00,36.521100000000004,38.835,33.4665
1474,3/2/2012 10:00,31.749299999999998,19.935,34.541999999999994
1475,3/2/2012 11:00,15.9588,7.680000000000001,34.929
1476,3/2/2012 12:00,8.8209,4.245,35.253
1477,3/2/2012 13:00,7.514099999999999,3.915,35.028
1478,3/2/2012 14:00,7.1874,4.53,34.56
1479,3/2/2012 15:00,5.1183000000000005,3.4799999999999995,33.408
1480,3/2/2012 16:00,3.2868,5.550000000000001,31.171499999999998
1481,3/2/2012 17:00,4.3164,8.97,27.962999999999997
1482,3/2/2012 18:00,60.62760000000001,11.790000000000001,24.209999999999997
1483,3/2/2012 19:00,58.1823,12.045,19.863
1484,3/2/2012 20:00,49.203,10.364999999999998,2.4570000000000003
1485,3/2/2012 21:00,32.0859,7.694999999999999,2.502
1486,3/2/2012 22:00,17.2557,4.1850000000000005,2.5515
1487,3/2/2012 23:00,8.5635,1.9949999999999999,2.4795000000000003
1488,3/3/2012 0:00,7.890299999999999,1.9949999999999999,2.0655
1489,3/3/2012 1:00,12.0978,2.25,1.4175
1490,3/3/2012 2:00,16.5132,2.145,1.0575
1491,3/3/2012 3:00,1.8215999999999999,2.1149999999999998,0.9225
1492,3/3/2012 4:00,5.7222,2.145,0.756
1493,3/3/2012 5:00,4.0887,2.0999999999999996,0.6165
1494,3/3/2012 6:00,4.7025,1.9200000000000002,0.5805
1495,3/3/2012 7:00,17.8893,1.62,0.6075
1496,3/3/2012 8:00,24.0867,1.38,0.603
1497,3/3/2012 9:00,31.2741,1.2300000000000002,0.5715
1498,3/3/2012 10:00,37.9764,0.0,0.5355000000000001
1499,3/3/2012 11:00,41.1642,0.0,0.4995
1500,3/3/2012 12:00,42.2136,0.0,0.44550000000000006
1501,3/3/2012 13:00,42.6096,0.0,0.414
1502,3/3/2012 14:00,42.273,0.0,3.6899999999999995
1503,3/3/2012 15:00,46.5003,0.0,3.852
1504,3/3/2012 16:00,50.133599999999994,0.0,3.708
1505,3/3/2012 17:00,47.331900000000005,0.0,3.4290000000000003
1506,3/3/2012 18:00,44.4213,0.0,3.1455
1507,3/3/2012 19:00,3.9698999999999995,1.17,2.7765
1508,3/3/2012 20:00,0.0,1.305,2.412
1509,3/3/2012 21:00,0.0,1.35,2.2275
1510,3/3/2012 22:00,0.0,0.0,2.2544999999999997
1511,3/3/2012 23:00,0.0,1.095,2.331
1512,3/4/2012 0:00,0.0,1.965,2.3535
1513,3/4/2012 1:00,0.0,2.7,2.2319999999999998
1514,3/4/2012 2:00,0.7424999999999999,2.685,1.9709999999999999
1515,3/4/2012 3:00,1.6236000000000002,2.3850000000000002,1.7414999999999998
1516,3/4/2012 4:00,3.0294,2.235,1.359
1517,3/4/2012 5:00,4.2471,2.205,0.477
1518,3/4/2012 6:00,1.4949000000000001,2.145,2.5155
1519,3/4/2012 7:00,1.8414,2.1149999999999998,2.4795000000000003
1520,3/4/2012 8:00,2.0889,2.085,2.5065
1521,3/4/2012 9:00,2.1384000000000003,1.965,2.133
1522,3/4/2012 10:00,1.9007999999999998,1.38,1.548
1523,3/4/2012 11:00,1.5048,0.0,1.0845
1524,3/4/2012 12:00,1.0791,0.0,0.7334999999999999
1525,3/4/2012 13:00,1.2375,17.835,0.4995
1526,3/4/2012 14:00,2.2671,16.799999999999997,0.34650000000000003
1527,3/4/2012 15:00,14.751,14.625,0.0
1528,3/4/2012 16:00,6.3656999999999995,12.735000000000001,0.0
1529,3/4/2012 17:00,4.8708,11.13,0.0
1530,3/4/2012 18:00,1.9602000000000002,9.9,0.0
1531,3/4/2012 19:00,1.4751,6.27,0.0
1532,3/4/2012 20:00,2.3265,4.845000000000001,0.0
1533,3/4/2012 21:00,3.3263999999999996,5.324999999999999,0.0
1534,3/4/2012 22:00,3.2670000000000003,6.3149999999999995,0.0
1535,3/4/2012 23:00,2.5740000000000003,7.6499999999999995,0.0
1536,3/5/2012 0:00,1.4751,7.725,0.0
1537,3/5/2012 1:00,0.8811,7.109999999999999,0.0
1538,3/5/2012 2:00,0.0,5.7,0.0
1539,3/5/2012 3:00,0.0,4.95,0.0
1540,3/5/2012 4:00,0.0,4.95,0.0
1541,3/5/2012 5:00,0.0,5.654999999999999,0.351
1542,3/5/2012 6:00,0.0,6.075,0.5984999999999999
1543,3/5/2012 7:00,0.0,5.6850000000000005,0.9945
1544,3/5/2012 8:00,0.0,139.845,1.449
1545,3/5/2012 9:00,0.0,141.81,1.8225
1546,3/5/2012 10:00,0.0,142.74,1.962
1547,3/5/2012 11:00,0.0,143.49,1.9485
1548,3/5/2012 12:00,0.0,144.81,1.863
1549,3/5/2012 13:00,0.0,146.07,1.9755
1550,3/5/2012 14:00,0.0,145.725,2.2095
1551,3/5/2012 15:00,0.0,142.71,2.871
1552,3/5/2012 16:00,0.0,132.89999999999998,3.8205
1553,3/5/2012 17:00,0.0,112.00500000000001,4.7745
1554,3/5/2012 18:00,0.693,78.52499999999999,5.481
1555,3/5/2012 19:00,0.8514,55.199999999999996,6.7275
1556,3/5/2012 20:00,1.5048,34.29,8.28
1557,3/5/2012 21:00,1.8215999999999999,23.805,9.2385
1558,3/5/2012 22:00,1.4751,16.919999999999998,4.6845
1559,3/5/2012 23:00,1.0692000000000002,15.524999999999999,4.554
1560,3/6/2012 0:00,0.8217,16.740000000000002,1.359
1561,3/6/2012 1:00,0.0,19.275000000000002,1.1385
1562,3/6/2012 2:00,0.0,19.5,1.7505
1563,3/6/2012 3:00,0.0,27.675,2.2635
1564,3/6/2012 4:00,0.7128,42.465,2.097
1565,3/6/2012 5:00,0.8712000000000001,51.269999999999996,1.6695
1566,3/6/2012 6:00,1.0098,54.464999999999996,1.3815000000000002
1567,3/6/2012 7:00,0.8613,58.605,1.1204999999999998
1568,3/6/2012 8:00,0.0,62.085,0.702
1569,3/6/2012 9:00,74.58659999999999,61.17,0.549
1570,3/6/2012 10:00,73.60650000000001,58.08,0.46799999999999997
1571,3/6/2012 11:00,69.0822,54.495000000000005,0.387
1572,3/6/2012 12:00,67.4685,51.105000000000004,0.351
1573,3/6/2012 13:00,68.0427,2.6250000000000004,0.44550000000000006
1574,3/6/2012 14:00,70.2999,3.3000000000000003,0.6615
1575,3/6/2012 15:00,70.8048,3.63,9.157499999999999
1576,3/6/2012 16:00,71.01270000000001,3.165,9.0405
1577,3/6/2012 17:00,70.7751,2.61,9.292499999999999
1578,3/6/2012 18:00,67.2606,4.845000000000001,9.7155
1579,3/6/2012 19:00,23.2056,7.455,9.9225
1580,3/6/2012 20:00,29.2941,10.575,9.603
1581,3/6/2012 21:00,34.1352,11.834999999999999,9.054
1582,3/6/2012 22:00,37.847699999999996,10.815,8.379
1583,3/6/2012 23:00,40.203900000000004,7.275,8.1405
1584,3/7/2012 0:00,42.2532,8.22,7.6545
1585,3/7/2012 1:00,43.2036,9.254999999999999,7.632
1586,3/7/2012 2:00,41.1642,9.105,8.5365
1587,3/7/2012 3:00,37.4121,8.61,9.567
1588,3/7/2012 4:00,31.4127,8.25,7.9830000000000005
1589,3/7/2012 5:00,3.9402000000000004,7.815,6.192
1590,3/7/2012 6:00,2.9600999999999997,6.51,9.544500000000001
1591,3/7/2012 7:00,2.4453,5.46,12.1365
1592,3/7/2012 8:00,2.1681,5.055,10.422
1593,3/7/2012 9:00,25.274700000000003,4.485,7.461
1594,3/7/2012 10:00,25.542,3.795,7.038
1595,3/7/2012 11:00,25.680600000000002,2.37,8.7345
1596,3/7/2012 12:00,24.057,1.635,11.3265
1597,3/7/2012 13:00,20.1465,1.68,12.267000000000001
1598,3/7/2012 14:00,7.3062000000000005,1.6500000000000001,12.375000000000002
1599,3/7/2012 15:00,4.732200000000001,1.6500000000000001,11.448
1600,3/7/2012 16:00,3.0096,1.68,9.8775
1601,3/7/2012 17:00,2.0988,1.47,7.938
1602,3/7/2012 18:00,1.4256,1.155,6.2685
1603,3/7/2012 19:00,0.8118000000000001,0.0,4.2975
1604,3/7/2012 20:00,0.0,0.0,2.9114999999999998
1605,3/7/2012 21:00,0.0,0.0,2.3805
1606,3/7/2012 22:00,0.0,0.0,4.8465
1607,3/7/2012 23:00,17.2557,0.0,3.393
1608,3/8/2012 0:00,13.266,0.0,2.169
1609,3/8/2012 1:00,11.147400000000001,74.235,0.9045
1610,3/8/2012 2:00,0.0,69.72,0.3285
1611,3/8/2012 3:00,0.9107999999999999,60.63,0.4365
1612,3/8/2012 4:00,1.6730999999999998,0.0,0.7605
1613,3/8/2012 5:00,2.3265,1.2300000000000002,1.1115
1614,3/8/2012 6:00,3.0294,38.055,1.233
1615,3/8/2012 7:00,3.8214,34.125,1.1295
1616,3/8/2012 8:00,4.8411,25.650000000000002,1.0215
1617,3/8/2012 9:00,6.0588,16.305,0.9225
1618,3/8/2012 10:00,3.2868,8.64,0.8055
1619,3/8/2012 11:00,2.6829,3.2849999999999997,0.72
1620,3/8/2012 12:00,1.8908999999999998,0.0,0.6615
1621,3/8/2012 13:00,2.1780000000000004,0.0,0.0
1622,3/8/2012 14:00,4.2471,0.0,0.0
1623,3/8/2012 15:00,16.0974,1.14,0.0
1624,3/8/2012 16:00,14.2659,3.8400000000000003,0.4635
1625,3/8/2012 17:00,9.4941,8.55,0.44550000000000006
1626,3/8/2012 18:00,13.889700000000001,10.215,0.5984999999999999
1627,3/8/2012 19:00,18.6219,36.405,0.9135
1628,3/8/2012 20:00,23.1363,32.055,1.3725
1629,3/8/2012 21:00,25.740000000000002,6.18,4.7475
1630,3/8/2012 22:00,25.9875,3.525,4.2525
1631,3/8/2012 23:00,29.749499999999998,1.335,3.8114999999999997
1632,3/9/2012 0:00,32.8086,1.08,1.998
1633,3/9/2012 1:00,42.2928,0.0,0.6075
1634,3/9/2012 2:00,47.4111,0.0,0.414
1635,3/9/2012 3:00,53.6877,0.0,0.378
1636,3/9/2012 4:00,48.0744,0.0,0.6299999999999999
1637,3/9/2012 5:00,41.3523,0.0,0.8775
1638,3/9/2012 6:00,35.7984,1.5,0.6885
1639,3/9/2012 7:00,0.0,2.6550000000000002,0.612
1640,3/9/2012 8:00,0.0,2.1300000000000003,0.36900000000000005
1641,3/9/2012 9:00,0.0,1.8,1.0485
1642,3/9/2012 10:00,0.0,1.7399999999999998,2.9475000000000002
1643,3/9/2012 11:00,0.0,1.7399999999999998,0.0
1644,3/9/2012 12:00,0.0,1.6949999999999998,1.341
1645,3/9/2012 13:00,0.0,0.0,1.395
1646,3/9/2012 14:00,0.0,2.7,1.5615
1647,3/9/2012 15:00,0.8712000000000001,0.0,1.5165
1648,3/9/2012 16:00,0.9405,0.0,1.368
1649,3/9/2012 17:00,0.7424999999999999,0.0,1.3095
1650,3/9/2012 18:00,0.8415,0.0,1.269
1651,3/9/2012 19:00,17.8794,0.0,1.2465
1652,3/9/2012 20:00,20.017799999999998,0.0,1.2465
1653,3/9/2012 21:00,4.8708,0.0,1.2105
1654,3/9/2012 22:00,5.1975,0.0,1.1655
1655,3/9/2012 23:00,5.593500000000001,0.0,0.9765
1656,3/10/2012 0:00,6.494400000000001,0.0,0.963
1657,3/10/2012 1:00,64.251,0.0,1.0710000000000002
1658,3/10/2012 2:00,33.5709,0.0,1.026
1659,3/10/2012 3:00,20.79,0.0,0.963
1660,3/10/2012 4:00,34.4223,0.0,0.756
1661,3/10/2012 5:00,28.680300000000003,1.38,0.666
1662,3/10/2012 6:00,20.2653,1.5750000000000002,0.5715
1663,3/10/2012 7:00,29.046599999999998,1.44,0.531
1664,3/10/2012 8:00,35.0163,1.365,0.5355000000000001
1665,3/10/2012 9:00,0.0,1.2149999999999999,0.54
1666,3/10/2012 10:00,0.0,0.0,0.531
1667,3/10/2012 11:00,0.9702,0.0,0.4275
1668,3/10/2012 12:00,1.6137,0.0,0.0
1669,3/10/2012 13:00,2.5047,0.0,0.0
1670,3/10/2012 14:00,3.2967000000000004,0.0,0.0
1671,3/10/2012 15:00,3.9897,0.0,1.1204999999999998
1672,3/10/2012 16:00,4.2669,0.0,0.8145000000000001
1673,3/10/2012 17:00,3.1877999999999997,0.0,0.6435
1674,3/10/2012 18:00,2.9898000000000002,1.2300000000000002,0.603
1675,3/10/2012 19:00,3.6729000000000003,0.0,0.6525000000000001
1676,3/10/2012 20:00,4.2075000000000005,0.0,0.7695000000000001
1677,3/10/2012 21:00,4.0491,1.095,0.9585
1678,3/10/2012 22:00,3.7422,1.26,1.4220000000000002
1679,3/10/2012 23:00,45.8667,1.17,2.358
1680,3/11/2012 0:00,1.2672,0.0,4.0365
1681,3/11/2012 1:00,0.9801000000000001,0.0,6.1514999999999995
1682,3/11/2012 2:00,0.8613,0.0,8.4915
1683,3/11/2012 3:00,1.0692000000000002,1.305,10.935
1684,3/11/2012 4:00,1.2672,1.365,12.388499999999999
1685,3/11/2012 5:00,1.2572999999999999,2.1149999999999998,13.369499999999999
1686,3/11/2012 6:00,0.9999,2.7150000000000003,14.652
1687,3/11/2012 7:00,0.7424999999999999,3.33,15.6555
1688,3/11/2012 8:00,0.0,4.0649999999999995,15.606
1689,3/11/2012 9:00,1.3167,4.995,14.382
1690,3/11/2012 10:00,1.3662,5.475,12.123
1691,3/11/2012 11:00,1.3167,5.1899999999999995,8.8335
1692,3/11/2012 12:00,1.386,4.575,4.9995
1693,3/11/2012 13:00,28.521900000000002,3.6149999999999998,2.862
1694,3/11/2012 14:00,0.8415,2.49,2.322
1695,3/11/2012 15:00,34.3827,1.665,2.7225
1696,3/11/2012 16:00,35.3727,1.0650000000000002,2.9205
1697,3/11/2012 17:00,35.2638,0.0,3.0735
1698,3/11/2012 18:00,36.1152,0.0,3.528
1699,3/11/2012 19:00,32.8185,0.0,4.032
1700,3/11/2012 20:00,30.0267,0.0,5.674499999999999
1701,3/11/2012 21:00,28.7397,0.0,5.283
1702,3/11/2012 22:00,28.4427,0.0,3.978
1703,3/11/2012 23:00,28.0962,0.0,3.7170000000000005
1704,3/12/2012 0:00,26.9379,0.0,3.8655000000000004
1705,3/12/2012 1:00,25.7895,0.0,3.834
1706,3/12/2012 2:00,24.0273,0.0,3.699
1707,3/12/2012 3:00,17.5824,0.0,3.5864999999999996
1708,3/12/2012 4:00,10.5435,0.0,2.9789999999999996
1709,3/12/2012 5:00,8.2071,0.0,2.5335
1710,3/12/2012 6:00,8.4447,0.0,2.385
1711,3/12/2012 7:00,7.791300000000001,1.26,2.403
1712,3/12/2012 8:00,7.880400000000001,1.365,2.493
1713,3/12/2012 9:00,7.118100000000001,0.0,3.1814999999999998
1714,3/12/2012 10:00,7.6725,0.0,8.2575
1715,3/12/2012 11:00,7.504200000000001,23.775,6.255000000000001
1716,3/12/2012 12:00,6.534000000000001,27.21,5.7465
1717,3/12/2012 13:00,5.4648,0.0,4.2165
1718,3/12/2012 14:00,7.2666,0.0,3.5145
1719,3/12/2012 15:00,9.0783,0.0,3.1814999999999998
1720,3/12/2012 16:00,9.424800000000001,0.0,3.834
1721,3/12/2012 17:00,7.9596,0.0,3.7439999999999998
1722,3/12/2012 18:00,6.4052999999999995,0.0,4.2795000000000005
1723,3/12/2012 19:00,4.8708,0.0,0.918
1724,3/12/2012 20:00,3.5838,0.0,1.233
1725,3/12/2012 21:00,2.7819,0.0,1.5345
1726,3/12/2012 22:00,2.4849,0.0,1.62
1727,3/12/2012 23:00,2.0196,0.0,1.4669999999999999
1728,3/13/2012 0:00,1.4454,0.0,1.3815000000000002
1729,3/13/2012 1:00,1.5542999999999998,0.0,1.3095
1730,3/13/2012 2:00,1.9107,0.0,1.188
1731,3/13/2012 3:00,2.0889,0.0,0.81
1732,3/13/2012 4:00,0.8415,1.32,0.8055
1733,3/13/2012 5:00,0.0,1.9949999999999999,1.044
1734,3/13/2012 6:00,0.0,3.09,1.233
1735,3/13/2012 7:00,0.0,3.9000000000000004,1.5525000000000002
1736,3/13/2012 8:00,0.0,4.08,1.9395
1737,3/13/2012 9:00,0.0,3.855,2.2365
1738,3/13/2012 10:00,0.0,2.85,0.4185
1739,3/13/2012 11:00,0.0,1.62,0.3825
1740,3/13/2012 12:00,0.0,0.0,0.43199999999999994
1741,3/13/2012 13:00,0.0,0.0,0.33749999999999997
1742,3/13/2012 14:00,0.0,0.0,5.22
1743,3/13/2012 15:00,0.9009,42.644999999999996,5.409
1744,3/13/2012 16:00,1.6631999999999998,43.59,4.5045
1745,3/13/2012 17:00,3.0393000000000003,43.41,3.708
1746,3/13/2012 18:00,4.712400000000001,44.685,3.4515000000000002
1747,3/13/2012 19:00,5.5638,34.575,3.024
1748,3/13/2012 20:00,5.5539,14.295,2.4570000000000003
1749,3/13/2012 21:00,5.9103,12.57,1.9485
1750,3/13/2012 22:00,5.544,11.25,1.584
1751,3/13/2012 23:00,5.0094,8.97,1.3860000000000001
1752,3/14/2012 0:00,5.4549,7.065,1.1159999999999999
1753,3/14/2012 1:00,5.9301,5.805,0.9945
1754,3/14/2012 2:00,0.7623,5.069999999999999,0.8145000000000001
1755,3/14/2012 3:00,0.9405,4.199999999999999,0.0
1756,3/14/2012 4:00,1.0494,3.165,0.0
1757,3/14/2012 5:00,0.9999,2.355,0.0
1758,3/14/2012 6:00,0.693,2.88,0.0
1759,3/14/2012 7:00,0.0,4.2299999999999995,0.0
1760,3/14/2012 8:00,0.0,5.865,0.0
1761,3/14/2012 9:00,0.7424999999999999,7.71,0.0
1762,3/14/2012 10:00,1.0098,9.915000000000001,0.0
1763,3/14/2012 11:00,0.9503999999999999,4.784999999999999,0.0
1764,3/14/2012 12:00,0.7623,3.495,0.4005
1765,3/14/2012 13:00,0.0,6.465,0.45449999999999996
1766,3/14/2012 14:00,0.7227,0.0,0.4365
1767,3/14/2012 15:00,0.8217,0.0,0.45
1768,3/14/2012 16:00,0.8118000000000001,0.0,0.9945
1769,3/14/2012 17:00,0.0,0.0,0.9045
1770,3/14/2012 18:00,0.7227,0.0,0.0
1771,3/14/2012 19:00,0.9503999999999999,0.0,0.0
1772,3/14/2012 20:00,1.1979,0.0,0.34650000000000003
1773,3/14/2012 21:00,1.4553,0.0,0.46799999999999997
1774,3/14/2012 22:00,1.7028,0.0,0.36900000000000005
1775,3/14/2012 23:00,1.7325000000000002,0.0,0.36900000000000005
1776,3/15/2012 0:00,1.4849999999999999,0.0,0.6930000000000001
1777,3/15/2012 1:00,1.2078,1.2149999999999999,1.0485
1778,3/15/2012 2:00,0.9503999999999999,5.6850000000000005,0.396
1779,3/15/2012 3:00,0.0,5.805,0.47250000000000003
1780,3/15/2012 4:00,0.0,5.16,0.4815
1781,3/15/2012 5:00,0.0,4.71,0.513
1782,3/15/2012 6:00,0.0,5.430000000000001,0.5535
1783,3/15/2012 7:00,0.0,8.175,0.4995
1784,3/15/2012 8:00,0.0,11.565,0.3735
1785,3/15/2012 9:00,0.0,15.885,0.0
1786,3/15/2012 10:00,0.0,22.875,0.0
1787,3/15/2012 11:00,0.0,26.505,0.0
1788,3/15/2012 12:00,0.0,29.79,0.0
1789,3/15/2012 13:00,22.4037,36.855,0.0
1790,3/15/2012 14:00,31.1949,34.56,0.5355000000000001
1791,3/15/2012 15:00,8.7318,25.935,1.0710000000000002
1792,3/15/2012 16:00,10.6227,18.87,1.6335
1793,3/15/2012 17:00,11.2662,12.614999999999998,2.1195
1794,3/15/2012 18:00,11.8008,10.29,2.7135
1795,3/15/2012 19:00,11.7117,7.694999999999999,3.3300000000000005
1796,3/15/2012 20:00,11.9097,5.49,2.2635
1797,3/15/2012 21:00,12.6423,3.885,1.3365
1798,3/15/2012 22:00,13.741200000000001,2.805,1.2555
1799,3/15/2012 23:00,15.1965,2.025,1.1745
1800,3/16/2012 0:00,18.8892,1.32,1.0125
1801,3/16/2012 1:00,24.1362,14.700000000000001,1.584
1802,3/16/2012 2:00,29.016900000000003,8.91,1.6605
1803,3/16/2012 3:00,34.204499999999996,5.7299999999999995,1.53
1804,3/16/2012 4:00,34.946999999999996,4.8,1.287
1805,3/16/2012 5:00,29.3436,4.725,0.999
1806,3/16/2012 6:00,26.165699999999998,4.95,0.747
1807,3/16/2012 7:00,27.314099999999996,5.430000000000001,0.9045
1808,3/16/2012 8:00,31.056299999999997,5.61,1.089
1809,3/16/2012 9:00,35.0856,2.37,1.2555
1810,3/16/2012 10:00,40.233599999999996,2.9549999999999996,8.892
1811,3/16/2012 11:00,40.1742,3.3899999999999997,8.7075
1812,3/16/2012 12:00,0.0,3.93,10.566
1813,3/16/2012 13:00,21.2652,3.66,12.050999999999998
1814,3/16/2012 14:00,20.7306,76.155,13.0815
1815,3/16/2012 15:00,19.453500000000002,70.275,13.8375
1816,3/16/2012 16:00,17.9388,69.705,13.167000000000002
1817,3/16/2012 17:00,16.2558,3.135,12.5505
1818,3/16/2012 18:00,16.008300000000002,4.155,10.7775
1819,3/16/2012 19:00,12.206700000000001,5.49,8.415
1820,3/16/2012 20:00,7.9497,4.59,5.9535
1821,3/16/2012 21:00,0.0,4.8,4.086
1822,3/16/2012 22:00,0.0,5.415,2.9970000000000003
1823,3/16/2012 23:00,0.0,5.1000000000000005,2.4615
1824,3/17/2012 0:00,0.0,4.365,1.8809999999999998
1825,3/17/2012 1:00,0.0,4.905,1.593
1826,3/17/2012 2:00,0.9009,5.235,1.341
1827,3/17/2012 3:00,1.0494,5.94,0.44550000000000006
1828,3/17/2012 4:00,0.8415,7.065,0.0
1829,3/17/2012 5:00,0.0,7.62,0.0
1830,3/17/2012 6:00,0.0,8.295,0.0
1831,3/17/2012 7:00,0.0,11.100000000000001,0.35550000000000004
1832,3/17/2012 8:00,0.0,12.57,0.5579999999999999
1833,3/17/2012 9:00,0.0,11.475,0.8415
1834,3/17/2012 10:00,0.0,11.145000000000001,1.089
1835,3/17/2012 11:00,0.0,11.64,1.08
1836,3/17/2012 12:00,0.0,9.945,0.6795
1837,3/17/2012 13:00,0.0,8.415,0.5760000000000001
1838,3/17/2012 14:00,25.9182,6.75,0.5625
1839,3/17/2012 15:00,25.443,5.7299999999999995,0.549
1840,3/17/2012 16:00,23.0868,5.28,0.531
1841,3/17/2012 17:00,21.3246,2.25,0.477
1842,3/17/2012 18:00,20.1663,3.21,0.441
1843,3/17/2012 19:00,15.424199999999999,3.645,0.441
1844,3/17/2012 20:00,17.8002,3.6750000000000003,0.414
1845,3/17/2012 21:00,19.3248,3.63,0.3645
1846,3/17/2012 22:00,20.988,3.6,0.3825
1847,3/17/2012 23:00,20.4138,3.7199999999999998,0.4365
1848,3/18/2012 0:00,19.700999999999997,3.8400000000000003,0.504
1849,3/18/2012 1:00,19.2456,3.9899999999999998,0.6525000000000001
1850,3/18/2012 2:00,18.3348,4.260000000000001,0.855
1851,3/18/2012 3:00,18.1071,4.485,0.612
1852,3/18/2012 4:00,16.651799999999998,3.765,0.801
1853,3/18/2012 5:00,0.8019,2.145,1.1745
1854,3/18/2012 6:00,0.7029000000000001,1.7399999999999998,1.4535
1855,3/18/2012 7:00,17.4042,2.415,1.602
1856,3/18/2012 8:00,18.3447,4.425,1.53
1857,3/18/2012 9:00,17.1369,6.795,1.2599999999999998
1858,3/18/2012 10:00,15.5034,11.43,0.9854999999999999
1859,3/18/2012 11:00,14.652000000000003,20.625,0.6615
1860,3/18/2012 12:00,1.4949000000000001,30.779999999999998,0.6299999999999999
1861,3/18/2012 13:00,1.4849999999999999,36.0,1.0485
1862,3/18/2012 14:00,1.4256,35.655,1.4715
1863,3/18/2012 15:00,1.6631999999999998,29.865,1.7414999999999998
1864,3/18/2012 16:00,1.9602000000000002,16.14,1.7505
1865,3/18/2012 17:00,1.9998,12.764999999999999,1.4894999999999998
1866,3/18/2012 18:00,1.6929,13.455,1.2285000000000001
1867,3/18/2012 19:00,0.9702,11.34,0.9854999999999999
1868,3/18/2012 20:00,0.0,9.6,0.8415
1869,3/18/2012 21:00,0.0,8.355,0.7695000000000001
1870,3/18/2012 22:00,5.6826,7.140000000000001,0.72
1871,3/18/2012 23:00,4.326300000000001,6.135,1.9709999999999999
1872,3/19/2012 0:00,3.3956999999999997,5.250000000000001,1.9845
1873,3/19/2012 1:00,2.8017,4.365,1.7055000000000002
1874,3/19/2012 2:00,2.4354,3.765,1.1745
1875,3/19/2012 3:00,2.2176,3.105,1.1159999999999999
1876,3/19/2012 4:00,2.0295,2.5949999999999998,0.954
1877,3/19/2012 5:00,1.8215999999999999,2.28,0.729
1878,3/19/2012 6:00,1.5147,2.4600000000000004,0.594
1879,3/19/2012 7:00,1.0197,3.435,0.477
1880,3/19/2012 8:00,0.8811,5.055,2.6055
1881,3/19/2012 9:00,1.2276,8.34,3.9555000000000002
1882,3/19/2012 10:00,1.5741,14.895,4.4145
1883,3/19/2012 11:00,2.0394,21.93,3.267
1884,3/19/2012 12:00,2.5244999999999997,28.514999999999997,3.0555
1885,3/19/2012 13:00,3.3263999999999996,31.605,3.7170000000000005
1886,3/19/2012 14:00,3.9105,29.79,4.9185
1887,3/19/2012 15:00,4.3461,26.37,5.5575
1888,3/19/2012 16:00,3.9996,13.545,5.364
1889,3/19/2012 17:00,2.4354,9.3,5.2605
1890,3/19/2012 18:00,1.3266,10.335,4.8285
1891,3/19/2012 19:00,1.0791,10.02,4.5225
1892,3/19/2012 20:00,1.0791,10.229999999999999,4.2975
1893,3/19/2012 21:00,0.9603,10.275,4.3020000000000005
1894,3/19/2012 22:00,0.7524,9.765,4.329
1895,3/19/2012 23:00,0.0,8.325,4.266
1896,3/20/2012 0:00,0.0,6.959999999999999,15.642000000000001
1897,3/20/2012 1:00,6.2766,5.715,14.67
1898,3/20/2012 2:00,6.316199999999999,4.635,11.8485
1899,3/20/2012 3:00,6.831,3.81,9.7425
1900,3/20/2012 4:00,9.9693,3.5700000000000003,6.1425
1901,3/20/2012 5:00,14.206499999999998,3.6,4.585500000000001
1902,3/20/2012 6:00,18.8199,3.66,4.585500000000001
1903,3/20/2012 7:00,23.9481,4.515,4.023
1904,3/20/2012 8:00,30.7395,6.1499999999999995,3.393
1905,3/20/2012 9:00,40.689,7.74,3.006
1906,3/20/2012 10:00,0.0,7.74,2.907
1907,3/20/2012 11:00,0.0,6.645,2.9745000000000004
1908,3/20/2012 12:00,0.0,3.9899999999999998,2.961
1909,3/20/2012 13:00,0.0,2.5349999999999997,2.916
1910,3/20/2012 14:00,0.792,2.25,2.8305
1911,3/20/2012 15:00,0.7722,1.9200000000000002,2.7225
1912,3/20/2012 16:00,0.0,2.5949999999999998,2.448
1913,3/20/2012 17:00,0.0,4.44,1.926
1914,3/20/2012 18:00,0.0,7.215,1.5255
1915,3/20/2012 19:00,0.0,10.455,1.206
1916,3/20/2012 20:00,75.1509,13.260000000000002,1.0125
1917,3/20/2012 21:00,74.4876,1.11,0.7380000000000001
1918,3/20/2012 22:00,73.3788,1.155,0.405
1919,3/20/2012 23:00,60.9444,1.29,0.4275
1920,3/21/2012 0:00,65.1618,1.545,0.4635
1921,3/21/2012 1:00,74.3787,1.7249999999999999,0.5984999999999999
1922,3/21/2012 2:00,76.3389,2.1149999999999998,0.8190000000000001
1923,3/21/2012 3:00,78.8634,2.34,1.0710000000000002
1924,3/21/2012 4:00,80.5563,3.18,1.3815000000000002
1925,3/21/2012 5:00,80.2593,3.765,1.6380000000000001
1926,3/21/2012 6:00,0.0,97.53,1.5975
1927,3/21/2012 7:00,0.0,58.919999999999995,3.069
1928,3/21/2012 8:00,0.0,1.7399999999999998,4.041
1929,3/21/2012 9:00,0.0,0.0,4.8285
1930,3/21/2012 10:00,0.0,0.0,4.8735
1931,3/21/2012 11:00,0.0,0.0,4.491
1932,3/21/2012 12:00,0.0,0.0,3.5864999999999996
1933,3/21/2012 13:00,0.0,0.0,2.3445
1934,3/21/2012 14:00,0.0,0.0,1.4625000000000001
1935,3/21/2012 15:00,0.0,0.0,1.0215
1936,3/21/2012 16:00,0.0,1.47,0.9135
1937,3/21/2012 17:00,0.0,2.25,0.7829999999999999
1938,3/21/2012 18:00,0.0,3.33,0.5984999999999999
1939,3/21/2012 19:00,0.7524,4.17,0.4905
1940,3/21/2012 20:00,0.99,4.035,0.44550000000000006
1941,3/21/2012 21:00,1.0395,4.275,0.42300000000000004
1942,3/21/2012 22:00,1.0494,4.53,0.414
1943,3/21/2012 23:00,1.0295999999999998,5.114999999999999,0.414
1944,3/22/2012 0:00,1.0295999999999998,5.67,0.42300000000000004
1945,3/22/2012 1:00,60.9444,7.86,0.4275
1946,3/22/2012 2:00,63.5382,7.605,0.396
1947,3/22/2012 3:00,63.3699,7.034999999999999,0.333
1948,3/22/2012 4:00,1.0395,6.165,0.0
1949,3/22/2012 5:00,0.0,5.085,0.0
1950,3/22/2012 6:00,0.0,3.735,0.36
1951,3/22/2012 7:00,0.0,2.8649999999999998,0.4365
1952,3/22/2012 8:00,0.0,2.265,0.4815
1953,3/22/2012 9:00,0.0,1.62,0.594
1954,3/22/2012 10:00,0.0,1.2300000000000002,0.5355000000000001
1955,3/22/2012 11:00,0.0,0.0,0.4815
1956,3/22/2012 12:00,0.0,0.0,0.47250000000000003
1957,3/22/2012 13:00,0.0,0.0,0.333
1958,3/22/2012 14:00,0.0,0.0,0.0
1959,3/22/2012 15:00,0.0,0.0,0.0
1960,3/22/2012 16:00,0.0,0.0,0.0
1961,3/22/2012 17:00,0.0,0.0,0.0
1962,3/22/2012 18:00,0.7424999999999999,0.0,0.0
1963,3/22/2012 19:00,1.0989,0.0,0.0
1964,3/22/2012 20:00,3.0591,0.0,0.0
1965,3/22/2012 21:00,3.3363,0.0,4.4864999999999995
1966,3/22/2012 22:00,2.6532,1.185,6.03
1967,3/22/2012 23:00,1.8908999999999998,1.6500000000000001,6.4665
1968,3/23/2012 0:00,1.3662,1.965,6.016500000000001
1969,3/23/2012 1:00,1.0197,2.235,4.941
1970,3/23/2012 2:00,0.8514,3.045,3.807
1971,3/23/2012 3:00,0.0,3.795,2.754
1972,3/23/2012 4:00,0.0,4.365,1.8225
1973,3/23/2012 5:00,0.0,4.74,1.1159999999999999
1974,3/23/2012 6:00,0.0,5.88,0.7064999999999999
1975,3/23/2012 7:00,0.9306,6.39,0.513
1976,3/23/2012 8:00,2.1186,7.665,0.44550000000000006
1977,3/23/2012 9:00,3.9303,11.07,0.45449999999999996
1978,3/23/2012 10:00,5.435099999999999,11.895,0.513
1979,3/23/2012 11:00,6.6231,12.450000000000001,0.5175
1980,3/23/2012 12:00,6.791399999999999,13.29,0.5895
1981,3/23/2012 13:00,6.0984,16.62,0.6345
1982,3/23/2012 14:00,4.0293,20.055000000000003,0.6165
1983,3/23/2012 15:00,20.7306,22.455,0.6299999999999999
1984,3/23/2012 16:00,22.0275,22.47,0.6075
1985,3/23/2012 17:00,19.9782,22.215,0.567
1986,3/23/2012 18:00,17.7903,25.200000000000003,0.5445
1987,3/23/2012 19:00,17.176499999999997,22.590000000000003,0.549
1988,3/23/2012 20:00,17.028,17.28,0.4905
1989,3/23/2012 21:00,15.859800000000002,11.25,0.34650000000000003
1990,3/23/2012 22:00,14.8302,8.25,0.513
1991,3/23/2012 23:00,11.3256,6.8999999999999995,0.6930000000000001
1992,3/24/2012 0:00,10.008899999999999,5.715,0.7515
1993,3/24/2012 1:00,9.1278,6.03,0.8055
1994,3/24/2012 2:00,11.4939,6.48,0.756
1995,3/24/2012 3:00,12.1473,5.7,0.6615
1996,3/24/2012 4:00,9.1278,4.8149999999999995,0.5805
1997,3/24/2012 5:00,17.3349,4.305,0.5535
1998,3/24/2012 6:00,19.5921,4.125,0.54
1999,3/24/2012 7:00,22.4235,3.36,0.5175
2000,3/24/2012 8:00,19.473300000000002,3.795,2.664
2001,3/24/2012 9:00,12.9096,0.0,2.5199999999999996
2002,3/24/2012 10:00,10.147499999999999,0.0,2.1510000000000002
2003,3/24/2012 11:00,11.632499999999999,0.0,2.0475
2004,3/24/2012 12:00,13.3155,0.0,2.1015
2005,3/24/2012 13:00,13.6719,0.0,2.088
2006,3/24/2012 14:00,11.6622,0.0,1.899
2007,3/24/2012 15:00,9.6624,0.0,1.989
2008,3/24/2012 16:00,7.7517,0.0,2.2995
2009,3/24/2012 17:00,5.7024,0.0,2.736
2010,3/24/2012 18:00,3.7224,1.71,2.8484999999999996
2011,3/24/2012 19:00,2.6334,2.04,2.9295000000000004
2012,3/24/2012 20:00,2.0493,2.3850000000000002,3.0555
2013,3/24/2012 21:00,1.6038,2.67,2.988
2014,3/24/2012 22:00,1.5542999999999998,2.925,1.5434999999999999
2015,3/24/2012 23:00,1.4355,3.495,0.8505
2016,3/25/2012 0:00,1.5246,4.305,0.0
2017,3/25/2012 1:00,1.4355,5.61,0.0
2018,3/25/2012 2:00,1.3959,56.625,0.0
2019,3/25/2012 3:00,1.1682,1.35,0.0
2020,3/25/2012 4:00,1.2375,1.08,0.0
2021,3/25/2012 5:00,1.5642000000000003,0.0,0.0
2022,3/25/2012 6:00,1.4751,0.0,0.0
2023,3/25/2012 7:00,1.4157,0.0,0.0
2024,3/25/2012 8:00,8.1279,0.0,0.0
2025,3/25/2012 9:00,7.623,0.0,0.0
2026,3/25/2012 10:00,4.9104,1.62,0.0
2027,3/25/2012 11:00,3.4353000000000002,2.4600000000000004,0.0
2028,3/25/2012 12:00,3.0393000000000003,3.375,0.0
2029,3/25/2012 13:00,2.2374,4.425,0.0
2030,3/25/2012 14:00,1.1682,4.83,0.0
2031,3/25/2012 15:00,0.0,4.44,0.0
2032,3/25/2012 16:00,0.0,4.0200000000000005,0.0
2033,3/25/2012 17:00,0.7128,3.54,0.0
2034,3/25/2012 18:00,1.2177,2.97,0.0
2035,3/25/2012 19:00,1.9503,3.5700000000000003,0.0
2036,3/25/2012 20:00,2.1285,3.855,0.0
2037,3/25/2012 21:00,1.8908999999999998,3.75,0.0
2038,3/25/2012 22:00,1.4355,3.63,0.0
2039,3/25/2012 23:00,1.0692000000000002,3.5700000000000003,0.0
2040,3/26/2012 0:00,0.8613,3.435,0.3285
2041,3/26/2012 1:00,0.0,3.24,0.48600000000000004
2042,3/26/2012 2:00,13.285800000000002,2.94,0.6299999999999999
2043,3/26/2012 3:00,18.7605,2.73,0.8460000000000001
2044,3/26/2012 4:00,21.582,2.5500000000000003,1.1115
2045,3/26/2012 5:00,20.0277,1.9500000000000002,1.242
2046,3/26/2012 6:00,16.8498,13.139999999999999,1.1475
2047,3/26/2012 7:00,13.889700000000001,16.695,6.237
2048,3/26/2012 8:00,11.2761,15.03,6.2955
2049,3/26/2012 9:00,9.2862,10.305,5.832
2050,3/26/2012 10:00,8.1378,5.3100000000000005,6.345
2051,3/26/2012 11:00,7.613099999999999,2.07,5.5035
2052,3/26/2012 12:00,7.553700000000001,1.2149999999999999,5.6565
2053,3/26/2012 13:00,0.0,0.0,4.338
2054,3/26/2012 14:00,0.0,1.545,4.6575
2055,3/26/2012 15:00,0.0,3.045,3.6134999999999997
2056,3/26/2012 16:00,0.0,6.615,3.2760000000000002
2057,3/26/2012 17:00,0.0,11.355,2.601
2058,3/26/2012 18:00,5.0094,13.725,2.2184999999999997
2059,3/26/2012 19:00,3.5244,11.04,1.8944999999999999
2060,3/26/2012 20:00,2.1879,6.585,1.6605
2061,3/26/2012 21:00,1.2177,3.765,1.3499999999999999
2062,3/26/2012 22:00,2.5047,2.1750000000000003,0.5175
2063,3/26/2012 23:00,2.6136,1.485,0.0
2064,3/27/2012 0:00,2.7422999999999997,1.14,0.0
2065,3/27/2012 1:00,2.6037,0.0,0.0
2066,3/27/2012 2:00,2.4552,1.11,0.0
2067,3/27/2012 3:00,16.2558,1.485,0.0
2068,3/27/2012 4:00,17.6319,5.7299999999999995,0.0
2069,3/27/2012 5:00,2.2868999999999997,3.5700000000000003,0.0
2070,3/27/2012 6:00,2.9699999999999998,2.7899999999999996,0.40950000000000003
2071,3/27/2012 7:00,5.3658,2.355,0.639
2072,3/27/2012 8:00,9.5535,1.7249999999999999,0.999
2073,3/27/2012 9:00,14.424299999999999,1.68,1.3905
2074,3/27/2012 10:00,17.4834,1.5,1.755
2075,3/27/2012 11:00,12.5037,1.5599999999999998,2.1015
2076,3/27/2012 12:00,9.207,2.085,1.674
2077,3/27/2012 13:00,10.0881,2.415,1.6650000000000003
2078,3/27/2012 14:00,9.7614,2.25,1.7325
2079,3/27/2012 15:00,10.0386,2.19,1.5659999999999998
2080,3/27/2012 16:00,9.9891,2.415,1.278
2081,3/27/2012 17:00,9.9891,2.475,1.3095
2082,3/27/2012 18:00,9.3852,2.805,1.1835
2083,3/27/2012 19:00,8.3457,3.6,1.125
2084,3/27/2012 20:00,8.0388,4.7700000000000005,1.0575
2085,3/27/2012 21:00,8.0586,4.995,1.0845
2086,3/27/2012 22:00,7.3458000000000006,4.98,0.9585
2087,3/27/2012 23:00,6.266699999999999,7.08,0.7875000000000001
2088,3/28/2012 0:00,4.95,5.94,1.2285000000000001
2089,3/28/2012 1:00,4.3065,5.565,1.5750000000000002
2090,3/28/2012 2:00,3.2076,5.37,1.8765
2091,3/28/2012 3:00,2.3364,5.595,2.1105
2092,3/28/2012 4:00,1.4751,5.775,1.998
2093,3/28/2012 5:00,0.99,5.595,1.5165
2094,3/28/2012 6:00,0.0,5.955,1.305
2095,3/28/2012 7:00,0.0,6.915,1.404
2096,3/28/2012 8:00,0.0,0.0,1.7595
2097,3/28/2012 9:00,0.7128,1.095,2.2995
2098,3/28/2012 10:00,1.6434,1.365,2.781
2099,3/28/2012 11:00,2.6829,1.6949999999999998,3.168
2100,3/28/2012 12:00,2.6532,1.71,3.5820000000000003
2101,3/28/2012 13:00,3.5937,1.53,4.23
2102,3/28/2012 14:00,5.0786999999999995,1.26,5.1705000000000005
2103,3/28/2012 15:00,6.1776,1.0650000000000002,5.5305
2104,3/28/2012 16:00,6.9003,0.0,5.0985
2105,3/28/2012 17:00,6.138,0.0,4.2795000000000005
2106,3/28/2012 18:00,5.9103,0.0,4.1129999999999995
2107,3/28/2012 19:00,5.5341,0.0,1.0125
2108,3/28/2012 20:00,6.930000000000001,0.0,1.2645
2109,3/28/2012 21:00,8.236799999999999,0.0,1.224
2110,3/28/2012 22:00,0.0,0.0,0.801
2111,3/28/2012 23:00,0.0,2.67,6.0569999999999995
2112,3/29/2012 0:00,0.0,2.97,6.5295000000000005
2113,3/29/2012 1:00,0.0,3.735,6.569999999999999
2114,3/29/2012 2:00,0.0,1.5599999999999998,5.4675
2115,3/29/2012 3:00,0.0,1.2750000000000001,4.9815000000000005
2116,3/29/2012 4:00,0.0,1.08,4.2705
2117,3/29/2012 5:00,0.7029000000000001,0.0,3.348
2118,3/29/2012 6:00,2.6235,0.0,2.907
2119,3/29/2012 7:00,8.0982,0.0,2.574
2120,3/29/2012 8:00,13.8798,0.0,2.5065
2121,3/29/2012 9:00,2.6037,0.0,2.7225
2122,3/29/2012 10:00,64.9341,0.0,18.9045
2123,3/29/2012 11:00,66.68639999999999,0.0,18.1485
2124,3/29/2012 12:00,43.9659,0.0,17.586
2125,3/29/2012 13:00,48.1833,0.0,16.5825
2126,3/29/2012 14:00,53.281800000000004,0.0,19.2465
2127,3/29/2012 15:00,54.648,0.0,21.325499999999998
2128,3/29/2012 16:00,53.7174,0.0,21.5505
2129,3/29/2012 17:00,54.1134,0.0,21.415499999999998
2130,3/29/2012 18:00,5.742,2.07,21.5955
2131,3/29/2012 19:00,5.2074,1.5599999999999998,21.509999999999998
2132,3/29/2012 20:00,4.6827000000000005,1.17,21.5325
2133,3/29/2012 21:00,4.4451,0.0,20.9925
2134,3/29/2012 22:00,3.1977,0.0,20.151
2135,3/29/2012 23:00,2.2572,0.0,19.2195
2136,3/30/2012 0:00,2.7521999999999998,0.0,18.549
2137,3/30/2012 1:00,3.3561,0.0,18.697499999999998
2138,3/30/2012 2:00,3.1977,0.0,17.009999999999998
2139,3/30/2012 3:00,2.7422999999999997,0.0,15.065999999999999
2140,3/30/2012 4:00,2.4057,0.0,11.470500000000001
2141,3/30/2012 5:00,2.1582,4.8149999999999995,7.461
2142,3/30/2012 6:00,2.0394,3.795,5.157
2143,3/30/2012 7:00,1.9404,0.0,4.1175
2144,3/30/2012 8:00,1.8414,0.0,2.259
2145,3/30/2012 9:00,1.7325000000000002,0.0,1.2195
2146,3/30/2012 10:00,1.6236000000000002,1.7850000000000001,0.7155
2147,3/30/2012 11:00,24.75,3.375,0.4365
2148,3/30/2012 12:00,27.274500000000003,5.865,0.0
2149,3/30/2012 13:00,29.0268,9.345,0.0
2150,3/30/2012 14:00,0.0,13.38,0.0
2151,3/30/2012 15:00,0.0,18.21,0.0
2152,3/30/2012 16:00,0.0,19.32,0.0
2153,3/30/2012 17:00,0.0,0.0,0.0
2154,3/30/2012 18:00,0.0,0.0,0.0
2155,3/30/2012 19:00,0.0,0.0,0.0
2156,3/30/2012 20:00,0.7128,0.0,0.774
2157,3/30/2012 21:00,0.9009,1.2300000000000002,1.368
2158,3/30/2012 22:00,1.98,2.085,1.7505
2159,3/30/2012 23:00,3.4749,3.54,1.8719999999999999
