,date,Wind1,Wind2,Wind3
5760,8/28/2012 0:00,4.2174,0.0,4.824
5761,8/28/2012 1:00,3.5046,1.365,4.1445
5762,8/28/2012 2:00,3.1085999999999996,1.0650000000000002,3.6089999999999995
5763,8/28/2012 3:00,2.9106,1.155,3.1769999999999996
5764,8/28/2012 4:00,2.8215,0.0,0.0
5765,8/28/2012 5:00,2.6037,7.29,0.0
5766,8/28/2012 6:00,2.1681,4.56,0.0
5767,8/28/2012 7:00,1.9899,3.345,0.0
5768,8/28/2012 8:00,1.6038,2.91,0.0
5769,8/28/2012 9:00,1.2771,2.4,0.0
5770,8/28/2012 10:00,0.9801000000000001,2.5349999999999997,0.0
5771,8/28/2012 11:00,0.9207,3.015,7.065
5772,8/28/2012 12:00,4.9203,3.135,6.1695
5773,8/28/2012 13:00,4.4649,0.0,5.8185
5774,8/28/2012 14:00,4.4946,1.305,6.3854999999999995
5775,8/28/2012 15:00,4.3857,1.905,0.7515
5776,8/28/2012 16:00,3.4551,2.1300000000000003,0.603
5777,8/28/2012 17:00,4.3956,2.055,0.4815
5778,8/28/2012 18:00,6.732,1.98,0.3195
5779,8/28/2012 19:00,7.6725,1.6949999999999998,0.0
5780,8/28/2012 20:00,9.414900000000001,1.485,0.0
5781,8/28/2012 21:00,11.9097,1.365,0.0
5782,8/28/2012 22:00,8.0487,1.38,0.3735
5783,8/28/2012 23:00,7.2468,1.5,11.8845
5784,8/29/2012 0:00,6.6825,1.665,11.1555
5785,8/29/2012 1:00,5.8707,1.935,10.799999999999999
5786,8/29/2012 2:00,4.1876999999999995,1.9949999999999999,11.232
5787,8/29/2012 3:00,2.7027,1.4100000000000001,12.78
5788,8/29/2012 4:00,3.1284000000000005,2.805,15.5565
5789,8/29/2012 5:00,4.0491,2.9549999999999996,16.1235
5790,8/29/2012 6:00,6.593400000000001,3.765,15.124500000000001
5791,8/29/2012 7:00,11.4147,2.76,13.0995
5792,8/29/2012 8:00,17.5527,3.03,10.057500000000001
5793,8/29/2012 9:00,20.6118,3.66,6.8265
5794,8/29/2012 10:00,23.9679,3.33,5.417999999999999
5795,8/29/2012 11:00,23.4531,4.275,4.32
5796,8/29/2012 12:00,18.7902,3.435,3.9285
5797,8/29/2012 13:00,9.0189,2.5349999999999997,3.4379999999999997
5798,8/29/2012 14:00,7.2963000000000005,0.0,2.5965000000000003
5799,8/29/2012 15:00,15.711300000000001,1.2750000000000001,1.431
5800,8/29/2012 16:00,12.6027,2.835,0.792
5801,8/29/2012 17:00,1.188,3.645,0.4815
5802,8/29/2012 18:00,1.4553,5.88,0.36900000000000005
5803,8/29/2012 19:00,1.4355,6.449999999999999,0.324
5804,8/29/2012 20:00,1.2572999999999999,5.52,1.1475
5805,8/29/2012 21:00,1.0593,4.155,1.0305
5806,8/29/2012 22:00,0.9009,2.76,0.9
5807,8/29/2012 23:00,0.0,1.905,0.7110000000000001
5808,8/30/2012 0:00,0.0,0.0,0.5535
5809,8/30/2012 1:00,11.6919,0.0,0.504
5810,8/30/2012 2:00,13.860000000000001,3.3000000000000003,0.44550000000000006
5811,8/30/2012 3:00,13.2066,7.364999999999999,0.378
5812,8/30/2012 4:00,12.1275,7.485,0.0
5813,8/30/2012 5:00,10.8405,6.165,0.0
5814,8/30/2012 6:00,9.5436,5.909999999999999,0.0
5815,8/30/2012 7:00,7.177499999999999,5.295,0.0
5816,8/30/2012 8:00,4.9896,4.47,0.0
5817,8/30/2012 9:00,3.6234,4.485,0.34650000000000003
5818,8/30/2012 10:00,2.8611,5.13,0.441
5819,8/30/2012 11:00,2.4255,2.895,0.5579999999999999
5820,8/30/2012 12:00,2.1186,2.67,0.6975
5821,8/30/2012 13:00,2.5047,2.1750000000000003,0.8055
5822,8/30/2012 14:00,2.8314,1.515,0.7245
5823,8/30/2012 15:00,2.8215,0.0,0.567
5824,8/30/2012 16:00,1.7325000000000002,0.0,0.4275
5825,8/30/2012 17:00,2.3958,2.685,0.342
5826,8/30/2012 18:00,9.8109,3.18,0.0
5827,8/30/2012 19:00,12.3354,4.095000000000001,3.5595000000000003
5828,8/30/2012 20:00,14.592600000000001,5.205,3.24
5829,8/30/2012 21:00,17.3448,7.59,2.88
5830,8/30/2012 22:00,18.1071,11.43,1.611
5831,8/30/2012 23:00,15.978599999999998,15.165,1.098
5832,8/31/2012 0:00,13.662,17.655,1.179
5833,8/31/2012 1:00,15.255899999999999,19.814999999999998,0.9404999999999999
5834,8/31/2012 2:00,17.275499999999997,21.09,0.8910000000000001
5835,8/31/2012 3:00,17.1468,22.169999999999998,0.918
5836,8/31/2012 4:00,16.8003,25.035,1.008
5837,8/31/2012 5:00,16.9587,26.715,1.08
5838,8/31/2012 6:00,16.2162,24.405,1.125
5839,8/31/2012 7:00,1.1781000000000001,22.95,1.1969999999999998
5840,8/31/2012 8:00,1.0098,2.04,0.9945
5841,8/31/2012 9:00,1.1286,2.1300000000000003,1.4985000000000002
5842,8/31/2012 10:00,1.3563,1.845,2.448
5843,8/31/2012 11:00,1.5048,1.8,2.754
5844,8/31/2012 12:00,1.6335000000000002,2.16,2.565
5845,8/31/2012 13:00,1.9503,3.0,2.529
5846,8/31/2012 14:00,1.7622,3.93,3.3435
5847,8/31/2012 15:00,1.0098,4.935,4.3695
5848,8/31/2012 16:00,2.5244999999999997,5.61,4.878
5849,8/31/2012 17:00,2.772,6.795,4.617
5850,8/31/2012 18:00,2.3661000000000003,7.17,4.005000000000001
5851,8/31/2012 19:00,2.3562000000000003,4.485,3.5055
5852,8/31/2012 20:00,2.8512,5.640000000000001,3.501
5853,8/31/2012 21:00,2.9304,7.635,3.3030000000000004
5854,8/31/2012 22:00,2.6927999999999996,9.195,1.5615
5855,8/31/2012 23:00,2.4948,10.32,0.6975
5856,9/1/2012 0:00,2.2967999999999997,13.559999999999999,0.603
5857,9/1/2012 1:00,2.0889,14.864999999999998,0.7829999999999999
5858,9/1/2012 2:00,1.8513000000000002,7.275,4.0095
5859,9/1/2012 3:00,0.9405,8.07,4.1850000000000005
5860,9/1/2012 4:00,1.7424000000000002,8.085,4.077
5861,9/1/2012 5:00,2.3661000000000003,6.99,4.284000000000001
5862,9/1/2012 6:00,2.7521999999999998,5.52,4.1579999999999995
5863,9/1/2012 7:00,2.9997000000000003,7.425000000000001,4.0545
5864,9/1/2012 8:00,3.1284000000000005,8.475,3.969
5865,9/1/2012 9:00,3.2967000000000004,9.24,3.9825
5866,9/1/2012 10:00,3.6927,10.59,3.8385000000000002
5867,9/1/2012 11:00,4.0293,12.344999999999999,3.7215
5868,9/1/2012 12:00,4.5935999999999995,13.335,3.4965
5869,9/1/2012 13:00,6.0093,15.69,3.0735
5870,9/1/2012 14:00,7.3062000000000005,19.275000000000002,2.637
5871,9/1/2012 15:00,8.1081,20.175,2.2095
5872,9/1/2012 16:00,9.4347,19.725,1.7865
5873,9/1/2012 17:00,10.177200000000001,18.99,1.395
5874,9/1/2012 18:00,9.801,18.57,1.593
5875,9/1/2012 19:00,9.5535,17.865,2.2635
5876,9/1/2012 20:00,9.414900000000001,16.155,2.6865
5877,9/1/2012 21:00,8.8506,13.32,2.1510000000000002
5878,9/1/2012 22:00,7.1874,24.3,1.647
5879,9/1/2012 23:00,7.7715,33.15,1.359
5880,9/2/2012 0:00,11.8701,32.505,0.9359999999999999
5881,9/2/2012 1:00,8.325899999999999,31.455,0.7965
5882,9/2/2012 2:00,7.92,28.725,0.8145000000000001
5883,9/2/2012 3:00,7.7418000000000005,24.975,0.918
5884,9/2/2012 4:00,8.236799999999999,19.2,0.9900000000000001
5885,9/2/2012 5:00,8.6922,9.48,1.1115
5886,9/2/2012 6:00,8.8704,8.55,1.134
5887,9/2/2012 7:00,8.4348,8.865,1.0710000000000002
5888,9/2/2012 8:00,7.791300000000001,7.545,0.8775
5889,9/2/2012 9:00,8.652600000000001,6.255,0.7245
5890,9/2/2012 10:00,8.4942,5.145,0.0
5891,9/2/2012 11:00,7.9497,4.199999999999999,0.0
5892,9/2/2012 12:00,9.0288,3.705,0.0
5893,9/2/2012 13:00,9.0882,3.135,0.0
5894,9/2/2012 14:00,9.365400000000001,2.745,0.0
5895,9/2/2012 15:00,9.0189,2.4,0.0
5896,9/2/2012 16:00,8.405100000000001,2.085,0.0
5897,9/2/2012 17:00,7.791300000000001,1.7249999999999999,0.0
5898,9/2/2012 18:00,7.830900000000001,1.665,0.0
5899,9/2/2012 19:00,8.6229,1.47,0.0
5900,9/2/2012 20:00,9.7416,15.045,0.0
5901,9/2/2012 21:00,4.0095,18.615000000000002,0.0
5902,9/2/2012 22:00,4.4946,23.909999999999997,0.0
5903,9/2/2012 23:00,4.9401,26.835,0.0
5904,9/3/2012 0:00,1.1286,25.92,0.0
5905,9/3/2012 1:00,0.8613,25.845000000000002,0.0
5906,9/3/2012 2:00,0.7821000000000001,22.349999999999998,0.0
5907,9/3/2012 3:00,1.2572999999999999,14.055000000000001,0.0
5908,9/3/2012 4:00,1.8315,9.0,0.0
5909,9/3/2012 5:00,2.0690999999999997,4.41,0.0
5910,9/3/2012 6:00,2.1978,2.1149999999999998,0.0
5911,9/3/2012 7:00,2.5145999999999997,1.8599999999999999,0.44550000000000006
5912,9/3/2012 8:00,2.5542,1.425,0.594
5913,9/3/2012 9:00,2.2275,0.0,0.6525000000000001
5914,9/3/2012 10:00,1.9206,0.0,0.666
5915,9/3/2012 11:00,1.584,0.0,0.6299999999999999
5916,9/3/2012 12:00,1.3068,3.42,0.54
5917,9/3/2012 13:00,0.8217,2.505,0.387
5918,9/3/2012 14:00,0.0,2.235,0.648
5919,9/3/2012 15:00,0.0,1.5750000000000002,0.666
5920,9/3/2012 16:00,0.0,0.0,0.6299999999999999
5921,9/3/2012 17:00,0.0,0.0,0.657
5922,9/3/2012 18:00,19.4832,0.0,0.72
5923,9/3/2012 19:00,22.3344,0.0,0.7785
5924,9/3/2012 20:00,28.9971,0.0,0.7695000000000001
5925,9/3/2012 21:00,39.8871,0.0,2.9475000000000002
5926,9/3/2012 22:00,48.569399999999995,0.0,2.8259999999999996
5927,9/3/2012 23:00,54.4698,0.0,2.574
5928,9/4/2012 0:00,57.5388,0.0,2.583
5929,9/4/2012 1:00,58.93470000000001,0.0,2.385
5930,9/4/2012 2:00,57.1527,0.0,2.349
5931,9/4/2012 3:00,52.182900000000004,0.0,1.143
5932,9/4/2012 4:00,48.0051,0.0,0.8775
5933,9/4/2012 5:00,45.3915,0.0,0.774
5934,9/4/2012 6:00,45.292500000000004,0.0,0.6615
5935,9/4/2012 7:00,48.1437,0.0,0.4815
5936,9/4/2012 8:00,50.74739999999999,0.0,0.351
5937,9/4/2012 9:00,55.222199999999994,1.635,0.0
5938,9/4/2012 10:00,58.6179,2.1300000000000003,0.0
5939,9/4/2012 11:00,58.4793,5.16,0.5265
5940,9/4/2012 12:00,55.92509999999999,8.64,0.8639999999999999
5941,9/4/2012 13:00,51.678000000000004,14.280000000000001,1.2465
5942,9/4/2012 14:00,43.173899999999996,22.544999999999998,1.9395
5943,9/4/2012 15:00,0.0,28.425,2.8575
5944,9/4/2012 16:00,0.0,27.839999999999996,3.0869999999999997
5945,9/4/2012 17:00,0.0,28.02,2.7675
5946,9/4/2012 18:00,3.6234,28.365,2.4615
5947,9/4/2012 19:00,8.276399999999999,26.700000000000003,2.385
5948,9/4/2012 20:00,17.5626,23.715,2.538
5949,9/4/2012 21:00,22.0671,22.185000000000002,2.9925
5950,9/4/2012 22:00,30.6306,7.29,2.628
5951,9/4/2012 23:00,35.3628,7.2,3.0915
5952,9/5/2012 0:00,1.1088,6.239999999999999,3.726
5953,9/5/2012 1:00,1.1583,5.3100000000000005,3.987
5954,9/5/2012 2:00,1.3365,4.635,3.393
5955,9/5/2012 3:00,1.8612,3.81,2.4975
5956,9/5/2012 4:00,2.6927999999999996,3.0,2.8754999999999997
5957,9/5/2012 5:00,3.2076,2.28,3.834
5958,9/5/2012 6:00,3.5244,0.0,4.1850000000000005
5959,9/5/2012 7:00,4.1085,0.0,4.131
5960,9/5/2012 8:00,5.6925,0.0,3.9735
5961,9/5/2012 9:00,6.969600000000001,0.0,4.000500000000001
5962,9/5/2012 10:00,7.9695,0.0,3.9374999999999996
5963,9/5/2012 11:00,8.6625,0.0,3.8565
5964,9/5/2012 12:00,32.274,1.11,3.924
5965,9/5/2012 13:00,22.1364,1.455,4.077
5966,9/5/2012 14:00,20.1465,1.8599999999999999,4.1129999999999995
5967,9/5/2012 15:00,28.0566,1.9949999999999999,3.807
5968,9/5/2012 16:00,14.751,2.265,3.7935
5969,9/5/2012 17:00,13.335299999999998,2.685,3.5595000000000003
5970,9/5/2012 18:00,11.0781,2.925,2.9520000000000004
5971,9/5/2012 19:00,13.7808,2.895,2.6235
5972,9/5/2012 20:00,17.1468,2.76,2.691
5973,9/5/2012 21:00,16.4637,2.7150000000000003,3.4290000000000003
5974,9/5/2012 22:00,18.027900000000002,0.0,3.807
5975,9/5/2012 23:00,20.4633,1.7249999999999999,4.176
5976,9/6/2012 0:00,29.818800000000003,2.73,4.392
5977,9/6/2012 1:00,52.6482,3.3150000000000004,4.1265
5978,9/6/2012 2:00,64.5678,3.6750000000000003,3.6315
5979,9/6/2012 3:00,73.7451,4.65,3.1725
5980,9/6/2012 4:00,82.6353,5.7,1.71
5981,9/6/2012 5:00,81.2196,6.21,1.2375
5982,9/6/2012 6:00,63.3699,6.6000000000000005,1.521
5983,9/6/2012 7:00,62.5581,24.705000000000002,1.6245
5984,9/6/2012 8:00,59.796,29.745,1.584
5985,9/6/2012 9:00,53.618399999999994,69.06,1.5884999999999998
5986,9/6/2012 10:00,43.480799999999995,63.675,1.503
5987,9/6/2012 11:00,34.7688,18.015,1.3499999999999999
5988,9/6/2012 12:00,30.7791,20.265,1.2375
5989,9/6/2012 13:00,29.145599999999998,22.994999999999997,1.179
5990,9/6/2012 14:00,26.1459,23.669999999999998,1.1745
5991,9/6/2012 15:00,22.077,21.87,1.2465
5992,9/6/2012 16:00,21.8889,20.445,1.3725
5993,9/6/2012 17:00,28.4625,20.459999999999997,1.2734999999999999
5994,9/6/2012 18:00,35.620200000000004,19.139999999999997,1.485
5995,9/6/2012 19:00,40.4811,16.98,1.8855
5996,9/6/2012 20:00,42.5007,14.864999999999998,2.313
5997,9/6/2012 21:00,37.9071,13.455,2.106
5998,9/6/2012 22:00,9.6723,12.015,1.7189999999999999
5999,9/6/2012 23:00,8.217,10.514999999999999,1.3815000000000002
6000,9/7/2012 0:00,7.118100000000001,9.569999999999999,1.188
6001,9/7/2012 1:00,59.7168,8.415,1.1159999999999999
6002,9/7/2012 2:00,47.2428,6.975,1.1745
6003,9/7/2012 3:00,30.6702,6.779999999999999,1.206
6004,9/7/2012 4:00,29.046599999999998,9.03,0.792
6005,9/7/2012 5:00,36.3033,15.105,0.5805
6006,9/7/2012 6:00,39.9564,20.985,2.6055
6007,9/7/2012 7:00,42.8472,24.105,2.583
6008,9/7/2012 8:00,43.263000000000005,24.599999999999998,2.5199999999999996
6009,9/7/2012 9:00,43.0749,22.275,2.8484999999999996
6010,9/7/2012 10:00,41.9958,16.29,3.051
6011,9/7/2012 11:00,37.6002,10.350000000000001,3.1814999999999998
6012,9/7/2012 12:00,32.2245,6.75,3.015
6013,9/7/2012 13:00,28.680300000000003,6.69,2.7135
6014,9/7/2012 14:00,26.2152,5.925,2.3805
6015,9/7/2012 15:00,23.0472,4.89,2.1915
6016,9/7/2012 16:00,19.552500000000002,4.005,1.7910000000000001
6017,9/7/2012 17:00,17.3448,3.3150000000000004,0.567
6018,9/7/2012 18:00,14.3946,3.2249999999999996,37.6065
6019,9/7/2012 19:00,13.4739,3.18,37.3725
6020,9/7/2012 20:00,12.157200000000001,2.94,33.5925
6021,9/7/2012 21:00,4.979699999999999,2.4299999999999997,28.912499999999998
6022,9/7/2012 22:00,2.7918,2.64,24.781499999999998
6023,9/7/2012 23:00,0.0,1.905,15.817499999999999
6024,9/8/2012 0:00,0.0,2.16,7.9245
6025,9/8/2012 1:00,0.0,2.5349999999999997,5.301
6026,9/8/2012 2:00,1.4355,2.415,5.49
6027,9/8/2012 3:00,3.9204000000000003,2.0999999999999996,5.076
6028,9/8/2012 4:00,6.217199999999999,1.9500000000000002,4.2705
6029,9/8/2012 5:00,6.3656999999999995,1.875,3.663
6030,9/8/2012 6:00,5.4054,1.245,3.0195000000000003
6031,9/8/2012 7:00,3.96,0.0,3.033
6032,9/8/2012 8:00,3.4650000000000003,1.26,3.8835
6033,9/8/2012 9:00,3.5244,1.62,4.3605
6034,9/8/2012 10:00,3.5244,1.875,3.204
6035,9/8/2012 11:00,3.7719,1.9949999999999999,2.43
6036,9/8/2012 12:00,4.4055,1.9500000000000002,2.088
6037,9/8/2012 13:00,4.2966,1.7850000000000001,1.737
6038,9/8/2012 14:00,4.653,1.8,0.7515
6039,9/8/2012 15:00,4.0986,1.7850000000000001,0.0
6040,9/8/2012 16:00,3.5442,1.6949999999999998,0.0
6041,9/8/2012 17:00,2.9403,1.71,0.0
6042,9/8/2012 18:00,2.4651,1.545,0.6345
6043,9/8/2012 19:00,2.1483,1.35,1.0485
6044,9/8/2012 20:00,1.7325000000000002,1.44,1.1159999999999999
6045,9/8/2012 21:00,1.4058000000000002,2.97,1.5705
6046,9/8/2012 22:00,1.3365,5.67,0.396
6047,9/8/2012 23:00,1.3662,9.254999999999999,0.0
6048,9/9/2012 0:00,1.386,15.225000000000001,0.0
6049,9/9/2012 1:00,1.3760999999999999,19.515,0.0
6050,9/9/2012 2:00,1.2177,20.055000000000003,0.0
6051,9/9/2012 3:00,6.3459,16.86,0.0
6052,9/9/2012 4:00,9.7812,17.91,0.0
6053,9/9/2012 5:00,1.3365,17.73,0.0
6054,9/9/2012 6:00,1.3266,16.425,0.0
6055,9/9/2012 7:00,1.4454,12.855,0.0
6056,9/9/2012 8:00,1.4849999999999999,9.645,0.0
6057,9/9/2012 9:00,1.3760999999999999,7.2,0.3645
6058,9/9/2012 10:00,1.3760999999999999,4.68,0.3645
6059,9/9/2012 11:00,1.3662,3.42,0.0
6060,9/9/2012 12:00,1.2078,2.8200000000000003,0.0
6061,9/9/2012 13:00,0.0,2.3850000000000002,0.0
6062,9/9/2012 14:00,0.0,2.145,0.0
6063,9/9/2012 15:00,0.0,1.875,0.0
6064,9/9/2012 16:00,0.0,1.665,0.0
6065,9/9/2012 17:00,0.0,1.4100000000000001,0.0
6066,9/9/2012 18:00,0.0,1.185,0.0
6067,9/9/2012 19:00,0.0,0.0,0.0
6068,9/9/2012 20:00,0.0,0.0,0.0
6069,9/9/2012 21:00,0.0,0.0,0.0
6070,9/9/2012 22:00,0.0,0.0,0.0
6071,9/9/2012 23:00,0.0,0.0,0.0
6072,9/10/2012 0:00,0.0,0.0,0.0
6073,9/10/2012 1:00,0.0,0.0,0.5984999999999999
6074,9/10/2012 2:00,0.0,0.0,1.8855
6075,9/10/2012 3:00,0.0,0.0,4.293
6076,9/10/2012 4:00,0.0,0.0,5.7645
6077,9/10/2012 5:00,1.0197,1.11,6.399
6078,9/10/2012 6:00,1.4652,36.435,5.867999999999999
6079,9/10/2012 7:00,1.8414,2.205,9.297
6080,9/10/2012 8:00,1.98,2.4299999999999997,13.986
6081,9/10/2012 9:00,2.2572,1.98,17.487
6082,9/10/2012 10:00,2.4453,1.5750000000000002,18.1035
6083,9/10/2012 11:00,2.4651,1.425,17.2395
6084,9/10/2012 12:00,2.5344,1.47,16.758
6085,9/10/2012 13:00,1.8315,1.455,14.094
6086,9/10/2012 14:00,1.4949000000000001,1.365,10.53
6087,9/10/2012 15:00,2.079,1.125,7.9965
6088,9/10/2012 16:00,3.3858,0.0,0.5535
6089,9/10/2012 17:00,5.148000000000001,0.0,0.4905
6090,9/10/2012 18:00,6.5736,0.0,0.792
6091,9/10/2012 19:00,6.8904,1.71,1.0935
6092,9/10/2012 20:00,6.494400000000001,3.1500000000000004,1.1700000000000002
6093,9/10/2012 21:00,4.4847,0.0,1.1700000000000002
6094,9/10/2012 22:00,5.2371,1.3949999999999998,1.1565
6095,9/10/2012 23:00,6.039,2.07,1.0575
6096,9/11/2012 0:00,6.3656999999999995,2.58,4.3515
6097,9/11/2012 1:00,6.8112,2.88,5.4495
6098,9/11/2012 2:00,7.2468,2.85,16.7805
6099,9/11/2012 3:00,7.4745,35.76,12.0915
6100,9/11/2012 4:00,7.9794,39.18,8.2215
6101,9/11/2012 5:00,8.6823,38.370000000000005,7.0785
6102,9/11/2012 6:00,9.2961,34.425000000000004,10.4535
6103,9/11/2012 7:00,10.4148,34.65,20.0295
6104,9/11/2012 8:00,11.6127,47.52,29.299500000000002
6105,9/11/2012 9:00,13.632299999999999,37.394999999999996,34.1145
6106,9/11/2012 10:00,14.8302,31.275,35.3835
6107,9/11/2012 11:00,16.0479,32.67,33.246
6108,9/11/2012 12:00,17.9784,22.065,28.147499999999997
6109,9/11/2012 13:00,1.7919,18.69,22.8015
6110,9/11/2012 14:00,0.9306,16.335,19.7055
6111,9/11/2012 15:00,0.0,13.68,17.977500000000003
6112,9/11/2012 16:00,0.0,11.775,0.5355000000000001
6113,9/11/2012 17:00,0.0,10.185,0.6255
6114,9/11/2012 18:00,0.0,8.745,0.621
6115,9/11/2012 19:00,0.0,7.71,0.5850000000000001
6116,9/11/2012 20:00,0.0,6.105,8.5275
6117,9/11/2012 21:00,0.0,5.535,8.932500000000001
6118,9/11/2012 22:00,42.510600000000004,4.755,8.320500000000001
6119,9/11/2012 23:00,47.1735,4.245,0.0
6120,9/12/2012 0:00,48.1536,3.855,0.46799999999999997
6121,9/12/2012 1:00,46.3617,3.435,0.7334999999999999
6122,9/12/2012 2:00,46.1142,2.94,1.0665
6123,9/12/2012 3:00,45.5994,2.415,1.4805
6124,9/12/2012 4:00,48.5496,2.0100000000000002,1.503
6125,9/12/2012 5:00,50.2821,1.815,1.035
6126,9/12/2012 6:00,50.1138,1.335,0.504
6127,9/12/2012 7:00,48.411,0.0,0.0
6128,9/12/2012 8:00,45.4707,0.0,0.0
6129,9/12/2012 9:00,43.7382,0.0,0.0
6130,9/12/2012 10:00,40.8969,1.14,1.4760000000000002
6131,9/12/2012 11:00,40.3524,2.5349999999999997,6.3765
6132,9/12/2012 12:00,41.2137,4.47,11.5875
6133,9/12/2012 13:00,39.699000000000005,6.8549999999999995,11.205
6134,9/12/2012 14:00,32.9967,9.945,1.3095
6135,9/12/2012 15:00,25.2945,11.43,1.017
6136,9/12/2012 16:00,25.7103,34.32,0.855
6137,9/12/2012 17:00,28.779300000000003,39.69,0.6525000000000001
6138,9/12/2012 18:00,31.1058,41.309999999999995,0.549
6139,9/12/2012 19:00,32.0661,42.135,0.4635
6140,9/12/2012 20:00,32.6205,42.09,0.46799999999999997
6141,9/12/2012 21:00,33.9768,43.215,0.7334999999999999
6142,9/12/2012 22:00,34.214400000000005,45.18000000000001,1.0215
6143,9/12/2012 23:00,33.3333,45.660000000000004,0.0
6144,9/13/2012 0:00,31.6008,44.175,0.513
6145,9/13/2012 1:00,28.7595,34.41,1.008
6146,9/13/2012 2:00,25.4925,21.735,0.9450000000000001
6147,9/13/2012 3:00,22.195800000000002,17.73,1.0035
6148,9/13/2012 4:00,20.6415,8.55,0.999
6149,9/13/2012 5:00,19.4634,8.91,1.008
6150,9/13/2012 6:00,17.6814,1.905,1.143
6151,9/13/2012 7:00,15.6519,1.8900000000000001,1.431
6152,9/13/2012 8:00,13.384799999999998,1.905,0.46799999999999997
6153,9/13/2012 9:00,11.385,2.085,0.639
6154,9/13/2012 10:00,9.2862,2.58,1.098
6155,9/13/2012 11:00,7.355700000000001,2.9850000000000003,1.2645
6156,9/13/2012 12:00,5.5043999999999995,2.67,1.1835
6157,9/13/2012 13:00,3.8510999999999997,2.0999999999999996,1.0935
6158,9/13/2012 14:00,2.4948,1.11,1.7775
6159,9/13/2012 15:00,2.1186,0.0,3.573
6160,9/13/2012 16:00,2.3265,0.0,4.8870000000000005
6161,9/13/2012 17:00,2.4552,2.64,6.1964999999999995
6162,9/13/2012 18:00,2.8611,6.03,8.0055
6163,9/13/2012 19:00,3.3165,7.32,0.5175
6164,9/13/2012 20:00,2.9898000000000002,8.265,0.0
6165,9/13/2012 21:00,1.5444,10.455,0.3735
6166,9/13/2012 22:00,1.2672,14.850000000000001,0.567
6167,9/13/2012 23:00,1.7721,16.335,0.7155
6168,9/14/2012 0:00,5.445,19.8,0.9495
6169,9/14/2012 1:00,6.0093,22.635,1.1700000000000002
6170,9/14/2012 2:00,6.593400000000001,25.500000000000004,1.3499999999999999
6171,9/14/2012 3:00,5.4747,27.285,1.215
6172,9/14/2012 4:00,6.0093,23.955000000000002,0.7605
6173,9/14/2012 5:00,8.5833,15.84,0.9765
6174,9/14/2012 6:00,9.5436,15.120000000000001,1.1745
6175,9/14/2012 7:00,8.652600000000001,18.99,1.062
6176,9/14/2012 8:00,8.019,1.26,0.927
6177,9/14/2012 9:00,8.3457,0.0,0.7829999999999999
6178,9/14/2012 10:00,6.8904,1.32,0.6435
6179,9/14/2012 11:00,5.247,1.665,0.612
6180,9/14/2012 12:00,5.0985,1.6949999999999998,0.5355000000000001
6181,9/14/2012 13:00,5.6034,1.71,0.405
6182,9/14/2012 14:00,5.7321,1.8599999999999999,0.0
6183,9/14/2012 15:00,5.4549,2.07,0.0
6184,9/14/2012 16:00,4.326300000000001,2.355,0.0
6185,9/14/2012 17:00,3.3066,21.555,0.0
6186,9/14/2012 18:00,3.96,18.36,0.0
6187,9/14/2012 19:00,2.2572,14.685,0.0
6188,9/14/2012 20:00,1.5444,11.385,0.0
6189,9/14/2012 21:00,0.0,10.05,0.0
6190,9/14/2012 22:00,2.2967999999999997,9.51,0.0
6191,9/14/2012 23:00,30.521700000000003,1.08,0.0
6192,9/15/2012 0:00,26.7201,1.425,0.0
6193,9/15/2012 1:00,20.8791,1.8900000000000001,0.0
6194,9/15/2012 2:00,18.0081,1.845,0.0
6195,9/15/2012 3:00,18.7605,1.59,0.39149999999999996
6196,9/15/2012 4:00,1.5048,1.485,0.48600000000000004
6197,9/15/2012 5:00,1.3662,0.0,0.5445
6198,9/15/2012 6:00,1.3563,0.0,0.5535
6199,9/15/2012 7:00,1.3463999999999998,0.0,35.487
6200,9/15/2012 8:00,1.3068,0.0,40.027499999999996
6201,9/15/2012 9:00,1.2276,0.0,41.152499999999996
6202,9/15/2012 10:00,0.9999,0.0,41.049
6203,9/15/2012 11:00,0.0,0.0,40.221000000000004
6204,9/15/2012 12:00,0.0,0.0,38.7
6205,9/15/2012 13:00,0.0,0.0,33.156
6206,9/15/2012 14:00,0.0,0.0,16.884
6207,9/15/2012 15:00,0.0,0.0,7.379999999999999
6208,9/15/2012 16:00,0.8712000000000001,0.0,5.3685
6209,9/15/2012 17:00,1.0395,0.0,4.122
6210,9/15/2012 18:00,0.9405,0.0,2.0925
6211,9/15/2012 19:00,0.7029000000000001,0.0,2.8935
6212,9/15/2012 20:00,0.0,0.0,3.2175
6213,9/15/2012 21:00,0.0,8.355,3.7394999999999996
6214,9/15/2012 22:00,0.0,9.105,5.5575
6215,9/15/2012 23:00,0.0,8.775,4.1175
6216,9/16/2012 0:00,0.0,7.785,8.3835
6217,9/16/2012 1:00,0.0,7.2299999999999995,15.2865
6218,9/16/2012 2:00,0.0,7.9799999999999995,23.161500000000004
6219,9/16/2012 3:00,0.0,8.715,26.703000000000003
6220,9/16/2012 4:00,0.0,4.71,26.487000000000002
6221,9/16/2012 5:00,0.0,1.32,23.9535
6222,9/16/2012 6:00,0.0,0.0,12.482999999999999
6223,9/16/2012 7:00,0.0,1.485,7.240499999999999
6224,9/16/2012 8:00,0.0,1.47,8.4645
6225,9/16/2012 9:00,0.7326,1.8,8.963999999999999
6226,9/16/2012 10:00,0.9801000000000001,3.1500000000000004,8.4195
6227,9/16/2012 11:00,0.9503999999999999,5.114999999999999,7.3485
6228,9/16/2012 12:00,10.7415,5.94,7.600499999999999
6229,9/16/2012 13:00,11.9097,6.239999999999999,7.362
6230,9/16/2012 14:00,0.0,7.59,7.470000000000001
6231,9/16/2012 15:00,0.0,8.355,8.2125
6232,9/16/2012 16:00,0.8118000000000001,9.045,9.063
6233,9/16/2012 17:00,1.0098,11.4,9.5175
6234,9/16/2012 18:00,1.2177,14.190000000000001,8.667
6235,9/16/2012 19:00,1.5345,25.245,7.002
6236,9/16/2012 20:00,2.0493,26.97,5.715
6237,9/16/2012 21:00,0.0,25.965,6.308999999999999
6238,9/16/2012 22:00,0.0,24.915,3.978
6239,9/16/2012 23:00,0.0,22.935000000000002,2.2544999999999997
6240,9/17/2012 0:00,0.0,11.969999999999999,1.2825
6241,9/17/2012 1:00,0.7821000000000001,5.355,0.8685
6242,9/17/2012 2:00,1.1483999999999999,5.114999999999999,0.7334999999999999
6243,9/17/2012 3:00,6.0588,5.505000000000001,0.7245
6244,9/17/2012 4:00,6.8408999999999995,5.46,0.6525000000000001
6245,9/17/2012 5:00,7.939799999999999,4.859999999999999,0.6075
6246,9/17/2012 6:00,9.197099999999999,4.2299999999999995,0.0
6247,9/17/2012 7:00,9.8208,3.105,0.333
6248,9/17/2012 8:00,9.2664,1.515,0.639
6249,9/17/2012 9:00,8.2071,0.0,0.8910000000000001
6250,9/17/2012 10:00,6.4548,0.0,0.963
6251,9/17/2012 11:00,4.6134,0.0,0.9359999999999999
6252,9/17/2012 12:00,3.6431999999999998,0.0,0.8460000000000001
6253,9/17/2012 13:00,4.3857,0.0,0.747
6254,9/17/2012 14:00,6.266699999999999,0.0,0.657
6255,9/17/2012 15:00,8.217,0.0,1.4894999999999998
6256,9/17/2012 16:00,11.5632,0.0,1.5705
6257,9/17/2012 17:00,14.354999999999999,0.0,1.4669999999999999
6258,9/17/2012 18:00,13.889700000000001,0.0,1.278
6259,9/17/2012 19:00,12.0384,0.0,1.314
6260,9/17/2012 20:00,8.4348,0.0,1.0845
6261,9/17/2012 21:00,5.9103,0.0,0.49500000000000005
6262,9/17/2012 22:00,5.8509,0.0,0.7110000000000001
6263,9/17/2012 23:00,6.4746,1.7550000000000001,1.2825
6264,9/18/2012 0:00,6.3459,1.26,1.6875
6265,9/18/2012 1:00,6.583500000000001,1.305,1.7595
6266,9/18/2012 2:00,8.0982,1.335,1.746
6267,9/18/2012 3:00,9.8307,1.29,1.6785
6268,9/18/2012 4:00,11.6919,1.185,3.7305
6269,9/18/2012 5:00,2.7521999999999998,1.245,4.7385
6270,9/18/2012 6:00,2.1879,1.2300000000000002,6.012
6271,9/18/2012 7:00,2.9699999999999998,1.14,6.741
6272,9/18/2012 8:00,3.5541,1.0650000000000002,7.577999999999999
6273,9/18/2012 9:00,3.9897,0.0,8.1135
6274,9/18/2012 10:00,5.5638,1.095,8.748
6275,9/18/2012 11:00,9.315900000000001,1.635,9.387
6276,9/18/2012 12:00,11.5929,1.665,8.7615
6277,9/18/2012 13:00,10.6524,1.515,5.22
6278,9/18/2012 14:00,0.9999,3.075,2.7225
6279,9/18/2012 15:00,2.0097,5.324999999999999,1.5975
6280,9/18/2012 16:00,2.8512,7.665,0.7110000000000001
6281,9/18/2012 17:00,2.6136,10.245,0.3285
6282,9/18/2012 18:00,2.1978,15.915,0.0
6283,9/18/2012 19:00,1.9007999999999998,18.06,0.0
6284,9/18/2012 20:00,1.3760999999999999,13.530000000000001,0.0
6285,9/18/2012 21:00,0.8415,12.899999999999999,0.0
6286,9/18/2012 22:00,0.0,18.87,0.0
6287,9/18/2012 23:00,0.0,25.874999999999996,0.0
6288,9/19/2012 0:00,0.0,28.965,0.43199999999999994
6289,9/19/2012 1:00,3.8115,29.595,1.0845
6290,9/19/2012 2:00,2.9798999999999998,30.09,1.269
6291,9/19/2012 3:00,2.4453,28.305,1.125
6292,9/19/2012 4:00,1.6137,22.395,1.2825
6293,9/19/2012 5:00,1.3563,25.965,1.8315
6294,9/19/2012 6:00,1.7325000000000002,24.375,2.718
6295,9/19/2012 7:00,2.0493,21.9,3.474
6296,9/19/2012 8:00,1.6137,21.374999999999996,3.6495
6297,9/19/2012 9:00,1.0989,22.349999999999998,3.726
6298,9/19/2012 10:00,0.7623,23.985,4.3020000000000005
6299,9/19/2012 11:00,0.0,28.95,5.238
6300,9/19/2012 12:00,0.0,32.595,6.7545
6301,9/19/2012 13:00,0.0,33.675000000000004,8.599499999999999
6302,9/19/2012 14:00,0.0,18.87,1.062
6303,9/19/2012 15:00,0.0,20.31,1.0215
6304,9/19/2012 16:00,1.2474,0.0,0.882
6305,9/19/2012 17:00,1.4553,1.365,0.639
6306,9/19/2012 18:00,1.8612,2.25,0.3735
6307,9/19/2012 19:00,2.079,2.325,0.0
6308,9/19/2012 20:00,2.1582,2.16,0.0
6309,9/19/2012 21:00,2.2473,1.905,0.0
6310,9/19/2012 22:00,2.2275,1.6500000000000001,0.0
6311,9/19/2012 23:00,1.8414,1.365,0.0
6312,9/20/2012 0:00,0.9405,1.095,0.0
6313,9/20/2012 1:00,0.7821000000000001,0.0,0.0
6314,9/20/2012 2:00,0.9207,0.0,0.0
6315,9/20/2012 3:00,0.7821000000000001,0.0,0.0
6316,9/20/2012 4:00,0.0,0.0,0.0
6317,9/20/2012 5:00,0.0,2.205,0.0
6318,9/20/2012 6:00,0.0,6.195,0.0
6319,9/20/2012 7:00,1.0197,13.875,0.47250000000000003
6320,9/20/2012 8:00,0.0,24.54,0.8460000000000001
6321,9/20/2012 9:00,0.8415,11.415000000000001,1.332
6322,9/20/2012 10:00,0.9306,13.605,2.4345
6323,9/20/2012 11:00,0.8415,16.59,3.7035
6324,9/20/2012 12:00,0.0,19.86,4.4055
6325,9/20/2012 13:00,0.0,31.245,4.7835
6326,9/20/2012 14:00,0.0,48.269999999999996,5.2245
6327,9/20/2012 15:00,0.0,59.34,5.391
6328,9/20/2012 16:00,0.0,61.14,5.517
6329,9/20/2012 17:00,0.0,61.349999999999994,5.355
6330,9/20/2012 18:00,0.0,55.875,5.4315
6331,9/20/2012 19:00,0.0,44.805,4.977
6332,9/20/2012 20:00,0.0,39.300000000000004,4.572
6333,9/20/2012 21:00,0.0,38.46,3.7035
6334,9/20/2012 22:00,0.0,38.519999999999996,2.1735
6335,9/20/2012 23:00,0.0,30.720000000000002,0.9945
6336,9/21/2012 0:00,1.1781000000000001,19.56,0.6435
6337,9/21/2012 1:00,1.4355,9.915000000000001,1.125
6338,9/21/2012 2:00,1.584,7.095000000000001,2.052
6339,9/21/2012 3:00,1.6533,4.89,2.691
6340,9/21/2012 4:00,1.8513000000000002,3.54,0.0
6341,9/21/2012 5:00,2.4156,2.4600000000000004,0.0
6342,9/21/2012 6:00,3.2274,1.47,0.0
6343,9/21/2012 7:00,4.3758,0.0,0.0
6344,9/21/2012 8:00,15.5232,0.0,0.0
6345,9/21/2012 9:00,15.453899999999999,0.0,0.0
6346,9/21/2012 10:00,14.2758,0.0,0.0
6347,9/21/2012 11:00,13.236300000000002,0.0,0.0
6348,9/21/2012 12:00,4.4649,0.0,0.567
6349,9/21/2012 13:00,0.0,0.0,1.0305
6350,9/21/2012 14:00,0.0,0.0,1.3905
6351,9/21/2012 15:00,0.0,0.0,1.2465
6352,9/21/2012 16:00,0.0,0.0,0.954
6353,9/21/2012 17:00,0.0,0.0,0.702
6354,9/21/2012 18:00,0.0,0.0,0.522
6355,9/21/2012 19:00,3.5541,0.0,0.40950000000000003
6356,9/21/2012 20:00,3.6531000000000002,0.0,0.33749999999999997
6357,9/21/2012 21:00,2.6136,0.0,0.33749999999999997
6358,9/21/2012 22:00,1.6137,57.72,0.0
6359,9/21/2012 23:00,1.7127,58.59,0.0
6360,9/22/2012 0:00,4.2273000000000005,70.245,0.0
6361,9/22/2012 1:00,9.2565,81.495,0.0
6362,9/22/2012 2:00,10.4346,81.075,0.0
6363,9/22/2012 3:00,10.0782,61.665000000000006,0.0
6364,9/22/2012 4:00,7.830900000000001,45.074999999999996,0.0
6365,9/22/2012 5:00,5.0886000000000005,50.565000000000005,0.0
6366,9/22/2012 6:00,3.7917,55.815,0.0
6367,9/22/2012 7:00,3.5838,61.215,0.0
6368,9/22/2012 8:00,4.1976,63.06,0.0
6369,9/22/2012 9:00,4.3758,62.295,0.0
6370,9/22/2012 10:00,5.2173,61.71,2.7630000000000003
6371,9/22/2012 11:00,5.7024,61.230000000000004,2.025
6372,9/22/2012 12:00,5.3757,58.305,1.431
6373,9/22/2012 13:00,16.9785,51.84,0.5625
6374,9/22/2012 14:00,16.9389,45.225,0.5265
6375,9/22/2012 15:00,9.424800000000001,36.09,0.5535
6376,9/22/2012 16:00,7.4745,0.0,0.6435
6377,9/22/2012 17:00,8.9298,0.0,0.765
6378,9/22/2012 18:00,8.613,0.0,0.837
6379,9/22/2012 19:00,7.1676,0.0,0.9315
6380,9/22/2012 20:00,5.2569,0.0,1.134
6381,9/22/2012 21:00,3.4056,0.0,1.4085
6382,9/22/2012 22:00,2.3265,0.0,1.5705
6383,9/22/2012 23:00,1.8215999999999999,0.0,1.5615
6384,9/23/2012 0:00,2.5344,0.0,1.62
6385,9/23/2012 1:00,5.3361,0.0,1.8585000000000003
6386,9/23/2012 2:00,8.1279,0.0,2.1285000000000003
6387,9/23/2012 3:00,11.385,0.0,2.3085
6388,9/23/2012 4:00,8.9001,0.0,2.6865
6389,9/23/2012 5:00,5.2074,0.0,3.4110000000000005
6390,9/23/2012 6:00,3.1778999999999997,14.91,3.645
6391,9/23/2012 7:00,2.9403,0.0,4.14
6392,9/23/2012 8:00,3.7125,1.32,4.6080000000000005
6393,9/23/2012 9:00,4.6629000000000005,1.9200000000000002,7.379999999999999
6394,9/23/2012 10:00,4.8609,2.22,9.054
6395,9/23/2012 11:00,4.2273000000000005,2.1750000000000003,11.456999999999999
6396,9/23/2012 12:00,3.6431999999999998,2.0999999999999996,10.9845
6397,9/23/2012 13:00,3.2670000000000003,2.085,8.6535
6398,9/23/2012 14:00,3.0096,1.71,9.5085
6399,9/23/2012 15:00,2.4255,1.32,10.3365
6400,9/23/2012 16:00,2.2374,1.965,9.017999999999999
6401,9/23/2012 17:00,2.772,2.325,6.1785000000000005
6402,9/23/2012 18:00,6.593400000000001,2.61,6.439500000000001
6403,9/23/2012 19:00,6.741899999999999,3.075,8.6175
6404,9/23/2012 20:00,6.2271,3.795,9.189
6405,9/23/2012 21:00,3.1778999999999997,4.395,8.9865
6406,9/23/2012 22:00,3.0096,4.050000000000001,8.109
6407,9/23/2012 23:00,4.1778,3.0,6.592499999999999
6408,9/24/2012 0:00,4.9698,5.61,5.445
6409,9/24/2012 1:00,5.0291999999999994,6.105,4.6575
6410,9/24/2012 2:00,4.8411,6.39,4.068
6411,9/24/2012 3:00,4.5837,5.49,3.9915000000000003
6412,9/24/2012 4:00,4.356000000000001,3.87,3.7485
6413,9/24/2012 5:00,3.96,4.83,4.0545
6414,9/24/2012 6:00,3.3758999999999997,6.105,3.8924999999999996
6415,9/24/2012 7:00,2.7819,5.970000000000001,4.212
6416,9/24/2012 8:00,2.1780000000000004,2.025,4.131
6417,9/24/2012 9:00,27.1953,1.935,4.4145
6418,9/24/2012 10:00,34.2243,1.7249999999999999,3.8880000000000003
6419,9/24/2012 11:00,39.847500000000004,1.2750000000000001,2.3714999999999997
6420,9/24/2012 12:00,42.3225,1.38,1.9349999999999998
6421,9/24/2012 13:00,42.273,1.62,1.521
6422,9/24/2012 14:00,38.4912,1.9949999999999999,1.332
6423,9/24/2012 15:00,33.303599999999996,2.5500000000000003,1.2195
6424,9/24/2012 16:00,28.066499999999998,2.835,1.1385
6425,9/24/2012 17:00,23.7204,2.805,0.918
6426,9/24/2012 18:00,20.0079,2.6250000000000004,0.756
6427,9/24/2012 19:00,13.3749,2.34,0.666
6428,9/24/2012 20:00,6.078600000000001,1.6949999999999998,0.6255
6429,9/24/2012 21:00,3.0789,1.365,0.44550000000000006
6430,9/24/2012 22:00,2.8215,1.515,0.0
6431,9/24/2012 23:00,2.9798999999999998,1.44,0.0
6432,9/25/2012 0:00,1.7523,1.4100000000000001,0.0
6433,9/25/2012 1:00,0.7227,1.515,0.0
6434,9/25/2012 2:00,13.5927,1.6949999999999998,0.0
6435,9/25/2012 3:00,0.0,1.8900000000000001,0.0
6436,9/25/2012 4:00,0.0,2.07,0.342
6437,9/25/2012 5:00,0.0,2.61,0.4275
6438,9/25/2012 6:00,0.0,2.745,0.36
6439,9/25/2012 7:00,0.0,2.835,0.35550000000000004
6440,9/25/2012 8:00,0.0,3.135,0.459
6441,9/25/2012 9:00,35.541,3.165,0.6525000000000001
6442,9/25/2012 10:00,26.007299999999997,3.105,1.0575
6443,9/25/2012 11:00,23.759999999999998,2.055,2.1735
6444,9/25/2012 12:00,27.215099999999996,1.815,3.0014999999999996
6445,9/25/2012 13:00,27.5616,2.76,3.6089999999999995
6446,9/25/2012 14:00,25.403399999999998,4.455,3.8565
6447,9/25/2012 15:00,21.5919,5.595,3.9149999999999996
6448,9/25/2012 16:00,15.612300000000001,5.52,4.0905
6449,9/25/2012 17:00,9.1278,4.89,1.3275
6450,9/25/2012 18:00,5.2866,5.4,1.2195
6451,9/25/2012 19:00,3.0492,5.505000000000001,1.1385
6452,9/25/2012 20:00,1.9107,6.87,0.7875000000000001
6453,9/25/2012 21:00,1.2969,9.629999999999999,0.47250000000000003
6454,9/25/2012 22:00,0.9306,12.945,0.0
6455,9/25/2012 23:00,0.0,15.615,0.0
6456,9/26/2012 0:00,0.0,17.07,0.0
6457,9/26/2012 1:00,0.0,16.47,0.0
6458,9/26/2012 2:00,0.0,18.045,0.0
6459,9/26/2012 3:00,0.0,17.775,0.36
6460,9/26/2012 4:00,0.0,6.555000000000001,0.43199999999999994
6461,9/26/2012 5:00,0.0,7.875,0.40950000000000003
6462,9/26/2012 6:00,0.0,9.09,0.5579999999999999
6463,9/26/2012 7:00,0.0,10.455,0.8324999999999999
6464,9/26/2012 8:00,0.0,10.995000000000001,1.206
6465,9/26/2012 9:00,0.0,9.525,1.6424999999999998
6466,9/26/2012 10:00,0.0,12.42,2.1825
6467,9/26/2012 11:00,0.0,19.950000000000003,1.3095
6468,9/26/2012 12:00,0.0,22.44,0.729
6469,9/26/2012 13:00,0.693,20.654999999999998,0.6930000000000001
6470,9/26/2012 14:00,0.0,0.0,3.2895
6471,9/26/2012 15:00,0.0,1.38,3.9915000000000003
6472,9/26/2012 16:00,1.9602000000000002,2.6250000000000004,6.1065
6473,9/26/2012 17:00,2.2671,4.08,7.8345
6474,9/26/2012 18:00,2.1285,4.755,9.072
6475,9/26/2012 19:00,1.8315,3.915,10.116
6476,9/26/2012 20:00,1.3463999999999998,3.165,9.8055
6477,9/26/2012 21:00,0.99,2.805,9.513
6478,9/26/2012 22:00,0.7029000000000001,2.52,10.4535
6479,9/26/2012 23:00,0.0,2.325,10.845
