,date,Wind1,Wind2,Wind3
7200,10/27/2012 0:00,3.6927,5.01,3.393
7201,10/27/2012 1:00,2.9007,7.109999999999999,3.051
7202,10/27/2012 2:00,0.0,9.105,2.3175
7203,10/27/2012 3:00,0.0,8.895,1.6920000000000002
7204,10/27/2012 4:00,0.8019,6.66,1.1969999999999998
7205,10/27/2012 5:00,0.99,5.85,0.7425
7206,10/27/2012 6:00,0.0,5.955,0.40950000000000003
7207,10/27/2012 7:00,0.0,7.32,16.2315
7208,10/27/2012 8:00,0.0,7.59,14.517
7209,10/27/2012 9:00,0.0,6.449999999999999,12.190499999999998
7210,10/27/2012 10:00,0.0,0.0,9.724499999999999
7211,10/27/2012 11:00,0.0,0.0,0.0
7212,10/27/2012 12:00,0.0,0.0,2.2725
7213,10/27/2012 13:00,0.0,0.0,3.3345
7214,10/27/2012 14:00,1.3463999999999998,0.0,5.1885
7215,10/27/2012 15:00,0.8415,1.47,7.7715
7216,10/27/2012 16:00,1.0890000000000002,4.125,9.270000000000001
7217,10/27/2012 17:00,1.0295999999999998,5.909999999999999,7.9695
7218,10/27/2012 18:00,0.9306,5.640000000000001,3.4785
7219,10/27/2012 19:00,0.8514,4.95,3.5775
7220,10/27/2012 20:00,0.8811,4.635,3.8835
7221,10/27/2012 21:00,1.0593,4.545,10.107
7222,10/27/2012 22:00,1.2672,4.53,8.154
7223,10/27/2012 23:00,1.0692000000000002,5.37,6.2955
7224,10/28/2012 0:00,1.4256,6.27,5.0264999999999995
7225,10/28/2012 1:00,1.2771,7.17,0.0
7226,10/28/2012 2:00,1.5444,7.800000000000001,0.0
7227,10/28/2012 3:00,1.7919,7.485,0.0
7228,10/28/2012 4:00,1.9998,4.725,0.0
7229,10/28/2012 5:00,1.3068,27.09,12.1545
7230,10/28/2012 6:00,1.3266,32.864999999999995,12.3795
7231,10/28/2012 7:00,1.4157,36.6,11.700000000000001
7232,10/28/2012 8:00,1.4949000000000001,36.72,10.286999999999999
7233,10/28/2012 9:00,1.683,1.935,8.442
7234,10/28/2012 10:00,2.4948,1.875,5.553
7235,10/28/2012 11:00,5.0193,1.635,2.4795000000000003
7236,10/28/2012 12:00,5.2668,1.365,1.62
7237,10/28/2012 13:00,4.0689,1.2300000000000002,1.188
7238,10/28/2012 14:00,3.861,0.0,1.062
7239,10/28/2012 15:00,4.5837,0.0,0.396
7240,10/28/2012 16:00,5.3262,0.0,0.0
7241,10/28/2012 17:00,5.4747,18.675,0.0
7242,10/28/2012 18:00,3.6729000000000003,16.5,0.0
7243,10/28/2012 19:00,2.4156,13.59,0.0
7244,10/28/2012 20:00,1.9701000000000002,10.965,0.0
7245,10/28/2012 21:00,2.2374,9.24,1.8225
7246,10/28/2012 22:00,2.4156,9.6,2.124
7247,10/28/2012 23:00,2.2077,10.575,2.3535
7248,10/29/2012 0:00,1.9404,11.745,2.9250000000000003
7249,10/29/2012 1:00,1.3266,11.265,3.8699999999999997
7250,10/29/2012 2:00,0.9503999999999999,11.4,4.338
7251,10/29/2012 3:00,0.8415,14.64,4.6665
7252,10/29/2012 4:00,0.8217,0.0,5.3865
7253,10/29/2012 5:00,0.8613,1.0650000000000002,6.075
7254,10/29/2012 6:00,0.9207,1.32,6.705
7255,10/29/2012 7:00,1.0791,1.4100000000000001,7.371
7256,10/29/2012 8:00,0.7326,1.32,8.2125
7257,10/29/2012 9:00,0.8217,1.155,10.062
7258,10/29/2012 10:00,1.1682,0.0,10.5435
7259,10/29/2012 11:00,1.7028,0.0,9.6795
7260,10/29/2012 12:00,2.5443000000000002,0.0,8.352
7261,10/29/2012 13:00,3.4650000000000003,0.0,6.6465
7262,10/29/2012 14:00,4.3461,0.0,4.5765
7263,10/29/2012 15:00,5.167800000000001,0.0,3.042
7264,10/29/2012 16:00,5.7717,0.0,2.4255
7265,10/29/2012 17:00,5.8113,0.0,2.025
7266,10/29/2012 18:00,5.0886000000000005,0.0,1.764
7267,10/29/2012 19:00,3.4947,0.0,1.6065
7268,10/29/2012 20:00,1.7622,0.0,1.4715
7269,10/29/2012 21:00,1.386,0.0,1.287
7270,10/29/2012 22:00,1.1286,0.0,0.963
7271,10/29/2012 23:00,0.8019,0.0,0.7334999999999999
7272,10/30/2012 0:00,0.0,0.0,0.621
7273,10/30/2012 1:00,0.0,0.0,0.5175
7274,10/30/2012 2:00,0.0,0.0,0.0
7275,10/30/2012 3:00,0.0,0.0,0.0
7276,10/30/2012 4:00,0.0,0.0,0.45449999999999996
7277,10/30/2012 5:00,0.792,4.935,0.8685
7278,10/30/2012 6:00,1.3463999999999998,2.7150000000000003,1.0935
7279,10/30/2012 7:00,1.8908999999999998,2.805,1.1115
7280,10/30/2012 8:00,1.2672,2.76,0.8415
7281,10/30/2012 9:00,0.7623,1.665,0.9585
7282,10/30/2012 10:00,1.8215999999999999,0.0,1.4220000000000002
7283,10/30/2012 11:00,27.175500000000003,0.0,1.9349999999999998
7284,10/30/2012 12:00,28.6704,6.48,2.6955
7285,10/30/2012 13:00,28.779300000000003,6.975,3.7305
7286,10/30/2012 14:00,27.611099999999997,6.975,4.2435
7287,10/30/2012 15:00,25.9083,5.925,4.4685
7288,10/30/2012 16:00,24.383699999999997,4.56,4.293
7289,10/30/2012 17:00,22.6314,3.8400000000000003,5.13
7290,10/30/2012 18:00,20.691,3.465,4.9095
7291,10/30/2012 19:00,19.9089,1.425,24.0795
7292,10/30/2012 20:00,19.849500000000003,1.68,0.5895
7293,10/30/2012 21:00,18.8694,2.5349999999999997,0.9585
7294,10/30/2012 22:00,19.8297,4.005,1.0485
7295,10/30/2012 23:00,28.5615,5.415,1.0125
7296,10/31/2012 0:00,37.719,6.630000000000001,0.9585
7297,10/31/2012 1:00,48.935700000000004,8.745,0.837
7298,10/31/2012 2:00,46.1043,14.175,0.774
7299,10/31/2012 3:00,39.530699999999996,19.215,0.855
7300,10/31/2012 4:00,24.7302,21.990000000000002,1.0845
7301,10/31/2012 5:00,13.503599999999999,28.62,1.332
7302,10/31/2012 6:00,15.057900000000002,39.225,1.3815000000000002
7303,10/31/2012 7:00,15.9192,45.63,1.134
7304,10/31/2012 8:00,2.0690999999999997,55.56,0.855
7305,10/31/2012 9:00,1.1979,52.395,0.684
7306,10/31/2012 10:00,1.6137,0.0,0.9404999999999999
7307,10/31/2012 11:00,2.4354,0.0,1.9440000000000002
7308,10/31/2012 12:00,2.8017,0.0,4.4145
7309,10/31/2012 13:00,3.0888,0.0,7.974
7310,10/31/2012 14:00,3.1185,0.0,10.062
7311,10/31/2012 15:00,3.0294,0.0,8.937
7312,10/31/2012 16:00,2.6927999999999996,1.9949999999999999,5.971500000000001
7313,10/31/2012 17:00,2.3364,4.365,3.7575000000000003
7314,10/31/2012 18:00,2.1087,5.355,3.5505
7315,10/31/2012 19:00,1.98,4.44,2.331
7316,10/31/2012 20:00,1.7028,3.3150000000000004,2.2275
7317,10/31/2012 21:00,1.0098,2.445,1.989
7318,10/31/2012 22:00,1.1088,1.455,1.4220000000000002
7319,10/31/2012 23:00,1.3662,0.0,0.999
7320,11/1/2012 0:00,1.1483999999999999,0.0,0.648
7321,11/1/2012 1:00,0.0,1.17,0.46799999999999997
7322,11/1/2012 2:00,0.0,1.26,0.36
7323,11/1/2012 3:00,0.0,1.08,0.0
7324,11/1/2012 4:00,0.0,0.0,0.0
7325,11/1/2012 5:00,0.0,1.29,0.0
7326,11/1/2012 6:00,0.0,2.235,0.0
7327,11/1/2012 7:00,0.0,3.6,0.0
7328,11/1/2012 8:00,0.0,1.17,0.0
7329,11/1/2012 9:00,0.0,1.2750000000000001,0.0
7330,11/1/2012 10:00,26.304299999999998,1.155,0.0
7331,11/1/2012 11:00,24.8985,1.0499999999999998,0.0
7332,11/1/2012 12:00,23.3442,1.8599999999999999,0.0
7333,11/1/2012 13:00,20.8395,2.5500000000000003,0.0
7334,11/1/2012 14:00,17.82,2.7899999999999996,0.3825
7335,11/1/2012 15:00,14.7708,2.8649999999999998,0.39149999999999996
7336,11/1/2012 16:00,1.6038,2.85,0.34650000000000003
7337,11/1/2012 17:00,2.079,2.67,0.0
7338,11/1/2012 18:00,2.5938,2.7,0.0
7339,11/1/2012 19:00,2.8413,2.6250000000000004,0.7245
7340,11/1/2012 20:00,1.6929,2.16,0.6075
7341,11/1/2012 21:00,1.9701000000000002,1.53,0.4905
7342,11/1/2012 22:00,4.1678999999999995,0.0,0.387
7343,11/1/2012 23:00,6.4647,0.0,0.324
7344,11/2/2012 0:00,8.2071,0.0,0.0
7345,11/2/2012 1:00,10.5534,0.0,0.0
7346,11/2/2012 2:00,13.3155,0.0,0.33749999999999997
7347,11/2/2012 3:00,14.592600000000001,0.0,0.0
7348,11/2/2012 4:00,13.2759,0.0,0.36900000000000005
7349,11/2/2012 5:00,15.1668,0.0,0.0
7350,11/2/2012 6:00,15.909300000000002,0.0,0.0
7351,11/2/2012 7:00,17.6616,0.0,0.0
7352,11/2/2012 8:00,21.7206,0.0,0.0
7353,11/2/2012 9:00,25.6608,0.0,0.35550000000000004
7354,11/2/2012 10:00,30.6801,0.0,0.441
7355,11/2/2012 11:00,35.2242,0.0,0.5355000000000001
7356,11/2/2012 12:00,38.2536,1.0650000000000002,0.5895
7357,11/2/2012 13:00,41.8968,20.07,0.5760000000000001
7358,11/2/2012 14:00,42.8571,79.98,0.5805
7359,11/2/2012 15:00,38.8377,60.18,0.657
7360,11/2/2012 16:00,31.719600000000003,33.495,0.8594999999999999
7361,11/2/2012 17:00,20.7405,25.71,1.161
7362,11/2/2012 18:00,0.9603,33.495,1.4894999999999998
7363,11/2/2012 19:00,1.5542999999999998,39.075,1.674
7364,11/2/2012 20:00,1.4553,31.349999999999998,1.7055000000000002
7365,11/2/2012 21:00,15.2856,21.735,1.3499999999999999
7366,11/2/2012 22:00,10.107899999999999,16.380000000000003,0.6435
7367,11/2/2012 23:00,6.702299999999999,11.265,0.3195
7368,11/3/2012 0:00,8.2962,8.040000000000001,0.0
7369,11/3/2012 1:00,10.494,5.745,0.0
7370,11/3/2012 2:00,11.8998,3.93,0.0
7371,11/3/2012 3:00,13.860000000000001,25.695,0.44550000000000006
7372,11/3/2012 4:00,16.6221,24.705000000000002,0.9765
7373,11/3/2012 5:00,19.6218,23.115,1.737
7374,11/3/2012 6:00,22.859099999999998,22.020000000000003,2.025
7375,11/3/2012 7:00,26.6211,20.37,2.0925
7376,11/3/2012 8:00,28.8387,18.330000000000002,1.8135000000000001
7377,11/3/2012 9:00,30.5712,17.175,1.6424999999999998
7378,11/3/2012 10:00,30.8781,18.21,1.4805
7379,11/3/2012 11:00,3.2274,19.2,1.3365
7380,11/3/2012 12:00,3.7521000000000004,19.785,1.1385
7381,11/3/2012 13:00,3.6134999999999997,19.77,1.1115
7382,11/3/2012 14:00,11.8998,17.385,0.0
7383,11/3/2012 15:00,11.731499999999999,19.950000000000003,0.0
7384,11/3/2012 16:00,11.5137,34.005,0.0
7385,11/3/2012 17:00,11.385,28.47,0.6345
7386,11/3/2012 18:00,11.5038,14.354999999999999,1.6515000000000002
7387,11/3/2012 19:00,11.137500000000001,9.45,3.9330000000000003
7388,11/3/2012 20:00,10.147499999999999,8.055,6.889500000000001
7389,11/3/2012 21:00,8.316,10.335,7.501499999999999
7390,11/3/2012 22:00,7.5339,13.395000000000001,6.002999999999999
7391,11/3/2012 23:00,9.1575,12.69,7.011
7392,11/4/2012 0:00,12.1473,13.139999999999999,9.513
7393,11/4/2012 1:00,16.810200000000002,11.684999999999999,11.133000000000001
7394,11/4/2012 2:00,20.294999999999998,10.68,11.1825
7395,11/4/2012 3:00,23.1462,32.94,10.152
7396,11/4/2012 4:00,24.1659,31.335,10.620000000000001
7397,11/4/2012 5:00,0.0,23.639999999999997,10.872
7398,11/4/2012 6:00,0.0,28.410000000000004,10.998000000000001
7399,11/4/2012 7:00,0.0,29.58,11.025
7400,11/4/2012 8:00,0.0,22.125,11.925
7401,11/4/2012 9:00,0.0,14.37,12.24
7402,11/4/2012 10:00,0.0,9.06,11.133000000000001
7403,11/4/2012 11:00,0.0,5.715,9.216000000000001
7404,11/4/2012 12:00,0.0,4.47,6.084
7405,11/4/2012 13:00,0.0,4.29,2.907
7406,11/4/2012 14:00,0.0,4.365,1.296
7407,11/4/2012 15:00,0.0,3.69,0.621
7408,11/4/2012 16:00,0.0,2.565,0.39149999999999996
7409,11/4/2012 17:00,0.0,1.815,0.5579999999999999
7410,11/4/2012 18:00,0.7029000000000001,7.2,0.927
7411,11/4/2012 19:00,1.0197,6.615,1.1700000000000002
7412,11/4/2012 20:00,1.0989,7.59,1.656
7413,11/4/2012 21:00,0.7424999999999999,9.105,3.204
7414,11/4/2012 22:00,0.0,1.9500000000000002,3.834
7415,11/4/2012 23:00,0.0,1.5599999999999998,3.546
7416,11/5/2012 0:00,0.9207,0.0,2.8935
7417,11/5/2012 1:00,1.2078,0.0,2.8845
7418,11/5/2012 2:00,1.4553,0.0,2.7945
7419,11/5/2012 3:00,1.1781000000000001,0.0,3.4335000000000004
7420,11/5/2012 4:00,0.7128,0.0,4.536
7421,11/5/2012 5:00,0.0,0.0,8.2215
7422,11/5/2012 6:00,0.9207,0.0,12.870000000000001
7423,11/5/2012 7:00,1.3463999999999998,0.0,12.325499999999998
7424,11/5/2012 8:00,1.3563,0.0,8.360999999999999
7425,11/5/2012 9:00,1.2078,0.0,9.1305
7426,11/5/2012 10:00,0.0,0.0,9.8955
7427,11/5/2012 11:00,0.0,1.425,10.2915
7428,11/5/2012 12:00,0.8811,2.16,9.981
7429,11/5/2012 13:00,0.0,3.1500000000000004,9.8865
7430,11/5/2012 14:00,0.0,4.29,9.711
7431,11/5/2012 15:00,0.0,5.7,8.748
7432,11/5/2012 16:00,0.0,7.4399999999999995,6.9795
7433,11/5/2012 17:00,0.0,7.05,1.9709999999999999
7434,11/5/2012 18:00,89.4762,4.14,1.161
7435,11/5/2012 19:00,0.0,2.5349999999999997,1.026
7436,11/5/2012 20:00,0.0,1.8,1.1025
7437,11/5/2012 21:00,0.0,1.0499999999999998,1.233
7438,11/5/2012 22:00,0.0,0.0,1.2734999999999999
7439,11/5/2012 23:00,0.0,0.0,1.188
7440,11/6/2012 0:00,0.0,0.0,1.053
7441,11/6/2012 1:00,1.584,0.0,0.9404999999999999
7442,11/6/2012 2:00,1.5741,0.0,0.963
7443,11/6/2012 3:00,0.8118000000000001,1.665,0.9359999999999999
7444,11/6/2012 4:00,3.366,2.415,0.8685
7445,11/6/2012 5:00,1.4058000000000002,3.9000000000000004,0.8685
7446,11/6/2012 6:00,0.7128,4.665,0.837
7447,11/6/2012 7:00,0.0,5.955,0.765
7448,11/6/2012 8:00,2.7819,6.375000000000001,0.6975
7449,11/6/2012 9:00,2.9304,7.245,0.4815
7450,11/6/2012 10:00,4.9005,7.425000000000001,0.0
7451,11/6/2012 11:00,6.266699999999999,7.425000000000001,0.0
7452,11/6/2012 12:00,6.6627,0.0,0.0
7453,11/6/2012 13:00,7.2368999999999994,0.0,0.0
7454,11/6/2012 14:00,8.4942,1.11,0.0
7455,11/6/2012 15:00,10.197000000000001,3.4799999999999995,0.0
7456,11/6/2012 16:00,11.7117,5.13,0.0
7457,11/6/2012 17:00,12.5928,4.68,0.0
7458,11/6/2012 18:00,12.5433,3.6149999999999998,0.3645
7459,11/6/2012 19:00,10.820699999999999,2.64,0.48600000000000004
7460,11/6/2012 20:00,9.8802,2.445,0.5445
7461,11/6/2012 21:00,8.7219,2.6250000000000004,0.8910000000000001
7462,11/6/2012 22:00,10.2069,2.5349999999999997,1.5390000000000001
7463,11/6/2012 23:00,9.8901,2.325,0.0
7464,11/7/2012 0:00,13.3947,2.16,0.351
7465,11/7/2012 1:00,15.533100000000001,1.935,0.513
7466,11/7/2012 2:00,5.5638,1.26,4.0455
7467,11/7/2012 3:00,4.8213,1.08,3.825
7468,11/7/2012 4:00,3.8115,1.485,4.473
7469,11/7/2012 5:00,3.3561,32.655,5.0714999999999995
7470,11/7/2012 6:00,2.9403,31.200000000000003,5.427
7471,11/7/2012 7:00,2.6532,26.220000000000002,5.2965
7472,11/7/2012 8:00,2.4948,26.715,4.581
7473,11/7/2012 9:00,2.4057,22.020000000000003,3.654
7474,11/7/2012 10:00,2.6334,19.544999999999998,2.8845
7475,11/7/2012 11:00,2.8314,16.200000000000003,2.8035
7476,11/7/2012 12:00,2.6334,12.750000000000002,4.1265
7477,11/7/2012 13:00,1.6038,10.275,5.58
7478,11/7/2012 14:00,1.5345,10.56,6.308999999999999
7479,11/7/2012 15:00,2.7521999999999998,11.084999999999999,6.002999999999999
7480,11/7/2012 16:00,4.4154,10.350000000000001,7.5645
7481,11/7/2012 17:00,5.0886000000000005,8.325,8.7885
7482,11/7/2012 18:00,5.5737000000000005,10.845,6.804
7483,11/7/2012 19:00,6.3656999999999995,0.0,4.248
7484,11/7/2012 20:00,0.0,0.0,2.3805
7485,11/7/2012 21:00,52.331399999999995,0.0,2.0475
7486,11/7/2012 22:00,58.370400000000004,0.0,4.9635
7487,11/7/2012 23:00,60.568200000000004,0.0,5.7465
7488,11/8/2012 0:00,1.2474,2.145,6.588
7489,11/8/2012 1:00,1.2177,1.185,7.172999999999999
7490,11/8/2012 2:00,1.2078,0.0,7.7715
7491,11/8/2012 3:00,1.1979,1.665,8.3655
7492,11/8/2012 4:00,1.3167,3.96,8.82
7493,11/8/2012 5:00,13.503599999999999,5.715,8.838
7494,11/8/2012 6:00,15.0678,5.28,8.6085
7495,11/8/2012 7:00,3.3561,4.965,8.577
7496,11/8/2012 8:00,3.069,5.114999999999999,9.054
7497,11/8/2012 9:00,2.5641,5.865,9.8775
7498,11/8/2012 10:00,2.2572,5.955,11.0115
7499,11/8/2012 11:00,2.2967999999999997,4.485,10.1655
7500,11/8/2012 12:00,2.4057,5.085,7.2540000000000004
7501,11/8/2012 13:00,2.5542,1.47,6.002999999999999
7502,11/8/2012 14:00,2.5542,0.0,4.752
7503,11/8/2012 15:00,2.2374,0.0,4.0905
7504,11/8/2012 16:00,1.9206,0.0,6.263999999999999
7505,11/8/2012 17:00,1.6236000000000002,0.0,5.9985
7506,11/8/2012 18:00,1.2771,0.0,5.3415
7507,11/8/2012 19:00,0.9999,1.53,4.5225
7508,11/8/2012 20:00,0.0,2.235,3.069
7509,11/8/2012 21:00,0.0,5.085,10.89
7510,11/8/2012 22:00,0.0,4.44,10.6425
7511,11/8/2012 23:00,1.7325000000000002,3.5100000000000002,10.3635
7512,11/9/2012 0:00,1.6236000000000002,2.22,9.171000000000001
7513,11/9/2012 1:00,1.9701000000000002,0.0,7.798500000000001
7514,11/9/2012 2:00,2.1978,0.0,6.336
7515,11/9/2012 3:00,2.2374,0.0,4.581
7516,11/9/2012 4:00,2.4453,0.0,3.0014999999999996
7517,11/9/2012 5:00,3.3461999999999996,0.0,2.223
7518,11/9/2012 6:00,5.5638,1.17,2.592
7519,11/9/2012 7:00,9.365400000000001,0.0,3.195
7520,11/9/2012 8:00,13.711500000000001,0.0,3.1319999999999997
7521,11/9/2012 9:00,16.3746,0.0,2.493
7522,11/9/2012 10:00,13.5234,1.11,2.187
7523,11/9/2012 11:00,5.742,1.47,1.53
7524,11/9/2012 12:00,5.4747,1.7550000000000001,1.0845
7525,11/9/2012 13:00,7.929900000000001,2.1300000000000003,0.999
7526,11/9/2012 14:00,11.088,2.505,1.9665000000000001
7527,11/9/2012 15:00,0.0,0.0,0.531
7528,11/9/2012 16:00,15.048,0.0,0.4635
7529,11/9/2012 17:00,14.0679,0.0,0.42300000000000004
7530,11/9/2012 18:00,12.533399999999999,0.0,0.351
7531,11/9/2012 19:00,10.9593,0.0,0.0
7532,11/9/2012 20:00,0.0,0.0,0.0
7533,11/9/2012 21:00,41.1246,0.0,0.36900000000000005
7534,11/9/2012 22:00,1.9602000000000002,3.435,0.477
7535,11/9/2012 23:00,1.881,3.5700000000000003,0.522
7536,11/10/2012 0:00,1.7226,2.34,0.49500000000000005
7537,11/10/2012 1:00,1.584,3.24,0.39149999999999996
7538,11/10/2012 2:00,1.6236000000000002,6.21,0.3735
7539,11/10/2012 3:00,1.6730999999999998,9.465,0.48600000000000004
7540,11/10/2012 4:00,1.6730999999999998,11.355,0.7425
7541,11/10/2012 5:00,1.8018,10.98,1.0394999999999999
7542,11/10/2012 6:00,1.9899,9.93,4.221
7543,11/10/2012 7:00,2.4948,7.665,4.153499999999999
7544,11/10/2012 8:00,2.8908,4.965,3.6855
7545,11/10/2012 9:00,2.9798999999999998,6.72,2.0745
7546,11/10/2012 10:00,3.1877999999999997,8.385,2.9295000000000004
7547,11/10/2012 11:00,2.6334,10.095,4.1085
7548,11/10/2012 12:00,2.1582,11.13,5.1075
7549,11/10/2012 13:00,3.0294,10.335,5.9625
7550,11/10/2012 14:00,6.7221,9.555000000000001,6.232500000000001
7551,11/10/2012 15:00,11.3157,8.7,6.273
7552,11/10/2012 16:00,11.7711,6.375000000000001,5.724
7553,11/10/2012 17:00,9.0783,5.4,5.116499999999999
7554,11/10/2012 18:00,9.6624,5.61,2.007
7555,11/10/2012 19:00,10.3158,1.6949999999999998,1.8944999999999999
7556,11/10/2012 20:00,10.4841,1.935,1.9485
7557,11/10/2012 21:00,9.9297,2.265,2.1915
7558,11/10/2012 22:00,9.7515,2.85,2.6685
7559,11/10/2012 23:00,9.098099999999999,2.8200000000000003,3.6225
7560,11/11/2012 0:00,7.2863999999999995,3.165,2.8125
7561,11/11/2012 1:00,7.830900000000001,3.8249999999999997,3.0825000000000005
7562,11/11/2012 2:00,8.276399999999999,3.855,3.1319999999999997
7563,11/11/2012 3:00,8.5239,11.67,3.2445
7564,11/11/2012 4:00,7.613099999999999,9.39,5.1885
7565,11/11/2012 5:00,0.0,8.745,5.2785
7566,11/11/2012 6:00,0.0,9.12,5.5035
7567,11/11/2012 7:00,0.0,10.71,5.967
7568,11/11/2012 8:00,0.0,11.115,6.705
7569,11/11/2012 9:00,0.0,14.49,7.555499999999999
7570,11/11/2012 10:00,2.0493,20.775000000000002,8.320500000000001
7571,11/11/2012 11:00,3.2274,29.834999999999997,7.812
7572,11/11/2012 12:00,2.0591999999999997,37.86,6.2505
7573,11/11/2012 13:00,1.0593,34.425000000000004,5.197500000000001
7574,11/11/2012 14:00,0.7623,28.305,10.944
7575,11/11/2012 15:00,0.0,20.654999999999998,11.780999999999999
7576,11/11/2012 16:00,2.376,14.82,12.501
7577,11/11/2012 17:00,1.5444,13.98,12.5775
7578,11/11/2012 18:00,1.0890000000000002,14.955,7.317
7579,11/11/2012 19:00,0.8712000000000001,5.28,7.7355
7580,11/11/2012 20:00,0.0,4.755,7.9245
7581,11/11/2012 21:00,0.0,4.245,8.842500000000001
7582,11/11/2012 22:00,0.8118000000000001,3.54,10.116
7583,11/11/2012 23:00,0.9207,17.955000000000002,10.9845
7584,11/12/2012 0:00,1.2969,17.895,10.9755
7585,11/12/2012 1:00,2.1681,17.61,0.4005
7586,11/12/2012 2:00,3.2472000000000003,17.685000000000002,0.0
7587,11/12/2012 3:00,4.1283,17.94,0.0
7588,11/12/2012 4:00,4.3362,17.46,0.0
7589,11/12/2012 5:00,4.0887,14.775,0.0
7590,11/12/2012 6:00,4.9896,11.325,0.0
7591,11/12/2012 7:00,5.5539,8.085,0.549
7592,11/12/2012 8:00,7.504200000000001,22.77,0.522
7593,11/12/2012 9:00,2.0690999999999997,74.265,0.0
7594,11/12/2012 10:00,2.5344,66.495,0.351
7595,11/12/2012 11:00,0.0,56.25,0.48600000000000004
7596,11/12/2012 12:00,0.0,42.3,0.873
7597,11/12/2012 13:00,0.0,25.32,1.3005
7598,11/12/2012 14:00,0.0,21.12,2.223
7599,11/12/2012 15:00,0.0,20.759999999999998,4.5495
7600,11/12/2012 16:00,0.0,5.88,8.6175
7601,11/12/2012 17:00,0.8118000000000001,12.405,10.377
7602,11/12/2012 18:00,1.0494,4.29,9.1665
7603,11/12/2012 19:00,1.3365,5.16,9.4815
7604,11/12/2012 20:00,1.8612,4.635,10.241999999999999
7605,11/12/2012 21:00,2.8611,0.0,12.3615
7606,11/12/2012 22:00,4.6827000000000005,0.0,14.1525
7607,11/12/2012 23:00,8.0982,0.0,15.254999999999999
7608,11/13/2012 0:00,12.771,0.0,0.6749999999999999
7609,11/13/2012 1:00,14.6025,0.0,0.5625
7610,11/13/2012 2:00,24.0669,0.0,0.4185
7611,11/13/2012 3:00,50.2029,0.0,0.3195
7612,11/13/2012 4:00,77.3289,0.0,0.0
7613,11/13/2012 5:00,84.7539,0.0,0.0
7614,11/13/2012 6:00,86.4666,0.0,0.0
7615,11/13/2012 7:00,79.70490000000001,0.0,0.0
7616,11/13/2012 8:00,13.5135,25.185,0.4635
7617,11/13/2012 9:00,8.7021,34.035,0.7515
7618,11/13/2012 10:00,1.0890000000000002,33.06,0.918
7619,11/13/2012 11:00,0.9009,29.475,1.0035
7620,11/13/2012 12:00,0.7424999999999999,24.314999999999998,1.1520000000000001
7621,11/13/2012 13:00,0.0,19.095,1.3275
7622,11/13/2012 14:00,1.4355,12.975,1.5615
7623,11/13/2012 15:00,0.0,8.385,1.584
7624,11/13/2012 16:00,0.0,5.654999999999999,1.512
7625,11/13/2012 17:00,0.0,3.6750000000000003,1.1520000000000001
7626,11/13/2012 18:00,0.99,2.1300000000000003,1.1745
7627,11/13/2012 19:00,2.0889,1.2,1.2375
7628,11/13/2012 20:00,3.0789,0.0,1.3005
7629,11/13/2012 21:00,3.5640000000000005,1.635,1.179
7630,11/13/2012 22:00,3.8510999999999997,3.21,12.9285
7631,11/13/2012 23:00,50.4009,4.83,10.575
7632,11/14/2012 0:00,50.3118,4.08,8.055
7633,11/14/2012 1:00,48.6684,2.835,5.6475
7634,11/14/2012 2:00,45.9063,1.8900000000000001,2.7765
7635,11/14/2012 3:00,42.8175,1.875,1.296
7636,11/14/2012 4:00,36.1548,2.34,1.1295
7637,11/14/2012 5:00,32.5908,4.095000000000001,1.0125
7638,11/14/2012 6:00,39.9564,3.975,0.8955000000000001
7639,11/14/2012 7:00,35.9073,3.345,0.8415
7640,11/14/2012 8:00,30.9969,2.61,0.7829999999999999
7641,11/14/2012 9:00,25.472699999999996,0.0,0.0
7642,11/14/2012 10:00,20.354400000000002,0.0,0.0
7643,11/14/2012 11:00,0.9306,0.0,0.0
7644,11/14/2012 12:00,0.8118000000000001,0.0,0.0
7645,11/14/2012 13:00,0.0,0.0,0.0
7646,11/14/2012 14:00,0.0,0.0,0.0
7647,11/14/2012 15:00,0.0,0.0,0.0
7648,11/14/2012 16:00,0.0,0.0,0.0
7649,11/14/2012 17:00,0.8415,30.900000000000002,0.4005
7650,11/14/2012 18:00,0.8118000000000001,30.795,0.4275
7651,11/14/2012 19:00,0.7524,30.285,0.44550000000000006
7652,11/14/2012 20:00,1.5542999999999998,28.110000000000003,0.39149999999999996
7653,11/14/2012 21:00,1.3760999999999999,23.25,0.36900000000000005
7654,11/14/2012 22:00,2.4453,14.115,0.49500000000000005
7655,11/14/2012 23:00,2.772,14.295,0.7110000000000001
7656,11/15/2012 0:00,2.8413,15.674999999999999,0.0
7657,11/15/2012 1:00,2.5047,15.63,0.0
7658,11/15/2012 2:00,1.8908999999999998,13.98,0.342
7659,11/15/2012 3:00,2.079,11.715,0.378
7660,11/15/2012 4:00,3.1284000000000005,9.81,0.3645
7661,11/15/2012 5:00,3.3758999999999997,8.459999999999999,0.33749999999999997
7662,11/15/2012 6:00,3.4947,7.245,0.0
7663,11/15/2012 7:00,3.6630000000000007,5.82,0.0
7664,11/15/2012 8:00,3.5343000000000004,4.32,0.0
7665,11/15/2012 9:00,2.6631,3.135,0.36900000000000005
7666,11/15/2012 10:00,2.2868999999999997,2.16,0.477
7667,11/15/2012 11:00,2.1384000000000003,0.0,0.8235
7668,11/15/2012 12:00,2.0591999999999997,0.0,0.0
7669,11/15/2012 13:00,2.0097,1.245,0.0
7670,11/15/2012 14:00,2.0097,1.14,0.387
7671,11/15/2012 15:00,2.475,1.17,0.46799999999999997
7672,11/15/2012 16:00,2.4552,1.455,0.5579999999999999
7673,11/15/2012 17:00,3.1284000000000005,2.28,11.9655
7674,11/15/2012 18:00,4.0392,3.435,14.697
7675,11/15/2012 19:00,7.0488,7.0200000000000005,16.1775
7676,11/15/2012 20:00,13.087800000000001,15.705,17.0595
7677,11/15/2012 21:00,15.661800000000001,11.07,4.6755
7678,11/15/2012 22:00,14.2956,5.6850000000000005,6.093
7679,11/15/2012 23:00,12.1671,5.250000000000001,4.0185
7680,11/16/2012 0:00,13.6125,5.79,5.553
7681,11/16/2012 1:00,10.4643,6.12,7.1819999999999995
7682,11/16/2012 2:00,10.0782,5.85,7.2585
7683,11/16/2012 3:00,15.6024,5.145,6.1695
7684,11/16/2012 4:00,19.6119,3.765,5.6475
7685,11/16/2012 5:00,20.572200000000002,2.4600000000000004,5.0264999999999995
7686,11/16/2012 6:00,20.0277,2.325,4.364999999999999
7687,11/16/2012 7:00,0.0,2.475,3.987
7688,11/16/2012 8:00,0.0,2.505,4.3335
7689,11/16/2012 9:00,0.0,2.7,4.0995
7690,11/16/2012 10:00,0.0,4.005,3.6270000000000002
7691,11/16/2012 11:00,12.2463,6.945,4.1985
7692,11/16/2012 12:00,0.0,15.63,5.4945
7693,11/16/2012 13:00,0.0,31.485,5.5665000000000004
7694,11/16/2012 14:00,3.8015999999999996,62.625,4.941
7695,11/16/2012 15:00,3.3165,106.185,3.7935
7696,11/16/2012 16:00,3.2967000000000004,129.06,2.7135
7697,11/16/2012 17:00,4.2867,135.42000000000002,1.7055000000000002
7698,11/16/2012 18:00,6.0192,130.53,1.2015
7699,11/16/2012 19:00,7.890299999999999,127.56,0.801
7700,11/16/2012 20:00,10.0386,130.8,0.747
7701,11/16/2012 21:00,14.652000000000003,133.935,0.6615
7702,11/16/2012 22:00,21.1662,134.76,0.6749999999999999
7703,11/16/2012 23:00,28.5318,133.965,0.8505
7704,11/17/2012 0:00,30.789,131.91,0.6749999999999999
7705,11/17/2012 1:00,28.7991,128.25,0.35550000000000004
7706,11/17/2012 2:00,27.7299,124.19999999999999,0.0
7707,11/17/2012 3:00,26.4825,123.525,0.0
7708,11/17/2012 4:00,23.5818,126.02999999999999,0.0
7709,11/17/2012 5:00,19.8891,127.8,0.0
7710,11/17/2012 6:00,16.7211,126.67500000000001,0.0
7711,11/17/2012 7:00,16.4439,123.55499999999999,0.3645
7712,11/17/2012 8:00,13.5927,119.35499999999999,1.143
7713,11/17/2012 9:00,12.058200000000001,79.58999999999999,1.737
7714,11/17/2012 10:00,14.4342,3.3000000000000003,0.549
7715,11/17/2012 11:00,16.5132,3.63,0.7515
7716,11/17/2012 12:00,18.6615,3.6750000000000003,0.0
7717,11/17/2012 13:00,19.9089,3.81,0.0
7718,11/17/2012 14:00,21.7305,4.17,0.0
7719,11/17/2012 15:00,22.5621,4.95,0.0
7720,11/17/2012 16:00,0.0,5.4,0.0
7721,11/17/2012 17:00,0.0,50.265,0.0
7722,11/17/2012 18:00,0.0,111.735,0.0
7723,11/17/2012 19:00,0.0,11.235,0.0
7724,11/17/2012 20:00,0.0,10.500000000000002,0.0
7725,11/17/2012 21:00,0.0,9.945,0.33749999999999997
7726,11/17/2012 22:00,1.1583,9.06,0.36900000000000005
7727,11/17/2012 23:00,0.7821000000000001,9.03,0.405
7728,11/18/2012 0:00,0.7524,8.985,0.8235
7729,11/18/2012 1:00,1.0791,8.025,1.2105
7730,11/18/2012 2:00,33.343199999999996,6.54,0.441
7731,11/18/2012 3:00,29.403,7.4399999999999995,0.6299999999999999
7732,11/18/2012 4:00,25.423199999999998,9.0,0.567
7733,11/18/2012 5:00,22.968,10.56,0.43199999999999994
7734,11/18/2012 6:00,21.0078,11.355,0.34650000000000003
7735,11/18/2012 7:00,20.4039,11.325,0.324
7736,11/18/2012 8:00,20.047500000000003,11.355,0.40950000000000003
7737,11/18/2012 9:00,18.6714,10.47,0.5579999999999999
7738,11/18/2012 10:00,19.6416,9.075,0.7605
7739,11/18/2012 11:00,7.2567,6.54,0.9674999999999999
7740,11/18/2012 12:00,10.2564,0.0,1.1115
7741,11/18/2012 13:00,13.6917,0.0,1.1655
7742,11/18/2012 14:00,14.0283,0.0,0.9315
7743,11/18/2012 15:00,23.2254,2.3850000000000002,0.5265
7744,11/18/2012 16:00,14.859900000000001,4.875,0.729
7745,11/18/2012 17:00,16.305300000000003,7.215,1.4355
7746,11/18/2012 18:00,19.305,10.665,1.188
7747,11/18/2012 19:00,17.3151,13.110000000000001,1.4085
7748,11/18/2012 20:00,14.1471,3.915,1.6920000000000002
7749,11/18/2012 21:00,12.889800000000001,4.965,1.233
7750,11/18/2012 22:00,12.681899999999999,22.95,1.161
7751,11/18/2012 23:00,45.4311,14.37,1.0575
7752,11/19/2012 0:00,43.144200000000005,7.800000000000001,1.1475
7753,11/19/2012 1:00,40.9266,8.61,1.1025
7754,11/19/2012 2:00,38.204100000000004,8.22,1.2645
7755,11/19/2012 3:00,29.5416,6.21,2.3040000000000003
7756,11/19/2012 4:00,12.6423,4.755,4.023
7757,11/19/2012 5:00,10.494,3.4499999999999997,6.0435
7758,11/19/2012 6:00,12.2166,2.8200000000000003,6.4485
7759,11/19/2012 7:00,12.483899999999998,1.9200000000000002,6.102
7760,11/19/2012 8:00,11.4147,1.2,6.2685
7761,11/19/2012 9:00,9.7515,0.0,6.232500000000001
7762,11/19/2012 10:00,8.335799999999999,1.08,5.1705000000000005
7763,11/19/2012 11:00,6.8607000000000005,1.68,0.0
7764,11/19/2012 12:00,1.7028,3.4050000000000002,16.6635
7765,11/19/2012 13:00,2.3661000000000003,6.569999999999999,16.721999999999998
7766,11/19/2012 14:00,2.4651,8.835,16.429499999999997
7767,11/19/2012 15:00,3.2076,13.260000000000002,15.453
7768,11/19/2012 16:00,2.6136,21.885,14.3325
7769,11/19/2012 17:00,1.9899,24.959999999999997,13.243500000000001
7770,11/19/2012 18:00,1.5345,29.25,13.2075
7771,11/19/2012 19:00,1.2771,26.625,13.788
7772,11/19/2012 20:00,22.4631,20.549999999999997,13.846499999999999
7773,11/19/2012 21:00,21.8592,14.64,14.625
7774,11/19/2012 22:00,22.2255,11.745,15.039
7775,11/19/2012 23:00,20.552400000000002,11.625,15.844500000000002
7776,11/20/2012 0:00,20.1564,11.084999999999999,15.822000000000001
7777,11/20/2012 1:00,17.572499999999998,11.535,16.276500000000002
7778,11/20/2012 2:00,15.7905,10.665,16.339499999999997
7779,11/20/2012 3:00,13.5927,9.525,17.622
7780,11/20/2012 4:00,12.6027,8.805,17.590500000000002
7781,11/20/2012 5:00,12.2463,8.25,17.378999999999998
7782,11/20/2012 6:00,10.6821,6.959999999999999,16.8525
7783,11/20/2012 7:00,9.6723,6.18,17.014499999999998
7784,11/20/2012 8:00,9.0585,6.48,17.009999999999998
7785,11/20/2012 9:00,8.0784,7.485,16.906499999999998
7786,11/20/2012 10:00,7.1676,10.155,17.397
7787,11/20/2012 11:00,36.392399999999995,14.985000000000001,17.9235
7788,11/20/2012 12:00,29.610899999999997,17.4,15.6105
7789,11/20/2012 13:00,25.472699999999996,18.15,12.388499999999999
7790,11/20/2012 14:00,0.0,16.455000000000002,9.0045
7791,11/20/2012 15:00,0.0,14.64,6.5295000000000005
7792,11/20/2012 16:00,0.9207,12.750000000000002,4.2885
7793,11/20/2012 17:00,1.2276,10.665,0.0
7794,11/20/2012 18:00,1.7424000000000002,8.459999999999999,0.0
7795,11/20/2012 19:00,87.7437,9.33,0.0
7796,11/20/2012 20:00,89.6841,17.67,0.0
7797,11/20/2012 21:00,89.4564,21.9,0.0
7798,11/20/2012 22:00,0.9009,26.76,0.0
7799,11/20/2012 23:00,10.4445,28.455000000000002,1.0935
7800,11/21/2012 0:00,10.9296,16.665,0.9045
7801,11/21/2012 1:00,9.5337,13.68,0.0
7802,11/21/2012 2:00,9.365400000000001,33.315,0.0
7803,11/21/2012 3:00,10.2069,36.975,0.0
7804,11/21/2012 4:00,9.5535,37.005,0.0
7805,11/21/2012 5:00,7.3458000000000006,32.04,0.0
7806,11/21/2012 6:00,0.0,27.0,0.0
7807,11/21/2012 7:00,0.0,23.669999999999998,0.0
7808,11/21/2012 8:00,0.0,22.11,0.0
7809,11/21/2012 9:00,6.920100000000001,18.330000000000002,0.0
7810,11/21/2012 10:00,1.1979,43.965,0.0
7811,11/21/2012 11:00,1.386,43.11,0.0
7812,11/21/2012 12:00,0.0,49.275000000000006,0.0
7813,11/21/2012 13:00,0.0,52.095,0.0
7814,11/21/2012 14:00,6.6627,55.230000000000004,0.0
7815,11/21/2012 15:00,7.6329,61.08,0.0
7816,11/21/2012 16:00,8.9892,68.325,0.0
7817,11/21/2012 17:00,8.4744,72.33,0.0
7818,11/21/2012 18:00,8.5635,93.05999999999999,0.0
7819,11/21/2012 19:00,8.9397,87.39,0.0
7820,11/21/2012 20:00,55.2123,86.955,0.0
7821,11/21/2012 21:00,64.1322,86.745,0.0
7822,11/21/2012 22:00,67.122,79.2,0.0
7823,11/21/2012 23:00,67.38929999999999,85.30499999999999,0.0
7824,11/22/2012 0:00,2.6829,93.075,0.0
7825,11/22/2012 1:00,2.7621,96.28500000000001,0.0
7826,11/22/2012 2:00,2.1582,96.21,0.0
7827,11/22/2012 3:00,1.2474,94.425,0.0
7828,11/22/2012 4:00,6.8408999999999995,92.79,0.4995
7829,11/22/2012 5:00,6.237,90.765,0.39149999999999996
7830,11/22/2012 6:00,7.3062000000000005,88.97999999999999,0.0
7831,11/22/2012 7:00,7.4745,87.24,0.0
7832,11/22/2012 8:00,7.880400000000001,86.04,0.0
7833,11/22/2012 9:00,8.6823,2.805,8.0505
7834,11/22/2012 10:00,8.0388,2.9549999999999996,9.8505
7835,11/22/2012 11:00,6.3954,43.47,2.2455
7836,11/22/2012 12:00,7.7021999999999995,52.53,2.25
7837,11/22/2012 13:00,8.0982,49.394999999999996,2.3175
7838,11/22/2012 14:00,7.1577,48.93,2.2365
7839,11/22/2012 15:00,7.7120999999999995,47.58,2.25
7840,11/22/2012 16:00,8.385299999999999,53.52,2.1375
7841,11/22/2012 17:00,9.1179,53.955000000000005,1.9440000000000002
7842,11/22/2012 18:00,5.890499999999999,8.655,1.7775
7843,11/22/2012 19:00,5.0489999999999995,102.75000000000001,1.5434999999999999
7844,11/22/2012 20:00,4.9896,97.53,1.2375
7845,11/22/2012 21:00,5.2569,71.22,1.0035
7846,11/22/2012 22:00,4.6232999999999995,52.949999999999996,0.8910000000000001
7847,11/22/2012 23:00,5.9796000000000005,59.82,0.774
7848,11/23/2012 0:00,6.5241,66.99,0.5085
7849,11/23/2012 1:00,6.4251,62.115,0.4275
7850,11/23/2012 2:00,5.623200000000001,54.915,0.5175
7851,11/23/2012 3:00,6.8904,47.055,0.702
7852,11/23/2012 4:00,11.5533,36.375,1.053
7853,11/23/2012 5:00,15.1668,27.09,1.341
7854,11/23/2012 6:00,16.3251,29.34,1.5615
7855,11/23/2012 7:00,19.305,17.549999999999997,1.3544999999999998
7856,11/23/2012 8:00,24.017400000000002,18.105,1.008
7857,11/23/2012 9:00,1.4949000000000001,18.075,0.7515
7858,11/23/2012 10:00,37.2537,16.35,0.6165
7859,11/23/2012 11:00,27.541800000000002,12.0,0.5265
7860,11/23/2012 12:00,20.8593,8.67,0.34650000000000003
7861,11/23/2012 13:00,18.097199999999997,5.835,0.3285
7862,11/23/2012 14:00,12.919500000000001,4.2299999999999995,0.5265
7863,11/23/2012 15:00,9.998999999999999,2.8649999999999998,1.134
7864,11/23/2012 16:00,7.0389,1.62,2.025
7865,11/23/2012 17:00,4.7817,0.0,2.2995
7866,11/23/2012 18:00,2.4156,0.0,3.033
7867,11/23/2012 19:00,0.7623,0.0,1.4175
7868,11/23/2012 20:00,0.0,0.0,3.6134999999999997
7869,11/23/2012 21:00,0.0,0.0,7.848
7870,11/23/2012 22:00,1.8414,0.0,6.39
7871,11/23/2012 23:00,4.0194,0.0,3.573
7872,11/24/2012 0:00,5.9399999999999995,0.0,3.5909999999999997
7873,11/24/2012 1:00,8.019,0.0,4.3785
7874,11/24/2012 2:00,1.8117,0.0,5.337
7875,11/24/2012 3:00,0.9503999999999999,0.0,6.6735
7876,11/24/2012 4:00,0.99,0.0,6.6015
7877,11/24/2012 5:00,1.3266,0.0,6.2145
7878,11/24/2012 6:00,1.2572999999999999,0.0,5.8725000000000005
7879,11/24/2012 7:00,0.9999,1.2,0.0
7880,11/24/2012 8:00,0.0,1.8,0.0
7881,11/24/2012 9:00,0.0,2.0100000000000002,0.0
7882,11/24/2012 10:00,0.0,1.485,0.0
7883,11/24/2012 11:00,0.0,0.0,0.0
7884,11/24/2012 12:00,0.0,0.0,0.0
7885,11/24/2012 13:00,0.0,1.185,0.0
7886,11/24/2012 14:00,0.0,1.32,0.0
7887,11/24/2012 15:00,0.0,1.425,0.0
7888,11/24/2012 16:00,0.0,1.3949999999999998,0.43199999999999994
7889,11/24/2012 17:00,3.2769,1.17,0.49500000000000005
7890,11/24/2012 18:00,2.8215,1.095,0.5085
7891,11/24/2012 19:00,2.3859,3.195,3.294
7892,11/24/2012 20:00,2.0295,4.050000000000001,4.1265
7893,11/24/2012 21:00,1.7622,4.71,4.0275
7894,11/24/2012 22:00,1.5246,4.62,3.6089999999999995
7895,11/24/2012 23:00,1.3959,4.875,0.5355000000000001
7896,11/25/2012 0:00,1.3563,6.3149999999999995,0.7110000000000001
7897,11/25/2012 1:00,1.3760999999999999,9.405000000000001,0.7515
7898,11/25/2012 2:00,1.5444,1.095,0.7785
7899,11/25/2012 3:00,1.7622,1.305,0.6525000000000001
7900,11/25/2012 4:00,1.9305,1.4100000000000001,0.6615
7901,11/25/2012 5:00,2.1879,1.305,0.873
7902,11/25/2012 6:00,2.3859,1.26,1.1655
7903,11/25/2012 7:00,0.7227,1.35,0.0
7904,11/25/2012 8:00,1.6730999999999998,1.47,0.0
7905,11/25/2012 9:00,0.9603,3.105,0.387
7906,11/25/2012 10:00,0.0,3.03,0.6885
7907,11/25/2012 11:00,1.0197,4.95,1.08
7908,11/25/2012 12:00,1.8315,7.275,1.4625000000000001
7909,11/25/2012 13:00,2.1582,9.12,1.3905
7910,11/25/2012 14:00,2.1087,9.629999999999999,0.837
7911,11/25/2012 15:00,2.3067,0.0,1.0215
7912,11/25/2012 16:00,2.7422999999999997,0.0,1.7865
7913,11/25/2012 17:00,3.6234,0.0,2.754
7914,11/25/2012 18:00,4.1778,0.0,3.1455
7915,11/25/2012 19:00,2.1978,0.0,3.348
7916,11/25/2012 20:00,1.2870000000000001,0.0,3.7439999999999998
7917,11/25/2012 21:00,1.8414,0.0,3.9105000000000003
7918,11/25/2012 22:00,3.0789,0.0,4.2345
7919,11/25/2012 23:00,4.1876999999999995,3.105,4.383
