,date,Wind1,Wind2,Wind3
5040,7/29/2012 0:00,6.7617,0.0,2.7720000000000002
5041,7/29/2012 1:00,7.3062000000000005,0.0,0.40950000000000003
5042,7/29/2012 2:00,6.2865,0.0,0.34650000000000003
5043,7/29/2012 3:00,5.3262,13.559999999999999,0.0
5044,7/29/2012 4:00,4.6332,19.89,0.0
5045,7/29/2012 5:00,4.4055,25.365,0.0
5046,7/29/2012 6:00,3.6134999999999997,34.98,0.0
5047,7/29/2012 7:00,1.3463999999999998,6.585,0.0
5048,7/29/2012 8:00,0.792,7.575,0.0
5049,7/29/2012 9:00,0.7424999999999999,7.815,0.0
5050,7/29/2012 10:00,0.0,8.67,0.828
5051,7/29/2012 11:00,0.0,9.885,1.3275
5052,7/29/2012 12:00,0.0,10.17,1.8405
5053,7/29/2012 13:00,0.0,9.405000000000001,2.2635
5054,7/29/2012 14:00,0.0,8.82,2.4255
5055,7/29/2012 15:00,0.0,2.685,2.1195
5056,7/29/2012 16:00,0.8315999999999999,2.055,1.7145000000000001
5057,7/29/2012 17:00,0.8315999999999999,20.04,1.1204999999999998
5058,7/29/2012 18:00,0.7326,18.12,0.9
5059,7/29/2012 19:00,0.792,15.795,0.5445
5060,7/29/2012 20:00,0.9405,13.335,0.0
5061,7/29/2012 21:00,1.1088,3.69,0.0
5062,7/29/2012 22:00,1.4355,4.455,0.3645
5063,7/29/2012 23:00,1.5741,5.640000000000001,0.5085
5064,7/30/2012 0:00,1.7127,7.215,0.8415
5065,7/30/2012 1:00,7.5438,8.985,1.3185
5066,7/30/2012 2:00,5.3361,11.445,1.7325
5067,7/30/2012 3:00,3.7817999999999996,13.635,1.9709999999999999
5068,7/30/2012 4:00,3.2076,14.145,2.0835
5069,7/30/2012 5:00,2.8314,14.4,2.2725
5070,7/30/2012 6:00,2.5443000000000002,20.52,2.0835
5071,7/30/2012 7:00,2.2374,26.37,1.7055000000000002
5072,7/30/2012 8:00,1.9007999999999998,30.779999999999998,1.3499999999999999
5073,7/30/2012 9:00,1.6533,35.025,1.1700000000000002
5074,7/30/2012 10:00,1.4652,41.684999999999995,1.0305
5075,7/30/2012 11:00,1.2177,36.150000000000006,1.0394999999999999
5076,7/30/2012 12:00,0.8514,24.345,1.2465
5077,7/30/2012 13:00,0.0,25.14,1.926
5078,7/30/2012 14:00,0.0,28.905,2.907
5079,7/30/2012 15:00,0.0,29.205000000000002,3.654
5080,7/30/2012 16:00,0.0,29.475,3.8475
5081,7/30/2012 17:00,0.0,28.62,3.6270000000000002
5082,7/30/2012 18:00,0.0,26.25,2.6955
5083,7/30/2012 19:00,0.0,0.0,1.6920000000000002
5084,7/30/2012 20:00,0.0,0.0,1.7775
5085,7/30/2012 21:00,0.0,0.0,1.7055000000000002
5086,7/30/2012 22:00,0.0,0.0,1.3455
5087,7/30/2012 23:00,0.0,0.0,1.008
5088,7/31/2012 0:00,0.0,0.0,0.8145000000000001
5089,7/31/2012 1:00,0.0,0.0,0.39149999999999996
5090,7/31/2012 2:00,0.0,0.0,0.5355000000000001
5091,7/31/2012 3:00,0.0,0.0,0.639
5092,7/31/2012 4:00,0.0,0.0,0.513
5093,7/31/2012 5:00,0.0,0.0,0.504
5094,7/31/2012 6:00,1.0692000000000002,0.0,0.5850000000000001
5095,7/31/2012 7:00,1.1583,0.0,0.36900000000000005
5096,7/31/2012 8:00,0.9801000000000001,0.0,0.0
5097,7/31/2012 9:00,0.0,0.0,0.351
5098,7/31/2012 10:00,2.4354,0.0,0.7875000000000001
5099,7/31/2012 11:00,2.5938,1.545,1.161
5100,7/31/2012 12:00,2.9304,1.62,1.2734999999999999
5101,7/31/2012 13:00,3.5244,1.4100000000000001,1.0485
5102,7/31/2012 14:00,4.5935999999999995,1.095,5.0895
5103,7/31/2012 15:00,5.7222,0.0,4.419
5104,7/31/2012 16:00,5.9697,0.0,4.194
5105,7/31/2012 17:00,4.4649,0.0,3.7439999999999998
5106,7/31/2012 18:00,1.6335000000000002,0.0,0.5579999999999999
5107,7/31/2012 19:00,1.4157,0.0,0.5445
5108,7/31/2012 20:00,1.188,0.0,0.4905
5109,7/31/2012 21:00,0.9107999999999999,0.0,0.46799999999999997
5110,7/31/2012 22:00,0.8910000000000001,0.0,0.47250000000000003
5111,7/31/2012 23:00,1.1979,0.0,0.513
5112,8/1/2012 0:00,2.1087,0.0,0.0
5113,8/1/2012 1:00,2.8017,0.0,0.0
5114,8/1/2012 2:00,2.6631,1.11,0.0
5115,8/1/2012 3:00,2.2967999999999997,1.6949999999999998,0.0
5116,8/1/2012 4:00,2.0690999999999997,2.64,0.0
5117,8/1/2012 5:00,3.9303,4.32,0.0
5118,8/1/2012 6:00,2.7126,6.1499999999999995,0.333
5119,8/1/2012 7:00,1.4058000000000002,7.5600000000000005,0.441
5120,8/1/2012 8:00,1.2177,15.315,0.612
5121,8/1/2012 9:00,0.7326,13.919999999999998,0.6705
5122,8/1/2012 10:00,0.0,12.855,0.639
5123,8/1/2012 11:00,0.0,11.715,0.4995
5124,8/1/2012 12:00,0.0,10.77,0.0
5125,8/1/2012 13:00,0.0,11.280000000000001,0.0
5126,8/1/2012 14:00,0.0,11.07,0.0
5127,8/1/2012 15:00,0.0,9.690000000000001,0.0
5128,8/1/2012 16:00,0.9503999999999999,8.055,0.3825
5129,8/1/2012 17:00,1.8513000000000002,7.38,0.981
5130,8/1/2012 18:00,2.5047,7.335,1.7145000000000001
5131,8/1/2012 19:00,3.3263999999999996,8.385,2.745
5132,8/1/2012 20:00,4.118399999999999,9.795,3.8745
5133,8/1/2012 21:00,6.0093,11.055,4.9995
5134,8/1/2012 22:00,8.0487,11.625,6.75
5135,8/1/2012 23:00,14.6025,12.104999999999999,8.82
5136,8/2/2012 0:00,14.137200000000002,11.295000000000002,9.769499999999999
5137,8/2/2012 1:00,13.503599999999999,9.9,9.499500000000001
5138,8/2/2012 2:00,15.156900000000002,8.100000000000001,9.3825
5139,8/2/2012 3:00,18.5328,7.034999999999999,9.225
5140,8/2/2012 4:00,27.571500000000004,6.045,8.599499999999999
5141,8/2/2012 5:00,27.908099999999997,4.53,8.19
5142,8/2/2012 6:00,40.5207,19.814999999999998,8.9505
5143,8/2/2012 7:00,2.6334,25.14,10.935
5144,8/2/2012 8:00,1.5542999999999998,27.044999999999998,11.016
5145,8/2/2012 9:00,1.1583,24.314999999999998,11.439
5146,8/2/2012 10:00,1.9305,21.96,11.7225
5147,8/2/2012 11:00,2.9600999999999997,19.169999999999998,11.727
5148,8/2/2012 12:00,4.356000000000001,20.19,10.944
5149,8/2/2012 13:00,5.3163,19.86,10.215
5150,8/2/2012 14:00,32.640299999999996,22.005,9.3735
5151,8/2/2012 15:00,35.184599999999996,22.515,8.5365
5152,8/2/2012 16:00,38.6595,23.97,7.172999999999999
5153,8/2/2012 17:00,43.1838,25.005,0.4635
5154,8/2/2012 18:00,46.5399,27.96,0.43199999999999994
5155,8/2/2012 19:00,47.916,32.805,0.5850000000000001
5156,8/2/2012 20:00,47.2131,40.08,0.6885
5157,8/2/2012 21:00,42.8274,44.580000000000005,0.7380000000000001
5158,8/2/2012 22:00,32.9274,50.37,0.9045
5159,8/2/2012 23:00,33.2343,56.714999999999996,1.089
5160,8/3/2012 0:00,44.0253,58.455,1.242
5161,8/3/2012 1:00,40.5306,57.855,1.359
5162,8/3/2012 2:00,31.818600000000004,56.1,1.2599999999999998
5163,8/3/2012 3:00,22.5918,53.955000000000005,1.1969999999999998
5164,8/3/2012 4:00,11.246400000000001,54.824999999999996,1.161
5165,8/3/2012 5:00,10.107899999999999,55.185,0.9854999999999999
5166,8/3/2012 6:00,14.0184,57.06,1.1520000000000001
5167,8/3/2012 7:00,12.6423,57.69,1.656
5168,8/3/2012 8:00,8.6724,59.519999999999996,2.3445
5169,8/3/2012 9:00,7.226999999999999,57.794999999999995,2.6550000000000002
5170,8/3/2012 10:00,6.6033,48.72,2.6325000000000003
5171,8/3/2012 11:00,5.445,2.745,2.5515
5172,8/3/2012 12:00,3.8907000000000003,2.49,2.4975
5173,8/3/2012 13:00,3.2274,3.03,2.529
5174,8/3/2012 14:00,3.9996,2.6550000000000002,3.051
5175,8/3/2012 15:00,3.9798,1.425,1.1969999999999998
5176,8/3/2012 16:00,12.9294,0.0,1.305
5177,8/3/2012 17:00,13.1076,0.0,1.2195
5178,8/3/2012 18:00,10.7514,0.0,0.9225
5179,8/3/2012 19:00,6.8211,0.0,0.4275
5180,8/3/2012 20:00,3.8412,1.2750000000000001,0.5355000000000001
5181,8/3/2012 21:00,1.6533,1.7249999999999999,0.7695000000000001
5182,8/3/2012 22:00,0.0,2.22,0.8324999999999999
5183,8/3/2012 23:00,0.0,2.475,0.729
5184,8/4/2012 0:00,0.0,2.025,0.6975
5185,8/4/2012 1:00,6.6627,1.53,0.666
5186,8/4/2012 2:00,7.6824,2.1149999999999998,0.6525000000000001
5187,8/4/2012 3:00,8.464500000000001,4.199999999999999,0.648
5188,8/4/2012 4:00,8.91,6.87,0.639
5189,8/4/2012 5:00,8.4744,11.4,0.621
5190,8/4/2012 6:00,8.8407,18.75,0.42300000000000004
5191,8/4/2012 7:00,9.315900000000001,27.36,0.0
5192,8/4/2012 8:00,9.9792,35.145,0.0
5193,8/4/2012 9:00,9.0189,39.585,0.0
5194,8/4/2012 10:00,7.662599999999999,37.83,0.0
5195,8/4/2012 11:00,6.4746,26.76,0.0
5196,8/4/2012 12:00,0.0,19.695,0.0
5197,8/4/2012 13:00,0.0,24.735,0.4275
5198,8/4/2012 14:00,0.0,27.044999999999998,0.657
5199,8/4/2012 15:00,0.0,26.865000000000002,0.8145000000000001
5200,8/4/2012 16:00,0.0,0.0,0.7875000000000001
5201,8/4/2012 17:00,0.0,0.0,0.567
5202,8/4/2012 18:00,0.0,0.0,0.40950000000000003
5203,8/4/2012 19:00,0.0,0.0,0.5085
5204,8/4/2012 20:00,0.0,1.11,0.7064999999999999
5205,8/4/2012 21:00,0.0,1.59,0.8460000000000001
5206,8/4/2012 22:00,0.0,1.9500000000000002,0.7829999999999999
5207,8/4/2012 23:00,0.0,1.7399999999999998,0.6795
5208,8/5/2012 0:00,0.8019,1.2750000000000001,0.6345
5209,8/5/2012 1:00,1.0692000000000002,0.0,0.6299999999999999
5210,8/5/2012 2:00,11.4939,0.0,0.6345
5211,8/5/2012 3:00,13.9194,52.41,0.5715
5212,8/5/2012 4:00,13.038300000000001,62.91,0.47250000000000003
5213,8/5/2012 5:00,11.8602,65.655,0.3645
5214,8/5/2012 6:00,12.0879,59.64,0.0
5215,8/5/2012 7:00,12.0285,49.815,0.0
5216,8/5/2012 8:00,9.5634,37.410000000000004,0.0
5217,8/5/2012 9:00,6.9993,22.89,0.0
5218,8/5/2012 10:00,4.5837,9.795,0.34650000000000003
5219,8/5/2012 11:00,3.0294,6.27,0.6885
5220,8/5/2012 12:00,2.277,3.9899999999999998,1.224
5221,8/5/2012 13:00,1.4949000000000001,2.5949999999999998,1.827
5222,8/5/2012 14:00,0.9405,1.7850000000000001,2.3400000000000003
5223,8/5/2012 15:00,0.0,1.245,2.5875
5224,8/5/2012 16:00,0.0,0.0,2.556
5225,8/5/2012 17:00,0.0,0.0,2.2635
5226,8/5/2012 18:00,0.0,0.0,1.4760000000000002
5227,8/5/2012 19:00,0.0,34.275,0.6299999999999999
5228,8/5/2012 20:00,0.0,42.615,0.567
5229,8/5/2012 21:00,0.0,45.885,0.6255
5230,8/5/2012 22:00,0.0,41.144999999999996,0.5355000000000001
5231,8/5/2012 23:00,0.0,35.099999999999994,0.4365
5232,8/6/2012 0:00,0.0,33.839999999999996,0.33749999999999997
5233,8/6/2012 1:00,0.7128,37.44,0.0
5234,8/6/2012 2:00,0.8613,41.88,0.0
5235,8/6/2012 3:00,0.7821000000000001,49.14,0.0
5236,8/6/2012 4:00,0.0,58.215,0.0
5237,8/6/2012 5:00,0.0,63.69,0.0
5238,8/6/2012 6:00,0.8315999999999999,64.11,0.0
5239,8/6/2012 7:00,1.0295999999999998,72.45,0.0
5240,8/6/2012 8:00,1.0791,80.78999999999999,0.0
5241,8/6/2012 9:00,0.9503999999999999,84.10499999999999,0.33749999999999997
5242,8/6/2012 10:00,1.0098,86.55000000000001,0.5850000000000001
5243,8/6/2012 11:00,5.9597999999999995,88.29,0.837
5244,8/6/2012 12:00,7.7418000000000005,87.0,4.9590000000000005
5245,8/6/2012 13:00,9.7317,80.10000000000001,3.9015
5246,8/6/2012 14:00,11.5929,66.99,3.5055
5247,8/6/2012 15:00,11.2959,52.755,3.312
5248,8/6/2012 16:00,9.7218,39.84,3.186
5249,8/6/2012 17:00,12.8997,29.459999999999997,3.5055
5250,8/6/2012 18:00,5.544,20.205,3.6315
5251,8/6/2012 19:00,4.3956,14.25,3.663
5252,8/6/2012 20:00,3.0987,10.364999999999998,3.546
5253,8/6/2012 21:00,3.9897,8.445,1.9305
5254,8/6/2012 22:00,12.632399999999999,7.665,0.8145000000000001
5255,8/6/2012 23:00,10.820699999999999,6.825,0.4905
5256,8/7/2012 0:00,9.207,6.66,0.414
5257,8/7/2012 1:00,8.0289,8.835,0.3285
5258,8/7/2012 2:00,7.7021999999999995,13.575,0.0
5259,8/7/2012 3:00,8.0388,21.21,0.33749999999999997
5260,8/7/2012 4:00,7.326000000000001,29.64,0.621
5261,8/7/2012 5:00,6.5538,32.115,1.1025
5262,8/7/2012 6:00,0.0,35.175,1.548
5263,8/7/2012 7:00,0.0,46.185,1.8585000000000003
5264,8/7/2012 8:00,0.0,55.739999999999995,2.2725
5265,8/7/2012 9:00,0.0,2.895,2.4165
5266,8/7/2012 10:00,0.0,3.42,2.259
5267,8/7/2012 11:00,0.7029000000000001,4.395,2.1555
5268,8/7/2012 12:00,0.8315999999999999,5.069999999999999,2.4255
5269,8/7/2012 13:00,1.0098,5.52,3.0014999999999996
5270,8/7/2012 14:00,1.1682,6.345,3.7170000000000005
5271,8/7/2012 15:00,1.3167,6.945,4.995
5272,8/7/2012 16:00,1.5542999999999998,6.375000000000001,5.7059999999999995
5273,8/7/2012 17:00,1.881,5.324999999999999,5.4855
5274,8/7/2012 18:00,2.1483,4.0649999999999995,4.3605
5275,8/7/2012 19:00,2.2473,3.18,3.537
5276,8/7/2012 20:00,2.1087,3.5700000000000003,1.9845
5277,8/7/2012 21:00,1.6631999999999998,3.705,1.026
5278,8/7/2012 22:00,0.7128,3.36,0.6165
5279,8/7/2012 23:00,0.0,2.73,0.5760000000000001
5280,8/8/2012 0:00,5.0193,2.1149999999999998,1.2599999999999998
5281,8/8/2012 1:00,4.9401,1.59,1.188
5282,8/8/2012 2:00,5.0193,1.155,1.0665
5283,8/8/2012 3:00,5.4747,11.7,0.7695000000000001
5284,8/8/2012 4:00,5.9301,7.335,0.6930000000000001
5285,8/8/2012 5:00,6.237,2.61,0.9900000000000001
5286,8/8/2012 6:00,6.1875,0.0,1.1969999999999998
5287,8/8/2012 7:00,5.0193,0.0,1.0845
5288,8/8/2012 8:00,3.4848000000000003,0.0,0.8594999999999999
5289,8/8/2012 9:00,2.8512,0.0,0.6435
5290,8/8/2012 10:00,3.2076,0.0,0.504
5291,8/8/2012 11:00,3.2571,0.0,0.46799999999999997
5292,8/8/2012 12:00,3.7422,1.185,0.6435
5293,8/8/2012 13:00,4.7916,1.3949999999999998,0.8865
5294,8/8/2012 14:00,5.9004,1.425,1.062
5295,8/8/2012 15:00,6.6825,1.35,1.1295
5296,8/8/2012 16:00,7.652699999999999,1.32,1.5975
5297,8/8/2012 17:00,9.0585,0.0,3.321
5298,8/8/2012 18:00,10.6326,17.175,5.976
5299,8/8/2012 19:00,9.3555,18.330000000000002,6.669
5300,8/8/2012 20:00,6.692399999999999,18.15,5.6925
5301,8/8/2012 21:00,9.048599999999999,17.58,5.3865
5302,8/8/2012 22:00,12.1869,16.305,1.4264999999999999
5303,8/8/2012 23:00,3.3858,15.165,1.242
5304,8/9/2012 0:00,4.4847,15.495000000000001,5.1795
5305,8/9/2012 1:00,5.2371,15.705,7.749
5306,8/9/2012 2:00,6.1182,14.565000000000001,6.569999999999999
5307,8/9/2012 3:00,6.494400000000001,14.325000000000001,6.4035
5308,8/9/2012 4:00,64.5975,14.16,6.3675
5309,8/9/2012 5:00,72.468,9.584999999999999,5.4135
5310,8/9/2012 6:00,77.0616,4.11,4.041
5311,8/9/2012 7:00,80.2098,4.32,2.8575
5312,8/9/2012 8:00,81.1602,4.125,2.07
5313,8/9/2012 9:00,79.0713,4.305,1.5705
5314,8/9/2012 10:00,71.24040000000001,4.89,0.9854999999999999
5315,8/9/2012 11:00,60.62760000000001,7.065,0.639
5316,8/9/2012 12:00,62.667,7.725,0.8055
5317,8/9/2012 13:00,51.955200000000005,7.395,0.6075
5318,8/9/2012 14:00,39.5802,6.69,0.0
5319,8/9/2012 15:00,31.9968,5.970000000000001,0.0
5320,8/9/2012 16:00,23.0076,5.6850000000000005,0.0
5321,8/9/2012 17:00,20.8593,5.355,0.0
5322,8/9/2012 18:00,11.5434,4.7700000000000005,0.0
5323,8/9/2012 19:00,10.5831,5.265,0.0
5324,8/9/2012 20:00,8.712000000000002,3.7199999999999998,0.0
5325,8/9/2012 21:00,12.276,1.335,0.0
5326,8/9/2012 22:00,24.2451,1.17,3.5909999999999997
5327,8/9/2012 23:00,21.8295,1.14,1.9574999999999998
5328,8/10/2012 0:00,17.8002,0.0,0.6345
5329,8/10/2012 1:00,15.206399999999999,0.0,0.36900000000000005
5330,8/10/2012 2:00,13.602599999999999,1.095,0.0
5331,8/10/2012 3:00,10.157399999999999,1.095,0.0
5332,8/10/2012 4:00,6.336,0.0,0.0
5333,8/10/2012 5:00,8.1873,0.0,0.0
5334,8/10/2012 6:00,9.513900000000001,0.0,0.4995
5335,8/10/2012 7:00,9.5535,0.0,0.792
5336,8/10/2012 8:00,8.8506,0.0,1.0215
5337,8/10/2012 9:00,8.4843,0.0,1.206
5338,8/10/2012 10:00,8.0487,0.0,1.4175
5339,8/10/2012 11:00,5.7618,0.0,1.827
5340,8/10/2012 12:00,4.3659,0.0,2.493
5341,8/10/2012 13:00,0.0,0.0,2.9295000000000004
5342,8/10/2012 14:00,2.1681,0.0,3.123
5343,8/10/2012 15:00,1.9998,0.0,3.0014999999999996
5344,8/10/2012 16:00,1.5938999999999999,1.08,2.8529999999999998
5345,8/10/2012 17:00,1.7721,1.365,2.8575
5346,8/10/2012 18:00,9.8109,1.77,3.4875
5347,8/10/2012 19:00,8.553600000000001,2.355,4.0365
5348,8/10/2012 20:00,0.0,2.1300000000000003,4.221
5349,8/10/2012 21:00,0.0,2.49,3.9465
5350,8/10/2012 22:00,0.0,2.475,3.834
5351,8/10/2012 23:00,0.0,2.7899999999999996,3.2715
5352,8/11/2012 0:00,0.0,3.345,2.8665000000000003
5353,8/11/2012 1:00,0.0,3.8249999999999997,2.8754999999999997
5354,8/11/2012 2:00,0.0,4.050000000000001,2.9475000000000002
5355,8/11/2012 3:00,0.0,4.335,1.9305
5356,8/11/2012 4:00,0.9009,5.805,0.3285
5357,8/11/2012 5:00,1.2276,6.6000000000000005,0.3195
5358,8/11/2012 6:00,1.3563,10.05,0.3645
5359,8/11/2012 7:00,1.4157,16.740000000000002,0.47250000000000003
5360,8/11/2012 8:00,1.5938999999999999,18.585,0.648
5361,8/11/2012 9:00,1.5741,25.275000000000002,0.8594999999999999
5362,8/11/2012 10:00,1.3167,43.155,0.729
5363,8/11/2012 11:00,1.0593,56.970000000000006,0.522
5364,8/11/2012 12:00,0.0,64.485,0.7334999999999999
5365,8/11/2012 13:00,0.0,67.02,1.3499999999999999
5366,8/11/2012 14:00,0.0,72.06,2.646
5367,8/11/2012 15:00,0.0,61.26,3.7889999999999997
5368,8/11/2012 16:00,0.792,52.035,3.9015
5369,8/11/2012 17:00,1.3167,32.445,3.5415
5370,8/11/2012 18:00,1.9602000000000002,27.240000000000002,3.294
5371,8/11/2012 19:00,2.0493,35.324999999999996,2.916
5372,8/11/2012 20:00,2.0690999999999997,40.47,2.403
5373,8/11/2012 21:00,2.0394,33.434999999999995,1.8944999999999999
5374,8/11/2012 22:00,1.9503,23.01,1.458
5375,8/11/2012 23:00,1.8215999999999999,15.795,0.594
5376,8/12/2012 0:00,1.7127,8.145,0.405
5377,8/12/2012 1:00,1.5147,10.56,0.0
5378,8/12/2012 2:00,1.2276,14.445,0.0
5379,8/12/2012 3:00,11.6721,18.810000000000002,0.0
5380,8/12/2012 4:00,12.6522,19.725,0.0
5381,8/12/2012 5:00,12.6522,16.89,0.0
5382,8/12/2012 6:00,10.8009,14.715000000000002,0.0
5383,8/12/2012 7:00,8.7219,12.075000000000001,0.0
5384,8/12/2012 8:00,5.623200000000001,10.56,0.0
5385,8/12/2012 9:00,1.5642000000000003,9.615,0.0
5386,8/12/2012 10:00,0.693,9.0,0.0
5387,8/12/2012 11:00,0.0,9.12,0.0
5388,8/12/2012 12:00,0.0,8.76,0.441
5389,8/12/2012 13:00,0.0,8.16,0.7155
5390,8/12/2012 14:00,0.0,7.125,0.9315
5391,8/12/2012 15:00,0.0,3.975,1.2105
5392,8/12/2012 16:00,28.9872,1.905,1.5390000000000001
5393,8/12/2012 17:00,26.4528,1.425,1.6380000000000001
5394,8/12/2012 18:00,20.1564,1.515,1.4805
5395,8/12/2012 19:00,18.1566,1.845,1.1925
5396,8/12/2012 20:00,23.7402,1.71,0.6975
5397,8/12/2012 21:00,29.907899999999998,2.085,0.7155
5398,8/12/2012 22:00,28.8882,3.42,1.0935
5399,8/12/2012 23:00,26.3538,4.56,1.4535
5400,8/13/2012 0:00,22.839299999999998,4.485,1.647
5401,8/13/2012 1:00,1.7919,4.08,16.2225
5402,8/13/2012 2:00,2.7819,3.765,14.859
5403,8/13/2012 3:00,3.1085999999999996,3.435,12.4245
5404,8/13/2012 4:00,2.6136,3.3150000000000004,9.9405
5405,8/13/2012 5:00,2.1879,2.73,8.972999999999999
5406,8/13/2012 6:00,1.8414,2.205,9.301499999999999
5407,8/13/2012 7:00,1.5542999999999998,1.7850000000000001,8.032499999999999
5408,8/13/2012 8:00,1.4553,1.635,5.8635
5409,8/13/2012 9:00,3.8312999999999997,1.7399999999999998,4.000500000000001
5410,8/13/2012 10:00,2.7918,0.0,3.1769999999999996
5411,8/13/2012 11:00,1.8612,0.0,2.8484999999999996
5412,8/13/2012 12:00,0.0,0.0,2.4705
5413,8/13/2012 13:00,0.0,0.0,2.124
5414,8/13/2012 14:00,0.8217,0.0,1.737
5415,8/13/2012 15:00,1.7127,0.0,1.1295
5416,8/13/2012 16:00,3.0492,0.0,0.747
5417,8/13/2012 17:00,4.6035,0.0,0.5265
5418,8/13/2012 18:00,6.0687,0.0,0.54
5419,8/13/2012 19:00,9.0882,0.0,0.6885
5420,8/13/2012 20:00,13.087800000000001,0.0,0.9585
5421,8/13/2012 21:00,16.3845,0.0,1.1745
5422,8/13/2012 22:00,15.879599999999998,0.0,3.312
5423,8/13/2012 23:00,13.8006,0.0,2.8845
5424,8/14/2012 0:00,13.285800000000002,0.0,3.1814999999999998
5425,8/14/2012 1:00,9.8901,0.0,3.6585
5426,8/14/2012 2:00,4.5837,0.0,4.1850000000000005
5427,8/14/2012 3:00,1.6631999999999998,0.0,4.8735
5428,8/14/2012 4:00,0.792,0.0,5.7915
5429,8/14/2012 5:00,83.0016,0.0,6.5655
5430,8/14/2012 6:00,73.3491,0.0,6.0525
5431,8/14/2012 7:00,67.8645,0.0,3.5820000000000003
5432,8/14/2012 8:00,12.3453,0.0,2.034
5433,8/14/2012 9:00,12.0384,0.0,1.341
5434,8/14/2012 10:00,11.4444,0.0,0.9
5435,8/14/2012 11:00,11.246400000000001,0.0,0.5895
5436,8/14/2012 12:00,10.979099999999999,0.0,0.5535
5437,8/14/2012 13:00,10.692000000000002,0.0,0.5445
5438,8/14/2012 14:00,11.2167,0.0,0.5175
5439,8/14/2012 15:00,14.157000000000002,0.0,0.4815
5440,8/14/2012 16:00,17.1171,0.0,0.5175
5441,8/14/2012 17:00,18.5625,0.0,0.594
5442,8/14/2012 18:00,18.3348,1.11,0.46799999999999997
5443,8/14/2012 19:00,17.2854,1.335,0.36
5444,8/14/2012 20:00,16.3746,0.0,0.3825
5445,8/14/2012 21:00,13.9788,0.0,0.531
5446,8/14/2012 22:00,8.4249,0.0,0.46799999999999997
5447,8/14/2012 23:00,3.6134999999999997,0.0,2.871
5448,8/15/2012 0:00,1.5938999999999999,0.0,2.1555
5449,8/15/2012 1:00,2.8809,0.0,1.5795
5450,8/15/2012 2:00,5.9004,0.0,1.188
5451,8/15/2012 3:00,4.752,1.11,0.9225
5452,8/15/2012 4:00,2.3958,1.5,0.765
5453,8/15/2012 5:00,2.0690999999999997,2.07,0.639
5454,8/15/2012 6:00,2.475,2.22,0.5850000000000001
5455,8/15/2012 7:00,2.9007,2.475,0.0
5456,8/15/2012 8:00,3.0888,4.17,0.3195
5457,8/15/2012 9:00,1.0593,5.3100000000000005,0.0
5458,8/15/2012 10:00,1.6434,5.04,0.0
5459,8/15/2012 11:00,2.4156,4.71,0.0
5460,8/15/2012 12:00,3.2274,4.41,0.0
5461,8/15/2012 13:00,3.9204000000000003,4.335,0.0
5462,8/15/2012 14:00,4.0194,4.635,0.441
5463,8/15/2012 15:00,0.9009,5.205,0.6930000000000001
5464,8/15/2012 16:00,1.5048,5.715,0.9674999999999999
5465,8/15/2012 17:00,0.7326,5.82,1.161
5466,8/15/2012 18:00,0.0,5.415,1.3499999999999999
5467,8/15/2012 19:00,0.0,4.95,1.368
5468,8/15/2012 20:00,0.0,4.725,1.215
5469,8/15/2012 21:00,0.0,5.7,0.5895
5470,8/15/2012 22:00,0.0,8.79,0.5085
5471,8/15/2012 23:00,0.0,13.65,0.522
5472,8/16/2012 0:00,0.0,23.775,0.36900000000000005
5473,8/16/2012 1:00,0.0,31.305,0.0
5474,8/16/2012 2:00,0.0,35.625,0.0
5475,8/16/2012 3:00,0.0,7.5,0.0
5476,8/16/2012 4:00,0.0,7.694999999999999,0.0
5477,8/16/2012 5:00,0.0,6.825,0.0
5478,8/16/2012 6:00,0.8811,6.495,0.0
5479,8/16/2012 7:00,1.0197,5.595,0.333
5480,8/16/2012 8:00,1.0098,4.89,0.396
5481,8/16/2012 9:00,1.0395,3.885,0.0
5482,8/16/2012 10:00,0.9801000000000001,3.375,1.3095
5483,8/16/2012 11:00,0.9503999999999999,2.7150000000000003,1.6605
5484,8/16/2012 12:00,0.9107999999999999,2.4,2.3400000000000003
5485,8/16/2012 13:00,0.8910000000000001,2.445,2.781
5486,8/16/2012 14:00,0.0,2.58,3.375
5487,8/16/2012 15:00,0.8118000000000001,2.22,3.4965
5488,8/16/2012 16:00,0.0,1.905,3.3300000000000005
5489,8/16/2012 17:00,0.0,1.875,2.9520000000000004
5490,8/16/2012 18:00,0.0,1.9949999999999999,2.7315
5491,8/16/2012 19:00,0.0,2.3850000000000002,3.0014999999999996
5492,8/16/2012 20:00,0.0,3.015,2.8484999999999996
5493,8/16/2012 21:00,0.0,3.5700000000000003,2.502
5494,8/16/2012 22:00,0.0,4.11,2.205
5495,8/16/2012 23:00,0.0,4.53,1.962
5496,8/17/2012 0:00,0.0,4.8,1.7865
5497,8/17/2012 1:00,0.0,3.6750000000000003,1.6515000000000002
5498,8/17/2012 2:00,0.0,2.1750000000000003,1.5615
5499,8/17/2012 3:00,21.3939,2.9549999999999996,1.5255
5500,8/17/2012 4:00,29.482200000000002,5.565,1.5255
5501,8/17/2012 5:00,29.6703,7.215,1.4625000000000001
5502,8/17/2012 6:00,4.9104,7.3500000000000005,1.4625000000000001
5503,8/17/2012 7:00,37.026,7.08,1.4264999999999999
5504,8/17/2012 8:00,41.0454,6.795,1.4129999999999998
5505,8/17/2012 9:00,3.9897,5.7,1.2645
5506,8/17/2012 10:00,3.6431999999999998,4.050000000000001,1.107
5507,8/17/2012 11:00,3.5046,2.6250000000000004,1.251
5508,8/17/2012 12:00,3.7719,1.545,1.5075
5509,8/17/2012 13:00,4.5144,1.32,1.242
5510,8/17/2012 14:00,5.5539,1.8900000000000001,1.098
5511,8/17/2012 15:00,6.8211,2.31,0.9854999999999999
5512,8/17/2012 16:00,8.6922,2.19,0.8775
5513,8/17/2012 17:00,10.335600000000001,1.83,0.6255
5514,8/17/2012 18:00,11.196900000000001,1.4100000000000001,0.47250000000000003
5515,8/17/2012 19:00,11.4939,1.08,0.6885
5516,8/17/2012 20:00,14.4144,0.0,0.8460000000000001
5517,8/17/2012 21:00,17.325,0.0,0.8460000000000001
5518,8/17/2012 22:00,20.4633,1.11,0.756
5519,8/17/2012 23:00,25.7895,1.335,0.6749999999999999
5520,8/18/2012 0:00,26.7201,1.47,0.7064999999999999
5521,8/18/2012 1:00,27.1854,0.0,0.7155
5522,8/18/2012 2:00,28.7001,0.0,0.657
5523,8/18/2012 3:00,30.214800000000004,1.5599999999999998,0.5760000000000001
5524,8/18/2012 4:00,26.066699999999997,1.9500000000000002,0.5445
5525,8/18/2012 5:00,10.5336,2.37,0.5715
5526,8/18/2012 6:00,8.9001,2.5349999999999997,0.5805
5527,8/18/2012 7:00,11.731499999999999,7.71,0.531
5528,8/18/2012 8:00,11.5731,5.745,0.46799999999999997
5529,8/18/2012 9:00,9.8604,4.245,0.4275
5530,8/18/2012 10:00,8.0784,3.18,0.3825
5531,8/18/2012 11:00,6.732,2.25,0.5760000000000001
5532,8/18/2012 12:00,5.7618,1.245,0.7829999999999999
5533,8/18/2012 13:00,20.7108,0.0,0.882
5534,8/18/2012 14:00,20.097,0.0,0.5579999999999999
5535,8/18/2012 15:00,17.5428,0.0,0.4365
5536,8/18/2012 16:00,15.354899999999999,1.53,0.7829999999999999
5537,8/18/2012 17:00,10.4445,1.2750000000000001,1.008
5538,8/18/2012 18:00,8.6922,0.0,0.927
5539,8/18/2012 19:00,10.7019,0.0,0.9404999999999999
5540,8/18/2012 20:00,11.8998,0.0,0.9900000000000001
5541,8/18/2012 21:00,10.8405,0.0,1.0305
5542,8/18/2012 22:00,19.7604,0.0,1.1159999999999999
5543,8/18/2012 23:00,25.7103,0.0,1.233
5544,8/19/2012 0:00,29.8881,0.0,1.305
5545,8/19/2012 1:00,30.7791,0.0,1.44
5546,8/19/2012 2:00,30.5811,0.0,0.0
5547,8/19/2012 3:00,25.8588,0.0,0.0
5548,8/19/2012 4:00,18.7407,0.0,0.0
5549,8/19/2012 5:00,8.514,0.0,0.0
5550,8/19/2012 6:00,4.6431,0.0,0.0
5551,8/19/2012 7:00,3.4254,0.0,0.0
5552,8/19/2012 8:00,2.6037,0.0,0.0
5553,8/19/2012 9:00,2.1186,0.0,0.0
5554,8/19/2012 10:00,1.9206,0.0,0.0
5555,8/19/2012 11:00,1.6335000000000002,0.0,0.0
5556,8/19/2012 12:00,0.0,0.0,0.0
5557,8/19/2012 13:00,0.8910000000000001,0.0,0.0
5558,8/19/2012 14:00,1.6533,1.5599999999999998,0.0
5559,8/19/2012 15:00,2.4057,1.98,0.45
5560,8/19/2012 16:00,3.0888,2.0999999999999996,0.684
5561,8/19/2012 17:00,3.069,1.98,0.9225
5562,8/19/2012 18:00,3.0393000000000003,1.6500000000000001,1.188
5563,8/19/2012 19:00,0.9207,1.35,1.026
5564,8/19/2012 20:00,1.386,1.11,0.8460000000000001
5565,8/19/2012 21:00,1.4454,0.0,0.459
5566,8/19/2012 22:00,1.5938999999999999,0.0,0.0
5567,8/19/2012 23:00,2.0097,0.0,0.40950000000000003
5568,8/20/2012 0:00,2.4453,0.0,0.522
5569,8/20/2012 1:00,2.772,0.0,0.5579999999999999
5570,8/20/2012 2:00,3.0294,0.0,0.5895
5571,8/20/2012 3:00,2.9898000000000002,0.0,0.5805
5572,8/20/2012 4:00,2.7225,1.44,0.567
5573,8/20/2012 5:00,1.6236000000000002,2.475,0.5760000000000001
5574,8/20/2012 6:00,1.0989,3.3899999999999997,0.5715
5575,8/20/2012 7:00,1.6137,4.155,0.5355000000000001
5576,8/20/2012 8:00,2.376,4.215,0.45
5577,8/20/2012 9:00,2.8809,3.5700000000000003,1.305
5578,8/20/2012 10:00,3.1284000000000005,2.8649999999999998,9.882
5579,8/20/2012 11:00,3.4947,1.77,11.1375
5580,8/20/2012 12:00,3.7917,1.68,11.241
5581,8/20/2012 13:00,1.3563,2.31,12.235499999999998
5582,8/20/2012 14:00,2.277,3.4499999999999997,13.176
5583,8/20/2012 15:00,3.1877999999999997,4.275,13.0365
5584,8/20/2012 16:00,3.6828,4.605,13.1445
5585,8/20/2012 17:00,3.7521000000000004,4.425,13.1445
5586,8/20/2012 18:00,3.4947,4.0200000000000005,12.717
5587,8/20/2012 19:00,2.8809,3.765,12.033000000000001
5588,8/20/2012 20:00,2.1780000000000004,4.0649999999999995,10.8765
5589,8/20/2012 21:00,1.1088,4.575,9.1665
5590,8/20/2012 22:00,0.9306,5.295,6.957
5591,8/20/2012 23:00,1.4355,6.21,4.0815
5592,8/21/2012 0:00,1.7523,7.575,1.953
5593,8/21/2012 1:00,1.9899,9.06,1.1520000000000001
5594,8/21/2012 2:00,2.2473,9.765,0.6885
5595,8/21/2012 3:00,2.3661000000000003,18.09,0.0
5596,8/21/2012 4:00,2.1186,29.325000000000003,0.0
5597,8/21/2012 5:00,2.1681,36.675,0.5445
5598,8/21/2012 6:00,2.376,31.095000000000002,1.179
5599,8/21/2012 7:00,2.7027,27.150000000000002,1.7954999999999999
5600,8/21/2012 8:00,3.0888,25.335,1.746
5601,8/21/2012 9:00,1.3266,24.93,2.07
5602,8/21/2012 10:00,1.881,21.33,3.9330000000000003
5603,8/21/2012 11:00,2.1879,10.71,6.898499999999999
5604,8/21/2012 12:00,2.3364,6.945,10.017
5605,8/21/2012 13:00,2.2671,6.99,12.24
5606,8/21/2012 14:00,2.0493,8.415,13.823999999999998
5607,8/21/2012 15:00,1.6533,9.584999999999999,13.509
5608,8/21/2012 16:00,1.2078,9.96,12.582
5609,8/21/2012 17:00,3.3561,10.17,10.8495
5610,8/21/2012 18:00,3.5343000000000004,10.485000000000001,9.8775
5611,8/21/2012 19:00,3.5144999999999995,11.73,9.189
5612,8/21/2012 20:00,3.2274,13.89,8.504999999999999
5613,8/21/2012 21:00,89.3871,15.93,8.3115
5614,8/21/2012 22:00,87.9318,17.265,8.235
5615,8/21/2012 23:00,84.3084,17.805,5.8004999999999995
5616,8/22/2012 0:00,78.705,16.275,3.447
5617,8/22/2012 1:00,68.51790000000001,16.785,3.3165
5618,8/22/2012 2:00,57.4596,16.935,2.5785
5619,8/22/2012 3:00,54.82619999999999,15.959999999999999,1.332
5620,8/22/2012 4:00,59.6475,15.48,0.5850000000000001
5621,8/22/2012 5:00,62.81549999999999,14.955,0.0
5622,8/22/2012 6:00,69.0822,13.59,0.0
5623,8/22/2012 7:00,72.5769,11.100000000000001,0.0
5624,8/22/2012 8:00,73.0719,8.55,0.0
5625,8/22/2012 9:00,69.20100000000001,7.725,1.2734999999999999
5626,8/22/2012 10:00,2.7126,6.405,1.6515000000000002
5627,8/22/2012 11:00,1.3563,5.355,0.0
5628,8/22/2012 12:00,0.8712000000000001,4.56,0.0
5629,8/22/2012 13:00,1.0593,3.3150000000000004,0.324
5630,8/22/2012 14:00,1.6335000000000002,2.7150000000000003,0.5895
5631,8/22/2012 15:00,1.7721,2.445,0.5805
5632,8/22/2012 16:00,1.6631999999999998,2.16,0.459
5633,8/22/2012 17:00,1.8711,1.845,0.333
5634,8/22/2012 18:00,17.8497,1.53,0.0
5635,8/22/2012 19:00,12.582899999999999,1.26,0.0
5636,8/22/2012 20:00,8.415000000000001,0.0,0.0
5637,8/22/2012 21:00,6.534000000000001,0.0,0.0
5638,8/22/2012 22:00,7.7120999999999995,0.0,0.0
5639,8/22/2012 23:00,10.8108,0.0,0.0
5640,8/23/2012 0:00,14.523299999999999,0.0,0.0
5641,8/23/2012 1:00,20.7009,0.0,0.0
5642,8/23/2012 2:00,27.4527,0.0,0.3285
5643,8/23/2012 3:00,29.2347,0.0,0.0
5644,8/23/2012 4:00,29.7792,0.0,0.46799999999999997
5645,8/23/2012 5:00,26.6211,0.0,0.6075
5646,8/23/2012 6:00,10.593,0.0,0.8910000000000001
5647,8/23/2012 7:00,8.415000000000001,8.235,0.7875000000000001
5648,8/23/2012 8:00,9.5436,8.955,0.855
5649,8/23/2012 9:00,9.2862,9.39,0.828
5650,8/23/2012 10:00,8.2071,9.87,0.6615
5651,8/23/2012 11:00,7.3062000000000005,7.95,0.5355000000000001
5652,8/23/2012 12:00,6.7815,5.22,0.4905
5653,8/23/2012 13:00,6.0984,4.199999999999999,0.6345
5654,8/23/2012 14:00,5.2965,4.125,0.828
5655,8/23/2012 15:00,4.4451,4.11,0.9495
5656,8/23/2012 16:00,3.6828,3.855,1.008
5657,8/23/2012 17:00,3.0591,3.54,1.0755000000000001
5658,8/23/2012 18:00,1.8711,2.6550000000000002,0.9720000000000001
5659,8/23/2012 19:00,0.9107999999999999,2.16,0.8055
5660,8/23/2012 20:00,0.7227,1.83,0.8955000000000001
5661,8/23/2012 21:00,22.176,1.53,1.1295
5662,8/23/2012 22:00,26.611199999999997,1.095,0.9315
5663,8/23/2012 23:00,26.3142,0.0,0.7064999999999999
5664,8/24/2012 0:00,26.175600000000003,0.0,0.5535
5665,8/24/2012 1:00,23.067,0.0,0.4995
5666,8/24/2012 2:00,20.7702,0.0,0.4635
5667,8/24/2012 3:00,20.8692,1.11,0.4185
5668,8/24/2012 4:00,22.740299999999998,1.8599999999999999,0.3645
5669,8/24/2012 5:00,22.6116,2.8649999999999998,0.0
5670,8/24/2012 6:00,23.9481,3.345,0.0
5671,8/24/2012 7:00,23.839199999999998,3.4799999999999995,0.0
5672,8/24/2012 8:00,4.4352,3.4050000000000002,0.342
5673,8/24/2012 9:00,4.1481,2.505,0.5265
5674,8/24/2012 10:00,3.6134999999999997,1.53,0.7064999999999999
5675,8/24/2012 11:00,2.9699999999999998,0.0,0.8460000000000001
5676,8/24/2012 12:00,1.6929,0.0,0.9
5677,8/24/2012 13:00,0.0,0.0,0.9225
5678,8/24/2012 14:00,1.3068,0.0,14.292
5679,8/24/2012 15:00,2.6927999999999996,0.0,14.139
5680,8/24/2012 16:00,4.8312,0.0,13.068
5681,8/24/2012 17:00,7.613099999999999,0.0,11.1465
5682,8/24/2012 18:00,9.7119,0.0,9.0945
5683,8/24/2012 19:00,11.1078,0.0,7.155
5684,8/24/2012 20:00,15.008400000000002,0.0,5.832
5685,8/24/2012 21:00,19.700999999999997,0.0,4.599
5686,8/24/2012 22:00,23.462999999999997,1.59,3.726
5687,8/24/2012 23:00,26.977500000000003,2.1300000000000003,0.0
5688,8/25/2012 0:00,31.719600000000003,2.355,0.324
5689,8/25/2012 1:00,36.5805,1.9949999999999999,0.0
5690,8/25/2012 2:00,39.7881,1.4100000000000001,0.0
5691,8/25/2012 3:00,41.7582,1.305,0.0
5692,8/25/2012 4:00,36.986399999999996,2.4299999999999997,0.0
5693,8/25/2012 5:00,30.8385,3.375,0.0
5694,8/25/2012 6:00,21.582,3.9000000000000004,0.0
5695,8/25/2012 7:00,15.4935,1.185,0.33749999999999997
5696,8/25/2012 8:00,10.692000000000002,0.0,0.324
5697,8/25/2012 9:00,7.6329,0.0,0.6885
5698,8/25/2012 10:00,5.5539,0.0,2.1105
5699,8/25/2012 11:00,4.9995,0.0,3.528
5700,8/25/2012 12:00,4.118399999999999,0.0,3.861
5701,8/25/2012 13:00,1.9701000000000002,0.0,3.8114999999999997
5702,8/25/2012 14:00,1.5938999999999999,0.0,2.421
5703,8/25/2012 15:00,1.4849999999999999,0.0,1.4355
5704,8/25/2012 16:00,1.5642000000000003,14.715000000000002,0.81
5705,8/25/2012 17:00,1.6038,14.985000000000001,0.567
5706,8/25/2012 18:00,1.7325000000000002,12.915,0.5984999999999999
5707,8/25/2012 19:00,1.6137,11.280000000000001,0.42300000000000004
5708,8/25/2012 20:00,1.5246,10.05,2.178
5709,8/25/2012 21:00,1.7424000000000002,8.79,1.5795
5710,8/25/2012 22:00,2.6136,7.515,1.4760000000000002
5711,8/25/2012 23:00,2.9798999999999998,6.48,0.9765
5712,8/26/2012 0:00,4.0194,5.1000000000000005,0.5850000000000001
5713,8/26/2012 1:00,5.4252,3.435,1.0485
5714,8/26/2012 2:00,6.979499999999999,2.52,1.3905
5715,8/26/2012 3:00,7.9596,3.495,2.2544999999999997
5716,8/26/2012 4:00,7.4151,4.365,2.6505
5717,8/26/2012 5:00,2.6037,4.755,0.36900000000000005
5718,8/26/2012 6:00,3.7422,5.04,0.4185
5719,8/26/2012 7:00,4.5639,4.545,0.405
5720,8/26/2012 8:00,4.732200000000001,4.035,0.34650000000000003
5721,8/26/2012 9:00,4.8213,3.4499999999999997,0.0
5722,8/26/2012 10:00,5.385599999999999,2.775,0.0
5723,8/26/2012 11:00,5.9796000000000005,1.905,0.0
5724,8/26/2012 12:00,6.0984,1.7399999999999998,0.0
5725,8/26/2012 13:00,4.752,2.25,0.0
5726,8/26/2012 14:00,3.1482,2.97,0.0
5727,8/26/2012 15:00,2.2176,3.375,0.0
5728,8/26/2012 16:00,1.98,3.3000000000000003,0.0
5729,8/26/2012 17:00,1.98,2.91,22.4055
5730,8/26/2012 18:00,1.9503,2.685,23.643
5731,8/26/2012 19:00,2.7324,2.67,24.8175
5732,8/26/2012 20:00,5.0489999999999995,2.6250000000000004,25.767
5733,8/26/2012 21:00,7.1577,2.5349999999999997,27.855
5734,8/26/2012 22:00,7.0488,2.445,29.4435
5735,8/26/2012 23:00,13.9491,2.31,29.236500000000003
5736,8/27/2012 0:00,14.473799999999999,1.8,28.206
5737,8/27/2012 1:00,17.127000000000002,0.0,35.118
5738,8/27/2012 2:00,27.264599999999998,0.0,38.7765
5739,8/27/2012 3:00,35.24400000000001,0.0,40.194
5740,8/27/2012 4:00,26.4825,5.13,40.455
5741,8/27/2012 5:00,24.7302,5.3100000000000005,39.3795
5742,8/27/2012 6:00,19.7208,5.7299999999999995,36.4185
5743,8/27/2012 7:00,18.998099999999997,6.8100000000000005,30.424500000000002
5744,8/27/2012 8:00,16.9389,5.6850000000000005,22.815
5745,8/27/2012 9:00,12.771,5.430000000000001,0.342
5746,8/27/2012 10:00,9.4842,5.145,0.351
5747,8/27/2012 11:00,7.8606,6.87,0.522
5748,8/27/2012 12:00,6.5637,8.985,0.9720000000000001
5749,8/27/2012 13:00,2.7126,9.51,1.773
5750,8/27/2012 14:00,3.6036,7.815,2.8484999999999996
5751,8/27/2012 15:00,4.554,7.305,4.1850000000000005
5752,8/27/2012 16:00,6.6627,7.095000000000001,5.4135
5753,8/27/2012 17:00,6.593400000000001,7.74,6.2235000000000005
5754,8/27/2012 18:00,6.633,8.82,5.7735
5755,8/27/2012 19:00,6.7815,10.455,3.6765
5756,8/27/2012 20:00,6.266699999999999,0.0,4.7295
5757,8/27/2012 21:00,5.8311,0.0,5.517
5758,8/27/2012 22:00,5.5341,0.0,5.976
5759,8/27/2012 23:00,5.0589,0.0,5.508
