,2025,2030,2035,2040,2045,2050
321.wind,103,0,0,0,0,0
83.wind,99,99,0,0,0,0
276.wind,144,144,0,0,0,0
288.wind,210,210,15,0,0,0
345.wind,15,0,0,0,0,0
311.wind,142,142,0,0,0,0
333.wind,15,0,0,0,0,0
454.solar,1,0,0,0,0,0
538.wind,410,206,206,206,0,0
617.wind,48,48,48,48,0,0
648.wind,202,202,202,202,0,0
573.wind,300,300,0,0,0,0
662.wind,58,58,0,0,0,0
641.wind,416,416,410,410,0,0
586.wind,80,0,0,0,0,0
524.wind,331,268,134,0,0,0
606.wind,556,556,556,354,0,0
546.wind,82,0,0,0,0,0
584.wind,150,150,0,0,0,0
614.wind,193,193,193,193,0,0
561.wind,113,113,113,113,0,0
610.wind,118,118,118,118,0,0
638.wind,298,298,298,298,0,0
566.wind,208,208,120,120,0,0
610.solar,31,31,31,31,0,0
585.solar,38,38,38,21,0,0
537.solar,62,62,62,62,0,0
545.solar,132,132,132,132,0,0
641.solar,15,15,15,15,0,0
575.solar,14,14,14,14,0,0
555.solar,67,67,67,67,0,0
566.solar,2,2,2,0,0,0
594.solar,220,220,220,173,0,0
534.solar,17,17,17,0,0,0
614.solar,23,23,23,23,0,0
577.solar,599,599,599,599,0,0
617.solar,23,23,23,23,0,0
538.solar,30,30,30,30,0,0
586.solar,41,41,41,41,0,0
606.solar,19,19,19,19,0,0
1048.wind,138,138,0,0,0,0
1000.wind,120,120,0,0,0,0
1991.wind,99,99,99,99,99,99
2065.wind,167,167,167,167,167,167
2079.wind,45,45,45,45,45,45
2078.wind,18,18,18,18,18,18
2275.wind,27,0,0,0,0,0
2266.wind,27,0,0,0,0,0
2104.wind,36,36,6,0,0,0
2149.wind,72,20,2,0,0,0
2169.wind,75,69,0,0,0,0
2195.wind,10,10,2,0,0,0
2037.wind,38,38,2,0,0,0
2196.wind,23,23,5,0,0,0
2091.wind,52,52,26,0,0,0
2174.wind,43,20,0,0,0,0
2114.wind,27,27,21,0,0,0
2118.wind,75,71,0,0,0,0
2039.wind,4,4,0,0,0,0
2193.wind,2,2,0,0,0,0
2179.wind,4,4,0,0,0,0
2070.wind,102,102,0,0,0,0
2040.wind,3,3,0,0,0,0
2111.wind,2,2,0,0,0,0
2083.wind,4,4,0,0,0,0
2140.wind,2,2,0,0,0,0
1432.wind,453,436,0,0,0,0
1490.wind,306,106,0,0,0,0
1588.wind,281,83,73,0,0,0
1459.wind,574,450,0,0,0,0
1466.wind,151,151,0,0,0,0
1431.wind,1414,1066,265,60,0,0
1447.wind,294,294,99,0,0,0
1369.wind,246,57,0,0,0,0
1469.wind,147,18,18,0,0,0
1449.wind,5,0,0,0,0,0
1380.wind,25,25,0,0,0,0
1493.wind,29,29,29,0,0,0
1488.wind,396,396,10,0,0,0
1279.wind,99,99,0,0,0,0
1522.wind,46,46,46,0,0,0
1454.wind,193,2,0,0,0,0
1477.wind,300,300,300,0,0,0
1444.wind,66,64,0,0,0,0
1506.wind,272,262,253,0,0,0
1667.wind,130,130,100,100,0,0
1503.wind,0,0,0,0,0,0
1469.solar,48,38,0,0,0,0
1432.solar,112,32,0,0,0,0
1549.solar,15,15,0,0,0,0
1677.solar,118,106,12,0,0,0
1431.solar,129,124,50,0,0,0
1493.solar,42,42,0,0,0,0
1628.solar,33,10,0,0,0,0
1457.solar,27,27,0,0,0,0
1299.solar,1,1,0,0,0,0
1517.solar,71,71,0,0,0,0
1571.solar,60,60,0,0,0,0
1667.solar,79,79,10,0,0,0
1496.solar,108,108,0,0,0,0
1630.solar,69,69,0,0,0,0
1635.solar,104,80,0,0,0,0
1132.solar,25,25,0,0,0,0
1588.solar,213,204,54,0,0,0
1260.solar,20,20,0,0,0,0
1488.solar,183,183,44,0,0,0
1649.solar,10,10,0,0,0,0
1522.solar,22,22,2,0,0,0
1422.solar,6,6,0,0,0,0
1566.solar,10,10,0,0,0,0
1491.solar,30,30,0,0,0,0
1383.solar,10,10,0,0,0,0
1473.solar,30,30,0,0,0,0
1509.solar,20,20,0,0,0,0
1453.solar,10,10,0,0,0,0
1503.solar,17,17,0,0,0,0
1483.solar,8,8,0,0,0,0
1466.solar,50,50,50,0,0,0
1380.solar,69,45,0,0,0,0
1468.solar,10,10,0,0,0,0
1498.solar,12,12,0,0,0,0
1182.solar,10,10,0,0,0,0
1506.solar,10,10,0,0,0,0
2096.wind,19,10,0,0,0,0
2136.wind,90,60,30,0,0,0
2105.wind,111,0,0,0,0,0
2105.solar,31,31,31,31,0,0
2072.wind,164,59,0,0,0,0
1961.wind,459,349,0,0,0,0
1818.wind,24,24,24,0,0,0
1851.wind,364,364,0,0,0,0
2018.wind,178,68,0,0,0,0
1810.wind,100,100,0,0,0,0
1848.wind,283,283,147,0,0,0
1982.wind,256,256,75,0,0,0
1852.wind,198,198,0,0,0,0
2063.wind,495,387,0,0,0,0
1983.wind,234,101,0,0,0,0
1873.wind,105,105,0,0,0,0
2002.wind,0,0,0,0,0,0
1734.wind,120,120,19,19,0,0
1928.wind,224,224,224,0,0,0
1770.wind,25,25,25,0,0,0
1836.wind,350,350,0,0,0,0
1989.wind,149,149,149,0,0,0
1904.wind,76,76,0,0,0,0
1916.wind,25,25,0,0,0,0
731.wind,176,176,176,176,0,0
739.wind,150,0,0,0,0,0
693.wind,0,0,0,0,0,0
785.wind,200,200,200,0,0,0
756.wind,23,23,0,0,0,0
908.wind,26,26,0,0,0,0
753.wind,10,10,10,0,0,0
874.wind,20,20,20,0,0,0
829.solar,20,20,20,20,0,0
739.solar,10,10,10,10,0,0
833.solar,10,10,10,10,0,0
