,date,Wind_1,Wind_2,Wind_3,Wind_4,Wind_5,Wind_6,Wind_7,Wind_8,Wind_9
5760,8/28/2012 0:00,0.1053,25.845000000000002,25.845000000000002,25.845000000000002,0.37206,0.3159,0.4212,0.351,3.4749
5761,8/28/2012 1:00,0.1341,25.395,25.395,25.395,0.47381999999999996,0.4023,0.5364,0.44699999999999995,4.4253
5762,8/28/2012 2:00,0.15239999999999998,25.532999999999998,25.532999999999998,25.532999999999998,0.53848,0.4572,0.6095999999999999,0.508,5.0291999999999994
5763,8/28/2012 3:00,0.1728,26.481,26.481,26.481,0.61056,0.5184,0.6912,0.576,5.7024
5764,8/28/2012 4:00,0.1734,26.454,26.454,26.454,0.61268,0.5202,0.6936,0.578,5.7222
5765,8/28/2012 5:00,0.1437,24.933,24.933,24.933,0.50774,0.4311,0.5748,0.479,4.7421
5766,8/28/2012 6:00,0.1185,0.5820000000000001,0.5820000000000001,0.5820000000000001,0.4187,0.3555,0.474,0.395,3.9105
5767,8/28/2012 7:00,0.11249999999999999,0.255,0.255,0.255,0.39749999999999996,0.33749999999999997,0.44999999999999996,0.375,3.7125
5768,8/28/2012 8:00,0.0891,0.0,0.0,0.0,0.31482,0.2673,0.3564,0.297,2.9403
5769,8/28/2012 9:00,0.0357,0.0,0.0,0.0,0.12614,0.1071,0.1428,0.11900000000000001,1.1781000000000001
5770,8/28/2012 10:00,0.0,0.0,0.0,0.0,0.0,0.0,0.0,0.0,0.0
5771,8/28/2012 11:00,0.0,0.0,0.0,0.0,0.0,0.0,0.0,0.0,0.0
5772,8/28/2012 12:00,0.0,0.576,0.576,0.576,0.0,0.0,0.0,0.0,0.0
5773,8/28/2012 13:00,0.0,0.9840000000000001,0.9840000000000001,0.9840000000000001,0.0,0.0,0.0,0.0,0.0
5774,8/28/2012 14:00,0.0294,1.113,1.113,1.113,0.10387999999999999,0.0882,0.1176,0.098,0.9702
5775,8/28/2012 15:00,0.0411,1.08,1.08,1.08,0.14522,0.1233,0.1644,0.137,1.3563
5776,8/28/2012 16:00,2.8596000000000004,0.843,0.843,0.843,10.10392,8.578800000000001,11.438400000000001,9.532,94.3668
5777,8/28/2012 17:00,2.8527,0.585,0.585,0.585,10.07954,8.5581,11.4108,9.509,94.1391
5778,8/28/2012 18:00,2.8236,0.447,0.447,0.447,9.97672,8.4708,11.2944,9.412,93.17880000000001
5779,8/28/2012 19:00,2.811,0.30600000000000005,0.30600000000000005,0.30600000000000005,9.9322,8.433,11.244,9.370000000000001,92.763
5780,8/28/2012 20:00,2.8071,0.24600000000000002,0.24600000000000002,0.24600000000000002,9.91842,8.4213,11.2284,9.357,92.6343
5781,8/28/2012 21:00,2.8068,0.222,0.222,0.222,9.91736,8.4204,11.2272,9.356,92.6244
5782,8/28/2012 22:00,2.8203,0.0,0.0,0.0,9.96506,8.4609,11.2812,9.401,93.0699
5783,8/28/2012 23:00,2.8476,0.216,0.216,0.216,10.06152,8.5428,11.3904,9.492,93.97080000000001
5784,8/29/2012 0:00,0.0,0.228,0.228,0.228,0.0,0.0,0.0,0.0,0.0
5785,8/29/2012 1:00,0.0,0.24600000000000002,0.24600000000000002,0.24600000000000002,0.0,0.0,0.0,0.0,0.0
5786,8/29/2012 2:00,0.0,0.0,0.0,0.0,0.0,0.0,0.0,0.0,0.0
5787,8/29/2012 3:00,0.0,0.0,0.0,0.0,0.0,0.0,0.0,0.0,0.0
5788,8/29/2012 4:00,0.0,25.851,25.851,25.851,0.0,0.0,0.0,0.0,0.0
5789,8/29/2012 5:00,0.0,25.715999999999998,25.715999999999998,25.715999999999998,0.0,0.0,0.0,0.0,0.0
5790,8/29/2012 6:00,0.0,25.401,25.401,25.401,0.0,0.0,0.0,0.0,0.0
5791,8/29/2012 7:00,0.0,24.410999999999998,24.410999999999998,24.410999999999998,0.0,0.0,0.0,0.0,0.0
5792,8/29/2012 8:00,0.0,22.718999999999998,22.718999999999998,22.718999999999998,0.0,0.0,0.0,0.0,0.0
5793,8/29/2012 9:00,0.0,21.575999999999997,21.575999999999997,21.575999999999997,0.0,0.0,0.0,0.0,0.0
5794,8/29/2012 10:00,0.0,20.343,20.343,20.343,0.0,0.0,0.0,0.0,0.0
5795,8/29/2012 11:00,0.0,18.33,18.33,18.33,0.0,0.0,0.0,0.0,0.0
5796,8/29/2012 12:00,0.0,4.584,4.584,4.584,0.0,0.0,0.0,0.0,0.0
5797,8/29/2012 13:00,0.0294,5.8500000000000005,5.8500000000000005,5.8500000000000005,0.10387999999999999,0.0882,0.1176,0.098,0.9702
5798,8/29/2012 14:00,0.0606,6.8069999999999995,6.8069999999999995,6.8069999999999995,0.21411999999999998,0.1818,0.2424,0.20199999999999999,1.9998
5799,8/29/2012 15:00,0.1707,7.898999999999999,7.898999999999999,7.898999999999999,0.60314,0.5121,0.6828,0.569,5.6331
5800,8/29/2012 16:00,0.5712,9.132,9.132,9.132,2.01824,1.7136,2.2848,1.9040000000000001,18.849600000000002
5801,8/29/2012 17:00,1.4649,11.588999999999999,11.588999999999999,11.588999999999999,5.17598,4.3947,5.8596,4.883,48.3417
5802,8/29/2012 18:00,2.2842,15.219,15.219,15.219,8.070839999999999,6.8526,9.1368,7.614,75.37859999999999
5803,8/29/2012 19:00,2.6877,18.291,18.291,18.291,9.49654,8.0631,10.7508,8.959,88.6941
5804,8/29/2012 20:00,2.8247999999999998,20.892,20.892,20.892,9.98096,8.4744,11.299199999999999,9.416,93.2184
5805,8/29/2012 21:00,2.8515,21.477,21.477,21.477,10.0753,8.5545,11.406,9.505,94.0995
5806,8/29/2012 22:00,2.8302,22.851000000000003,22.851000000000003,22.851000000000003,10.00004,8.4906,11.3208,9.434000000000001,93.3966
5807,8/29/2012 23:00,2.7816,23.616,23.616,23.616,9.82832,8.3448,11.1264,9.272,91.7928
5808,8/30/2012 0:00,2.7516,24.479999999999997,24.479999999999997,24.479999999999997,9.72232,8.2548,11.0064,9.172,90.8028
5809,8/30/2012 1:00,0.099,25.044,25.044,25.044,0.3498,0.29700000000000004,0.396,0.33,3.2670000000000003
5810,8/30/2012 2:00,0.0501,24.924,24.924,24.924,0.17701999999999998,0.1503,0.2004,0.16699999999999998,1.6533
5811,8/30/2012 3:00,0.0294,23.712,23.712,23.712,0.10387999999999999,0.0882,0.1176,0.098,0.9702
5812,8/30/2012 4:00,0.028499999999999998,20.739,20.739,20.739,0.1007,0.08549999999999999,0.11399999999999999,0.095,0.9405
5813,8/30/2012 5:00,0.0654,18.444,18.444,18.444,0.23107999999999998,0.19619999999999999,0.2616,0.218,2.1582
5814,8/30/2012 6:00,0.2091,16.884,16.884,16.884,0.7388199999999999,0.6273,0.8364,0.697,6.9003
5815,8/30/2012 7:00,0.4083,15.254999999999999,15.254999999999999,15.254999999999999,1.4426599999999998,1.2248999999999999,1.6332,1.361,13.4739
5816,8/30/2012 8:00,0.6924,13.418999999999999,13.418999999999999,13.418999999999999,2.4464799999999998,2.0772,2.7696,2.308,22.8492
5817,8/30/2012 9:00,1.0329,12.972,12.972,12.972,3.64958,3.0987,4.1316,3.443,34.0857
5818,8/30/2012 10:00,1.3047,13.323,13.323,13.323,4.60994,3.9141,5.2188,4.349,43.0551
5819,8/30/2012 11:00,1.3881000000000001,12.341999999999999,12.341999999999999,12.341999999999999,4.9046199999999995,4.1643,5.5524000000000004,4.627,45.8073
5820,8/30/2012 12:00,1.3896,13.227,13.227,13.227,4.90992,4.1688,5.5584,4.632,45.8568
5821,8/30/2012 13:00,1.4484,11.481,11.481,11.481,5.11768,4.3452,5.7936,4.828,47.797200000000004
5822,8/30/2012 14:00,1.3191,20.019,20.019,20.019,4.660819999999999,3.9573,5.2764,4.397,43.5303
5823,8/30/2012 15:00,1.1811,25.374,25.374,25.374,4.17322,3.5433,4.7244,3.937,38.9763
5824,8/30/2012 16:00,1.5114,28.788,28.788,28.788,5.34028,4.5342,6.0456,5.038,49.876200000000004
5825,8/30/2012 17:00,1.7196000000000002,29.775000000000002,29.775000000000002,29.775000000000002,6.07592,5.1588,6.878400000000001,5.732,56.74680000000001
5826,8/30/2012 18:00,1.5603,30.0,30.0,30.0,5.51306,4.6809,6.2412,5.2010000000000005,51.4899
5827,8/30/2012 19:00,1.5461999999999998,30.0,30.0,30.0,5.46324,4.638599999999999,6.184799999999999,5.154,51.0246
5828,8/30/2012 20:00,1.0503,30.0,30.0,30.0,3.7110600000000002,3.1509,4.2012,3.5010000000000003,34.6599
5829,8/30/2012 21:00,2.7260999999999997,30.0,30.0,30.0,9.632219999999998,8.1783,10.904399999999999,9.087,89.9613
5830,8/30/2012 22:00,2.9208,30.0,30.0,30.0,10.32016,8.7624,11.6832,9.736,96.38640000000001
5831,8/30/2012 23:00,3.0,30.0,30.0,30.0,10.6,9.0,12.0,10.0,99.0
5832,8/31/2012 0:00,3.0,30.0,30.0,30.0,10.6,9.0,12.0,10.0,99.0
5833,8/31/2012 1:00,3.0,30.0,30.0,30.0,10.6,9.0,12.0,10.0,99.0
5834,8/31/2012 2:00,3.0,30.0,30.0,30.0,10.6,9.0,12.0,10.0,99.0
5835,8/31/2012 3:00,3.0,30.0,30.0,30.0,10.6,9.0,12.0,10.0,99.0
5836,8/31/2012 4:00,3.0,30.0,30.0,30.0,10.6,9.0,12.0,10.0,99.0
5837,8/31/2012 5:00,3.0,30.0,30.0,30.0,10.6,9.0,12.0,10.0,99.0
5838,8/31/2012 6:00,3.0,30.0,30.0,30.0,10.6,9.0,12.0,10.0,99.0
5839,8/31/2012 7:00,0.0,7.011,7.011,7.011,0.0,0.0,0.0,0.0,0.0
5840,8/31/2012 8:00,0.0,7.509,7.509,7.509,0.0,0.0,0.0,0.0,0.0
5841,8/31/2012 9:00,0.0,6.957,6.957,6.957,0.0,0.0,0.0,0.0,0.0
5842,8/31/2012 10:00,0.0,5.747999999999999,5.747999999999999,5.747999999999999,0.0,0.0,0.0,0.0,0.0
5843,8/31/2012 11:00,0.0,4.728,4.728,4.728,0.0,0.0,0.0,0.0,0.0
5844,8/31/2012 12:00,0.0,3.8160000000000003,3.8160000000000003,3.8160000000000003,0.0,0.0,0.0,0.0,0.0
5845,8/31/2012 13:00,0.0,3.456,3.456,3.456,0.0,0.0,0.0,0.0,0.0
5846,8/31/2012 14:00,3.0,3.471,3.471,3.471,10.6,9.0,12.0,10.0,99.0
5847,8/31/2012 15:00,3.0,3.801,3.801,3.801,10.6,9.0,12.0,10.0,99.0
5848,8/31/2012 16:00,3.0,4.593,4.593,4.593,10.6,9.0,12.0,10.0,99.0
5849,8/31/2012 17:00,3.0,5.832,5.832,5.832,10.6,9.0,12.0,10.0,99.0
5850,8/31/2012 18:00,3.0,6.119999999999999,6.119999999999999,6.119999999999999,10.6,9.0,12.0,10.0,99.0
5851,8/31/2012 19:00,3.0,5.0040000000000004,5.0040000000000004,5.0040000000000004,10.6,9.0,12.0,10.0,99.0
5852,8/31/2012 20:00,3.0,4.461,4.461,4.461,10.6,9.0,12.0,10.0,99.0
5853,8/31/2012 21:00,2.9097,4.563000000000001,4.563000000000001,4.563000000000001,10.28094,8.729099999999999,11.6388,9.699,96.0201
5854,8/31/2012 22:00,2.9268,4.917,4.917,4.917,10.34136,8.7804,11.7072,9.756,96.5844
5855,8/31/2012 23:00,2.9495999999999998,4.731,4.731,4.731,10.42192,8.848799999999999,11.798399999999999,9.831999999999999,97.3368
5856,9/1/2012 0:00,2.9607,3.969,3.969,3.969,10.46114,8.8821,11.8428,9.869,97.7031
5857,9/1/2012 1:00,2.9646,3.207,3.207,3.207,10.47492,8.893799999999999,11.8584,9.882,97.8318
5858,9/1/2012 2:00,2.9646,2.676,2.676,2.676,10.47492,8.893799999999999,11.8584,9.882,97.8318
5859,9/1/2012 3:00,2.9553,2.205,2.205,2.205,10.44206,8.8659,11.8212,9.850999999999999,97.5249
5860,9/1/2012 4:00,2.9358,0.0,0.0,0.0,10.37316,8.8074,11.7432,9.786,96.8814
5861,9/1/2012 5:00,2.8971,0.0,0.0,0.0,10.236419999999999,8.6913,11.5884,9.657,95.6043
5862,9/1/2012 6:00,2.8190999999999997,0.0,0.0,0.0,9.96082,8.4573,11.276399999999999,9.397,93.0303
5863,9/1/2012 7:00,2.6612999999999998,0.9629999999999999,0.9629999999999999,0.9629999999999999,9.40326,7.9839,10.645199999999999,8.871,87.8229
5864,9/1/2012 8:00,2.3889,26.151,26.151,26.151,8.44078,7.1667000000000005,9.5556,7.963,78.83370000000001
5865,9/1/2012 9:00,1.9386,21.747,21.747,21.747,6.84972,5.8158,7.7544,6.462,63.9738
5866,9/1/2012 10:00,1.4181,15.075,15.075,15.075,5.01062,4.2543,5.6724,4.727,46.7973
5867,9/1/2012 11:00,0.9783,9.183,9.183,9.183,3.45666,2.9349,3.9132,3.261,32.2839
5868,9/1/2012 12:00,0.6549,4.785,4.785,4.785,2.31398,1.9647,2.6196,2.183,21.6117
5869,9/1/2012 13:00,2.5428,2.097,2.097,2.097,8.98456,7.6284,10.1712,8.476,83.9124
5870,9/1/2012 14:00,1.9868999999999999,0.8520000000000001,0.8520000000000001,0.8520000000000001,7.020379999999999,5.9607,7.9475999999999996,6.623,65.5677
5871,9/1/2012 15:00,1.1904,0.498,0.498,0.498,4.20608,3.5711999999999997,4.7616,3.968,39.2832
5872,9/1/2012 16:00,0.44520000000000004,0.369,0.369,0.369,1.57304,1.3356000000000001,1.7808000000000002,1.484,14.691600000000001
5873,9/1/2012 17:00,0.1194,0.462,0.462,0.462,0.42188000000000003,0.3582,0.4776,0.398,3.9402000000000004
5874,9/1/2012 18:00,0.046799999999999994,0.498,0.498,0.498,0.16535999999999998,0.1404,0.18719999999999998,0.156,1.5444
5875,9/1/2012 19:00,0.0264,1.2269999999999999,1.2269999999999999,1.2269999999999999,0.09328,0.0792,0.1056,0.08800000000000001,0.8712000000000001
5876,9/1/2012 20:00,0.0369,3.4859999999999998,3.4859999999999998,3.4859999999999998,0.13038,0.1107,0.1476,0.123,1.2177
5877,9/1/2012 21:00,0.0798,7.377000000000001,7.377000000000001,7.377000000000001,0.28196,0.2394,0.3192,0.266,2.6334
5878,9/1/2012 22:00,3.0,13.473,13.473,13.473,10.6,9.0,12.0,10.0,99.0
5879,9/1/2012 23:00,2.9745,18.12,18.12,18.12,10.5099,8.9235,11.898,9.915000000000001,98.1585
5880,9/2/2012 0:00,1.2264,19.131,19.131,19.131,4.33328,3.6792,4.9056,4.088,40.4712
5881,9/2/2012 1:00,1.8084,16.677,16.677,16.677,6.38968,5.4252,7.2336,6.0280000000000005,59.6772
5882,9/2/2012 2:00,2.2197,0.0,0.0,0.0,7.84294,6.6591000000000005,8.8788,7.399,73.2501
5883,9/2/2012 3:00,2.4143999999999997,0.0,0.0,0.0,8.53088,7.2432,9.657599999999999,8.048,79.67519999999999
5884,9/2/2012 4:00,2.382,0.0,0.0,0.0,8.4164,7.146000000000001,9.528,7.94,78.60600000000001
5885,9/2/2012 5:00,2.3973,0.0,0.0,0.0,8.47046,7.1919,9.5892,7.9910000000000005,79.1109
5886,9/2/2012 6:00,2.3447999999999998,0.0,0.0,0.0,8.28496,7.0344,9.379199999999999,7.816,77.3784
5887,9/2/2012 7:00,2.9448,0.0,0.0,0.0,10.404959999999999,8.8344,11.7792,9.816,97.1784
5888,9/2/2012 8:00,2.9397,0.33899999999999997,0.33899999999999997,0.33899999999999997,10.38694,8.8191,11.7588,9.799,97.0101
5889,9/2/2012 9:00,2.9385000000000003,0.549,0.549,0.549,10.3827,8.8155,11.754000000000001,9.795,96.9705
5890,9/2/2012 10:00,2.9271000000000003,0.8220000000000001,0.8220000000000001,0.8220000000000001,10.34242,8.7813,11.708400000000001,9.757,96.5943
5891,9/2/2012 11:00,2.8926,3.975,3.975,3.975,10.220519999999999,8.6778,11.5704,9.642,95.4558
5892,9/2/2012 12:00,2.8611,4.236,4.236,4.236,10.109219999999999,8.5833,11.4444,9.536999999999999,94.41629999999999
5893,9/2/2012 13:00,2.8416,0.774,0.774,0.774,10.04032,8.5248,11.3664,9.472000000000001,93.7728
5894,9/2/2012 14:00,2.8206,0.561,0.561,0.561,9.96612,8.4618,11.2824,9.402000000000001,93.0798
5895,9/2/2012 15:00,2.784,0.372,0.372,0.372,9.836799999999998,8.352,11.136,9.28,91.872
5896,9/2/2012 16:00,2.7129,0.231,0.231,0.231,9.58558,8.1387,10.8516,9.043,89.5257
5897,9/2/2012 17:00,2.5971,0.0,0.0,0.0,9.17642,7.791300000000001,10.3884,8.657,85.7043
5898,9/2/2012 18:00,2.439,0.0,0.0,0.0,8.617799999999999,7.316999999999999,9.756,8.129999999999999,80.487
5899,9/2/2012 19:00,1.9943999999999997,13.35,13.35,13.35,7.046879999999999,5.983199999999999,7.977599999999999,6.648,65.81519999999999
5900,9/2/2012 20:00,1.4874,12.519,12.519,12.519,5.25548,4.4622,5.9496,4.958,49.0842
5901,9/2/2012 21:00,0.8781000000000001,11.508,11.508,11.508,3.10262,2.6343,3.5124000000000004,2.927,28.977300000000003
5902,9/2/2012 22:00,0.37679999999999997,10.241999999999999,10.241999999999999,10.241999999999999,1.3313599999999999,1.1303999999999998,1.5071999999999999,1.2559999999999998,12.434399999999998
5903,9/2/2012 23:00,0.12299999999999998,8.972999999999999,8.972999999999999,8.972999999999999,0.43459999999999993,0.36899999999999994,0.49199999999999994,0.4099999999999999,4.058999999999999
5904,9/3/2012 0:00,0.0546,8.517,8.517,8.517,0.19292,0.1638,0.2184,0.182,1.8018
5905,9/3/2012 1:00,0.0372,8.411999999999999,8.411999999999999,8.411999999999999,0.13144,0.11159999999999999,0.1488,0.124,1.2276
5906,9/3/2012 2:00,0.0273,8.619,8.619,8.619,0.09646,0.0819,0.1092,0.091,0.9009
5907,9/3/2012 3:00,0.0303,8.487,8.487,8.487,0.10705999999999999,0.0909,0.1212,0.10099999999999999,0.9999
5908,9/3/2012 4:00,0.0651,8.673,8.673,8.673,0.23002,0.1953,0.2604,0.217,2.1483
5909,9/3/2012 5:00,0.5451,9.345,9.345,9.345,1.9260199999999998,1.6353,2.1804,1.817,17.9883
5910,9/3/2012 6:00,1.5644999999999998,9.774,9.774,9.774,5.5279,4.693499999999999,6.257999999999999,5.215,51.628499999999995
5911,9/3/2012 7:00,2.1342,2.73,2.73,2.73,7.54084,6.4026000000000005,8.5368,7.114000000000001,70.4286
5912,9/3/2012 8:00,2.3667000000000002,2.7689999999999997,2.7689999999999997,2.7689999999999997,8.36234,7.1001,9.466800000000001,7.889,78.1011
5913,9/3/2012 9:00,2.2671,2.76,2.76,2.76,8.01042,6.8013,9.0684,7.557,74.8143
5914,9/3/2012 10:00,2.1069,2.4,2.4,2.4,7.44438,6.3207,8.4276,7.023000000000001,69.52770000000001
5915,9/3/2012 11:00,1.9491,2.463,2.463,2.463,6.88682,5.847300000000001,7.7964,6.497000000000001,64.3203
5916,9/3/2012 12:00,1.8516,3.4770000000000003,3.4770000000000003,3.4770000000000003,6.542319999999999,5.5548,7.4064,6.172,61.102799999999995
5917,9/3/2012 13:00,0.37739999999999996,4.011,4.011,4.011,1.33348,1.1321999999999999,1.5095999999999998,1.258,12.4542
5918,9/3/2012 14:00,0.2937,4.2090000000000005,4.2090000000000005,4.2090000000000005,1.0377399999999999,0.8811,1.1748,0.979,9.6921
5919,9/3/2012 15:00,0.2499,4.368,4.368,4.368,0.88298,0.7497,0.9996,0.833,8.2467
5920,9/3/2012 16:00,0.2238,4.764,4.764,4.764,0.79076,0.6714,0.8952,0.746,7.3854
5921,9/3/2012 17:00,0.2127,5.1690000000000005,5.1690000000000005,5.1690000000000005,0.75154,0.6381,0.8508,0.7090000000000001,7.019100000000001
5922,9/3/2012 18:00,0.1956,5.619,5.619,5.619,0.69112,0.5868,0.7824,0.6519999999999999,6.4548
5923,9/3/2012 19:00,0.19530000000000003,6.303,6.303,6.303,0.69006,0.5859000000000001,0.7812000000000001,0.651,6.4449000000000005
5924,9/3/2012 20:00,0.2019,7.095,7.095,7.095,0.71338,0.6057,0.8076,0.673,6.6627
5925,9/3/2012 21:00,0.24330000000000002,7.760999999999999,7.760999999999999,7.760999999999999,0.85966,0.7299,0.9732000000000001,0.811,8.0289
5926,9/3/2012 22:00,0.3216,8.553,8.553,8.553,1.13632,0.9648,1.2864,1.072,10.6128
5927,9/3/2012 23:00,0.37679999999999997,8.574,8.574,8.574,1.3313599999999999,1.1303999999999998,1.5071999999999999,1.2559999999999998,12.434399999999998
5928,9/4/2012 0:00,0.4455,8.007000000000001,8.007000000000001,8.007000000000001,1.5740999999999998,1.3365,1.782,1.4849999999999999,14.7015
5929,9/4/2012 1:00,0.49169999999999997,11.67,11.67,11.67,1.7373399999999999,1.4750999999999999,1.9667999999999999,1.6389999999999998,16.2261
5930,9/4/2012 2:00,0.4551,13.248,13.248,13.248,1.60802,1.3653,1.8204,1.517,15.0183
5931,9/4/2012 3:00,2.9661,14.994,14.994,14.994,10.48022,8.8983,11.8644,9.887,97.8813
5932,9/4/2012 4:00,3.0,17.106,17.106,17.106,10.6,9.0,12.0,10.0,99.0
5933,9/4/2012 5:00,3.0,19.437,19.437,19.437,10.6,9.0,12.0,10.0,99.0
5934,9/4/2012 6:00,3.0,20.133000000000003,20.133000000000003,20.133000000000003,10.6,9.0,12.0,10.0,99.0
5935,9/4/2012 7:00,3.0,19.554000000000002,19.554000000000002,19.554000000000002,10.6,9.0,12.0,10.0,99.0
5936,9/4/2012 8:00,3.0,19.101000000000003,19.101000000000003,19.101000000000003,10.6,9.0,12.0,10.0,99.0
5937,9/4/2012 9:00,3.0,17.88,17.88,17.88,10.6,9.0,12.0,10.0,99.0
5938,9/4/2012 10:00,3.0,15.966000000000001,15.966000000000001,15.966000000000001,10.6,9.0,12.0,10.0,99.0
5939,9/4/2012 11:00,3.0,12.969000000000001,12.969000000000001,12.969000000000001,10.6,9.0,12.0,10.0,99.0
5940,9/4/2012 12:00,3.0,9.237,9.237,9.237,10.6,9.0,12.0,10.0,99.0
5941,9/4/2012 13:00,3.0,5.289000000000001,5.289000000000001,5.289000000000001,10.6,9.0,12.0,10.0,99.0
5942,9/4/2012 14:00,3.0,3.9269999999999996,3.9269999999999996,3.9269999999999996,10.6,9.0,12.0,10.0,99.0
5943,9/4/2012 15:00,3.0,25.329,25.329,25.329,10.6,9.0,12.0,10.0,99.0
5944,9/4/2012 16:00,3.0,26.55,26.55,26.55,10.6,9.0,12.0,10.0,99.0
5945,9/4/2012 17:00,3.0,27.6,27.6,27.6,10.6,9.0,12.0,10.0,99.0
5946,9/4/2012 18:00,3.0,28.139999999999997,28.139999999999997,28.139999999999997,10.6,9.0,12.0,10.0,99.0
5947,9/4/2012 19:00,3.0,28.338,28.338,28.338,10.6,9.0,12.0,10.0,99.0
5948,9/4/2012 20:00,3.0,28.467,28.467,28.467,10.6,9.0,12.0,10.0,99.0
5949,9/4/2012 21:00,3.0,28.392,28.392,28.392,10.6,9.0,12.0,10.0,99.0
5950,9/4/2012 22:00,3.0,27.999000000000002,27.999000000000002,27.999000000000002,10.6,9.0,12.0,10.0,99.0
5951,9/4/2012 23:00,3.0,27.156,27.156,27.156,10.6,9.0,12.0,10.0,99.0
5952,9/5/2012 0:00,3.0,26.391000000000002,26.391000000000002,26.391000000000002,10.6,9.0,12.0,10.0,99.0
5953,9/5/2012 1:00,3.0,25.734,25.734,25.734,10.6,9.0,12.0,10.0,99.0
5954,9/5/2012 2:00,3.0,24.843,24.843,24.843,10.6,9.0,12.0,10.0,99.0
5955,9/5/2012 3:00,3.0,23.279999999999998,23.279999999999998,23.279999999999998,10.6,9.0,12.0,10.0,99.0
5956,9/5/2012 4:00,3.0,20.028,20.028,20.028,10.6,9.0,12.0,10.0,99.0
5957,9/5/2012 5:00,3.0,14.163,14.163,14.163,10.6,9.0,12.0,10.0,99.0
5958,9/5/2012 6:00,3.0,7.733999999999999,7.733999999999999,7.733999999999999,10.6,9.0,12.0,10.0,99.0
5959,9/5/2012 7:00,3.0,4.755,4.755,4.755,10.6,9.0,12.0,10.0,99.0
5960,9/5/2012 8:00,3.0,4.152,4.152,4.152,10.6,9.0,12.0,10.0,99.0
5961,9/5/2012 9:00,3.0,3.537,3.537,3.537,10.6,9.0,12.0,10.0,99.0
5962,9/5/2012 10:00,3.0,2.832,2.832,2.832,10.6,9.0,12.0,10.0,99.0
5963,9/5/2012 11:00,3.0,2.4330000000000003,2.4330000000000003,2.4330000000000003,10.6,9.0,12.0,10.0,99.0
5964,9/5/2012 12:00,3.0,2.067,2.067,2.067,10.6,9.0,12.0,10.0,99.0
5965,9/5/2012 13:00,3.0,1.635,1.635,1.635,10.6,9.0,12.0,10.0,99.0
5966,9/5/2012 14:00,3.0,1.212,1.212,1.212,10.6,9.0,12.0,10.0,99.0
5967,9/5/2012 15:00,3.0,0.927,0.927,0.927,10.6,9.0,12.0,10.0,99.0
5968,9/5/2012 16:00,3.0,0.921,0.921,0.921,10.6,9.0,12.0,10.0,99.0
5969,9/5/2012 17:00,3.0,1.056,1.056,1.056,10.6,9.0,12.0,10.0,99.0
5970,9/5/2012 18:00,3.0,1.08,1.08,1.08,10.6,9.0,12.0,10.0,99.0
5971,9/5/2012 19:00,3.0,1.365,1.365,1.365,10.6,9.0,12.0,10.0,99.0
5972,9/5/2012 20:00,3.0,2.175,2.175,2.175,10.6,9.0,12.0,10.0,99.0
5973,9/5/2012 21:00,3.0,4.212,4.212,4.212,10.6,9.0,12.0,10.0,99.0
5974,9/5/2012 22:00,3.0,6.234,6.234,6.234,10.6,9.0,12.0,10.0,99.0
5975,9/5/2012 23:00,3.0,7.074,7.074,7.074,10.6,9.0,12.0,10.0,99.0
5976,9/6/2012 0:00,3.0,7.4670000000000005,7.4670000000000005,7.4670000000000005,10.6,9.0,12.0,10.0,99.0
5977,9/6/2012 1:00,3.0,6.951,6.951,6.951,10.6,9.0,12.0,10.0,99.0
5978,9/6/2012 2:00,3.0,6.621,6.621,6.621,10.6,9.0,12.0,10.0,99.0
5979,9/6/2012 3:00,3.0,6.5729999999999995,6.5729999999999995,6.5729999999999995,10.6,9.0,12.0,10.0,99.0
5980,9/6/2012 4:00,3.0,6.591,6.591,6.591,10.6,9.0,12.0,10.0,99.0
5981,9/6/2012 5:00,3.0,6.036,6.036,6.036,10.6,9.0,12.0,10.0,99.0
5982,9/6/2012 6:00,3.0,6.3389999999999995,6.3389999999999995,6.3389999999999995,10.6,9.0,12.0,10.0,99.0
5983,9/6/2012 7:00,3.0,6.255,6.255,6.255,10.6,9.0,12.0,10.0,99.0
5984,9/6/2012 8:00,3.0,6.222,6.222,6.222,10.6,9.0,12.0,10.0,99.0
5985,9/6/2012 9:00,3.0,6.567,6.567,6.567,10.6,9.0,12.0,10.0,99.0
5986,9/6/2012 10:00,2.9754,6.636,6.636,6.636,10.51308,8.9262,11.9016,9.918,98.1882
5987,9/6/2012 11:00,0.2307,5.946,5.946,5.946,0.81514,0.6920999999999999,0.9228,0.7689999999999999,7.613099999999999
5988,9/6/2012 12:00,0.2481,5.151,5.151,5.151,0.87662,0.7443,0.9924,0.827,8.1873
5989,9/6/2012 13:00,0.3042,4.749,4.749,4.749,1.07484,0.9126000000000001,1.2168,1.014,10.0386
5990,9/6/2012 14:00,0.49019999999999997,4.734,4.734,4.734,1.7320399999999998,1.4706,1.9607999999999999,1.634,16.1766
5991,9/6/2012 15:00,0.6957,4.263,4.263,4.263,2.4581399999999998,2.0871,2.7828,2.319,22.958099999999998
5992,9/6/2012 16:00,0.6534,2.853,2.853,2.853,2.30868,1.9602,2.6136,2.178,21.5622
5993,9/6/2012 17:00,2.8224,1.3980000000000001,1.3980000000000001,1.3980000000000001,9.97248,8.4672,11.2896,9.408,93.1392
5994,9/6/2012 18:00,2.8602,14.841,14.841,14.841,10.10604,8.5806,11.4408,9.534,94.3866
5995,9/6/2012 19:00,2.8803,10.257,10.257,10.257,10.177059999999999,8.6409,11.5212,9.600999999999999,95.0499
5996,9/6/2012 20:00,2.8977,6.816000000000001,6.816000000000001,6.816000000000001,10.238539999999999,8.6931,11.5908,9.658999999999999,95.6241
5997,9/6/2012 21:00,2.9004,4.137,4.137,4.137,10.24808,8.7012,11.6016,9.668,95.7132
5998,9/6/2012 22:00,2.8875,2.367,2.367,2.367,10.2025,8.6625,11.55,9.625,95.28750000000001
5999,9/6/2012 23:00,2.8029,1.26,1.26,1.26,9.90358,8.4087,11.2116,9.343,92.4957
6000,9/7/2012 0:00,2.6298000000000004,0.618,0.618,0.618,9.29196,7.8894,10.519200000000001,8.766,86.7834
6001,9/7/2012 1:00,2.3720999999999997,0.29100000000000004,0.29100000000000004,0.29100000000000004,8.381419999999999,7.1163,9.488399999999999,7.907,78.27929999999999
6002,9/7/2012 2:00,2.0016,0.0,0.0,0.0,7.0723199999999995,6.0048,8.0064,6.672000000000001,66.0528
6003,9/7/2012 3:00,1.5609,0.567,0.567,0.567,5.51518,4.6827,6.2436,5.202999999999999,51.509699999999995
6004,9/7/2012 4:00,1.146,0.378,0.378,0.378,4.0492,3.438,4.584,3.8200000000000003,37.818
6005,9/7/2012 5:00,0.8727,0.327,0.327,0.327,3.0835399999999997,2.6181,3.4908,2.909,28.7991
6006,9/7/2012 6:00,0.5685,0.444,0.444,0.444,2.0087,1.7055,2.274,1.895,18.7605
6007,9/7/2012 7:00,0.7437,0.861,0.861,0.861,2.62774,2.2311,2.9748,2.479,24.5421
6008,9/7/2012 8:00,0.9459000000000001,1.452,1.452,1.452,3.34218,2.8377000000000003,3.7836000000000003,3.1530000000000005,31.214700000000004
6009,9/7/2012 9:00,1.1358,1.7189999999999999,1.7189999999999999,1.7189999999999999,4.01316,3.4074,4.5432,3.786,37.4814
6010,9/7/2012 10:00,1.3437000000000001,1.1880000000000002,1.1880000000000002,1.1880000000000002,4.74774,4.0311,5.3748000000000005,4.479,44.3421
6011,9/7/2012 11:00,1.4982,0.549,0.549,0.549,5.29364,4.4946,5.9928,4.994,49.4406
6012,9/7/2012 12:00,1.5783,0.23399999999999999,0.23399999999999999,0.23399999999999999,5.5766599999999995,4.7349,6.3132,5.261,52.0839
6013,9/7/2012 13:00,1.602,0.0,0.0,0.0,5.6604,4.806,6.408,5.34,52.866
6014,9/7/2012 14:00,1.5813000000000001,0.0,0.0,0.0,5.58726,4.7439,6.325200000000001,5.271,52.182900000000004
6015,9/7/2012 15:00,1.6455,0.0,0.0,0.0,5.8141,4.9365,6.582,5.484999999999999,54.3015
6016,9/7/2012 16:00,1.7484,0.0,0.0,0.0,6.17768,5.2452,6.9936,5.827999999999999,57.697199999999995
6017,9/7/2012 17:00,1.7421,29.568,29.568,29.568,6.1554199999999994,5.2263,6.9684,5.807,57.4893
6018,9/7/2012 18:00,1.6677,29.319,29.319,29.319,5.8925399999999994,5.0031,6.6708,5.558999999999999,55.034099999999995
6019,9/7/2012 19:00,1.5729,28.899,28.899,28.899,5.55758,4.7187,6.2916,5.243,51.905699999999996
6020,9/7/2012 20:00,1.5795,28.395,28.395,28.395,5.5809,4.7385,6.318,5.265,52.1235
6021,9/7/2012 21:00,1.5198,27.918,27.918,27.918,5.369960000000001,4.5594,6.0792,5.066000000000001,50.153400000000005
6022,9/7/2012 22:00,1.3371,27.51,27.51,27.51,4.724419999999999,4.0113,5.3484,4.457,44.1243
6023,9/7/2012 23:00,1.1574,27.294,27.294,27.294,4.08948,3.4722,4.6296,3.8579999999999997,38.194199999999995
6024,9/8/2012 0:00,1.0394999999999999,27.156,27.156,27.156,3.6728999999999994,3.1184999999999996,4.1579999999999995,3.465,34.3035
6025,9/8/2012 1:00,0.9693,26.955,26.955,26.955,3.42486,2.9079,3.8772,3.231,31.9869
6026,9/8/2012 2:00,0.9618,26.61,26.61,26.61,3.39836,2.8853999999999997,3.8472,3.206,31.7394
6027,9/8/2012 3:00,0.9984,26.571,26.571,26.571,3.5276799999999997,2.9951999999999996,3.9936,3.328,32.947199999999995
6028,9/8/2012 4:00,1.0347,26.547,26.547,26.547,3.6559399999999997,3.1041,4.1388,3.449,34.1451
6029,9/8/2012 5:00,0.9195,26.259,26.259,26.259,3.2489,2.7584999999999997,3.678,3.065,30.3435
6030,9/8/2012 6:00,0.7932000000000001,25.262999999999998,25.262999999999998,25.262999999999998,2.8026400000000002,2.3796000000000004,3.1728000000000005,2.644,26.175600000000003
6031,9/8/2012 7:00,0.6657,23.823,23.823,23.823,2.35214,1.9970999999999999,2.6628,2.219,21.9681
6032,9/8/2012 8:00,0.5901000000000001,22.986,22.986,22.986,2.08502,1.7703000000000002,2.3604000000000003,1.967,19.473300000000002
6033,9/8/2012 9:00,0.5468999999999999,23.727,23.727,23.727,1.9323799999999998,1.6406999999999998,2.1875999999999998,1.823,18.0477
6034,9/8/2012 10:00,0.46920000000000006,25.235999999999997,25.235999999999997,25.235999999999997,1.65784,1.4076000000000002,1.8768000000000002,1.564,15.483600000000001
6035,9/8/2012 11:00,0.3915,26.463,26.463,26.463,1.3833,1.1745,1.566,1.3050000000000002,12.919500000000001
6036,9/8/2012 12:00,0.4689,27.314999999999998,27.314999999999998,27.314999999999998,1.65678,1.4066999999999998,1.8756,1.563,15.4737
6037,9/8/2012 13:00,0.7383000000000001,27.576,27.576,27.576,2.60866,2.2149,2.9532000000000003,2.4610000000000003,24.3639
6038,9/8/2012 14:00,0.9062999999999999,27.804,27.804,27.804,3.20226,2.7188999999999997,3.6251999999999995,3.021,29.907899999999998
6039,9/8/2012 15:00,0.6774,28.356,28.356,28.356,2.39348,2.0322,2.7096,2.258,22.3542
6040,9/8/2012 16:00,0.6123000000000001,28.473000000000003,28.473000000000003,28.473000000000003,2.16346,1.8369,2.4492000000000003,2.041,20.2059
6041,9/8/2012 17:00,0.7484999999999999,28.29,28.29,28.29,2.6447,2.2455,2.9939999999999998,2.495,24.7005
6042,9/8/2012 18:00,1.1031,27.776999999999997,27.776999999999997,27.776999999999997,3.8976200000000003,3.3093000000000004,4.4124,3.6770000000000005,36.402300000000004
6043,9/8/2012 19:00,1.6113,26.739,26.739,26.739,5.69326,4.8339,6.4452,5.371,53.172900000000006
6044,9/8/2012 20:00,1.9083,24.615000000000002,24.615000000000002,24.615000000000002,6.74266,5.7249,7.6332,6.361,62.9739
6045,9/8/2012 21:00,1.971,22.083,22.083,22.083,6.9642,5.913,7.884,6.57,65.043
6046,9/8/2012 22:00,1.9449,18.252000000000002,18.252000000000002,18.252000000000002,6.87198,5.8347,7.7796,6.483,64.18169999999999
6047,9/8/2012 23:00,1.8158999999999998,13.011,13.011,13.011,6.416179999999999,5.447699999999999,7.263599999999999,6.052999999999999,59.924699999999994
6048,9/9/2012 0:00,1.3413,7.140000000000001,7.140000000000001,7.140000000000001,4.73926,4.0239,5.3652,4.471,44.2629
6049,9/9/2012 1:00,0.609,4.1819999999999995,4.1819999999999995,4.1819999999999995,2.1518,1.8270000000000002,2.436,2.0300000000000002,20.097
6050,9/9/2012 2:00,0.23310000000000003,0.0,0.0,0.0,0.82362,0.6993,0.9324000000000001,0.777,7.6923
6051,9/9/2012 3:00,0.15660000000000002,0.0,0.0,0.0,0.55332,0.46980000000000005,0.6264000000000001,0.522,5.167800000000001
6052,9/9/2012 4:00,0.264,0.0,0.0,0.0,0.9328000000000001,0.792,1.056,0.8800000000000001,8.712000000000002
6053,9/9/2012 5:00,0.3732,0.0,0.0,0.0,1.3186399999999998,1.1196,1.4928,1.244,12.3156
6054,9/9/2012 6:00,0.4221,0.0,0.0,0.0,1.49142,1.2663,1.6884,1.407,13.9293
6055,9/9/2012 7:00,0.46950000000000003,0.0,0.0,0.0,1.6589,1.4085,1.8780000000000001,1.565,15.4935
6056,9/9/2012 8:00,0.5145000000000001,0.249,0.249,0.249,1.8179,1.5435,2.0580000000000003,1.715,16.9785
6057,9/9/2012 9:00,0.43890000000000007,0.303,0.303,0.303,1.55078,1.3167000000000002,1.7556000000000003,1.463,14.4837
6058,9/9/2012 10:00,0.29309999999999997,0.381,0.381,0.381,1.03562,0.8793,1.1723999999999999,0.977,9.6723
6059,9/9/2012 11:00,0.21299999999999997,0.387,0.387,0.387,0.7525999999999999,0.6389999999999999,0.8519999999999999,0.71,7.028999999999999
6060,9/9/2012 12:00,0.1752,0.312,0.312,0.312,0.61904,0.5256,0.7008,0.584,5.7816
6061,9/9/2012 13:00,0.1596,0.231,0.231,0.231,0.56392,0.4788,0.6384,0.532,5.2668
6062,9/9/2012 14:00,0.17550000000000002,0.0,0.0,0.0,0.6201,0.5265000000000001,0.7020000000000001,0.5850000000000001,5.7915
6063,9/9/2012 15:00,0.2352,0.0,0.0,0.0,0.8310399999999999,0.7056,0.9408,0.784,7.7616
6064,9/9/2012 16:00,0.3534,0.0,0.0,0.0,1.24868,1.0602,1.4136,1.178,11.6622
6065,9/9/2012 17:00,0.8946000000000001,0.0,0.0,0.0,3.16092,2.6838,3.5784000000000002,2.982,29.521800000000002
6066,9/9/2012 18:00,1.7724,0.0,0.0,0.0,6.26248,5.3172,7.0896,5.9079999999999995,58.4892
6067,9/9/2012 19:00,2.1395999999999997,0.0,0.0,0.0,7.559919999999999,6.418799999999999,8.558399999999999,7.132,70.60679999999999
6068,9/9/2012 20:00,2.4654,0.0,0.0,0.0,8.711079999999999,7.396199999999999,9.8616,8.218,81.3582
6069,9/9/2012 21:00,2.9217,0.0,0.0,0.0,10.32334,8.7651,11.6868,9.739,96.4161
6070,9/9/2012 22:00,3.0,0.0,0.0,0.0,10.6,9.0,12.0,10.0,99.0
6071,9/9/2012 23:00,3.0,0.0,0.0,0.0,10.6,9.0,12.0,10.0,99.0
6072,9/10/2012 0:00,3.0,0.0,0.0,0.0,10.6,9.0,12.0,10.0,99.0
6073,9/10/2012 1:00,3.0,0.0,0.0,0.0,10.6,9.0,12.0,10.0,99.0
6074,9/10/2012 2:00,3.0,0.0,0.0,0.0,10.6,9.0,12.0,10.0,99.0
6075,9/10/2012 3:00,1.5735,0.0,0.0,0.0,5.559699999999999,4.7204999999999995,6.294,5.244999999999999,51.9255
6076,9/10/2012 4:00,0.0,0.0,0.0,0.0,0.0,0.0,0.0,0.0,0.0
6077,9/10/2012 5:00,0.0,0.0,0.0,0.0,0.0,0.0,0.0,0.0,0.0
6078,9/10/2012 6:00,0.0,0.0,0.0,0.0,0.0,0.0,0.0,0.0,0.0
6079,9/10/2012 7:00,0.0,0.0,0.0,0.0,0.0,0.0,0.0,0.0,0.0
6080,9/10/2012 8:00,0.0,0.0,0.0,0.0,0.0,0.0,0.0,0.0,0.0
6081,9/10/2012 9:00,0.0,0.0,0.0,0.0,0.0,0.0,0.0,0.0,0.0
6082,9/10/2012 10:00,0.0,0.324,0.324,0.324,0.0,0.0,0.0,0.0,0.0
6083,9/10/2012 11:00,0.0,0.456,0.456,0.456,0.0,0.0,0.0,0.0,0.0
6084,9/10/2012 12:00,0.0,0.669,0.669,0.669,0.0,0.0,0.0,0.0,0.0
6085,9/10/2012 13:00,0.0,0.846,0.846,0.846,0.0,0.0,0.0,0.0,0.0
6086,9/10/2012 14:00,0.0,0.747,0.747,0.747,0.0,0.0,0.0,0.0,0.0
6087,9/10/2012 15:00,0.0,0.0,0.0,0.0,0.0,0.0,0.0,0.0,0.0
6088,9/10/2012 16:00,0.0,0.0,0.0,0.0,0.0,0.0,0.0,0.0,0.0
6089,9/10/2012 17:00,0.0216,0.0,0.0,0.0,0.07632,0.0648,0.0864,0.072,0.7128
6090,9/10/2012 18:00,0.0327,0.267,0.267,0.267,0.11553999999999999,0.09809999999999999,0.1308,0.109,1.0791
6091,9/10/2012 19:00,0.03900000000000001,0.44999999999999996,0.44999999999999996,0.44999999999999996,0.1378,0.117,0.15600000000000003,0.13,1.2870000000000001
6092,9/10/2012 20:00,0.0438,0.654,0.654,0.654,0.15476,0.1314,0.1752,0.146,1.4454
6093,9/10/2012 21:00,0.052500000000000005,0.687,0.687,0.687,0.1855,0.15750000000000003,0.21000000000000002,0.17500000000000002,1.7325000000000002
6094,9/10/2012 22:00,0.0576,1.278,1.278,1.278,0.20351999999999998,0.17279999999999998,0.2304,0.19199999999999998,1.9007999999999998
6095,9/10/2012 23:00,0.0567,1.593,1.593,1.593,0.20034,0.1701,0.2268,0.189,1.8711
6096,9/11/2012 0:00,0.0441,1.395,1.395,1.395,0.15582,0.1323,0.1764,0.147,1.4553
6097,9/11/2012 1:00,0.0414,1.359,1.359,1.359,0.14628,0.1242,0.1656,0.138,1.3662
6098,9/11/2012 2:00,0.0543,1.341,1.341,1.341,0.19186,0.16290000000000002,0.2172,0.18100000000000002,1.7919
6099,9/11/2012 3:00,0.09090000000000001,1.236,1.236,1.236,0.32118,0.2727,0.36360000000000003,0.303,2.9997000000000003
6100,9/11/2012 4:00,0.1521,1.209,1.209,1.209,0.53742,0.45630000000000004,0.6084,0.507,5.0193
6101,9/11/2012 5:00,0.2253,1.185,1.185,1.185,0.79606,0.6759,0.9012,0.751,7.4349
6102,9/11/2012 6:00,0.3528,1.131,1.131,1.131,1.24656,1.0584,1.4112,1.176,11.6424
6103,9/11/2012 7:00,0.4737,1.485,1.485,1.485,1.67374,1.4211,1.8948,1.5790000000000002,15.632100000000001
6104,9/11/2012 8:00,0.5760000000000001,2.325,2.325,2.325,2.0352,1.728,2.3040000000000003,1.92,19.008
6105,9/11/2012 9:00,2.5377,2.949,2.949,2.949,8.96654,7.6131,10.1508,8.459,83.7441
6106,9/11/2012 10:00,2.8494,2.865,2.865,2.865,10.067879999999999,8.5482,11.3976,9.498,94.0302
6107,9/11/2012 11:00,2.844,2.6220000000000003,2.6220000000000003,2.6220000000000003,10.0488,8.532,11.376,9.48,93.85199999999999
6108,9/11/2012 12:00,2.508,2.442,2.442,2.442,8.8616,7.524,10.032,8.36,82.764
6109,9/11/2012 13:00,2.1801,1.782,1.782,1.782,7.7030199999999995,6.5403,8.7204,7.267,71.94330000000001
6110,9/11/2012 14:00,2.0355,1.362,1.362,1.362,7.1921,6.1065,8.142,6.785,67.1715
6111,9/11/2012 15:00,2.1948,1.209,1.209,1.209,7.75496,6.5844000000000005,8.7792,7.316000000000001,72.4284
6112,9/11/2012 16:00,2.4489,1.239,1.239,1.239,8.65278,7.3467,9.7956,8.163,80.8137
6113,9/11/2012 17:00,2.6436,1.392,1.392,1.392,9.34072,7.9308,10.5744,8.812,87.2388
6114,9/11/2012 18:00,2.7267,1.698,1.698,1.698,9.63434,8.1801,10.9068,9.089,89.9811
6115,9/11/2012 19:00,2.7582,2.418,2.418,2.418,9.74564,8.2746,11.0328,9.193999999999999,91.0206
6116,9/11/2012 20:00,2.7558,3.513,3.513,3.513,9.73716,8.2674,11.0232,9.186,90.9414
6117,9/11/2012 21:00,2.7087000000000003,4.581,4.581,4.581,9.57074,8.126100000000001,10.834800000000001,9.029,89.3871
6118,9/11/2012 22:00,2.5824,6.714,6.714,6.714,9.12448,7.7472,10.3296,8.608,85.2192
6119,9/11/2012 23:00,2.3244000000000002,7.7909999999999995,7.7909999999999995,7.7909999999999995,8.21288,6.9732,9.297600000000001,7.748,76.7052
6120,9/12/2012 0:00,2.0898,10.929,10.929,10.929,7.38396,6.2694,8.3592,6.966,68.9634
6121,9/12/2012 1:00,1.9457999999999998,9.152999999999999,9.152999999999999,9.152999999999999,6.875159999999999,5.8374,7.783199999999999,6.486,64.2114
6122,9/12/2012 2:00,1.8824999999999998,8.889,8.889,8.889,6.6514999999999995,5.647499999999999,7.529999999999999,6.2749999999999995,62.122499999999995
6123,9/12/2012 3:00,1.8641999999999999,8.069999999999999,8.069999999999999,8.069999999999999,6.58684,5.592599999999999,7.456799999999999,6.2139999999999995,61.51859999999999
6124,9/12/2012 4:00,1.896,7.638,7.638,7.638,6.6992,5.688,7.584,6.32,62.568
6125,9/12/2012 5:00,1.9263,7.062,7.062,7.062,6.80626,5.7789,7.7052,6.421,63.5679
6126,9/12/2012 6:00,1.9662,6.261,6.261,6.261,6.94724,5.8986,7.8648,6.554,64.88459999999999
6127,9/12/2012 7:00,1.9247999999999998,5.787,5.787,5.787,6.800959999999999,5.7744,7.699199999999999,6.4159999999999995,63.51839999999999
6128,9/12/2012 8:00,1.7838,6.27,6.27,6.27,6.30276,5.3514,7.1352,5.946,58.8654
6129,9/12/2012 9:00,0.0978,6.903,6.903,6.903,0.34556,0.2934,0.3912,0.32599999999999996,3.2274
6130,9/12/2012 10:00,0.0651,6.423,6.423,6.423,0.23002,0.1953,0.2604,0.217,2.1483
6131,9/12/2012 11:00,0.0489,5.172,5.172,5.172,0.17278,0.1467,0.1956,0.16299999999999998,1.6137
6132,9/12/2012 12:00,0.038099999999999995,3.993,3.993,3.993,0.13462,0.1143,0.15239999999999998,0.127,1.2572999999999999
6133,9/12/2012 13:00,0.0429,3.108,3.108,3.108,0.15158,0.1287,0.1716,0.14300000000000002,1.4157
6134,9/12/2012 14:00,0.09090000000000001,2.4450000000000003,2.4450000000000003,2.4450000000000003,0.32118,0.2727,0.36360000000000003,0.303,2.9997000000000003
6135,9/12/2012 15:00,0.2103,2.1,2.1,2.1,0.7430599999999999,0.6309,0.8412,0.701,6.9399
6136,9/12/2012 16:00,0.3885,2.004,2.004,2.004,1.3727,1.1655,1.554,1.295,12.820500000000001
6137,9/12/2012 17:00,0.5577000000000001,2.1029999999999998,2.1029999999999998,2.1029999999999998,1.97054,1.6731,2.2308000000000003,1.859,18.4041
6138,9/12/2012 18:00,0.7287,2.373,2.373,2.373,2.57474,2.1861,2.9148,2.4290000000000003,24.0471
6139,9/12/2012 19:00,1.2135,2.274,2.274,2.274,4.2877,3.6405000000000003,4.854,4.045,40.045500000000004
6140,9/12/2012 20:00,1.8780000000000001,1.9559999999999997,1.9559999999999997,1.9559999999999997,6.6356,5.634,7.5120000000000005,6.26,61.974
6141,9/12/2012 21:00,1.9790999999999999,1.773,1.773,1.773,6.992819999999999,5.9373,7.916399999999999,6.5969999999999995,65.3103
6142,9/12/2012 22:00,1.9038000000000002,24.432000000000002,24.432000000000002,24.432000000000002,6.7267600000000005,5.7114,7.615200000000001,6.346,62.8254
6143,9/12/2012 23:00,1.8627,23.214000000000002,23.214000000000002,23.214000000000002,6.5815399999999995,5.5881,7.4508,6.209,61.4691
6144,9/13/2012 0:00,1.8654000000000002,22.479,22.479,22.479,6.59108,5.5962000000000005,7.461600000000001,6.218,61.5582
6145,9/13/2012 1:00,1.8384,22.047,22.047,22.047,6.49568,5.5152,7.3536,6.128,60.6672
6146,9/13/2012 2:00,2.1942000000000004,21.819,21.819,21.819,7.75284,6.5826,8.776800000000001,7.314,72.4086
6147,9/13/2012 3:00,2.5086000000000004,21.828,21.828,21.828,8.86372,7.5258,10.034400000000002,8.362,82.7838
6148,9/13/2012 4:00,2.601,21.972,21.972,21.972,9.190199999999999,7.803,10.404,8.67,85.833
6149,9/13/2012 5:00,2.6382,22.662,22.662,22.662,9.321639999999999,7.9146,10.5528,8.794,87.0606
6150,9/13/2012 6:00,2.6724,23.310000000000002,23.310000000000002,23.310000000000002,9.44248,8.0172,10.6896,8.908000000000001,88.1892
6151,9/13/2012 7:00,2.7057,24.776999999999997,24.776999999999997,24.776999999999997,9.56014,8.1171,10.8228,9.019,89.2881
6152,9/13/2012 8:00,2.6538000000000004,26.16,26.16,26.16,9.37676,7.9614,10.615200000000002,8.846,87.5754
6153,9/13/2012 9:00,2.4942,27.471,27.471,27.471,8.81284,7.482600000000001,9.9768,8.314,82.3086
6154,9/13/2012 10:00,2.2728,27.828,27.828,27.828,8.03056,6.8184000000000005,9.0912,7.5760000000000005,75.00240000000001
6155,9/13/2012 11:00,2.0535,27.738,27.738,27.738,7.2557,6.1605,8.214,6.845,67.7655
6156,9/13/2012 12:00,1.9227,27.471,27.471,27.471,6.79354,5.7681000000000004,7.6908,6.409000000000001,63.4491
6157,9/13/2012 13:00,1.8261,27.186,27.186,27.186,6.45222,5.4783,7.3044,6.087,60.2613
6158,9/13/2012 14:00,1.9187999999999998,27.099,27.099,27.099,6.77976,5.756399999999999,7.675199999999999,6.395999999999999,63.32039999999999
6159,9/13/2012 15:00,2.1711,26.901000000000003,26.901000000000003,26.901000000000003,7.67122,6.5133,8.6844,7.237,71.6463
6160,9/13/2012 16:00,2.436,26.091,26.091,26.091,8.6072,7.308000000000001,9.744,8.120000000000001,80.388
6161,9/13/2012 17:00,2.6151,24.474,24.474,24.474,9.24002,7.8453,10.4604,8.717,86.2983
6162,9/13/2012 18:00,2.7216,22.176,22.176,22.176,9.61632,8.1648,10.8864,9.072,89.8128
6163,9/13/2012 19:00,2.8146,19.923000000000002,19.923000000000002,19.923000000000002,9.94492,8.4438,11.2584,9.382,92.8818
6164,9/13/2012 20:00,2.8926,17.445,17.445,17.445,10.220519999999999,8.6778,11.5704,9.642,95.4558
6165,9/13/2012 21:00,2.9334,15.792,15.792,15.792,10.36468,8.8002,11.7336,9.778,96.8022
6166,9/13/2012 22:00,2.9520000000000004,5.688,5.688,5.688,10.4304,8.856000000000002,11.808000000000002,9.840000000000002,97.41600000000001
6167,9/13/2012 23:00,2.9757,5.556,5.556,5.556,10.51414,8.9271,11.9028,9.919,98.1981
6168,9/14/2012 0:00,3.0,7.095,7.095,7.095,10.6,9.0,12.0,10.0,99.0
6169,9/14/2012 1:00,3.0,10.584,10.584,10.584,10.6,9.0,12.0,10.0,99.0
6170,9/14/2012 2:00,3.0,18.081,18.081,18.081,10.6,9.0,12.0,10.0,99.0
6171,9/14/2012 3:00,3.0,23.712,23.712,23.712,10.6,9.0,12.0,10.0,99.0
6172,9/14/2012 4:00,3.0,26.868,26.868,26.868,10.6,9.0,12.0,10.0,99.0
6173,9/14/2012 5:00,3.0,28.229999999999997,28.229999999999997,28.229999999999997,10.6,9.0,12.0,10.0,99.0
6174,9/14/2012 6:00,3.0,28.799999999999997,28.799999999999997,28.799999999999997,10.6,9.0,12.0,10.0,99.0
6175,9/14/2012 7:00,2.9646,28.572,28.572,28.572,10.47492,8.893799999999999,11.8584,9.882,97.8318
6176,9/14/2012 8:00,2.9232,28.38,28.38,28.38,10.32864,8.7696,11.6928,9.744,96.46560000000001
6177,9/14/2012 9:00,2.8029,28.119,28.119,28.119,9.90358,8.4087,11.2116,9.343,92.4957
6178,9/14/2012 10:00,2.5974,27.639,27.639,27.639,9.17748,7.7922,10.3896,8.658,85.7142
6179,9/14/2012 11:00,2.4867,27.246,27.246,27.246,8.78634,7.4601,9.9468,8.289,82.0611
6180,9/14/2012 12:00,2.2587,26.418000000000003,26.418000000000003,26.418000000000003,7.98074,6.7761000000000005,9.0348,7.529,74.5371
6181,9/14/2012 13:00,1.7936999999999999,24.891,24.891,24.891,6.337739999999999,5.3811,7.174799999999999,5.979,59.192099999999996
6182,9/14/2012 14:00,1.3287,22.146,22.146,22.146,4.69474,3.9861,5.3148,4.429,43.847100000000005
6183,9/14/2012 15:00,1.3554,17.88,17.88,17.88,4.789079999999999,4.0662,5.4216,4.518,44.7282
6184,9/14/2012 16:00,1.8417,12.489,12.489,12.489,6.50734,5.5251,7.3668,6.139,60.7761
6185,9/14/2012 17:00,2.3487,8.363999999999999,8.363999999999999,8.363999999999999,8.29874,7.0461,9.3948,7.829000000000001,77.50710000000001
6186,9/14/2012 18:00,0.0336,5.196,5.196,5.196,0.11871999999999999,0.1008,0.1344,0.112,1.1088
6187,9/14/2012 19:00,0.0,3.549,3.549,3.549,0.0,0.0,0.0,0.0,0.0
6188,9/14/2012 20:00,0.0,3.537,3.537,3.537,0.0,0.0,0.0,0.0,0.0
6189,9/14/2012 21:00,0.0,5.8500000000000005,5.8500000000000005,5.8500000000000005,0.0,0.0,0.0,0.0,0.0
6190,9/14/2012 22:00,0.0,10.791,10.791,10.791,0.0,0.0,0.0,0.0,0.0
6191,9/14/2012 23:00,0.0,17.127,17.127,17.127,0.0,0.0,0.0,0.0,0.0
6192,9/15/2012 0:00,0.0,22.065,22.065,22.065,0.0,0.0,0.0,0.0,0.0
6193,9/15/2012 1:00,0.0,25.131,25.131,25.131,0.0,0.0,0.0,0.0,0.0
6194,9/15/2012 2:00,0.0,27.87,27.87,27.87,0.0,0.0,0.0,0.0,0.0
6195,9/15/2012 3:00,0.08940000000000001,28.971,28.971,28.971,0.31588,0.2682,0.35760000000000003,0.298,2.9502
6196,9/15/2012 4:00,0.4044,29.418,29.418,29.418,1.42888,1.2132,1.6176,1.348,13.3452
6197,9/15/2012 5:00,1.1475,25.908,25.908,25.908,4.0545,3.4425,4.59,3.825,37.8675
6198,9/15/2012 6:00,1.8483,28.020000000000003,28.020000000000003,28.020000000000003,6.530659999999999,5.5449,7.3932,6.161,60.9939
6199,9/15/2012 7:00,2.1486,29.214,29.214,29.214,7.59172,6.445799999999999,8.5944,7.161999999999999,70.90379999999999
6200,9/15/2012 8:00,3.0,29.733,29.733,29.733,10.6,9.0,12.0,10.0,99.0
6201,9/15/2012 9:00,3.0,30.0,30.0,30.0,10.6,9.0,12.0,10.0,99.0
6202,9/15/2012 10:00,3.0,30.0,30.0,30.0,10.6,9.0,12.0,10.0,99.0
6203,9/15/2012 11:00,3.0,30.0,30.0,30.0,10.6,9.0,12.0,10.0,99.0
6204,9/15/2012 12:00,1.2966,30.0,30.0,30.0,4.58132,3.8897999999999997,5.1864,4.322,42.7878
6205,9/15/2012 13:00,0.7092,30.0,30.0,30.0,2.50584,2.1276,2.8368,2.364,23.4036
6206,9/15/2012 14:00,0.42869999999999997,30.0,30.0,30.0,1.51474,1.2861,1.7147999999999999,1.429,14.1471
6207,9/15/2012 15:00,0.35760000000000003,30.0,30.0,30.0,1.26352,1.0728,1.4304000000000001,1.192,11.8008
6208,9/15/2012 16:00,0.3375,30.0,30.0,30.0,1.1925,1.0125,1.35,1.125,11.137500000000001
6209,9/15/2012 17:00,0.3453,30.0,30.0,30.0,1.22006,1.0359,1.3812,1.151,11.3949
6210,9/15/2012 18:00,0.37739999999999996,30.0,30.0,30.0,1.33348,1.1321999999999999,1.5095999999999998,1.258,12.4542
6211,9/15/2012 19:00,0.5139,30.0,30.0,30.0,1.81578,1.5417,2.0556,1.713,16.9587
6212,9/15/2012 20:00,0.7302,30.0,30.0,30.0,2.58004,2.1906,2.9208,2.434,24.096600000000002
6213,9/15/2012 21:00,0.9738,30.0,30.0,30.0,3.44076,2.9214,3.8952,3.246,32.1354
6214,9/15/2012 22:00,0.9273,26.13,26.13,26.13,3.2764599999999997,2.7819,3.7092,3.0909999999999997,30.6009
6215,9/15/2012 23:00,0.8787,25.725,25.725,25.725,3.1047399999999996,2.6361,3.5148,2.929,28.9971
6216,9/16/2012 0:00,0.9354,25.287,25.287,25.287,3.3050800000000002,2.8062,3.7416,3.1180000000000003,30.8682
6217,9/16/2012 1:00,0.0273,25.232999999999997,25.232999999999997,25.232999999999997,0.09646,0.0819,0.1092,0.091,0.9009
6218,9/16/2012 2:00,0.0294,25.221,25.221,25.221,0.10387999999999999,0.0882,0.1176,0.098,0.9702
6219,9/16/2012 3:00,0.0321,24.675,24.675,24.675,0.11341999999999999,0.0963,0.1284,0.107,1.0593
6220,9/16/2012 4:00,0.045,24.645,24.645,24.645,0.159,0.135,0.18,0.15,1.4849999999999999
6221,9/16/2012 5:00,1.383,25.049999999999997,25.049999999999997,25.049999999999997,4.8866000000000005,4.149,5.532,4.61,45.639
6222,9/16/2012 6:00,1.7118,24.593999999999998,24.593999999999998,24.593999999999998,6.04836,5.1354,6.8472,5.7059999999999995,56.489399999999996
6223,9/16/2012 7:00,2.0904,23.604000000000003,23.604000000000003,23.604000000000003,7.38608,6.271199999999999,8.3616,6.968,68.9832
6224,9/16/2012 8:00,2.4822,22.221,22.221,22.221,8.77044,7.4466,9.9288,8.274000000000001,81.9126
6225,9/16/2012 9:00,2.7123,20.616,20.616,20.616,9.58346,8.1369,10.8492,9.041,89.5059
6226,9/16/2012 10:00,2.7831,18.531000000000002,18.531000000000002,18.531000000000002,9.83362,8.3493,11.1324,9.277,91.8423
6227,9/16/2012 11:00,2.6997,16.560000000000002,16.560000000000002,16.560000000000002,9.53894,8.0991,10.7988,8.999,89.0901
6228,9/16/2012 12:00,2.3796,14.484,14.484,14.484,8.40792,7.1388,9.5184,7.932,78.52680000000001
6229,9/16/2012 13:00,1.8035999999999999,3.432,3.432,3.432,6.372719999999999,5.4108,7.2143999999999995,6.012,59.5188
6230,9/16/2012 14:00,1.2498,2.181,2.181,2.181,4.41596,3.7494,4.9992,4.166,41.2434
6231,9/16/2012 15:00,0.9276,1.374,1.374,1.374,3.2775199999999995,2.7828,3.7104,3.0919999999999996,30.610799999999998
6232,9/16/2012 16:00,0.8979,1.254,1.254,1.254,3.17258,2.6937,3.5916,2.9930000000000003,29.6307
6233,9/16/2012 17:00,1.0206,11.493,11.493,11.493,3.6061199999999998,3.0618,4.0824,3.402,33.6798
6234,9/16/2012 18:00,1.0767,11.631,11.631,11.631,3.80434,3.2301,4.3068,3.589,35.5311
6235,9/16/2012 19:00,0.9015,12.024,12.024,12.024,3.1853,2.7045,3.606,3.005,29.749499999999998
6236,9/16/2012 20:00,0.5612999999999999,9.096,9.096,9.096,1.9832599999999998,1.6839,2.2451999999999996,1.871,18.5229
6237,9/16/2012 21:00,0.3369,7.287,7.287,7.287,1.19038,1.0107,1.3476,1.123,11.1177
6238,9/16/2012 22:00,0.2529,6.462000000000001,6.462000000000001,6.462000000000001,0.8935799999999999,0.7587,1.0116,0.843,8.3457
6239,9/16/2012 23:00,0.2499,6.531000000000001,6.531000000000001,6.531000000000001,0.88298,0.7497,0.9996,0.833,8.2467
6240,9/17/2012 0:00,0.3327,6.804,6.804,6.804,1.17554,0.9981,1.3308,1.109,10.979099999999999
6241,9/17/2012 1:00,0.5259,13.145999999999999,13.145999999999999,13.145999999999999,1.8581800000000002,1.5777,2.1036,1.7530000000000001,17.3547
6242,9/17/2012 2:00,0.9126000000000001,11.106,11.106,11.106,3.22452,2.7378,3.6504000000000003,3.0420000000000003,30.115800000000004
6243,9/17/2012 3:00,1.4571,8.676,8.676,8.676,5.14842,4.3713,5.8284,4.857,48.0843
6244,9/17/2012 4:00,1.8900000000000001,6.0569999999999995,6.0569999999999995,6.0569999999999995,6.678,5.67,7.5600000000000005,6.3,62.37
6245,9/17/2012 5:00,2.0412,3.966,3.966,3.966,7.2122399999999995,6.1236,8.1648,6.804,67.3596
6246,9/17/2012 6:00,1.9842,3.351,3.351,3.351,7.01084,5.9526,7.9368,6.614,65.4786
6247,9/17/2012 7:00,1.7559,2.8739999999999997,2.8739999999999997,2.8739999999999997,6.20418,5.2677000000000005,7.0236,5.853000000000001,57.944700000000005
6248,9/17/2012 8:00,1.4631,1.914,1.914,1.914,5.16962,4.3893,5.8524,4.877000000000001,48.2823
6249,9/17/2012 9:00,1.2339,1.032,1.032,1.032,4.35978,3.7016999999999998,4.9356,4.1129999999999995,40.7187
6250,9/17/2012 10:00,0.885,0.801,0.801,0.801,3.127,2.655,3.54,2.9499999999999997,29.205
6251,9/17/2012 11:00,1.6734,1.353,1.353,1.353,5.912679999999999,5.0202,6.6936,5.577999999999999,55.222199999999994
6252,9/17/2012 12:00,2.6184000000000003,2.457,2.457,2.457,9.25168,7.8552,10.473600000000001,8.728,86.4072
6253,9/17/2012 13:00,2.9394,2.706,2.706,2.706,10.38588,8.818200000000001,11.7576,9.798,97.0002
6254,9/17/2012 14:00,3.0,1.8810000000000002,1.8810000000000002,1.8810000000000002,10.6,9.0,12.0,10.0,99.0
6255,9/17/2012 15:00,3.0,1.176,1.176,1.176,10.6,9.0,12.0,10.0,99.0
6256,9/17/2012 16:00,3.0,0.861,0.861,0.861,10.6,9.0,12.0,10.0,99.0
6257,9/17/2012 17:00,3.0,0.885,0.885,0.885,10.6,9.0,12.0,10.0,99.0
6258,9/17/2012 18:00,3.0,1.077,1.077,1.077,10.6,9.0,12.0,10.0,99.0
6259,9/17/2012 19:00,3.0,1.1640000000000001,1.1640000000000001,1.1640000000000001,10.6,9.0,12.0,10.0,99.0
6260,9/17/2012 20:00,3.0,1.269,1.269,1.269,10.6,9.0,12.0,10.0,99.0
6261,9/17/2012 21:00,3.0,1.746,1.746,1.746,10.6,9.0,12.0,10.0,99.0
6262,9/17/2012 22:00,3.0,2.319,2.319,2.319,10.6,9.0,12.0,10.0,99.0
6263,9/17/2012 23:00,3.0,0.0,0.0,0.0,10.6,9.0,12.0,10.0,99.0
6264,9/18/2012 0:00,3.0,0.5069999999999999,0.5069999999999999,0.5069999999999999,10.6,9.0,12.0,10.0,99.0
6265,9/18/2012 1:00,3.0,1.26,1.26,1.26,10.6,9.0,12.0,10.0,99.0
6266,9/18/2012 2:00,3.0,2.9250000000000003,2.9250000000000003,2.9250000000000003,10.6,9.0,12.0,10.0,99.0
6267,9/18/2012 3:00,3.0,5.64,5.64,5.64,10.6,9.0,12.0,10.0,99.0
6268,9/18/2012 4:00,3.0,9.327,9.327,9.327,10.6,9.0,12.0,10.0,99.0
6269,9/18/2012 5:00,3.0,13.431,13.431,13.431,10.6,9.0,12.0,10.0,99.0
6270,9/18/2012 6:00,3.0,16.599,16.599,16.599,10.6,9.0,12.0,10.0,99.0
6271,9/18/2012 7:00,2.9673,18.456,18.456,18.456,10.484459999999999,8.9019,11.8692,9.891,97.9209
6272,9/18/2012 8:00,2.9409,16.659,16.659,16.659,10.391179999999999,8.8227,11.7636,9.802999999999999,97.0497
6273,9/18/2012 9:00,2.9276999999999997,15.908999999999999,15.908999999999999,15.908999999999999,10.34454,8.7831,11.710799999999999,9.759,96.6141
6274,9/18/2012 10:00,2.9445,16.476,16.476,16.476,10.4039,8.8335,11.778,9.815000000000001,97.16850000000001
6275,9/18/2012 11:00,2.9678999999999998,17.796,17.796,17.796,10.48658,8.903699999999999,11.871599999999999,9.892999999999999,97.94069999999999
6276,9/18/2012 12:00,2.9745,21.627,21.627,21.627,10.5099,8.9235,11.898,9.915000000000001,98.1585
6277,9/18/2012 13:00,2.9748,23.643,23.643,23.643,10.51096,8.9244,11.8992,9.916,98.1684
6278,9/18/2012 14:00,0.7505999999999999,23.067,23.067,23.067,2.6521199999999996,2.2518,3.0023999999999997,2.502,24.769799999999996
6279,9/18/2012 15:00,0.7965,20.88,20.88,20.88,2.8143000000000002,2.3895,3.186,2.6550000000000002,26.2845
6280,9/18/2012 16:00,0.789,17.589000000000002,17.589000000000002,17.589000000000002,2.7878,2.367,3.156,2.63,26.037000000000003
6281,9/18/2012 17:00,0.7373999999999999,13.5,13.5,13.5,2.60548,2.2121999999999997,2.9495999999999998,2.4579999999999997,24.3342
6282,9/18/2012 18:00,1.9077000000000002,9.456,9.456,9.456,6.74054,5.7231000000000005,7.630800000000001,6.359,62.954100000000004
6283,9/18/2012 19:00,2.2911,6.5520000000000005,6.5520000000000005,6.5520000000000005,8.09522,6.8733,9.1644,7.6370000000000005,75.6063
6284,9/18/2012 20:00,2.4033,5.163,5.163,5.163,8.49166,7.2099,9.6132,8.011000000000001,79.30890000000001
6285,9/18/2012 21:00,2.4042,4.2,4.2,4.2,8.49484,7.2126,9.6168,8.014,79.3386
6286,9/18/2012 22:00,2.4708,4.061999999999999,4.061999999999999,4.061999999999999,8.73016,7.4124,9.8832,8.236,81.5364
6287,9/18/2012 23:00,2.5668,5.466,5.466,5.466,9.06936,7.7004,10.2672,8.556000000000001,84.7044
6288,9/19/2012 0:00,2.5872,27.317999999999998,27.317999999999998,27.317999999999998,9.141440000000001,7.7616000000000005,10.3488,8.624,85.3776
6289,9/19/2012 1:00,2.5229999999999997,24.633000000000003,24.633000000000003,24.633000000000003,8.9146,7.569,10.091999999999999,8.41,83.259
6290,9/19/2012 2:00,2.3874,19.038,19.038,19.038,8.43548,7.1621999999999995,9.5496,7.957999999999999,78.7842
6291,9/19/2012 3:00,2.1786,11.505,11.505,11.505,7.6977199999999995,6.5358,8.7144,7.262,71.8938
6292,9/19/2012 4:00,1.9251,5.625,5.625,5.625,6.802020000000001,5.7753000000000005,7.7004,6.417000000000001,63.5283
6293,9/19/2012 5:00,1.6283999999999998,2.274,2.274,2.274,5.753679999999999,4.885199999999999,6.513599999999999,5.427999999999999,53.737199999999994
6294,9/19/2012 6:00,1.3833,7.281,7.281,7.281,4.88766,4.1499,5.5332,4.611,45.6489
6295,9/19/2012 7:00,1.2189,15.144,15.144,15.144,4.30678,3.6567,4.8756,4.063,40.2237
6296,9/19/2012 8:00,1.206,20.073,20.073,20.073,4.2612000000000005,3.6180000000000003,4.824,4.0200000000000005,39.798
6297,9/19/2012 9:00,1.9860000000000002,22.869,22.869,22.869,7.0172,5.958,7.944000000000001,6.62,65.538
6298,9/19/2012 10:00,2.5770000000000004,25.578,25.578,25.578,9.105400000000001,7.731000000000001,10.308000000000002,8.590000000000002,85.04100000000001
6299,9/19/2012 11:00,2.7893999999999997,27.224999999999998,27.224999999999998,27.224999999999998,9.855879999999999,8.3682,11.157599999999999,9.298,92.05019999999999
6300,9/19/2012 12:00,2.8707,27.410999999999998,27.410999999999998,27.410999999999998,10.143139999999999,8.6121,11.4828,9.568999999999999,94.7331
6301,9/19/2012 13:00,2.9283,27.048,27.048,27.048,10.34666,8.7849,11.7132,9.761,96.6339
6302,9/19/2012 14:00,2.955,26.105999999999998,26.105999999999998,26.105999999999998,10.440999999999999,8.865,11.82,9.85,97.515
6303,9/19/2012 15:00,2.9634,25.758000000000003,25.758000000000003,25.758000000000003,10.47068,8.8902,11.8536,9.878,97.79220000000001
6304,9/19/2012 16:00,2.9634,25.461,25.461,25.461,10.47068,8.8902,11.8536,9.878,97.79220000000001
6305,9/19/2012 17:00,2.9577,24.360000000000003,24.360000000000003,24.360000000000003,10.45054,8.8731,11.8308,9.859,97.6041
6306,9/19/2012 18:00,2.9544,22.058999999999997,22.058999999999997,22.058999999999997,10.43888,8.8632,11.8176,9.848,97.4952
6307,9/19/2012 19:00,2.9538,19.913999999999998,19.913999999999998,19.913999999999998,10.43676,8.8614,11.8152,9.846,97.47540000000001
6308,9/19/2012 20:00,2.9451,17.625,17.625,17.625,10.40602,8.8353,11.7804,9.817,97.1883
6309,9/19/2012 21:00,2.916,29.517,29.517,29.517,10.303199999999999,8.748,11.664,9.719999999999999,96.228
6310,9/19/2012 22:00,2.8818,29.478,29.478,29.478,10.18236,8.6454,11.5272,9.606,95.0994
6311,9/19/2012 23:00,2.7189,29.253,29.253,29.253,9.606779999999999,8.1567,10.8756,9.063,89.7237
6312,9/20/2012 0:00,2.8326000000000002,28.836000000000002,28.836000000000002,28.836000000000002,10.00852,8.4978,11.330400000000001,9.442,93.4758
6313,9/20/2012 1:00,2.8788,27.441,27.441,27.441,10.171759999999999,8.6364,11.5152,9.596,95.0004
6314,9/20/2012 2:00,3.0,25.232999999999997,25.232999999999997,25.232999999999997,10.6,9.0,12.0,10.0,99.0
6315,9/20/2012 3:00,3.0,21.906,21.906,21.906,10.6,9.0,12.0,10.0,99.0
6316,9/20/2012 4:00,3.0,16.098,16.098,16.098,10.6,9.0,12.0,10.0,99.0
6317,9/20/2012 5:00,3.0,9.399000000000001,9.399000000000001,9.399000000000001,10.6,9.0,12.0,10.0,99.0
6318,9/20/2012 6:00,2.949,4.014,4.014,4.014,10.419799999999999,8.847,11.796,9.83,97.317
6319,9/20/2012 7:00,2.9604,1.4280000000000002,1.4280000000000002,1.4280000000000002,10.46008,8.8812,11.8416,9.868,97.6932
6320,9/20/2012 8:00,2.9688,0.9779999999999999,0.9779999999999999,0.9779999999999999,10.48976,8.9064,11.8752,9.896,97.9704
6321,9/20/2012 9:00,2.9721,1.38,1.38,1.38,10.50142,8.9163,11.8884,9.907,98.0793
6322,9/20/2012 10:00,2.9772,1.614,1.614,1.614,10.51944,8.9316,11.9088,9.924,98.24759999999999
6323,9/20/2012 11:00,3.0,1.359,1.359,1.359,10.6,9.0,12.0,10.0,99.0
6324,9/20/2012 12:00,3.0,2.253,2.253,2.253,10.6,9.0,12.0,10.0,99.0
6325,9/20/2012 13:00,3.0,3.318,3.318,3.318,10.6,9.0,12.0,10.0,99.0
6326,9/20/2012 14:00,2.9703,4.725,4.725,4.725,10.495059999999999,8.9109,11.8812,9.901,98.01989999999999
6327,9/20/2012 15:00,2.9349,8.556000000000001,8.556000000000001,8.556000000000001,10.36998,8.8047,11.7396,9.783,96.8517
6328,9/20/2012 16:00,2.8149,13.089,13.089,13.089,9.94598,8.444700000000001,11.2596,9.383000000000001,92.8917
6329,9/20/2012 17:00,2.3475,18.996,18.996,18.996,8.2945,7.0424999999999995,9.39,7.824999999999999,77.4675
6330,9/20/2012 18:00,1.4622,24.939,24.939,24.939,5.16644,4.3866,5.8488,4.874,48.2526
6331,9/20/2012 19:00,0.8319,27.450000000000003,27.450000000000003,27.450000000000003,2.93938,2.4957,3.3276,2.7729999999999997,27.4527
6332,9/20/2012 20:00,0.5616,27.927,27.927,27.927,1.98432,1.6848,2.2464,1.872,18.5328
6333,9/20/2012 21:00,0.483,27.798,27.798,27.798,1.7066,1.449,1.932,1.61,15.939
6334,9/20/2012 22:00,0.7404,27.42,27.42,27.42,2.6160799999999997,2.2212,2.9616,2.468,24.4332
6335,9/20/2012 23:00,1.2999,26.466,26.466,26.466,4.59298,3.8997,5.1996,4.333,42.8967
6336,9/21/2012 0:00,1.5663,24.288,24.288,24.288,5.53426,4.6989,6.2652,5.221,51.6879
6337,9/21/2012 1:00,1.3686,20.634,20.634,20.634,4.835719999999999,4.1058,5.4744,4.562,45.1638
6338,9/21/2012 2:00,1.0248,13.353,13.353,13.353,3.62096,3.0744000000000002,4.0992,3.4160000000000004,33.818400000000004
6339,9/21/2012 3:00,0.8139,6.345,6.345,6.345,2.87578,2.4417,3.2556,2.713,26.8587
6340,9/21/2012 4:00,0.7748999999999999,3.234,3.234,3.234,2.7379799999999994,2.3247,3.0995999999999997,2.5829999999999997,25.571699999999996
6341,9/21/2012 5:00,0.8213999999999999,2.892,2.892,2.892,2.9022799999999997,2.4642,3.2855999999999996,2.738,27.106199999999998
6342,9/21/2012 6:00,0.9333,6.954000000000001,6.954000000000001,6.954000000000001,3.2976599999999996,2.7999,3.7332,3.1109999999999998,30.7989
6343,9/21/2012 7:00,1.1328,14.492999999999999,14.492999999999999,14.492999999999999,4.00256,3.3984,4.5312,3.776,37.3824
6344,9/21/2012 8:00,1.4592,16.518,16.518,16.518,5.1558399999999995,4.3776,5.8368,4.864,48.1536
6345,9/21/2012 9:00,1.7835,14.211,14.211,14.211,6.3017,5.3505,7.134,5.945,58.855500000000006
6346,9/21/2012 10:00,1.9620000000000002,11.283,11.283,11.283,6.9324,5.886,7.848000000000001,6.54,64.74600000000001
6347,9/21/2012 11:00,2.1144,8.616,8.616,8.616,7.470879999999999,6.3431999999999995,8.4576,7.048,69.7752
6348,9/21/2012 12:00,2.2221,6.867,6.867,6.867,7.85142,6.666300000000001,8.8884,7.407,73.3293
6349,9/21/2012 13:00,2.2829999999999995,6.119999999999999,6.119999999999999,6.119999999999999,8.0666,6.848999999999999,9.131999999999998,7.609999999999999,75.33899999999998
6350,9/21/2012 14:00,2.2839,6.6450000000000005,6.6450000000000005,6.6450000000000005,8.06978,6.8517,9.1356,7.6129999999999995,75.3687
6351,9/21/2012 15:00,2.268,7.7250000000000005,7.7250000000000005,7.7250000000000005,8.013599999999999,6.803999999999999,9.072,7.559999999999999,74.844
6352,9/21/2012 16:00,2.2155,8.856,8.856,8.856,7.8281,6.6465000000000005,8.862,7.385000000000001,73.1115
6353,9/21/2012 17:00,2.1192,8.187,8.187,8.187,7.48784,6.357600000000001,8.4768,7.064,69.9336
6354,9/21/2012 18:00,2.0484,5.673,5.673,5.673,7.237679999999999,6.1452,8.1936,6.827999999999999,67.5972
6355,9/21/2012 19:00,2.0568,3.8220000000000005,3.8220000000000005,3.8220000000000005,7.26736,6.1704,8.2272,6.856,67.8744
6356,9/21/2012 20:00,2.0964,2.592,2.592,2.592,7.407279999999999,6.2892,8.3856,6.9879999999999995,69.1812
6357,9/21/2012 21:00,2.1546,1.776,1.776,1.776,7.612919999999999,6.463799999999999,8.6184,7.1819999999999995,71.1018
6358,9/21/2012 22:00,2.1525,1.209,1.209,1.209,7.6055,6.4575000000000005,8.61,7.175000000000001,71.0325
6359,9/21/2012 23:00,2.1273,0.9299999999999999,0.9299999999999999,0.9299999999999999,7.5164599999999995,6.3819,8.5092,7.090999999999999,70.20089999999999
6360,9/22/2012 0:00,0.5865,0.7949999999999999,0.7949999999999999,0.7949999999999999,2.0723,1.7595,2.346,1.955,19.3545
6361,9/22/2012 1:00,0.2022,0.729,0.729,0.729,0.71444,0.6066,0.8088,0.674,6.6726
6362,9/22/2012 2:00,0.041999999999999996,0.663,0.663,0.663,0.14839999999999998,0.126,0.16799999999999998,0.13999999999999999,1.386
6363,9/22/2012 3:00,0.0,0.9390000000000001,0.9390000000000001,0.9390000000000001,0.0,0.0,0.0,0.0,0.0
6364,9/22/2012 4:00,0.0,1.431,1.431,1.431,0.0,0.0,0.0,0.0,0.0
6365,9/22/2012 5:00,0.0,2.076,2.076,2.076,0.0,0.0,0.0,0.0,0.0
6366,9/22/2012 6:00,0.044700000000000004,3.474,3.474,3.474,0.15794,0.1341,0.17880000000000001,0.149,1.4751
6367,9/22/2012 7:00,0.1017,5.625,5.625,5.625,0.35934,0.3051,0.4068,0.33899999999999997,3.3561
6368,9/22/2012 8:00,0.18930000000000002,5.763,5.763,5.763,0.66886,0.5679000000000001,0.7572000000000001,0.631,6.2469
6369,9/22/2012 9:00,0.291,7.853999999999999,7.853999999999999,7.853999999999999,1.0281999999999998,0.8729999999999999,1.164,0.9699999999999999,9.603
6370,9/22/2012 10:00,0.2967,8.766,8.766,8.766,1.04834,0.8901,1.1868,0.989,9.7911
6371,9/22/2012 11:00,0.2904,11.124,11.124,11.124,1.0260799999999999,0.8712,1.1616,0.968,9.5832
6372,9/22/2012 12:00,0.3267,14.597999999999999,14.597999999999999,14.597999999999999,1.15434,0.9801,1.3068,1.089,10.7811
6373,9/22/2012 13:00,0.3285,18.921,18.921,18.921,1.1607,0.9855,1.314,1.095,10.8405
6374,9/22/2012 14:00,0.2979,23.307000000000002,23.307000000000002,23.307000000000002,1.0525799999999998,0.8936999999999999,1.1916,0.993,9.8307
6375,9/22/2012 15:00,0.2757,26.322,26.322,26.322,0.9741399999999999,0.8271,1.1028,0.9189999999999999,9.098099999999999
6376,9/22/2012 16:00,0.29309999999999997,27.020999999999997,27.020999999999997,27.020999999999997,1.03562,0.8793,1.1723999999999999,0.977,9.6723
6377,9/22/2012 17:00,0.3285,25.995,25.995,25.995,1.1607,0.9855,1.314,1.095,10.8405
6378,9/22/2012 18:00,0.3588,23.301,23.301,23.301,1.26776,1.0764,1.4352,1.196,11.840399999999999
6379,9/22/2012 19:00,0.3198,19.086,19.086,19.086,1.12996,0.9594,1.2792,1.066,10.5534
6380,9/22/2012 20:00,0.22440000000000002,15.051000000000002,15.051000000000002,15.051000000000002,0.79288,0.6732,0.8976000000000001,0.748,7.405200000000001
6381,9/22/2012 21:00,0.14550000000000002,10.458,10.458,10.458,0.5141,0.4365,0.5820000000000001,0.485,4.8015
6382,9/22/2012 22:00,0.10200000000000001,6.516,6.516,6.516,0.3604,0.30600000000000005,0.40800000000000003,0.34,3.366
6383,9/22/2012 23:00,0.09659999999999999,4.053,4.053,4.053,0.34131999999999996,0.2898,0.38639999999999997,0.322,3.1877999999999997
6384,9/23/2012 0:00,0.1236,2.742,2.742,2.742,0.43672,0.3708,0.4944,0.41200000000000003,4.0788
6385,9/23/2012 1:00,0.1716,2.2560000000000002,2.2560000000000002,2.2560000000000002,0.60632,0.5148,0.6864,0.5720000000000001,5.6628
6386,9/23/2012 2:00,0.22049999999999997,3.216,3.216,3.216,0.7790999999999999,0.6615,0.8819999999999999,0.735,7.2764999999999995
6387,9/23/2012 3:00,0.25079999999999997,3.057,3.057,3.057,0.88616,0.7524,1.0031999999999999,0.836,8.276399999999999
6388,9/23/2012 4:00,0.2943,2.841,2.841,2.841,1.03986,0.8829,1.1772,0.9810000000000001,9.7119
6389,9/23/2012 5:00,0.36660000000000004,4.077,4.077,4.077,1.29532,1.0998,1.4664000000000001,1.222,12.0978
6390,9/23/2012 6:00,0.351,6.198,6.198,6.198,1.2402,1.053,1.404,1.17,11.582999999999998
6391,9/23/2012 7:00,0.25229999999999997,7.614000000000001,7.614000000000001,7.614000000000001,0.8914599999999999,0.7568999999999999,1.0091999999999999,0.841,8.325899999999999
6392,9/23/2012 8:00,0.174,8.111999999999998,8.111999999999998,8.111999999999998,0.6147999999999999,0.522,0.696,0.58,5.742
6393,9/23/2012 9:00,0.15389999999999998,7.968,7.968,7.968,0.5437799999999999,0.4617,0.6155999999999999,0.513,5.0786999999999995
6394,9/23/2012 10:00,0.1767,8.556000000000001,8.556000000000001,8.556000000000001,0.62434,0.5301,0.7068,0.589,5.8311
6395,9/23/2012 11:00,0.2703,9.504000000000001,9.504000000000001,9.504000000000001,0.9550599999999999,0.8109,1.0812,0.901,8.9199
6396,9/23/2012 12:00,0.495,10.494,10.494,10.494,1.749,1.485,1.98,1.6500000000000001,16.335
6397,9/23/2012 13:00,0.8904000000000001,11.127,11.127,11.127,3.14608,2.6712000000000002,3.5616000000000003,2.968,29.383200000000002
6398,9/23/2012 14:00,1.2957,11.511,11.511,11.511,4.57814,3.8871,5.1828,4.319,42.7581
6399,9/23/2012 15:00,1.4627999999999999,12.612,12.612,12.612,5.168559999999999,4.3884,5.8511999999999995,4.8759999999999994,48.2724
6400,9/23/2012 16:00,1.6122,14.879999999999999,14.879999999999999,14.879999999999999,5.69644,4.8366,6.4488,5.374,53.2026
6401,9/23/2012 17:00,1.9529999999999998,17.109,17.109,17.109,6.900599999999999,5.858999999999999,7.811999999999999,6.509999999999999,64.449
6402,9/23/2012 18:00,2.223,18.441000000000003,18.441000000000003,18.441000000000003,7.8546,6.669,8.892,7.41,73.359
6403,9/23/2012 19:00,2.3364000000000003,18.429,18.429,18.429,8.25528,7.009200000000001,9.345600000000001,7.788,77.1012
6404,9/23/2012 20:00,2.3537999999999997,17.817,17.817,17.817,8.316759999999999,7.0614,9.415199999999999,7.846,77.6754
6405,9/23/2012 21:00,2.3457,16.308,16.308,16.308,8.28814,7.037100000000001,9.3828,7.819000000000001,77.4081
6406,9/23/2012 22:00,0.11100000000000002,12.738,12.738,12.738,0.39220000000000005,0.3330000000000001,0.44400000000000006,0.37000000000000005,3.6630000000000007
6407,9/23/2012 23:00,0.0933,11.004000000000001,11.004000000000001,11.004000000000001,0.32965999999999995,0.2799,0.3732,0.311,3.0789
6408,9/24/2012 0:00,0.0834,10.272,10.272,10.272,0.29468,0.2502,0.3336,0.27799999999999997,2.7521999999999998
6409,9/24/2012 1:00,0.0849,10.680000000000001,10.680000000000001,10.680000000000001,0.29997999999999997,0.2547,0.3396,0.283,2.8017
6410,9/24/2012 2:00,0.0933,9.798,9.798,9.798,0.32965999999999995,0.2799,0.3732,0.311,3.0789
6411,9/24/2012 3:00,0.1272,7.164000000000001,7.164000000000001,7.164000000000001,0.44944,0.3816,0.5088,0.424,4.1976
6412,9/24/2012 4:00,0.2733,5.568,5.568,5.568,0.96566,0.8199,1.0932,0.911,9.0189
6413,9/24/2012 5:00,0.6369,5.319000000000001,5.319000000000001,5.319000000000001,2.25038,1.9106999999999998,2.5476,2.1229999999999998,21.017699999999998
6414,9/24/2012 6:00,1.0149,5.697,5.697,5.697,3.5859799999999997,3.0446999999999997,4.0596,3.383,33.4917
6415,9/24/2012 7:00,1.1898,5.517,5.517,5.517,4.20396,3.5694,4.7592,3.966,39.263400000000004
6416,9/24/2012 8:00,1.2597,5.1419999999999995,5.1419999999999995,5.1419999999999995,4.45094,3.7791,5.0388,4.199,41.5701
6417,9/24/2012 9:00,1.3161,1.095,1.095,1.095,4.65022,3.9482999999999997,5.2644,4.387,43.4313
6418,9/24/2012 10:00,1.4283000000000001,10.818,10.818,10.818,5.04666,4.2849,5.7132000000000005,4.761,47.133900000000004
6419,9/24/2012 11:00,1.7109,10.98,10.98,10.98,6.04518,5.1327,6.8436,5.703,56.459700000000005
6420,9/24/2012 12:00,1.9427999999999999,10.944,10.944,10.944,6.864559999999999,5.828399999999999,7.771199999999999,6.475999999999999,64.1124
6421,9/24/2012 13:00,1.9331999999999998,9.998999999999999,9.998999999999999,9.998999999999999,6.83064,5.7996,7.732799999999999,6.444,63.7956
6422,9/24/2012 14:00,1.8588,10.02,10.02,10.02,6.56776,5.5764000000000005,7.4352,6.196000000000001,61.3404
6423,9/24/2012 15:00,1.9143,10.701,10.701,10.701,6.76386,5.7429,7.6572,6.381,63.1719
6424,9/24/2012 16:00,2.0646,8.166,8.166,8.166,7.29492,6.1938,8.2584,6.882000000000001,68.1318
6425,9/24/2012 17:00,2.1807,7.074,7.074,7.074,7.705139999999999,6.5421,8.7228,7.269,71.9631
6426,9/24/2012 18:00,2.262,4.5089999999999995,4.5089999999999995,4.5089999999999995,7.9924,6.786,9.048,7.54,74.646
6427,9/24/2012 19:00,2.2527,1.776,1.776,1.776,7.95954,6.7581,9.0108,7.509,74.3391
6428,9/24/2012 20:00,2.0987999999999998,0.624,0.624,0.624,7.41576,6.2964,8.395199999999999,6.996,69.2604
6429,9/24/2012 21:00,1.8369,0.24,0.24,0.24,6.490379999999999,5.5107,7.3476,6.122999999999999,60.61769999999999
6430,9/24/2012 22:00,1.6455,0.0,0.0,0.0,5.8141,4.9365,6.582,5.484999999999999,54.3015
6431,9/24/2012 23:00,1.3812,0.0,0.0,0.0,4.88024,4.1436,5.5248,4.604,45.5796
6432,9/25/2012 0:00,1.1895,0.0,0.0,0.0,4.2029,3.5685000000000002,4.758,3.9650000000000003,39.2535
6433,9/25/2012 1:00,0.7401,0.0,0.0,0.0,2.61502,2.2203,2.9604,2.467,24.4233
6434,9/25/2012 2:00,0.2964,0.525,0.525,0.525,1.04728,0.8892,1.1856,0.988,9.7812
6435,9/25/2012 3:00,0.0972,1.7189999999999999,1.7189999999999999,1.7189999999999999,0.34343999999999997,0.29159999999999997,0.3888,0.32399999999999995,3.2076
6436,9/25/2012 4:00,0.6657,4.155,4.155,4.155,2.35214,1.9970999999999999,2.6628,2.219,21.9681
6437,9/25/2012 5:00,0.7505999999999999,6.593999999999999,6.593999999999999,6.593999999999999,2.6521199999999996,2.2518,3.0023999999999997,2.502,24.769799999999996
6438,9/25/2012 6:00,0.7416,6.666,6.666,6.666,2.62032,2.2248,2.9664,2.472,24.4728
6439,9/25/2012 7:00,0.6155999999999999,6.5760000000000005,6.5760000000000005,6.5760000000000005,2.1751199999999997,1.8468,2.4623999999999997,2.052,20.314799999999998
6440,9/25/2012 8:00,0.5468999999999999,6.795,6.795,6.795,1.9323799999999998,1.6406999999999998,2.1875999999999998,1.823,18.0477
6441,9/25/2012 9:00,0.6288,6.7410000000000005,6.7410000000000005,6.7410000000000005,2.22176,1.8864,2.5152,2.096,20.7504
6442,9/25/2012 10:00,0.9147000000000001,7.272,7.272,7.272,3.23194,2.7441,3.6588000000000003,3.049,30.185100000000002
6443,9/25/2012 11:00,1.4409,8.676,8.676,8.676,5.09118,4.3227,5.7636,4.803,47.5497
6444,9/25/2012 12:00,2.1501,10.334999999999999,10.334999999999999,10.334999999999999,7.59702,6.4503,8.6004,7.167,70.9533
6445,9/25/2012 13:00,2.5857,10.649999999999999,10.649999999999999,10.649999999999999,9.13614,7.7571,10.3428,8.619,85.3281
6446,9/25/2012 14:00,2.7576,9.915000000000001,9.915000000000001,9.915000000000001,9.74352,8.2728,11.0304,9.192,91.0008
6447,9/25/2012 15:00,2.8338,12.579,12.579,12.579,10.01276,8.5014,11.3352,9.446,93.5154
6448,9/25/2012 16:00,2.8425000000000002,17.403,17.403,17.403,10.0435,8.5275,11.370000000000001,9.475,93.8025
6449,9/25/2012 17:00,2.8302,20.663999999999998,20.663999999999998,20.663999999999998,10.00004,8.4906,11.3208,9.434000000000001,93.3966
6450,9/25/2012 18:00,2.8086,22.596,22.596,22.596,9.92372,8.4258,11.2344,9.362,92.6838
6451,9/25/2012 19:00,2.7657000000000003,24.132,24.132,24.132,9.77214,8.2971,11.062800000000001,9.219000000000001,91.2681
6452,9/25/2012 20:00,2.6943,24.951,24.951,24.951,9.51986,8.0829,10.7772,8.981,88.9119
6453,9/25/2012 21:00,2.5734,25.355999999999998,25.355999999999998,25.355999999999998,9.09268,7.7202,10.2936,8.578,84.9222
6454,9/25/2012 22:00,2.3817000000000004,16.137,16.137,16.137,8.41534,7.1451,9.526800000000001,7.939,78.5961
6455,9/25/2012 23:00,2.1576,15.96,15.96,15.96,7.623519999999999,6.472799999999999,8.6304,7.191999999999999,71.2008
6456,9/26/2012 0:00,1.9884,23.823,23.823,23.823,7.0256799999999995,5.965199999999999,7.9536,6.627999999999999,65.6172
6457,9/26/2012 1:00,1.3446,24.369,24.369,24.369,4.75092,4.0338,5.3784,4.482,44.3718
6458,9/26/2012 2:00,2.3013,24.255,24.255,24.255,8.13126,6.9039,9.2052,7.671,75.9429
6459,9/26/2012 3:00,1.2606000000000002,23.031000000000002,23.031000000000002,23.031000000000002,4.45412,3.7818,5.042400000000001,4.202,41.5998
6460,9/26/2012 4:00,0.9378,21.138,21.138,21.138,3.31356,2.8133999999999997,3.7512,3.126,30.9474
6461,9/26/2012 5:00,0.6567000000000001,18.39,18.39,18.39,2.32034,1.9701000000000002,2.6268000000000002,2.189,21.671100000000003
6462,9/26/2012 6:00,0.3852,13.473,13.473,13.473,1.3610399999999998,1.1556,1.5408,1.2839999999999998,12.711599999999999
6463,9/26/2012 7:00,0.1722,7.71,7.71,7.71,0.60844,0.5166,0.6888,0.574,5.6826
6464,9/26/2012 8:00,0.07289999999999999,3.588,3.588,3.588,0.25758,0.21869999999999998,0.29159999999999997,0.243,2.4057
6465,9/26/2012 9:00,0.0324,1.488,1.488,1.488,0.11448,0.09720000000000001,0.1296,0.10800000000000001,1.0692000000000002
6466,9/26/2012 10:00,0.0,0.6449999999999999,0.6449999999999999,0.6449999999999999,0.0,0.0,0.0,0.0,0.0
6467,9/26/2012 11:00,0.024,0.321,0.321,0.321,0.0848,0.07200000000000001,0.096,0.08,0.792
6468,9/26/2012 12:00,0.0336,0.0,0.0,0.0,0.11871999999999999,0.1008,0.1344,0.112,1.1088
6469,9/26/2012 13:00,0.0516,0.0,0.0,0.0,0.18231999999999998,0.1548,0.2064,0.172,1.7028
6470,9/26/2012 14:00,0.093,0.0,0.0,0.0,0.3286,0.279,0.372,0.31,3.069
6471,9/26/2012 15:00,0.2004,0.0,0.0,0.0,0.7080799999999999,0.6012,0.8016,0.6679999999999999,6.6132
6472,9/26/2012 16:00,0.4551,0.243,0.243,0.243,1.60802,1.3653,1.8204,1.517,15.0183
6473,9/26/2012 17:00,2.6238,0.273,0.273,0.273,9.270760000000001,7.8714,10.4952,8.746,86.5854
6474,9/26/2012 18:00,2.6913,0.249,0.249,0.249,9.50926,8.0739,10.7652,8.971,88.8129
6475,9/26/2012 19:00,2.5905,0.21300000000000002,0.21300000000000002,0.21300000000000002,9.1531,7.7715000000000005,10.362,8.635,85.4865
6476,9/26/2012 20:00,0.9422999999999999,0.0,0.0,0.0,3.3294599999999996,2.8268999999999997,3.7691999999999997,3.141,31.0959
6477,9/26/2012 21:00,1.3572000000000002,0.0,0.0,0.0,4.79544,4.0716,5.428800000000001,4.524,44.787600000000005
6478,9/26/2012 22:00,1.8261,0.0,0.0,0.0,6.45222,5.4783,7.3044,6.087,60.2613
6479,9/26/2012 23:00,2.2533,0.231,0.231,0.231,7.961659999999999,6.7599,9.0132,7.511,74.3589
