,Model,Scenario,Region,Variable,Unit,2015,2016,2017,2018,2019,2020,2021,2022,2023,2024,2025,2026,2027,2028,2029,2030,2031,2032,2033,2034,2035,2036,2037,2038,2039,2040,2041,2042,2043,2044,2045,2046,2047,2048,2049,2050,2051,2052,2053,2054,2055,2056,2057,2058,2059,2060,2061,2062,2063,2064,2065
0,OSMOSIS,g,AB,Total Capacity|COALe,GW,6.286,6.286,6.286,6.286,6.286,5.262,3.687,3.302,3.302,2.496,2.496,2.496,1.716,1.716,1.716,0.916,0.0,0.0,0.0,0.0,0.0,0.0,0.0,0.0,0.0,0.0,0.0,0.0,0.0,0.0,0.0,0.0,0.0,0.0,0.0,0.0,0.0,0.0,0.0,0.0,0.0,0.0,0.0,0.0,0.0,0.0,0.0,0.0,0.0,0.0,0.0
1,OSMOSIS,g,AB,Total Capacity|COALccs,GW,0.0,0.0,0.0,0.0,0.0,0.0,0.0,0.0,0.0,0.0,0.0,0.0,0.0,0.0,0.0,0.0,0.0,0.0,0.0,0.0,0.0,0.0,0.0,0.0,0.0,0.0,0.0,0.0,0.0,0.0,0.0,0.0,0.0,0.0,0.0,0.0,0.0,0.0,0.0,0.0,0.0,0.0,0.0,0.0,0.0,0.0,0.0,0.0,0.0,0.0,0.0
2,OSMOSIS,g,AB,Total Capacity|COGEN,GW,4.502,4.502,4.502,4.502,4.502,4.99593,5.23143,5.353,5.353,5.39921,5.39921,5.39921,5.39921,5.39921,5.39921,5.39921,5.48895,5.48895,5.44995,5.35495,4.51895,4.04511,4.13959,3.95959,3.46859,3.28359,3.27059,2.41202,2.41202,2.30902,2.21702,1.31502,1.31502,1.31502,1.31502,0.821093,0.585592,0.46402,0.46402,0.417806,0.417806,0.417806,0.417806,0.417806,0.417806,0.417806,0.328066,0.328066,0.328066,0.328066,0.328066
3,OSMOSIS,g,AB,Total Capacity|CCGT,GW,1.716,1.716,1.716,1.716,1.716,1.73422,1.79283,1.79283,1.79283,1.79283,1.79283,1.79283,1.79283,1.79283,1.79283,1.79283,1.79283,1.79283,1.79283,1.79283,1.79283,1.79283,1.33283,1.12283,0.728826,0.728826,0.728826,0.728826,0.728826,0.728826,0.728826,0.0768263,0.0768263,0.0768263,0.0768263,0.0586044,0.0,0.0,0.0,0.0,0.0,0.0,0.0,0.0,0.0,0.0,0.0,0.0,0.0,0.0,0.0
4,OSMOSIS,g,AB,Total Capacity|CCGTccs,GW,0.0,0.0,0.0,0.0,0.0,0.0,0.0,0.0,0.0,0.0,0.0,0.0,0.0,0.0,0.0,0.0,0.0,0.0,0.0,0.0,0.0,0.256544,0.35159,0.391115,0.968759,1.3471,1.46967,2.06481,2.14782,2.54081,3.03983,3.65914,3.76477,3.8328,3.9016,3.9016,4.50029,4.81216,4.88362,5.09093,5.18446,5.28201,5.59596,5.86759,6.45115,7.16303,7.45705,7.77247,8.05542,8.26884,8.70755
5,OSMOSIS,g,AB,Total Capacity|OCGT,GW,0.996,0.996,0.996,0.996,0.996,1.42052,1.91878,1.96688,1.96688,2.47614,2.47614,2.47614,2.84746,2.94973,3.33023,3.8685,4.41237,4.51858,4.59023,4.54223,4.63739,4.78058,5.17084,5.62848,6.10225,6.10225,6.10225,6.44786,6.44786,6.23086,6.29623,6.78454,6.78454,6.78454,6.78454,6.36002,6.12532,6.07722,6.07722,5.9881,5.9881,6.08764,5.97274,5.90216,5.52165,5.01486,5.01772,4.91152,4.83986,4.83986,4.6167
6,OSMOSIS,g,AB,Total Capacity|RICE,GW,0.0,0.0,0.0,0.0,0.0,0.0,0.0,0.0,0.0,0.0,0.0,0.0,0.0,0.0,0.0,0.0,0.0,0.0,0.0,0.0,0.0,0.0,0.0,0.0,0.0,0.0,0.0,0.0,0.0,0.0,0.0,0.0,0.0,0.0,0.0,0.0,0.0,0.0,0.0,0.0,0.0,0.0,0.0,0.0,0.0,0.0,0.0,0.0,0.0,0.0,0.0
7,OSMOSIS,g,AB,Total Capacity|BIO,GW,0.404,0.352,0.352,0.352,0.352,0.327,0.327,0.316,0.316,0.306264,0.306264,0.306264,0.597096,0.597096,0.597096,0.597096,0.985306,0.985306,0.985306,0.985306,1.05112,1.26316,1.21761,1.27522,1.27522,1.27522,1.27522,1.27522,1.27522,1.26695,1.26695,1.301,1.26316,1.26316,1.26316,1.26316,1.26316,1.26316,1.26316,1.26316,1.26316,1.26316,1.26316,1.26316,1.26316,1.26316,1.26316,1.26316,1.26316,1.26316,1.26316
8,OSMOSIS,g,AB,Total Capacity|HYDab,GW,0.894,0.894,0.894,0.894,0.894,0.894,0.894,1.06569,1.06569,1.2,1.2,1.2,1.2,1.2,1.2,1.2,1.2,1.2,1.2,2.294,2.294,2.294,2.294,2.294,2.294,2.294,2.294,2.294,2.294,2.294,2.294,2.294,2.294,2.294,2.294,3.3,3.3,3.3,3.3,3.3,3.3,3.3,3.3,3.3,3.3,3.3,3.3,3.3,3.3,3.3,3.3
9,OSMOSIS,g,AB,Total Capacity|GEOab,GW,0.0,0.0,0.0,0.0,0.0,0.0,0.0,0.0,0.0,0.0,0.0,0.0,0.0,0.0,0.0,0.0,0.0,0.0,0.0,0.0,0.0,0.0,0.0,0.0,0.0,0.0,0.0,0.0,0.0,0.0,0.0,0.0,0.0,0.0,0.0,0.0,0.0,0.0,0.0,0.0,0.0,0.0,0.0,0.0,0.0,0.0,0.0,0.0,0.0,0.0,0.0
10,OSMOSIS,g,AB,Total Capacity|WIND,GW,1.463,1.463,1.5454315,2.024221,2.51206,3.00599,4.3129800000000005,5.316093000000001,6.3235410000000005,7.651590000000001,8.67829,9.636420000000001,11.159912,11.614072,12.051112,12.589382,12.972252000000001,13.441202,13.731691999999999,13.665692,13.449691999999999,13.361692,13.134692000000001,13.134692000000001,13.134692000000001,12.966292,13.367542,13.962692,14.563782,15.298341,16.524700000000003,17.26507,18.01453,18.774320000000003,19.54118,20.316740000000003,21.10105,21.415660000000003,22.21444,23.02267,23.7,23.7,23.7,23.7,23.7,23.7,23.7,23.7,23.7,23.7,23.7
11,OSMOSIS,g,AB,Total Capacity|SOLcLETH,GW,0.0,0.0,0.0,0.0,0.0,0.0,0.0,0.0,0.0,0.0946852,0.608036,1.1256,1.6489,2.17805,2.7111,3.24936,3.79324,4.34318,4.89574,5.45274,6.01333,6.57821,7.14447,7.7164,8.29404,8.87746,9.46671,10.0619,10.663,11.2701,11.8832,12.5026,13.1281,13.7598,14.3032,14.4343,14.5677,14.7018,14.8366,14.9742,15.1133,15.2535,15.3945,15.5398,15.6876,15.8389,15.993,16.153,16.3145,16.4776,16.6424
12,OSMOSIS,g,AB,Electricity Generation|COALe,GWh,45131.0,33039.2,34766.9,46805.6,46657.6,29890.4,24400.2,20484.7,17355.3,13119.0,13119.0,13119.0,9019.3,9019.3,9019.3,4814.5,0.0,0.0,0.0,0.0,0.0,0.0,0.0,0.0,0.0,0.0,0.0,0.0,0.0,0.0,0.0,0.0,0.0,0.0,0.0,0.0,0.0,0.0,0.0,0.0,0.0,0.0,0.0,0.0,0.0,0.0,0.0,0.0,0.0,0.0,0.0
13,OSMOSIS,g,AB,Electricity Generation|COALccs,GWh,0.0,0.0,0.0,0.0,0.0,0.0,0.0,0.0,0.0,0.0,0.0,0.0,0.0,0.0,0.0,0.0,0.0,0.0,0.0,0.0,0.0,0.0,0.0,0.0,0.0,0.0,0.0,0.0,0.0,0.0,0.0,0.0,0.0,0.0,0.0,0.0,0.0,0.0,0.0,0.0,0.0,0.0,0.0,0.0,0.0,0.0,0.0,0.0,0.0,0.0,0.0
14,OSMOSIS,g,AB,Electricity Generation|COGEN,GWh,26304.8,26304.8,26304.8,26304.8,26304.8,29190.8,30566.8,31277.2,31277.2,31547.2,31547.2,31547.2,31547.2,31547.2,29481.7,31461.0,31630.7,29868.8,28196.7,25809.2,24956.5,21077.6,20652.0,19809.5,16040.9,14058.2,12916.4,9699.64,10091.4,9541.09,8777.81,5224.83,5283.81,5346.8,5465.08,3768.75,2699.72,2139.25,2139.25,1968.55,1989.94,1988.6,1913.81,1881.89,1843.68,1842.63,1389.77,1412.36,1497.35,1426.48,1479.81
15,OSMOSIS,g,AB,Electricity Generation|CCGT,GWh,0.0,11772.8,12772.9,156.67,0.0,13216.9,13663.5,13663.5,13663.5,13640.1,9460.62,5472.03,2030.98,264.031,252.545,313.911,454.005,491.829,468.202,245.055,452.671,480.011,409.272,400.226,264.017,275.775,319.556,537.072,489.423,324.478,264.017,46.4607,37.8118,29.1242,27.8303,21.2295,0.0,0.0,0.0,0.0,0.0,0.0,0.0,0.0,0.0,0.0,0.0,0.0,0.0,0.0,0.0
16,OSMOSIS,g,AB,Electricity Generation|CCGTccs,GWh,0.0,0.0,0.0,0.0,0.0,0.0,0.0,0.0,0.0,0.0,0.0,0.0,0.0,0.0,0.0,0.0,0.0,0.0,0.0,0.0,0.0,1955.17,2268.77,2525.82,6189.63,8496.22,8823.47,11918.2,12752.4,15161.9,17533.0,20661.9,21800.7,22672.1,23582.6,24279.9,27731.8,29389.4,30242.7,31590.2,32005.7,32675.7,34463.0,35992.8,39823.4,45247.7,46861.1,49878.7,52844.0,54125.8,58170.7
17,OSMOSIS,g,AB,Electricity Generation|OCGT,GWh,0.0,0.0,0.0,0.0,0.0,0.0,0.0,0.0,0.0,0.0,0.0,0.0,0.0,0.0,0.0,30.9286,64.6962,78.7177,78.9648,6.88374,96.9745,128.106,230.432,305.033,445.746,479.392,524.293,636.373,623.125,533.056,378.689,714.971,700.482,685.907,672.763,512.729,421.399,390.416,383.975,345.191,341.416,352.109,322.575,301.229,221.759,118.54,110.657,97.0055,86.0745,80.8422,57.649
18,OSMOSIS,g,AB,Electricity Generation|RICE,GWh,0.0,0.0,0.0,0.0,0.0,0.0,0.0,0.0,0.0,0.0,0.0,0.0,0.0,0.0,0.0,0.0,0.0,0.0,0.0,0.0,0.0,0.0,0.0,0.0,0.0,0.0,0.0,0.0,0.0,0.0,0.0,0.0,0.0,0.0,0.0,0.0,0.0,0.0,0.0,0.0,0.0,0.0,0.0,0.0,0.0,0.0,0.0,0.0,0.0,0.0,0.0
19,OSMOSIS,g,AB,Electricity Generation|BIO,GWh,2937.4,2559.32,2559.32,2559.32,2559.32,2377.55,2377.55,2297.57,2297.57,2226.79,2226.79,2226.79,4341.36,4341.36,4341.36,4341.36,7163.96,7163.96,7163.96,7163.96,7642.49,9184.16,8853.02,9079.41,9108.8,9163.73,9165.15,9181.94,9158.91,9184.16,8606.12,8118.97,8833.09,7961.81,8515.95,8859.22,7253.36,8890.69,8394.99,7985.79,8920.16,7342.19,7558.15,8359.77,8336.99,8316.94,8594.9,7554.56,8778.79,8497.52,8289.85
20,OSMOSIS,g,AB,Electricity Generation|HYDab,GWh,1910.87,1910.87,1910.87,1910.87,1910.87,1910.87,1910.87,2277.85,2277.85,2564.93,2564.93,2564.93,2564.93,2564.93,2564.93,2564.93,2564.93,2564.93,2564.93,4903.29,4903.29,4903.29,4903.29,4903.29,4903.29,4903.29,4903.29,4900.04,4750.23,4720.44,4651.28,4430.07,4247.72,3993.91,4339.76,6690.87,7053.55,6367.05,6695.22,6011.88,5315.79,6213.85,5852.89,5446.13,6724.55,5645.57,5373.16,3429.99,4845.48,4789.99,5084.62
21,OSMOSIS,g,AB,Electricity Generation|GEOab,GWh,0.0,0.0,0.0,0.0,0.0,0.0,0.0,0.0,0.0,0.0,0.0,0.0,0.0,0.0,0.0,0.0,0.0,0.0,0.0,0.0,0.0,0.0,0.0,0.0,0.0,0.0,0.0,0.0,0.0,0.0,0.0,0.0,0.0,0.0,0.0,0.0,0.0,0.0,0.0,0.0,0.0,0.0,0.0,0.0,0.0,0.0,0.0,0.0,0.0,0.0,0.0
22,OSMOSIS,g,AB,Electricity Generation|WIND,GWh,3972.92,3972.92,4292.21,6146.75,8036.34,9949.51,14376.024,17871.254,21381.634000000002,25881.899999999998,29459.329999999998,32856.99,37944.42999999999,39378.759999999995,40768.06,42434.159999999996,43669.07,45030.16,45765.869999999995,45636.649999999994,44892.99,44348.31999999999,43547.88,43420.72,43198.67,42549.532999999996,42751.22,41912.128,41511.31,39586.61,39527.72,42933.53,40940.61,40824.43,40630.96,39860.210999999996,39607.411,38434.972,41473.07399999999,40572.494000000006,42924.492,44595.705,38987.449,43601.306000000004,42330.837,37043.944,39521.238,40483.315,35110.195,31741.356,35504.167
23,OSMOSIS,g,AB,Electricity Generation|SOLcLETH,GWh,0.0,0.0,0.0,0.0,0.0,0.0,0.0,0.0,0.0,243.115,1561.2,2890.1,4233.74,5592.4,6961.05,8343.11,9739.57,11151.6,12570.4,13821.0,15271.1,16890.3,18344.3,19757.1,21052.0,22289.0,23833.9,25484.2,25935.5,27313.7,27690.5,26372.7,27744.2,29170.3,28556.2,28916.2,29270.9,29566.8,27001.2,29019.5,27171.2,26687.1,31955.9,26681.2,24205.8,26506.4,24118.3,24372.9,25339.3,29124.1,22497.2
24,OSMOSIS,g,AB,New Capacity|COALe,GW,0.0,0.0,0.0,0.0,0.0,0.0,0.0,0.0,0.0,0.0,0.0,0.0,0.0,0.0,0.0,0.0,0.0,0.0,0.0,0.0,0.0,0.0,0.0,0.0,0.0,0.0,0.0,0.0,0.0,0.0,0.0,0.0,0.0,0.0,0.0,0.0,0.0,0.0,0.0,0.0,0.0,0.0,0.0,0.0,0.0,0.0,0.0,0.0,0.0,0.0,0.0
25,OSMOSIS,g,AB,New Capacity|COALccs,GW,0.0,0.0,0.0,0.0,0.0,0.0,0.0,0.0,0.0,0.0,0.0,0.0,0.0,0.0,0.0,0.0,0.0,0.0,0.0,0.0,0.0,0.0,0.0,0.0,0.0,0.0,0.0,0.0,0.0,0.0,0.0,0.0,0.0,0.0,0.0,0.0,0.0,0.0,0.0,0.0,0.0,0.0,0.0,0.0,0.0,0.0,0.0,0.0,0.0,0.0,0.0
26,OSMOSIS,g,AB,New Capacity|COGEN,GW,0.0,0.0,0.0,0.0,0.0,0.493927,0.235502,0.121571,0.0,0.0462143,0.0,0.0,0.0,0.0,0.0,0.0,0.0897403,0.0,0.0,0.0,0.0,0.0961597,0.189478,0.0,0.0,0.0,0.0,0.042428,0.0,0.0,0.0,0.0,0.0,0.0,0.0,0.0,0.0,0.0,0.0,0.0,0.0,0.0,0.0,0.0,0.0,0.0,0.0,0.0,0.0,0.0,0.0
27,OSMOSIS,g,AB,New Capacity|CCGT,GW,0.0,0.0,0.0,0.0,0.0,0.0182219,0.0586044,0.0,0.0,0.0,0.0,0.0,0.0,0.0,0.0,0.0,0.0,0.0,0.0,0.0,0.0,0.0,0.0,0.0,0.0,0.0,0.0,0.0,0.0,0.0,0.0,0.0,0.0,0.0,0.0,0.0,0.0,0.0,0.0,0.0,0.0,0.0,0.0,0.0,0.0,0.0,0.0,0.0,0.0,0.0,0.0
28,OSMOSIS,g,AB,New Capacity|CCGTccs,GW,0.0,0.0,0.0,0.0,0.0,0.0,0.0,0.0,0.0,0.0,0.0,0.0,0.0,0.0,0.0,0.0,0.0,0.0,0.0,0.0,0.0,0.256544,0.095046,0.0395254,0.577643,0.378339,0.122571,0.595146,0.0830067,0.392984,0.499028,0.619312,0.105624,0.068036,0.0687912,0.0,0.598689,0.311872,0.0714665,0.207306,0.0935341,0.0975436,0.313951,0.271633,0.58356,0.711883,0.294018,0.315412,0.282959,0.213415,0.438709
29,OSMOSIS,g,AB,New Capacity|OCGT,GW,0.0,0.0,0.0,0.0,0.0,0.424523,0.498259,0.0480985,0.0,0.509264,0.0,0.0,0.371311,0.102275,0.380503,0.538265,0.543876,0.106202,0.0716572,0.0,0.223159,0.149187,0.566261,0.469639,0.473771,0.0,0.0,0.34561,0.0,0.0,0.310365,0.619312,0.0,0.0,0.0,0.0,0.296559,0.0,0.0,0.420142,0.0,0.0995417,0.256416,0.0316885,0.0,0.0314696,0.546736,0.0,0.0,0.0,0.0
30,OSMOSIS,g,AB,New Capacity|RICE,GW,0.0,0.0,0.0,0.0,0.0,0.0,0.0,0.0,0.0,0.0,0.0,0.0,0.0,0.0,0.0,0.0,0.0,0.0,0.0,0.0,0.0,0.0,0.0,0.0,0.0,0.0,0.0,0.0,0.0,0.0,0.0,0.0,0.0,0.0,0.0,0.0,0.0,0.0,0.0,0.0,0.0,0.0,0.0,0.0,0.0,0.0,0.0,0.0,0.0,0.0,0.0
31,OSMOSIS,g,AB,New Capacity|BIO,GW,0.0,0.0,0.0,0.0,0.0,0.0,0.0,0.0,0.0,0.00826416,0.0,0.0,0.352832,0.0,0.0,0.0,0.41521,0.0,0.0,0.0,0.0658157,0.212036,0.0324559,0.188603,0.0,0.0,0.0,0.0,0.0,0.0,0.0,0.0340458,0.314992,0.0,0.0,0.0,0.41521,0.0,0.0,0.0,0.0658157,0.212036,0.0324559,0.188603,0.0,0.0,0.0,0.0,0.0,0.0,0.0
32,OSMOSIS,g,AB,New Capacity|HYDab,GW,0.0,0.0,0.0,0.0,0.0,0.0,0.0,0.171693,0.0,0.134307,0.0,0.0,0.0,0.0,0.0,0.0,0.0,0.0,0.0,1.094,0.0,0.0,0.0,0.0,0.0,0.0,0.0,0.0,0.0,0.0,0.0,0.0,0.0,0.0,0.0,1.006,0.0,0.0,0.0,0.0,0.0,0.0,0.0,0.0,0.0,0.894,0.0,0.0,0.0,0.0,0.0
33,OSMOSIS,g,AB,New Capacity|GEOab,GW,0.0,0.0,0.0,0.0,0.0,0.0,0.0,0.0,0.0,0.0,0.0,0.0,0.0,0.0,0.0,0.0,0.0,0.0,0.0,0.0,0.0,0.0,0.0,0.0,0.0,0.0,0.0,0.0,0.0,0.0,0.0,0.0,0.0,0.0,0.0,0.0,0.0,0.0,0.0,0.0,0.0,0.0,0.0,0.0,0.0,0.0,0.0,0.0,0.0,0.0,0.0
34,OSMOSIS,g,AB,New Capacity|WIND,GW,0.0,0.0,0.0824315,0.47879,0.487837,0.493927,1.306999,1.003106,1.007454,1.3280470000000002,1.0267,1.035126,1.5234999999999999,0.529155,0.533042,0.538265,0.543876,0.549943,0.290491,0.0,0.0,0.0,0.0,0.0,0.0,0.0195992,0.589254,0.6775774999999999,1.079888,1.2223950000000001,1.720287,2.047364,1.7525629999999999,1.7672469999999998,2.094939,1.802266,1.819369,1.838123,1.327972,1.341252,1.215597,0.543876,0.549943,0.290491,0.0,0.0,0.0,0.0,0.0,0.0,0.0195992
35,OSMOSIS,g,AB,New Capacity|SOLcLETH,GW,0.0,0.0,0.0,0.0,0.0,0.0,0.0,0.0,0.0,0.0946852,0.51335,0.517563,0.523299,0.529155,0.533042,0.538265,0.543876,0.549943,0.552563,0.556998,0.560594,0.56488,0.566261,0.571924,0.577643,0.58342,0.589254,0.595146,0.601098,0.607109,0.61318,0.619312,0.625505,0.63176,0.638078,0.644458,0.650903,0.657412,0.663986,0.670626,0.677332,0.684105,0.690947,0.697856,0.704835,0.711883,0.719002,0.726192,0.733454,0.740788,0.748196
36,OSMOSIS,g,AB,Annual Emissions|CO2,Emission Units,65.5822,57.3483,59.4232,67.3211,67.1197,54.5223,49.2853,45.7318,42.7155,38.5675,37.1676,35.8317,30.6437,30.0519,29.517,25.8729,21.6877,21.2547,20.817,20.091,19.9882,19.2119,19.1633,19.0007,18.3922,18.0763,17.756,16.5013,15.238,13.5712,11.534,10.044,8.70825,7.36727,6.05948,4.49112,2.89299,2.40468,1.48153,0.450834,-0.0453527,0.042264,-0.17615,-0.322552,-1.26642,-2.80439,-2.90485,-3.61138,-4.31781,-4.35384,-5.33905
