,date,Wind_1,Wind_2,Wind_3,Wind_4,Wind_5,Wind_6,Wind_7,Wind_8,Solar_1
5040,7/29/2012 0:00,2.7982500000000003,12.90592,3.9312,25.357791,1.9514999999999998,13.555499999999999,8.290259999999998,0.36,0.0
5041,7/29/2012 1:00,3.72075,11.368319999999999,5.2272,22.336685999999997,1.7189999999999999,13.4565,5.503139999999999,0.6555000000000001,0.0
5042,7/29/2012 2:00,3.1774999999999998,8.01536,4.464,15.748728,1.212,0.33749999999999997,5.30406,0.813,0.0
5043,7/29/2012 3:00,2.4292499999999997,3.24384,3.4128,6.373557,0.4905,5.8515,3.8251799999999996,0.885,0.0
5044,7/29/2012 4:00,2.1115,3.09504,2.9664,6.081192,0.46799999999999997,4.4145,2.43162,0.9704999999999999,0.05310755625000001
5045,7/29/2012 5:00,1.9577499999999999,3.1843199999999996,2.7504,6.2566109999999995,0.48149999999999993,3.9105,2.09034,1.131,0.52891014645
5046,7/29/2012 6:00,1.87575,0.0,2.6352,0.0,0.0,3.1485,2.3178599999999996,1.3395000000000001,0.5770958025
5047,7/29/2012 7:00,3.7310000000000003,0.0,5.2416,0.0,0.0,13.530000000000001,2.60226,1.3905,0.50399736975
5048,7/29/2012 8:00,4.458749999999999,0.0,6.263999999999999,0.0,0.0,13.5405,2.43162,1.2854999999999999,0.35841611295
5049,7/29/2012 9:00,5.03275,0.0,7.070399999999999,0.0,0.0,13.474499999999999,2.01924,1.113,0.36448810439999996
5050,7/29/2012 10:00,4.264,0.0,5.990399999999999,0.0,0.0,13.575000000000001,1.73484,0.9405000000000001,0.43249202114999996
5051,7/29/2012 11:00,3.4337500000000003,0.0,4.824,0.0,0.0,2.3655,1.7774999999999999,0.7394999999999999,0.5092509597
5052,7/29/2012 12:00,1.107,0.0,1.5552000000000001,0.0,0.0,0.2115,1.6068599999999997,0.12,0.5298858473999999
5053,7/29/2012 13:00,1.0045,0.0,1.4112,0.0,0.0,0.20550000000000002,1.3366799999999999,0.2805,0.5193136599
5054,7/29/2012 14:00,0.0,0.0,0.0,0.0,0.0,0.23249999999999998,1.37934,0.219,0.5064209115
5055,7/29/2012 15:00,1.886,0.0,2.6496,0.0,0.0,0.27,1.9623599999999999,0.1245,0.36811845314999997
5056,7/29/2012 16:00,1.65025,0.0,2.3184,0.0,0.0,0.2595,0.0,0.12,0.23375626680000003
5057,7/29/2012 17:00,1.9167500000000002,0.0,2.6928,0.0,0.0,4.629,0.0,0.159,0.2342362806
5058,7/29/2012 18:00,2.3779999999999997,0.0,3.3407999999999998,0.0,0.0,0.135,0.0,0.20550000000000002,0.29180159925
5059,7/29/2012 19:00,2.0807499999999997,0.0,2.9231999999999996,0.0,0.0,0.25349999999999995,0.0,0.204,0.25057330305000003
5060,7/29/2012 20:00,1.9577499999999999,7.92608,2.7504,15.573309,1.1985,0.4305,0.0,0.21300000000000002,0.02657790345
5061,7/29/2012 21:00,3.1365,7.519360000000001,4.4064,14.774178000000001,1.137,0.735,0.0,0.2475,0.0
5062,7/29/2012 22:00,3.65925,0.9523199999999999,5.1408000000000005,1.871136,0.144,1.2029999999999998,0.0,0.2865,0.0
5063,7/29/2012 23:00,3.5772500000000003,1.70624,5.0256,3.352452,0.258,1.3995,0.0,0.3285,0.0
5064,7/30/2012 0:00,3.59775,2.20224,5.0544,4.327002,0.333,1.1055,0.0,0.4335,0.0
5065,7/30/2012 1:00,0.97375,0.88288,1.3679999999999999,1.734699,0.1335,0.18,1.0238399999999999,0.5445,0.0
5066,7/30/2012 2:00,2.38825,1.7260799999999998,3.3552,3.391434,0.261,1.3065,1.2086999999999999,0.20999999999999996,0.0
5067,7/30/2012 3:00,2.65475,0.0,3.7296,0.0,0.0,1.0154999999999998,1.7206199999999998,0.6945,0.0
5068,7/30/2012 4:00,2.788,2.56928,3.9168,5.048169,0.3885,1.4429999999999998,2.2752,0.48899999999999993,0.028486437000000003
5069,7/30/2012 5:00,2.40875,3.26368,3.384,6.412539,0.4935,1.977,2.1756599999999997,0.0,0.28212564345
5070,7/30/2012 6:00,1.77325,1.12096,2.4912,2.202483,0.16949999999999998,2.4255,1.6210799999999999,0.402,0.25695702480000004
5071,7/30/2012 7:00,1.03525,1.08128,1.4544,2.124519,0.1635,2.7855,1.12338,0.549,0.2494516731
5072,7/30/2012 8:00,1.30175,0.9920000000000001,1.8288,1.9491,0.15,3.0420000000000003,0.0,0.7155,0.27443788365
5073,7/30/2012 9:00,2.03975,3.11488,2.8656,6.120174,0.471,2.9445,0.0,0.924,0.32909893275
5074,7/30/2012 10:00,2.90075,1.36896,4.0752,2.689758,0.207,2.4195,0.0,1.089,0.35221268250000004
5075,7/30/2012 11:00,4.0897499999999996,2.41056,5.7456,4.736313,0.3645,2.0355,0.0,0.9990000000000001,0.41026143795
5076,7/30/2012 12:00,2.06025,2.79744,2.8944,5.496462,0.423,1.803,4.66416,0.927,0.4782302427
5077,7/30/2012 13:00,2.18325,2.34112,3.0671999999999997,4.599876,0.354,1.7235,6.015059999999999,0.825,0.5338083933000001
5078,7/30/2012 14:00,2.214,2.20224,3.1104000000000003,4.327002,0.333,1.758,7.0389,0.0,0.51174239025
5079,7/30/2012 15:00,2.091,1.3392,2.9376,2.631285,0.20249999999999999,2.0505,5.9723999999999995,0.0,0.4537962219
5080,7/30/2012 16:00,1.8142500000000001,0.0,2.5488,0.0,0.0,2.6925,3.8394,0.11699999999999999,0.44599834335000005
5081,7/30/2012 17:00,1.19925,0.0,1.6848,0.0,0.0,0.0,2.82978,2.4765,0.446836341
5082,7/30/2012 18:00,11.562,0.0,16.243199999999998,0.0,0.0,4.0875,2.60226,1.6740000000000002,0.3665523666
5083,7/30/2012 19:00,3.9154999999999998,1.30944,5.5008,2.572812,0.198,0.0,2.8866599999999996,2.3325,0.22180352250000002
5084,7/30/2012 20:00,7.30825,0.0,10.2672,0.0,0.0,2.4659999999999997,3.5407799999999994,1.1325,0.02097417315
5085,7/30/2012 21:00,4.551,7.420160000000001,6.3936,14.579268,1.122,0.135,4.977,1.1445,0.0
5086,7/30/2012 22:00,14.8215,12.2512,20.822400000000002,24.071385,1.8525,0.0,7.365959999999999,1.5450000000000002,0.0
5087,7/30/2012 23:00,3.2902499999999995,14.711359999999999,4.6224,28.905153,2.2245,0.0,8.3898,0.129,0.0
5088,7/31/2012 0:00,0.0,0.0,0.0,0.0,0.0,0.0,8.65998,0.2235,0.0
5089,7/31/2012 1:00,2.542,0.0,3.5711999999999997,0.0,0.0,0.0,0.0,1.2299999999999998,0.0
5090,7/31/2012 2:00,0.0,1.10112,0.0,2.163501,0.1665,0.0,0.0,0.261,0.0
5091,7/31/2012 3:00,0.0,0.9225599999999999,0.0,1.812663,0.13949999999999999,0.23399999999999999,1.1376,0.2265,0.0
5092,7/31/2012 4:00,0.8815,0.83328,1.2384,1.637244,0.126,0.249,1.94814,1.7714999999999999,0.0
5093,7/31/2012 5:00,19.91575,1.07136,27.9792,2.105028,0.162,0.159,2.8866599999999996,1.1535,0.21709397745
5094,7/31/2012 6:00,11.838750000000001,1.20032,16.632,2.358411,0.1815,0.264,38.25179999999999,0.987,0.23350763625
5095,7/31/2012 7:00,1.01475,10.644160000000001,1.4256000000000002,20.913843,1.6095000000000002,0.3405,32.37894,1.2854999999999999,0.28675735095
5096,7/31/2012 8:00,1.23,11.388160000000001,1.728,22.375668,1.722,0.36,12.812219999999998,1.425,0.31171253085
5097,7/31/2012 9:00,2.3985,0.0,3.3696,0.0,0.0,0.3795,11.973239999999999,1.4625000000000001,0.39031399260000005
5098,7/31/2012 10:00,6.1499999999999995,0.0,8.64,0.0,0.0,0.414,11.717279999999999,1.623,0.4454985423
5099,7/31/2012 11:00,4.76625,0.0,6.696,0.0,0.0,0.49649999999999994,11.8737,1.4685,0.5049391977
5100,7/31/2012 12:00,0.0,0.0,0.0,0.0,0.0,0.597,12.243419999999999,1.3245,0.5605498353
5101,7/31/2012 13:00,0.0,0.0,0.0,0.0,0.0,0.39,13.39524,1.206,0.5941585471499999
5102,7/31/2012 14:00,1.13775,0.0,1.5984,0.0,0.0,0.3285,20.946059999999996,0.1935,0.5365786713
5103,7/31/2012 15:00,2.16275,0.0,3.0384,0.0,0.0,0.2085,2.58804,0.2985,0.50255927715
5104,7/31/2012 16:00,2.7675000000000005,0.0,3.8880000000000003,0.0,0.0,0.135,2.0050199999999996,0.738,0.4336267918500001
5105,7/31/2012 17:00,2.4395000000000002,1.3392,3.4272,2.631285,0.20249999999999999,0.108,1.7632799999999997,0.981,0.36951863655
5106,7/31/2012 18:00,2.83925,2.48992,3.9888,4.892241,0.3765,0.0,1.73484,2.0865,0.28947906015
5107,7/31/2012 19:00,3.74125,0.0,5.255999999999999,0.0,0.0,0.0,1.9623599999999999,1.9665,0.213633525
5108,7/31/2012 20:00,3.9975,0.0,5.616,0.0,0.0,0.0,24.643259999999998,1.374,0.014221621050000001
5109,7/31/2012 21:00,4.4075,0.0,6.191999999999999,0.0,0.0,2.0805,3.1141799999999997,1.1775,0.0
5110,7/31/2012 22:00,5.46325,0.0,7.6752,0.0,0.0,2.358,32.17986,1.347,0.0
5111,7/31/2012 23:00,1.394,0.0,1.9584,0.0,0.0,2.7015000000000002,41.03892,0.735,0.0
5112,8/1/2012 0:00,0.9225000000000001,0.0,1.2960000000000003,0.0,0.0,2.0955,50.43834,0.5820000000000001,0.0
5113,8/1/2012 1:00,0.7995,1.8550400000000002,1.1232,3.644817,0.2805,2.0145,57.7332,1.362,0.0
5114,8/1/2012 2:00,23.534,2.728,33.0624,5.360025,0.4125,0.483,64.85741999999999,1.9259999999999997,0.0
5115,8/1/2012 3:00,21.26875,0.0,29.88,0.0,0.0,6.6705,69.33671999999999,1.9575,0.0
5116,8/1/2012 4:00,8.025749999999999,0.0,11.2752,0.0,0.0,5.934,71.27063999999999,2.0955,0.0
5117,8/1/2012 5:00,9.7785,0.0,13.7376,0.0,0.0,0.0,13.92138,0.1965,0.35790878655
5118,8/1/2012 6:00,2.5010000000000003,0.0,3.5136000000000003,0.0,0.0,11.0145,17.9883,2.6445000000000003,0.3164964411
5119,8/1/2012 7:00,20.5615,0.0,28.886400000000002,0.0,0.0,0.0,27.017999999999997,2.4284999999999997,0.33626721345
5120,8/1/2012 8:00,21.2585,0.0,29.8656,0.0,0.0,0.114,30.74364,1.8165,0.24783829980000002
5121,8/1/2012 9:00,22.427,0.0,31.507199999999997,0.0,0.0,0.114,29.69136,0.12,0.23262127245
5122,8/1/2012 10:00,23.5135,2.5891200000000003,33.0336,5.087151,0.3915,0.12300000000000001,32.2083,1.1625,0.20573318955000003
5123,8/1/2012 11:00,22.6525,2.34112,31.824,4.599876,0.354,9.0465,24.44418,0.9390000000000001,0.36174616485000005
5124,8/1/2012 12:00,22.37575,0.9820800000000001,31.4352,1.9296090000000001,0.14850000000000002,9.4125,0.0,0.81,0.31908607499999997
5125,8/1/2012 13:00,22.97025,1.42848,32.2704,2.806704,0.216,0.966,0.0,0.825,0.3924376554
5126,8/1/2012 14:00,23.657,1.7260799999999998,33.2352,3.391434,0.261,1.0425,0.0,0.6735,0.40319387535000006
5127,8/1/2012 15:00,22.90875,2.00384,32.184,3.937182,0.303,0.1275,1.53576,0.11850000000000001,0.3932880525
5128,8/1/2012 16:00,21.607,1.3193599999999999,30.355199999999996,2.592303,0.19949999999999998,0.11699999999999999,1.54998,0.1335,0.29428655444999996
5129,8/1/2012 17:00,20.705,1.35904,29.087999999999997,2.670267,0.20550000000000002,0.11699999999999999,1.50732,0.129,0.18749255805000004
5130,8/1/2012 18:00,19.229,1.12096,27.0144,2.202483,0.16949999999999998,1.3185,1.3508999999999998,0.0,0.10095014475
5131,8/1/2012 19:00,17.51725,0.0,24.6096,0.0,0.0,1.5314999999999999,1.5642,0.264,0.044996148750000006
5132,8/1/2012 20:00,14.64725,0.9820800000000001,20.5776,1.9296090000000001,0.14850000000000002,0.19949999999999998,2.03346,0.807,0.0
5133,8/1/2012 21:00,12.26925,1.4086400000000001,17.2368,2.767722,0.21300000000000002,0.21300000000000002,34.92432,0.0,0.0
5134,8/1/2012 22:00,10.85475,1.30944,15.2496,2.572812,0.198,0.16949999999999998,4.06692,0.0,0.0
5135,8/1/2012 23:00,10.25,1.10112,14.4,2.163501,0.1665,0.1725,12.869099999999998,0.0,0.0
5136,8/2/2012 0:00,9.66575,0.80352,13.5792,1.578771,0.1215,0.20550000000000002,12.712679999999999,0.8355,0.0
5137,8/2/2012 1:00,9.501750000000001,0.0,13.3488,0.0,0.0,0.186,12.271859999999998,0.7455,0.0
5138,8/2/2012 2:00,9.3685,0.72416,13.1616,1.422843,0.1095,0.1725,10.693439999999999,0.6405000000000001,0.0
5139,8/2/2012 3:00,8.7125,0.81344,12.24,1.598262,0.12300000000000001,0.159,0.0,0.0,0.0
5140,8/2/2012 4:00,8.37425,1.06144,11.7648,2.085537,0.1605,0.147,28.653299999999998,0.0,0.0
5141,8/2/2012 5:00,8.3435,1.7360000000000002,11.7216,3.410925,0.2625,0.13949999999999999,25.96572,0.0,0.05795993175
5142,8/2/2012 6:00,8.118,2.04352,11.404800000000002,4.015146,0.309,2.2275,6.69762,0.0,0.0887025531
5143,8/2/2012 7:00,6.529250000000001,0.9820800000000001,9.1728,1.9296090000000001,0.14850000000000002,0.0,7.465499999999999,0.0,0.22105620705
5144,8/2/2012 8:00,0.0,1.1408,0.0,2.241465,0.1725,2.247,2.90088,0.0,0.29779202144999994
5145,8/2/2012 9:00,0.0,1.2499200000000001,0.0,2.455866,0.189,1.14,2.2041,0.0,0.3000894015
5146,8/2/2012 10:00,0.0,1.27968,0.0,2.514339,0.1935,0.10650000000000001,1.69218,0.0,0.32389089390000003
5147,8/2/2012 11:00,45.643249999999995,1.2499200000000001,64.1232,2.455866,0.189,0.1275,1.40778,0.0,0.35519904420000004
5148,8/2/2012 12:00,40.487500000000004,1.2400000000000002,56.88,2.436375,0.1875,0.9135000000000001,0.0,0.0,0.3773006853
5149,8/2/2012 13:00,36.9,1.23008,51.839999999999996,2.416884,0.186,0.8520000000000001,42.460919999999994,0.0,0.42619425975
5150,8/2/2012 14:00,28.97675,1.0416,40.708800000000004,2.046555,0.1575,1.0454999999999999,3.8109599999999997,0.0,0.47995577385000004
5151,8/2/2012 15:00,24.805,4.8112,34.848,9.453135,0.7275,0.324,23.59098,0.6525,0.55747973505
5152,8/2/2012 16:00,19.28025,2.0832,27.086399999999998,4.09311,0.315,0.34950000000000003,21.67128,0.693,0.47194183785000005
5153,8/2/2012 17:00,15.129000000000001,2.6982399999999997,21.2544,5.301552,0.408,0.378,6.484319999999999,0.7455,0.42834369375000003
5154,8/2/2012 18:00,3.2595,2.6784000000000003,4.5792,5.26257,0.405,0.318,4.43664,0.9045,0.33188077335000005
5155,8/2/2012 19:00,3.35175,2.39072,4.7088,4.697331,0.3615,0.249,4.6926,1.1355,0.24026219385
5156,8/2/2012 20:00,3.6285000000000003,1.9840000000000002,5.0976,3.8982,0.3,0.2145,35.1234,1.5705,0.0
5157,8/2/2012 21:00,3.5055,1.50784,4.9248,2.962632,0.228,0.195,33.07572,1.812,0.0
5158,8/2/2012 22:00,15.313500000000001,1.11104,21.5136,2.182992,0.168,0.1965,32.506919999999994,2.0250000000000004,0.0
5159,8/2/2012 23:00,2.5010000000000003,0.0,3.5136000000000003,0.0,0.0,0.1815,36.24678,1.974,0.0
5160,8/3/2012 0:00,2.30625,0.0,3.2399999999999998,0.0,0.0,0.1545,45.1485,1.8285,0.0
5161,8/3/2012 1:00,2.24475,0.0,3.1536,0.0,0.0,0.129,0.0,0.2205,0.0
5162,8/3/2012 2:00,2.32675,0.0,3.2688,0.0,0.0,0.1155,0.0,0.255,0.0
5163,8/3/2012 3:00,2.22425,0.0,3.1248,0.0,0.0,0.0,0.0,0.27899999999999997,0.0
5164,8/3/2012 4:00,1.7937500000000002,0.0,2.5200000000000005,0.0,0.0,0.0,0.0,0.0,0.0
5165,8/3/2012 5:00,8.23075,0.82336,11.5632,1.617753,0.1245,0.0,0.0,0.5085,0.44565293745
5166,8/3/2012 6:00,6.9392499999999995,0.0,9.7488,0.0,0.0,0.0,0.0,0.216,0.5520209457
5167,8/3/2012 7:00,5.42225,0.0,7.6176,0.0,0.0,0.0,0.0,0.0,0.47796056910000007
5168,8/3/2012 8:00,4.3665,0.0,6.134399999999999,0.0,0.0,0.0,36.64494,0.0,0.3478479522
5169,8/3/2012 9:00,4.97125,0.0,6.984,0.0,0.0,0.0,41.66459999999999,2.2935000000000003,0.38604409095
5170,8/3/2012 10:00,2.1422499999999998,0.0,3.0096,0.0,0.0,0.0,50.22504,0.0,0.44006036445
5171,8/3/2012 11:00,1.99875,0.0,2.808,0.0,0.0,0.0,51.04979999999999,0.0,0.49722899205000004
5172,8/3/2012 12:00,14.0015,0.0,19.6704,0.0,0.0,0.0,49.21542,0.11249999999999999,0.50803588815
5173,8/3/2012 13:00,20.172,6.319040000000001,28.3392,12.415767,0.9555000000000001,0.0,43.17191999999999,0.144,0.5182792839
5174,8/3/2012 14:00,22.140000000000004,7.92608,31.104000000000003,15.573309,1.1985,0.0,40.9536,0.165,0.5009370744
5175,8/3/2012 15:00,27.367500000000003,9.46368,38.448,18.594414,1.431,0.0,43.0866,0.2175,0.40276684875
5176,8/3/2012 16:00,25.20475,0.0,35.4096,0.0,0.0,0.1605,45.959039999999995,0.252,0.4496377704
5177,8/3/2012 17:00,28.228499999999997,0.7043200000000001,39.657599999999995,1.383861,0.10650000000000001,0.0,46.11545999999999,0.2205,0.31788614655
5178,8/3/2012 18:00,24.71275,1.2896,34.7184,2.53383,0.195,0.0,43.68383999999999,0.168,0.18579626310000003
5179,8/3/2012 19:00,27.346999999999998,0.0,38.4192,0.0,0.0,0.0,42.83064,0.486,0.04250541645
5180,8/3/2012 20:00,23.124,0.0,32.486399999999996,0.0,0.0,0.0,42.14807999999999,0.5235,0.0
5181,8/3/2012 21:00,23.68775,1.36896,33.2784,2.689758,0.207,0.171,45.56088,0.543,0.0
5182,8/3/2012 22:00,1.7834999999999999,3.5612800000000004,2.5056,6.997269,0.5385,1.2029999999999998,53.125919999999994,0.5640000000000001,0.0
5183,8/3/2012 23:00,1.15825,7.2912,1.6272,14.325885,1.1025,0.3705,62.58221999999999,0.0,0.0
5184,8/4/2012 0:00,0.0,2.4800000000000004,0.0,4.87275,0.375,0.201,72.29448,0.0,0.0
5185,8/4/2012 1:00,0.0,1.9939200000000001,0.0,3.917691,0.3015,0.327,81.06822,0.0,0.0
5186,8/4/2012 2:00,0.0,1.3392,0.0,2.631285,0.20249999999999999,0.35700000000000004,86.42916,0.0,0.0
5187,8/4/2012 3:00,2.67525,2.0832,3.7584000000000004,4.09311,0.315,0.201,9.58428,0.0,0.0
5188,8/4/2012 4:00,1.9064999999999999,2.78752,2.6784,5.476971,0.4215,0.201,10.11042,0.0,0.0
5189,8/4/2012 5:00,1.5170000000000001,3.55136,2.1312,6.977778,0.5369999999999999,0.1815,74.15729999999999,0.0,0.1153789665
5190,8/4/2012 6:00,1.7015,3.54144,2.3904,6.958287,0.5355000000000001,0.17850000000000002,0.0,0.0,0.064576029
5191,8/4/2012 7:00,2.2755,3.1248,3.1968,6.139665,0.47250000000000003,0.381,0.0,0.0,0.0674770635
5192,8/4/2012 8:00,5.299250000000001,2.94624,7.444800000000001,5.788827,0.4455,0.46799999999999997,4.66416,0.0,0.07737246090000001
5193,8/4/2012 9:00,6.0885,0.0,8.5536,0.0,0.0,0.4755,0.0,0.0,0.08653353555000001
5194,8/4/2012 10:00,1.763,0.0,2.4768,0.0,0.0,0.393,0.0,1.2269999999999999,0.0783132777
5195,8/4/2012 11:00,1.9167500000000002,32.3888,2.6928,63.638115,4.8975,0.5745,0.0,0.2745,0.17554826415000002
5196,8/4/2012 12:00,1.886,9.0272,2.6496,17.73681,1.365,0.708,0.0,0.0,0.18146659335
5197,8/4/2012 13:00,1.65025,2.2816,2.3184,4.48293,0.345,0.6915,0.0,0.168,0.15129784740000002
5198,8/4/2012 14:00,1.4965,3.3132800000000002,2.1024,6.509994,0.501,1.092,6.9820199999999994,0.3045,0.14301734160000001
5199,8/4/2012 15:00,1.50675,4.85088,2.1168,9.531099,0.7335,0.252,7.266419999999999,0.0,0.13633051845000002
5200,8/4/2012 16:00,8.5895,6.81504,12.0672,13.390317,1.0305,0.261,6.811379999999999,0.22499999999999998,0.08553437864999999
5201,8/4/2012 17:00,0.0,8.19392,0.0,16.099566,1.239,0.255,6.512759999999999,3.4335,0.06827418360000001
5202,8/4/2012 18:00,0.0,8.759360000000001,0.0,17.210553,1.3245,0.249,2.18988,3.447,0.0317975973
5203,8/4/2012 19:00,0.0,5.19808,0.0,10.213284,0.786,0.24600000000000002,1.83438,2.937,0.0077363748
5204,8/4/2012 20:00,0.0,1.77568,0.0,3.488889,0.26849999999999996,0.0,2.0619,2.982,0.0
5205,8/4/2012 21:00,7.861750000000001,0.0,11.0448,0.0,0.0,0.1215,2.5596,2.4225,0.0
5206,8/4/2012 22:00,8.856,0.0,12.441600000000001,0.0,0.0,9.2235,3.39858,0.0,0.0
5207,8/4/2012 23:00,4.755999999999999,0.0,6.6815999999999995,0.0,0.0,6.615,4.16646,4.0695,0.0
5208,8/5/2012 0:00,4.797,4.04736,6.7392,7.9523280000000005,0.6120000000000001,5.103,3.4838999999999998,3.8985000000000003,0.0
5209,8/5/2012 1:00,4.797,4.7616000000000005,6.7392,9.35568,0.72,6.696000000000001,2.7017999999999995,0.0,0.0
5210,8/5/2012 2:00,4.5817499999999995,0.0,6.4368,0.0,0.0,8.802,43.14348,0.19949999999999998,0.0
5211,8/5/2012 3:00,6.1602500000000004,0.0,8.6544,0.0,0.0,9.81,7.024679999999999,0.36600000000000005,0.0
5212,8/5/2012 4:00,7.8925,0.0,11.088,0.0,0.0,4.782,33.004619999999996,0.519,0.0
5213,8/5/2012 5:00,2.32675,0.0,3.2688,0.0,0.0,4.707000000000001,36.51695999999999,0.63,0.01135666035
5214,8/5/2012 6:00,0.78925,0.0,1.1088,0.0,0.0,5.691,15.18696,0.648,0.03522401715
5215,8/5/2012 7:00,0.0,0.0,0.0,0.0,0.0,6.897,12.28608,0.7484999999999999,0.06762375585000001
5216,8/5/2012 8:00,1.353,6.02144,1.9008,11.831036999999998,0.9105,4.4355,9.79758,1.059,0.10931519865000001
5217,8/5/2012 9:00,1.9885000000000002,9.58272,2.7936,18.828306,1.449,2.6895,8.61732,0.0,0.09217076295
5218,8/5/2012 10:00,3.00325,5.36672,4.2192,10.544631,0.8115,9.3765,1.26558,0.0,0.10775079000000001
5219,8/5/2012 11:00,3.72075,0.0,5.2272,0.0,0.0,7.554,1.1376,0.0,0.11770204109999999
5220,8/5/2012 12:00,3.7105,0.77376,5.2128000000000005,1.520298,0.11699999999999999,4.095000000000001,0.0,0.177,0.0551551854
5221,8/5/2012 13:00,3.7822500000000003,0.9424,5.3136,1.851645,0.1425,1.6935,1.6210799999999999,0.2835,0.063159516
5222,8/5/2012 14:00,1.722,10.525120000000001,2.4192,20.679951,1.5915,0.9794999999999999,1.54998,0.46649999999999997,0.10487383725
5223,8/5/2012 15:00,2.53175,7.747520000000001,3.5568,15.222471,1.1715,0.7979999999999999,6.07194,0.7935000000000001,0.07666078455
5224,8/5/2012 16:00,2.9827500000000002,40.38432,4.1904,79.34786100000001,6.1065000000000005,0.603,18.95526,0.0,0.13465164615
5225,8/5/2012 17:00,1.23,0.0,1.728,0.0,0.0,1.935,0.0,0.0,0.0947483922
5226,8/5/2012 18:00,0.0,0.0,0.0,0.0,0.0,0.27,0.0,0.0,0.04431687435000001
5227,8/5/2012 19:00,9.35825,3.21408,13.147200000000002,6.315084,0.486,0.6045,0.0,1.5105,0.017609976300000003
5228,8/5/2012 20:00,0.0,6.46784,0.0,12.708131999999999,0.9779999999999999,1.4655,0.0,0.12300000000000001,0.0
5229,8/5/2012 21:00,0.0,5.18816,0.0,10.193793,0.7845,0.3015,10.209959999999999,0.7815,0.0
5230,8/5/2012 22:00,0.0,3.41248,0.0,6.704904,0.516,0.2745,11.36178,1.2254999999999998,0.0
5231,8/5/2012 23:00,0.9327500000000001,34.90848,1.3104,68.588829,5.2785,0.22949999999999998,0.0,1.08,0.0
5232,8/6/2012 0:00,1.0865,0.0,1.5264,0.0,0.0,0.1365,4.82058,0.189,0.0
5233,8/6/2012 1:00,1.65025,0.0,2.3184,0.0,0.0,0.0,0.0,0.726,0.0
5234,8/6/2012 2:00,2.5010000000000003,0.0,3.5136000000000003,0.0,0.0,0.0,0.0,0.7484999999999999,0.0
5235,8/6/2012 3:00,3.1365,0.0,4.4064,0.0,0.0,0.0,0.0,0.72,0.0
5236,8/6/2012 4:00,5.56575,1.9939200000000001,7.8192,3.917691,0.3015,1.8705,0.0,0.6945,0.0
5237,8/6/2012 5:00,3.5465,2.59904,4.9824,5.106642,0.393,1.563,0.0,0.7545,0.0088783212
5238,8/6/2012 6:00,1.8347499999999999,30.930560000000003,2.5776,60.772938,4.6770000000000005,0.0,0.0,0.9299999999999999,0.033870067350000005
5239,8/6/2012 7:00,0.9635,27.9744,1.3536000000000001,54.96462,4.2299999999999995,0.0,0.0,0.0,0.06627528810000001
5240,8/6/2012 8:00,0.0,22.15136,0.0,43.523403,3.3495,0.0,6.0435,0.8115,0.09973850355
5241,8/6/2012 9:00,0.0,16.814400000000003,0.0,33.037245,2.5425,0.0,4.237559999999999,1.065,0.303128091
5242,8/6/2012 10:00,0.91225,9.920000000000002,1.2816,19.491,1.5,0.0,3.5123399999999996,0.10650000000000001,0.22515827880000003
5243,8/6/2012 11:00,1.32225,0.0,1.8576,0.0,0.0,0.0,6.498539999999999,0.834,0.36030506295
5244,8/6/2012 12:00,63.734500000000004,0.0,89.53920000000001,0.0,0.0,0.0,9.200339999999999,0.7425,0.30681456645
5245,8/6/2012 13:00,64.17525,2.9264,90.1584,5.749845,0.4425,0.3165,9.498959999999999,0.111,0.4299412603500001
5246,8/6/2012 14:00,59.624249999999996,2.66848,83.7648,5.243079,0.4035,0.0,0.0,0.156,0.2044880964
5247,8/6/2012 15:00,0.0,3.01568,0.0,5.925264,0.456,0.0,0.0,0.12300000000000001,0.20657054355
5248,8/6/2012 16:00,5.13525,3.7596800000000004,7.2143999999999995,7.3870890000000005,0.5685,0.3735,0.0,0.11850000000000001,0.14046735465000001
5249,8/6/2012 17:00,5.452999999999999,5.42624,7.6608,10.661577,0.8205,0.3945,0.0,0.129,0.16984161915
5250,8/6/2012 18:00,6.6522499999999996,8.828800000000001,9.3456,17.34699,1.3350000000000002,0.3315,1.1518199999999998,0.15300000000000002,0.14612374979999998
5251,8/6/2012 19:00,0.0,13.897920000000001,0.0,27.306891,2.1015,0.0,4.94856,0.1545,0.07604292885000001
5252,8/6/2012 20:00,0.74825,19.26464,1.0512,37.851522,2.9130000000000003,0.2565,7.437059999999999,0.2115,0.0
5253,8/6/2012 21:00,1.1275000000000002,0.0,1.584,0.0,0.0,0.8235,10.55124,0.222,0.0
5254,8/6/2012 22:00,1.28125,0.0,1.8,0.0,0.0,0.9075,10.83564,0.192,0.0
5255,8/6/2012 23:00,1.312,0.0,1.8432000000000002,0.0,0.0,1.0350000000000001,11.020499999999998,0.144,0.0
5256,8/7/2012 0:00,1.30175,0.7043200000000001,1.8288,1.383861,0.10650000000000001,1.452,10.423259999999999,0.1245,0.0
5257,8/7/2012 1:00,1.38375,0.9424,1.944,1.851645,0.1425,2.1854999999999998,9.214559999999999,0.10650000000000001,0.0
5258,8/7/2012 2:00,1.3735,0.97216,1.9296,1.910118,0.147,0.756,6.498539999999999,0.0,0.0
5259,8/7/2012 3:00,0.74825,0.0,1.0512,0.0,0.0,0.5625,3.1994999999999996,0.0,0.0
5260,8/7/2012 4:00,0.0,0.0,0.0,0.0,0.0,0.57,1.83438,0.0,0.0
5261,8/7/2012 5:00,0.74825,0.0,1.0512,0.0,0.0,0.5535,2.6306999999999996,0.1935,0.22446973395
5262,8/7/2012 6:00,1.1275000000000002,0.0,1.584,0.0,0.0,0.45149999999999996,32.2083,0.249,0.17166289455
5263,8/7/2012 7:00,1.7834999999999999,0.0,2.5056,0.0,0.0,11.6655,34.58304,0.441,0.09687489945000001
5264,8/7/2012 8:00,2.911,0.0,4.0896,0.0,0.0,10.236,36.64494,0.462,0.08144631915
5265,8/7/2012 9:00,4.11025,0.0,5.7744,0.0,0.0,8.094,36.70182,0.4605,0.09931928579999999
5266,8/7/2012 10:00,3.4337500000000003,0.0,4.824,0.0,0.0,5.286,37.55502,0.8744999999999999,0.36281557305000006
5267,8/7/2012 11:00,0.0,0.0,0.0,0.0,0.0,0.6045,37.86785999999999,0.369,0.44871086400000004
5268,8/7/2012 12:00,2.009,26.367359999999998,2.8224,51.807078,3.9869999999999997,0.867,36.24678,0.285,0.44702329245
5269,8/7/2012 13:00,5.6785,23.768320000000003,7.9776,46.700436,3.5940000000000003,1.0695000000000001,33.28902,0.1965,0.5060003403000001
5270,8/7/2012 14:00,10.77275,22.93504,15.1344,45.063191999999994,3.468,0.8399999999999999,31.284,0.135,0.37690229430000005
5271,8/7/2012 15:00,0.0,22.637439999999998,0.0,44.47846199999999,3.4229999999999996,0.6525,32.43582,0.1155,0.37142055825
5272,8/7/2012 16:00,15.293,21.84384,21.4848,42.919182,3.303,0.5145,1.37934,0.111,0.40780896450000004
5273,8/7/2012 17:00,16.000249999999998,21.7248,22.478399999999997,42.685289999999995,3.2849999999999997,0.45899999999999996,1.0238399999999999,0.108,0.32165926695
5274,8/7/2012 18:00,15.487750000000002,20.65344,21.7584,40.580262,3.1229999999999998,0.4635,0.0,0.108,0.3265588116
5275,8/7/2012 19:00,19.003500000000003,18.41152,26.6976,36.175295999999996,2.784,0.498,0.0,0.0,0.24156247290000002
5276,8/7/2012 20:00,1.40425,16.03072,1.9728,31.497456,2.424,0.561,0.0,0.0,0.0
5277,8/7/2012 21:00,2.5215,14.542720000000001,3.5424,28.573806,2.1990000000000003,0.47400000000000003,0.0,0.0,0.0
5278,8/7/2012 22:00,4.899500000000001,10.05888,6.8832,19.763874,1.5210000000000001,0.3615,0.0,0.0,0.0
5279,8/7/2012 23:00,7.328749999999999,4.62272,10.296,9.082806,0.6990000000000001,0.288,0.0,0.1365,0.0
5280,8/8/2012 0:00,7.20575,2.48992,10.1232,4.892241,0.3765,0.1935,0.0,0.129,0.0
5281,8/8/2012 1:00,5.7605,1.55744,8.0928,3.060087,0.2355,0.20249999999999999,6.157259999999999,0.0,0.0
5282,8/8/2012 2:00,4.88925,1.10112,6.8688,2.163501,0.1665,1.131,11.85948,0.0,0.0
5283,8/8/2012 3:00,3.80275,0.0,5.3424000000000005,0.0,0.0,1.314,7.124219999999999,0.0,0.0
5284,8/8/2012 4:00,2.7675000000000005,0.0,3.8880000000000003,0.0,0.0,4.5585,0.0,1.1580000000000001,0.0
5285,8/8/2012 5:00,8.59975,0.0,12.0816,0.0,0.0,0.2715,21.9699,1.7129999999999999,0.41388233775000005
5286,8/8/2012 6:00,6.13975,0.0,8.6256,0.0,0.0,0.3165,18.9126,2.154,0.5226794412
5287,8/8/2012 7:00,3.5055,6.8547199999999995,4.9248,13.468281,1.0365,0.28200000000000003,17.604359999999996,0.1515,0.46833866310000005
5288,8/8/2012 8:00,1.87575,7.370560000000001,2.6352,14.481813,1.1145,0.321,8.503559999999998,0.0,0.33651913260000005
5289,8/8/2012 9:00,1.26075,7.49952,1.7712,14.735196,1.134,0.4605,6.2568,0.0,0.3547157943
5290,8/8/2012 10:00,1.13775,0.0,1.5984,0.0,0.0,1.2315,7.7214599999999995,0.513,0.4346433
5291,8/8/2012 11:00,1.38375,3.68032,1.944,7.231161,0.5565,4.5075,10.83564,0.522,0.47864159595
5292,8/8/2012 12:00,1.8347499999999999,28.4208,2.5776,55.84171499999999,4.297499999999999,0.0,14.547059999999998,0.3555,0.5269577733
5293,8/8/2012 13:00,2.06025,19.80032,2.8944,38.904036,2.9939999999999998,0.441,18.94104,0.21300000000000002,0.5305932891
5294,8/8/2012 14:00,29.724999999999998,6.48768,41.76,12.747114,0.981,0.207,21.913019999999996,0.189,0.5240799963
5295,8/8/2012 15:00,26.0555,2.78752,36.6048,5.476971,0.4215,0.2355,21.64284,0.2625,0.5109652653000001
5296,8/8/2012 16:00,1.89625,0.9523199999999999,2.6639999999999997,1.871136,0.144,0.741,6.8967,0.39899999999999997,0.4826946474
5297,8/8/2012 17:00,1.9167500000000002,0.0,2.6928,0.0,0.0,0.14850000000000002,6.86826,0.5265,0.46960788945
5298,8/8/2012 18:00,1.9167500000000002,0.0,2.6928,0.0,0.0,0.7755000000000001,6.484319999999999,0.11249999999999999,0.35942278680000006
5299,8/8/2012 19:00,2.1422499999999998,0.0,3.0096,0.0,0.0,3.462,1.79172,0.1245,0.23880578084999998
5300,8/8/2012 20:00,2.28575,0.0,3.2112,0.0,0.0,4.0169999999999995,3.0572999999999997,0.144,0.0
5301,8/8/2012 21:00,1.9679999999999997,3.53152,2.7647999999999997,6.938796,0.534,0.168,2.53116,0.12300000000000001,0.0
5302,8/8/2012 22:00,1.65025,7.59872,2.3184,14.930106,1.149,0.1335,1.45044,0.0,0.0
5303,8/8/2012 23:00,2.18325,1.47808,3.0671999999999997,2.904159,0.2235,0.0,0.0,0.0,0.0
5304,8/9/2012 0:00,1.5887499999999999,1.07136,2.232,2.105028,0.162,0.0,0.0,0.0,0.0
5305,8/9/2012 1:00,0.8712500000000001,0.7836800000000002,1.2240000000000002,1.539789,0.11850000000000001,0.0,0.0,0.0,0.0
5306,8/9/2012 2:00,0.0,0.0,0.0,0.0,0.0,0.10499999999999998,0.0,0.0,0.0
5307,8/9/2012 3:00,0.0,0.0,0.0,0.0,0.0,2.5484999999999998,0.0,0.0,0.0
5308,8/9/2012 4:00,0.0,0.0,0.0,0.0,0.0,3.0495,46.37141999999999,0.0,0.0
5309,8/9/2012 5:00,0.0,0.0,0.0,0.0,0.0,3.939,46.61315999999999,0.0,0.22668420600000003
5310,8/9/2012 6:00,0.9942500000000001,0.9225599999999999,1.3968,1.812663,0.13949999999999999,4.95,49.41449999999999,0.0,0.214574997
5311,8/9/2012 7:00,1.763,1.02176,2.4768,2.007573,0.1545,6.415500000000001,49.883759999999995,0.0,0.1944902526
5312,8/9/2012 8:00,3.2697499999999997,13.40192,4.5935999999999995,26.332341,2.0265,8.098500000000001,1.37934,0.0,0.21318563385
5313,8/9/2012 9:00,5.83225,15.137920000000001,8.1936,29.743266000000002,2.289,9.2865,1.422,0.0,0.28379120280000003
5314,8/9/2012 10:00,7.80025,15.2272,10.958400000000001,29.918685,2.3024999999999998,9.645,1.6068599999999997,0.0,0.33152356335
5315,8/9/2012 11:00,8.405,14.16576,11.807999999999998,27.833148,2.1420000000000003,9.586500000000001,2.07612,0.0,0.1691681523
5316,8/9/2012 12:00,7.769500000000001,35.573119999999996,10.9152,69.89472599999999,5.379,9.174000000000001,2.3036399999999997,0.0,0.2124921561
5317,8/9/2012 13:00,8.39475,28.281920000000003,11.7936,55.568841000000006,4.2765,8.523,1.37934,0.5955,0.20429790045
5318,8/9/2012 14:00,9.594,20.52448,13.4784,40.326879,3.1035,5.127,1.9623599999999999,1.0305,0.2629676721
5319,8/9/2012 15:00,17.7325,14.314560000000002,24.912000000000003,28.125513,2.1645000000000003,6.2805,3.1994999999999996,0.912,0.31886617140000006
5320,8/9/2012 16:00,25.5635,11.18976,35.9136,21.985848,1.692,0.144,4.536179999999999,0.219,0.2193856875
5321,8/9/2012 17:00,30.975500000000004,9.31488,43.5168,18.302049,1.4084999999999999,0.1575,5.161859999999999,0.6855,0.30345667590000003
5322,8/9/2012 18:00,36.62325,5.77344,51.4512,11.343762,0.873,0.1815,5.375159999999999,0.7184999999999999,0.2520822297
5323,8/9/2012 19:00,52.59275,5.465920000000001,73.8864,10.739541000000001,0.8265,0.20999999999999996,5.503139999999999,0.7005,0.17281491465
5324,8/9/2012 20:00,0.0,12.38016,0.0,24.324768,1.8719999999999999,0.252,31.298219999999997,0.41999999999999993,0.0
5325,8/9/2012 21:00,0.0,14.72128,0.0,28.924644,2.226,0.3,4.89168,0.30600000000000005,0.0
5326,8/9/2012 22:00,0.8097500000000001,10.62432,1.1376000000000002,20.874861,1.6065,0.29100000000000004,6.7260599999999995,0.20249999999999999,0.0
5327,8/9/2012 23:00,7.052,11.66592,9.9072,22.921415999999997,1.764,0.22499999999999998,6.640739999999999,0.2265,0.0
5328,8/10/2012 0:00,6.07825,30.752,8.5392,60.4221,4.65,0.14850000000000002,1.8486,0.20550000000000002,0.0
5329,8/10/2012 1:00,6.03725,27.0816,8.4816,53.21043,4.095000000000001,0.114,1.0238399999999999,0.273,0.0
5330,8/10/2012 2:00,0.0,23.17312,0.0,45.530976,3.504,0.14100000000000001,1.0238399999999999,0.3705,0.0
5331,8/10/2012 3:00,3.3722499999999997,18.52064,4.7376,36.389697,2.8005,0.14100000000000001,3.1994999999999996,0.471,0.0
5332,8/10/2012 4:00,50.563250000000004,15.435519999999999,71.0352,30.327996,2.3339999999999996,0.12300000000000001,3.96738,0.4905,0.0
5333,8/10/2012 5:00,2.57275,14.185600000000003,3.6144000000000003,27.872130000000002,2.1450000000000005,0.0,4.4082,0.387,0.34971237525
5334,8/10/2012 6:00,32.359249999999996,35.67232,45.4608,70.089636,5.393999999999999,0.0,13.025519999999998,0.429,0.5079436341000001
5335,8/10/2012 7:00,37.474,37.16032,52.6464,73.013286,5.619,0.0,0.0,0.66,0.45392359530000004
5336,8/10/2012 8:00,42.11725,44.75904,59.169599999999996,87.943392,6.768,0.0,0.0,0.78,0.32952835334999997
5337,8/10/2012 9:00,1.9577499999999999,49.034560000000006,2.7504,96.344013,7.4145,0.0,0.0,0.78,0.3598146132
5338,8/10/2012 10:00,81.71300000000001,45.483200000000004,114.7968,89.366235,6.8775,0.0,0.0,0.75,0.436453584
5339,8/10/2012 11:00,80.11399999999999,39.88832,112.5504,78.373311,6.0315,0.0,0.0,0.6705,0.49696500105
5340,8/10/2012 12:00,77.73599999999999,38.55904,109.2096,75.761517,5.8305,0.0,0.0,0.27,0.5516797314
5341,8/10/2012 13:00,74.93775,40.06688,105.27839999999999,78.724149,6.0584999999999996,0.0,0.0,0.324,0.582485463
5342,8/10/2012 14:00,72.06774999999999,45.96928,101.2464,90.321294,6.951,0.0,0.0,0.24600000000000002,0.5877159739500001
5343,8/10/2012 15:00,71.39125,1.82528,100.296,3.586344,0.276,0.159,2.18988,0.1965,0.5688817869
5344,8/10/2012 16:00,70.09975,1.5376,98.48159999999999,3.021105,0.23249999999999998,0.22499999999999998,26.463419999999996,0.165,0.44608894995
5345,8/10/2012 17:00,69.13625,0.0,97.128,0.0,0.0,0.3075,25.411139999999996,0.14100000000000001,0.42478037910000005
5346,8/10/2012 18:00,0.0,0.0,0.0,0.0,0.0,0.555,0.0,0.132,0.33177711105
5347,8/10/2012 19:00,66.789,0.0,93.8304,0.0,0.0,1.0485,5.27562,0.0,0.20885340630000004
5348,8/10/2012 20:00,40.303,0.0,56.6208,0.0,0.0,1.7055,1.3651199999999997,0.0,0.0
5349,8/10/2012 21:00,29.796750000000003,0.0,41.860800000000005,0.0,0.0,1.9334999999999998,2.4173999999999998,0.0,0.0
5350,8/10/2012 22:00,65.70249999999999,2.29152,92.30399999999999,4.502421,0.3465,2.241,3.2421599999999997,0.0,0.0
5351,8/10/2012 23:00,5.70925,0.0,8.0208,0.0,0.0,2.3175,8.73108,0.11249999999999999,0.0
5352,8/11/2012 0:00,1.8347499999999999,0.0,2.5776,0.0,0.0,2.5755,7.79256,0.1155,0.0
5353,8/11/2012 1:00,2.55225,83.75456000000001,3.5856,164.562513,12.6645,2.7585,6.69762,0.14850000000000002,0.0
5354,8/11/2012 2:00,9.143,82.31616,12.8448,161.73631799999998,12.447,2.6925,6.299459999999999,0.216,0.0
5355,8/11/2012 3:00,0.0,78.11008,0.0,153.47213399999998,11.811,2.4915,5.858639999999999,0.228,0.0
5356,8/11/2012 4:00,0.738,76.06656000000001,1.0368,149.456988,11.502,2.247,3.8394,0.189,0.0
5357,8/11/2012 5:00,0.72775,0.0,1.0224,0.0,0.0,1.641,3.38436,0.1425,0.3409220325
5358,8/11/2012 6:00,6.2524999999999995,69.28128000000001,8.783999999999999,136.125144,10.476,4.203,3.32748,0.11699999999999999,0.4855616703
5359,8/11/2012 7:00,7.871999999999999,2.85696,11.059199999999999,5.613408,0.432,0.20249999999999999,4.37976,0.12,0.4227450927
5360,8/11/2012 8:00,8.897,0.0,12.4992,0.0,0.0,0.219,3.9389399999999997,0.174,0.34493394915000003
5361,8/11/2012 9:00,9.676,0.0,13.5936,0.0,0.0,0.249,2.90088,0.2715,0.35342038200000003
5362,8/11/2012 10:00,1.4555,0.0,2.0448,0.0,0.0,0.0,2.4031799999999994,0.40950000000000003,0.43697663310000007
5363,8/11/2012 11:00,0.9839999999999999,1.71616,1.3823999999999999,3.371943,0.2595,0.0,3.4128,0.5055000000000001,0.4988459605500001
5364,8/11/2012 12:00,2.67525,1.44832,3.7584000000000004,2.845686,0.219,0.162,5.38938,0.0,0.5319494680500001
5365,8/11/2012 13:00,3.0545,0.9027200000000001,4.2912,1.773681,0.1365,0.15,1.26558,0.0,0.5231510361000001
5366,8/11/2012 14:00,3.20825,1.0912000000000002,4.5072,2.14401,0.165,0.0,16.53786,0.0,0.5048776593000001
5367,8/11/2012 15:00,2.88025,4.02752,4.0464,7.913345999999999,0.609,0.1155,9.769139999999998,0.633,0.46578899220000003
5368,8/11/2012 16:00,4.02825,1.8451199999999999,5.6592,3.625326,0.27899999999999997,0.1875,4.024259999999999,0.6555000000000001,0.42845527619999996
5369,8/11/2012 17:00,5.863,1.3392,8.2368,2.631285,0.20249999999999999,0.303,6.598079999999999,0.672,0.38871088830000006
5370,8/11/2012 18:00,21.4635,0.80352,30.1536,1.578771,0.1215,0.453,5.688,0.0,0.3475119165
5371,8/11/2012 19:00,21.074,0.8928000000000001,29.6064,1.7541900000000001,0.135,0.354,5.915519999999999,0.0,0.19931763075
5372,8/11/2012 20:00,20.14125,1.3887999999999998,28.296,2.7287399999999997,0.20999999999999996,0.381,6.3279,0.6375000000000001,0.0
5373,8/11/2012 21:00,19.50575,2.21216,27.4032,4.346493,0.3345,0.39899999999999997,6.782939999999999,0.0,0.0
5374,8/11/2012 22:00,0.0,2.41056,0.0,4.736313,0.3645,0.378,14.760359999999999,0.0,0.0
5375,8/11/2012 23:00,0.0,2.4204800000000004,0.0,4.755804,0.36600000000000005,0.3165,17.6328,0.0,0.0
5376,8/12/2012 0:00,2.46,3.8192,3.456,7.504035,0.5775,0.402,20.121299999999998,0.0,0.0
5377,8/12/2012 1:00,7.6875,5.6048,10.799999999999999,11.012415,0.8475,0.35100000000000003,22.865759999999998,0.0,0.0
5378,8/12/2012 2:00,2.3165,4.62272,3.2544,9.082806,0.6990000000000001,0.381,1.45044,0.2265,0.0
5379,8/12/2012 3:00,12.1155,4.74176,17.0208,9.316698,0.7170000000000001,0.35850000000000004,2.3747399999999996,0.2235,0.0
5380,8/12/2012 4:00,0.0,6.01152,0.0,11.811546,0.909,0.3045,3.01464,0.23249999999999998,0.0
5381,8/12/2012 5:00,0.0,9.49344,0.0,18.652887,1.4355,0.2415,3.22794,0.0,0.36438215625
5382,8/12/2012 6:00,4.5305,8.372480000000001,6.364800000000001,16.450404,1.266,0.6990000000000001,3.64032,0.24600000000000002,0.52993446765
5383,8/12/2012 7:00,4.264,0.91264,5.990399999999999,1.793172,0.138,0.828,5.03388,0.258,0.4793245821
5384,8/12/2012 8:00,4.17175,0.0,5.8608,0.0,0.0,1.017,8.3898,0.132,0.34086904530000006
5385,8/12/2012 9:00,0.0,5.79328,0.0,11.382744,0.876,1.2045,1.08072,0.15,0.35351461005000007
5386,8/12/2012 10:00,0.0,6.8547199999999995,0.0,13.468281,1.0365,1.278,1.0522799999999999,0.0,0.43689226455
5387,8/12/2012 11:00,0.0,8.10464,0.0,15.924146999999998,1.2254999999999998,1.3245,2.50272,0.23249999999999998,0.5056011376499999
5388,8/12/2012 12:00,0.0,11.0112,0.0,21.63501,1.665,1.4205,2.24676,0.303,0.55983058635
5389,8/12/2012 13:00,2.9724999999999997,4.24576,4.176,8.342148,0.642,1.6065,0.0,0.0,0.59480203335
5390,8/12/2012 14:00,3.0237499999999997,7.52928,4.247999999999999,14.793669,1.1384999999999998,1.9395,14.83146,0.0,0.6105184302
5391,8/12/2012 15:00,2.2755,11.7056,3.1968,22.999380000000002,1.77,2.676,2.4173999999999998,1.0035,0.5975323683
5392,8/12/2012 16:00,1.681,16.09024,2.3616,31.614402000000002,2.4330000000000003,3.7529999999999997,1.79172,1.1669999999999998,0.5685749496
5393,8/12/2012 17:00,1.28125,19.26464,1.8,37.851522,2.9130000000000003,4.515,1.1376,1.2195,0.51086353395
5394,8/12/2012 18:00,1.1685,21.74464,1.6416,42.724272,3.2880000000000003,4.918500000000001,1.0238399999999999,0.8145,0.40999593915
5395,8/12/2012 19:00,1.09675,23.10368,1.5408,45.394539,3.4935,10.905,0.0,0.5205000000000001,0.2310224385
5396,8/12/2012 20:00,0.91225,25.61344,1.2816,50.325762,3.8729999999999998,11.928,0.0,0.1905,0.0
5397,8/12/2012 21:00,1.025,27.329600000000003,1.44,53.697705000000006,4.1325,12.531,1.1944799999999998,0.252,0.0
5398,8/12/2012 22:00,0.0,24.66112,0.0,48.454626,3.7289999999999996,12.924000000000001,1.3508999999999998,0.2655,0.0
5399,8/12/2012 23:00,0.0,13.768960000000002,0.0,27.053508,2.0820000000000003,13.128,1.66374,0.276,0.0
5400,8/13/2012 0:00,0.0,2.06336,0.0,4.0541279999999995,0.312,0.315,1.4788799999999998,0.3555,0.0
5401,8/13/2012 1:00,0.0,2.27168,0.0,4.463439,0.3435,0.1305,1.3366799999999999,0.3135,0.0
5402,8/13/2012 2:00,0.0,2.3312,0.0,4.580385,0.3525,0.0,1.09494,0.8835000000000001,0.0
5403,8/13/2012 3:00,0.0,2.01376,0.0,3.9566729999999994,0.3045,0.0,0.0,0.6990000000000001,0.0
5404,8/13/2012 4:00,0.0,1.5872000000000002,0.0,3.11856,0.24,0.66,2.65914,0.0,0.0
5405,8/13/2012 5:00,0.0,1.8550400000000002,0.0,3.644817,0.2805,0.843,1.08072,0.129,0.36076382580000005
5406,8/13/2012 6:00,0.0,7.0927999999999995,0.0,13.936065,1.0725,0.915,0.0,0.1275,0.5236912380000001
5407,8/13/2012 7:00,0.0,5.32704,0.0,10.466667,0.8055,1.0574999999999999,1.0522799999999999,0.1305,0.45023045025
5408,8/13/2012 8:00,0.0,3.77952,0.0,7.426071,0.5715,0.909,1.7490599999999998,0.1335,0.33587756685000003
5409,8/13/2012 9:00,0.0,3.1843199999999996,0.0,6.2566109999999995,0.48149999999999993,0.7335,3.1284,0.15,0.32586020984999997
5410,8/13/2012 10:00,0.0,0.72416,0.0,1.422843,0.1095,0.0,5.048099999999999,0.162,0.38558450805000005
5411,8/13/2012 11:00,0.0,1.03168,0.0,2.0270639999999998,0.156,0.0,5.943959999999999,0.168,0.47147479365
5412,8/13/2012 12:00,0.0,0.0,0.0,0.0,0.0,0.0,5.744879999999999,0.162,0.5041047942
5413,8/13/2012 13:00,0.0,0.0,0.0,0.0,0.0,0.126,5.616899999999999,0.11699999999999999,0.5639576785500001
5414,8/13/2012 14:00,0.0,0.0,0.0,0.0,0.0,0.1245,6.4700999999999995,0.13949999999999999,0.57523138575
5415,8/13/2012 15:00,65.7435,0.8630399999999999,92.3616,1.695717,0.1305,0.1575,36.36053999999999,0.144,0.56385134925
5416,8/13/2012 16:00,0.0,1.30944,0.0,2.572812,0.198,2.0415,30.700979999999998,0.14100000000000001,0.53212191165
5417,8/13/2012 17:00,2.665,13.0944,3.744,25.72812,1.98,1.2254999999999998,24.58638,0.1845,0.44645451480000004
5418,8/13/2012 18:00,1.7117499999999999,12.201600000000001,2.4048,23.973930000000003,1.8450000000000002,1.0574999999999999,26.676719999999996,0.5715,0.34615531650000003
5419,8/13/2012 19:00,1.681,0.9622400000000001,2.3616,1.890627,0.14550000000000002,1.1415,73.28988,0.48899999999999993,0.18596187015
5420,8/13/2012 20:00,0.74825,0.0,1.0512,0.0,0.0,1.3875,38.664179999999995,0.4065,0.0
5421,8/13/2012 21:00,2.18325,0.0,3.0671999999999997,0.0,0.0,1.725,51.23466,0.396,0.0
5422,8/13/2012 22:00,2.51125,3.1744000000000003,3.528,6.23712,0.48,2.052,60.42077999999999,0.40950000000000003,0.0
5423,8/13/2012 23:00,2.85975,2.02368,4.0176,3.9761640000000003,0.30600000000000005,2.325,31.09914,0.39899999999999997,0.0
5424,8/14/2012 0:00,3.198,1.27968,4.4928,2.514339,0.1935,2.6535,28.35468,0.243,0.0
5425,8/14/2012 1:00,3.608,0.77376,5.0688,1.520298,0.11699999999999999,2.9535,41.437079999999995,0.24,0.0
5426,8/14/2012 2:00,1.6912500000000001,0.0,2.3760000000000003,0.0,0.0,0.0,2.65914,2.9175,0.0
5427,8/14/2012 3:00,2.24475,0.0,3.1536,0.0,0.0,0.0,2.09034,0.3465,0.0
5428,8/14/2012 4:00,3.3415,0.0,4.6944,0.0,0.0,10.407,1.8770399999999998,0.1305,0.0
5429,8/14/2012 5:00,2.94175,0.0,4.1328,0.0,0.0,0.9225,1.52154,0.0,0.1995490812
5430,8/14/2012 6:00,11.644,0.0,16.3584,0.0,0.0,0.879,1.12338,0.0,0.17573966025
5431,8/14/2012 7:00,4.428,1.1606400000000001,6.2208000000000006,2.280447,0.17550000000000002,2.8545,0.0,1.5450000000000002,0.18402520815
5432,8/14/2012 8:00,9.1225,4.43424,12.816,8.712477,0.6705,1.9035000000000002,0.0,1.0739999999999998,0.23232233535
5433,8/14/2012 9:00,12.054,3.60096,16.9344,7.075233,0.5445,1.6395,0.0,1.14,0.28707098595
5434,8/14/2012 10:00,12.67925,2.9264,17.8128,5.749845,0.4425,1.626,0.0,0.9929999999999999,0.35681308530000005
5435,8/14/2012 11:00,12.1155,2.51968,17.0208,4.950714,0.381,2.007,0.0,0.7605000000000001,0.4668549522
5436,8/14/2012 12:00,10.332,3.10496,14.5152,6.100683,0.46950000000000003,1.824,4.45086,0.6225,0.50607277035
5437,8/14/2012 13:00,15.303249999999998,4.73184,21.4992,9.297207,0.7155,0.0,3.7398599999999997,0.5175000000000001,0.40830724095000004
5438,8/14/2012 14:00,15.375,3.7696,21.599999999999998,7.40658,0.57,0.0,0.0,0.0,0.27359000235
5439,8/14/2012 15:00,32.431000000000004,2.27168,45.5616,4.463439,0.3435,0.20550000000000002,20.49102,0.0,0.29158779405
5440,8/14/2012 16:00,1.0455,1.1408,1.4688,2.241465,0.1725,0.3165,12.300299999999998,0.51,0.21950715780000002
5441,8/14/2012 17:00,1.19925,0.0,1.6848,0.0,0.0,0.429,7.380179999999999,2.589,0.1286611725
5442,8/14/2012 18:00,0.0,1.30944,0.0,2.572812,0.198,0.5115,7.16688,3.453,0.13994893184999999
5443,8/14/2012 19:00,0.0,27.577600000000004,0.0,54.18498,4.17,0.4365,8.446679999999999,4.0200000000000005,0.05994040605
5444,8/14/2012 20:00,0.0,25.573759999999996,0.0,50.247797999999996,3.8669999999999995,0.414,6.92514,3.8204999999999996,0.0
5445,8/14/2012 21:00,0.0,25.028160000000003,0.0,49.175793000000006,3.7845000000000004,0.42600000000000005,5.645339999999999,0.0,0.0
5446,8/14/2012 22:00,0.738,24.18496,1.0368,47.519057999999994,3.657,0.48450000000000004,4.9059,0.27749999999999997,0.0
5447,8/14/2012 23:00,8.025749999999999,22.072000000000003,11.2752,43.367475,3.3375,1.419,3.39858,0.0,0.0
5448,8/15/2012 0:00,0.0,1.36896,0.0,2.689758,0.207,1.626,1.7632799999999997,1.77,0.0
5449,8/15/2012 1:00,0.0,1.03168,0.0,2.0270639999999998,0.156,0.5925,1.6210799999999999,1.8375,0.0
5450,8/15/2012 2:00,0.0,1.87488,0.0,3.683799,0.2835,0.6525,1.10916,1.7685,0.0
5451,8/15/2012 3:00,0.0,2.5891200000000003,0.0,5.087151,0.3915,0.1545,4.1949,1.7475,0.0
5452,8/15/2012 4:00,0.0,14.00704,0.0,27.521292,2.118,0.1875,3.9389399999999997,2.3505000000000003,0.0
5453,8/15/2012 5:00,0.0,12.786879999999998,0.0,25.123898999999998,1.9334999999999998,1.2465,2.78712,0.288,0.0852162297
5454,8/15/2012 6:00,9.7785,12.07264,13.7376,23.720547,1.8255000000000001,0.1155,2.4031799999999994,0.2925,0.11084126759999999
5455,8/15/2012 7:00,10.19875,11.58656,14.328000000000001,22.765488,1.752,0.0,2.21832,2.1705,0.14011002705
5456,8/15/2012 8:00,0.0,11.32864,0.0,22.258722,1.7129999999999999,0.0,2.1756599999999997,1.8359999999999999,0.20573358330000002
5457,8/15/2012 9:00,0.0,11.021120000000002,0.0,21.654501,1.6665,0.0,2.03346,2.0235,0.2549979495
5458,8/15/2012 10:00,0.0,11.080639999999999,0.0,21.771447,1.6755,0.0,1.23714,1.917,0.3009160896
5459,8/15/2012 11:00,0.0,5.1683200000000005,0.0,10.154811,0.7815,0.11850000000000001,1.25136,0.1935,0.3306985731
5460,8/15/2012 12:00,0.0,5.98176,0.0,11.753073,0.9045,0.144,2.43162,0.126,0.3443890632
5461,8/15/2012 13:00,0.0,6.83488,0.0,13.429299,1.0335,0.1365,4.010039999999999,0.129,0.34051212825
5462,8/15/2012 14:00,0.0,11.7056,0.0,22.999380000000002,1.77,0.192,19.964879999999997,0.447,0.31820944995
5463,8/15/2012 15:00,0.0,10.306880000000001,0.0,20.251149,1.5585,0.46799999999999997,26.491859999999996,0.4935,0.35624508255000004
5464,8/15/2012 16:00,1.8347499999999999,5.43616,2.5776,10.681068,0.8220000000000001,2.8289999999999997,32.464259999999996,0.5565,0.39308316390000003
5465,8/15/2012 17:00,1.44525,5.01952,2.0303999999999998,9.862446,0.759,2.877,1.9765799999999998,0.49200000000000005,0.2993846289
5466,8/15/2012 18:00,1.1685,5.07904,1.6416,9.979392,0.768,2.88,31.12758,0.38249999999999995,0.18667096244999998
5467,8/15/2012 19:00,1.2915,5.2873600000000005,1.8144,10.388703,0.7995,3.189,48.077819999999996,0.2265,0.0939730218
5468,8/15/2012 20:00,0.9942500000000001,5.0592,1.3968,9.94041,0.7649999999999999,3.63,26.7336,0.41850000000000004,0.0
5469,8/15/2012 21:00,0.8815,4.65248,1.2384,9.141278999999999,0.7035,4.395,8.190719999999999,0.1605,0.0
5470,8/15/2012 22:00,0.97375,3.95808,1.3679999999999999,7.776909,0.5984999999999999,5.619,8.773739999999998,1.0545,0.0
5471,8/15/2012 23:00,1.15825,3.6406400000000003,1.6272,7.1531970000000005,0.5505000000000001,6.9750000000000005,10.1673,1.104,0.0
5472,8/16/2012 0:00,1.271,3.35296,1.7855999999999999,6.5879579999999995,0.5069999999999999,7.878,13.452119999999999,0.6975,0.0
5473,8/16/2012 1:00,1.15825,2.79744,1.6272,5.496462,0.423,7.803,2.78712,1.0185,0.0
5474,8/16/2012 2:00,0.0,1.20032,0.0,2.358411,0.1815,13.986,3.65454,1.7714999999999999,0.0
5475,8/16/2012 3:00,7.20575,0.0,10.1232,0.0,0.0,14.106,4.29444,0.30600000000000005,0.0
5476,8/16/2012 4:00,3.10575,0.0,4.3632,0.0,0.0,0.414,3.38436,0.28200000000000003,0.0
5477,8/16/2012 5:00,4.0897499999999996,0.0,5.7456,0.0,0.0,0.453,2.2752,3.5204999999999997,0.009628615500000002
5478,8/16/2012 6:00,5.535000000000001,0.0,7.776000000000001,0.0,0.0,0.4935,2.6449199999999995,0.8355,0.16705292835000002
5479,8/16/2012 7:00,7.1442499999999995,0.0,10.0368,0.0,0.0,0.51,4.79214,0.3315,0.08602320405
5480,8/16/2012 8:00,9.881,1.06144,13.8816,2.085537,0.1605,0.47400000000000003,9.484739999999999,0.276,0.1280817867
5481,8/16/2012 9:00,14.729249999999999,1.08128,20.6928,2.124519,0.1635,0.3945,26.97534,0.23249999999999998,0.1650990075
5482,8/16/2012 10:00,18.72675,5.19808,26.3088,10.213284,0.786,0.2985,26.392319999999994,0.20550000000000002,0.17533573260000002
5483,8/16/2012 11:00,1.99875,5.93216,2.808,11.655618,0.897,13.6035,14.0778,0.165,0.09518076015000002
5484,8/16/2012 12:00,1.804,4.4639999999999995,2.5344,8.77095,0.6749999999999999,13.054499999999999,14.13468,0.147,0.19586744205
5485,8/16/2012 13:00,1.67075,1.7360000000000002,2.3472,3.410925,0.2625,12.3675,33.08994,1.3950000000000002,0.24897174540000003
5486,8/16/2012 14:00,1.54775,1.00192,2.1744,1.968591,0.1515,11.586,40.356359999999995,0.3195,0.22568492625
5487,8/16/2012 15:00,1.30175,3.04544,1.8288,5.9837370000000005,0.4605,11.129999999999999,34.85322,0.2955,0.2160667719
5488,8/16/2012 16:00,0.0,0.0,0.0,0.0,0.0,11.013,14.959439999999999,0.2595,0.17950588215000002
5489,8/16/2012 17:00,0.0,0.0,0.0,0.0,0.0,11.140500000000001,0.0,0.2115,0.133088214
5490,8/16/2012 18:00,6.28325,0.0,8.8272,0.0,0.0,0.0,0.0,0.1605,0.2018990085
5491,8/16/2012 19:00,7.8515,0.0,11.0304,0.0,0.0,0.0,1.6352999999999998,0.0,0.10215153795000001
5492,8/16/2012 20:00,6.232,4.92032,8.7552,9.667536,0.744,0.0,1.4362199999999998,0.0,0.0
5493,8/16/2012 21:00,5.750249999999999,0.8928000000000001,8.0784,1.7541900000000001,0.135,0.0,1.09494,0.0,0.0
5494,8/16/2012 22:00,5.3505,0.9820800000000001,7.516800000000001,1.9296090000000001,0.14850000000000002,0.0,3.08574,0.0,0.0
5495,8/16/2012 23:00,5.535000000000001,1.7260799999999998,7.776000000000001,3.391434,0.261,9.062999999999999,45.361799999999995,0.0,0.0
5496,8/17/2012 0:00,6.806,2.3609600000000004,9.5616,4.638858,0.35700000000000004,6.5415,39.929759999999995,0.0,0.0
5497,8/17/2012 1:00,9.15325,2.3609600000000004,12.859200000000001,4.638858,0.35700000000000004,4.5015,7.508159999999999,0.171,0.0
5498,8/17/2012 2:00,11.59275,1.1408,16.2864,2.241465,0.1725,0.2115,5.14764,0.165,0.0
5499,8/17/2012 3:00,13.089250000000002,5.71392,18.3888,11.226816,0.864,0.1965,4.94856,0.126,0.0
5500,8/17/2012 4:00,14.432,5.56512,20.2752,10.934451,0.8414999999999999,0.17550000000000002,8.34714,0.0,0.0
5501,8/17/2012 5:00,14.944500000000001,5.08896,20.9952,9.998883,0.7695,0.18,16.53786,0.0,0.0112616385
5502,8/17/2012 6:00,7.574749999999999,3.11488,10.641599999999999,6.120174,0.471,1.0305,10.39482,0.0,0.051157613850000005
5503,8/17/2012 7:00,5.9245,0.0,8.3232,0.0,0.0,0.888,29.065679999999997,0.54,0.10398433184999999
5504,8/17/2012 8:00,6.75475,1.8649600000000002,9.4896,3.664308,0.28200000000000003,0.831,4.59306,0.3855,0.15483567855
5505,8/17/2012 9:00,6.0680000000000005,1.5673600000000003,8.5248,3.079578,0.23700000000000002,0.8594999999999999,3.8109599999999997,0.33,0.18434321325
5506,8/17/2012 10:00,1.8142500000000001,0.0,2.5488,0.0,0.0,1.0139999999999998,3.7398599999999997,0.24,0.24570337785
5507,8/17/2012 11:00,20.1515,0.0,28.3104,0.0,0.0,1.0875,1.0522799999999999,0.15300000000000002,0.23642856090000003
5508,8/17/2012 12:00,0.0,0.0,0.0,0.0,0.0,1.137,8.290259999999998,0.13949999999999999,0.2600366412
5509,8/17/2012 13:00,0.7687499999999999,0.9622400000000001,1.08,1.890627,0.14550000000000002,0.6885,5.73066,0.696,0.27252146145
5510,8/17/2012 14:00,0.861,1.39872,1.2096,2.748231,0.2115,1.17,8.11962,0.0,0.2705276847
5511,8/17/2012 15:00,0.85075,1.94432,1.1952,3.820236,0.294,1.1025,39.36096,0.126,0.2573220972
5512,8/17/2012 16:00,0.0,1.11104,0.0,2.182992,0.168,0.25349999999999995,35.63531999999999,0.14550000000000002,0.29080259459999996
5513,8/17/2012 17:00,3.41325,1.0912000000000002,4.7952,2.14401,0.165,0.16949999999999998,31.0707,0.1605,0.17799191025
5514,8/17/2012 18:00,2.01925,1.30944,2.8367999999999998,2.572812,0.198,0.0,46.89755999999999,0.177,0.0709309923
5515,8/17/2012 19:00,1.44525,2.0336000000000003,2.0303999999999998,3.995655,0.3075,0.5865,2.75868,0.156,0.025094189399999998
5516,8/17/2012 20:00,1.46575,3.1843199999999996,2.0592,6.2566109999999995,0.48149999999999993,0.48899999999999993,5.07654,1.0214999999999999,0.0
5517,8/17/2012 21:00,1.9064999999999999,3.9977600000000004,2.6784,7.854873,0.6045,0.402,20.73276,1.0035,0.0
5518,8/17/2012 22:00,2.337,3.54144,3.2832,6.958287,0.5355000000000001,0.504,18.18738,1.0335,0.0
5519,8/17/2012 23:00,2.993,3.40256,4.2048,6.685413,0.5145,0.5940000000000001,16.111259999999998,0.9525,0.0
5520,8/18/2012 0:00,4.592,3.1644799999999997,6.4512,6.217629,0.4785,0.7065,6.740279999999999,1.0350000000000001,0.0
5521,8/18/2012 1:00,2.091,2.96608,2.9376,5.827809,0.4485,0.777,8.290259999999998,0.0,0.0
5522,8/18/2012 2:00,2.59325,2.9264,3.6431999999999998,5.749845,0.4425,0.777,7.294859999999999,0.0,0.0
5523,8/18/2012 3:00,3.4644999999999997,5.823040000000001,4.8671999999999995,11.441217,0.8805000000000001,0.7184999999999999,4.777919999999999,0.0,0.0
5524,8/18/2012 4:00,3.198,3.9680000000000004,4.4928,7.7964,0.6,0.0,3.1141799999999997,0.0,0.0
5525,8/18/2012 5:00,6.1602500000000004,2.79744,8.6544,5.496462,0.423,1.0125000000000002,2.2325399999999997,0.0,0.011511496500000001
5526,8/18/2012 6:00,11.42875,2.728,16.056,5.360025,0.4125,1.191,3.4128,0.0,0.27080990895
5527,8/18/2012 7:00,16.20525,35.97984,22.766399999999997,70.69385700000001,5.4405,1.4805,5.645339999999999,0.0,0.35617460025
5528,8/18/2012 8:00,20.16175,31.327360000000002,28.324800000000003,61.552578000000004,4.737,1.509,5.403599999999999,1.8764999999999998,0.35360844960000004
5529,8/18/2012 9:00,1.26075,28.45056,1.7712,55.900188,4.302,1.1084999999999998,3.7825199999999994,2.1945,0.34714642830000003
5530,8/18/2012 10:00,0.85075,26.55584,1.1952,52.177406999999995,4.0155,0.6375000000000001,2.33208,0.5640000000000001,0.41853898905000003
5531,8/18/2012 11:00,0.9942500000000001,2.50976,1.3968,4.931223,0.3795,0.44999999999999996,2.2752,2.5545,0.4896501225
5532,8/18/2012 12:00,1.40425,2.1328,1.9728,4.190564999999999,0.32249999999999995,0.0,7.266419999999999,2.4255,0.54572478135
5533,8/18/2012 13:00,2.0295,1.4086400000000001,2.8512000000000004,2.767722,0.21300000000000002,0.0,7.749899999999999,0.8744999999999999,0.5810673414
5534,8/18/2012 14:00,3.2390000000000003,57.58560000000001,4.550400000000001,113.145255,8.7075,0.0,7.977419999999999,1.146,0.5904115875
5535,8/18/2012 15:00,8.938,70.91808,12.556799999999999,139.341159,10.7235,0.2925,9.11502,1.0035,0.58146960165
5536,8/18/2012 16:00,9.66575,77.34624,13.5792,151.97132699999997,11.6955,0.22499999999999998,11.176919999999999,0.7005,0.5405315674500001
5537,8/18/2012 17:00,8.72275,5.14848,12.254399999999999,10.115829,0.7785,0.0,13.39524,1.83,0.47350193835000004
5538,8/18/2012 18:00,9.87075,5.356800000000001,13.8672,10.52514,0.81,0.0,15.058979999999998,0.2265,0.36118023164999996
5539,8/18/2012 19:00,12.054,5.09888,16.9344,10.018374,0.771,6.3495,17.135099999999998,0.24449999999999997,0.07530533850000001
5540,8/18/2012 20:00,11.398,4.63264,16.0128,9.102297,0.7005,6.903,18.6282,0.318,0.0
5541,8/18/2012 21:00,8.077,3.63072,11.347199999999999,7.133706,0.549,0.12,17.95986,0.4275,0.0
5542,8/18/2012 22:00,6.4677500000000006,2.8768,9.086400000000001,5.65239,0.43499999999999994,0.171,14.020919999999998,0.5640000000000001,0.0
5543,8/18/2012 23:00,6.1705,1.9046399999999999,8.6688,3.742272,0.288,0.2355,9.427859999999999,0.15,0.0
5544,8/19/2012 0:00,5.617,1.5872000000000002,7.8912,3.11856,0.24,0.30600000000000005,7.465499999999999,0.1335,0.0
5545,8/19/2012 1:00,4.9405,1.25984,6.9408,2.475357,0.1905,0.3,8.48934,3.117,0.0
5546,8/19/2012 2:00,4.47925,7.9756800000000005,6.292800000000001,15.670764,1.206,0.3075,9.64116,2.52,0.0
5547,8/19/2012 3:00,6.40625,19.7904,9.0,38.884545,2.9925,0.0,27.743219999999997,1.9095,0.0
5548,8/19/2012 4:00,8.59975,22.48864,12.0816,44.186097000000004,3.4005,0.17550000000000002,27.501479999999997,1.5855000000000001,0.0
5549,8/19/2012 5:00,10.516499999999999,28.063679999999998,14.7744,55.140038999999994,4.2435,11.094000000000001,23.6052,1.383,0.01019398065
5550,8/19/2012 6:00,10.95725,1.5673600000000003,15.3936,3.079578,0.23700000000000002,0.504,14.6466,1.1580000000000001,0.1093919253
5551,8/19/2012 7:00,10.99825,1.4086400000000001,15.4512,2.767722,0.21300000000000002,0.5640000000000001,0.0,0.252,0.21197053185
5552,8/19/2012 8:00,10.62925,1.9939200000000001,14.9328,3.917691,0.3015,0.8145,0.0,0.0,0.23028335084999998
5553,8/19/2012 9:00,3.41325,1.81536,4.7952,3.566853,0.2745,0.8145,0.0,0.0,0.3022314015
5554,8/19/2012 10:00,0.0,5.8726400000000005,0.0,11.538672,0.888,0.5745,4.16646,0.15300000000000002,0.37744793415
5555,8/19/2012 11:00,0.0,0.7340800000000001,0.0,1.442334,0.111,0.2115,3.5123399999999996,0.228,0.3231120753
5556,8/19/2012 12:00,0.0,0.0,0.0,0.0,0.0,0.243,6.1003799999999995,0.2745,0.43358318744999996
5557,8/19/2012 13:00,2.22425,0.0,3.1248,0.0,0.0,0.288,0.0,0.288,0.4224069958500001
5558,8/19/2012 14:00,2.8905,0.0,4.0607999999999995,0.0,0.0,1.044,0.0,0.273,0.42325878105000003
5559,8/19/2012 15:00,4.633,0.0,6.5088,0.0,0.0,0.882,0.0,0.207,0.3415086234
5560,8/19/2012 16:00,4.9405,7.08288,6.9408,13.916574,1.0710000000000002,0.777,0.0,0.1725,0.42551516595
5561,8/19/2012 17:00,5.58625,6.606720000000001,7.848,12.981006,0.9990000000000001,5.6579999999999995,0.0,0.1515,0.3868399101
5562,8/19/2012 18:00,5.40175,6.3289599999999995,7.588799999999999,12.435258,0.957,0.3315,2.8582199999999998,0.129,0.34350855315
5563,8/19/2012 19:00,5.2275,6.061120000000001,7.343999999999999,11.909001,0.9165,2.1149999999999998,2.2325399999999997,2.9895,0.0948327303
5564,8/19/2012 20:00,0.0,5.8726400000000005,0.0,11.538672,0.888,3.093,2.7160199999999994,3.342,0.0
5565,8/19/2012 21:00,2.26525,5.54528,3.1824000000000003,10.895469,0.8385,3.411,3.64032,1.4144999999999999,0.0
5566,8/19/2012 22:00,1.722,4.840960000000001,2.4192,9.511608,0.7320000000000001,3.2910000000000004,7.1811,1.182,0.0
5567,8/19/2012 23:00,3.72075,0.0,5.2272,0.0,0.0,7.1115,8.290259999999998,0.264,0.0
5568,8/20/2012 0:00,5.11475,15.0784,7.1856,29.62632,2.28,4.9485,9.4563,0.2115,0.0
5569,8/20/2012 1:00,3.94625,0.0,5.544,0.0,0.0,6.1155,8.97282,0.1875,0.0
5570,8/20/2012 2:00,4.899500000000001,12.67776,6.8832,24.909498,1.917,2.397,5.289839999999999,0.1305,0.0
5571,8/20/2012 3:00,6.1499999999999995,10.47552,8.64,20.582496,1.584,6.756,3.6829799999999997,0.0,0.0
5572,8/20/2012 4:00,7.677249999999999,8.34272,10.785599999999999,16.391931,1.2614999999999998,7.2225,1.94814,0.0,0.0
5573,8/20/2012 5:00,0.0,0.0,0.0,0.0,0.0,0.672,1.94814,3.567,0.0563758209
5574,8/20/2012 6:00,4.72525,0.0,6.638400000000001,0.0,0.0,0.3075,2.4173999999999998,2.916,0.27653629080000003
5575,8/20/2012 7:00,16.90225,7.33088,23.7456,14.403849,1.1084999999999998,0.186,2.2325399999999997,2.0220000000000002,0.34539254925
5576,8/20/2012 8:00,23.72875,7.4499200000000005,33.336,14.637741,1.1265,10.8495,2.6733599999999997,2.0700000000000003,0.3068813685
5577,8/20/2012 9:00,19.3725,7.32096,27.215999999999998,14.384358,1.107,11.79,2.6306999999999996,0.5445,0.33486427380000006
5578,8/20/2012 10:00,2.173,7.77728,3.0528,15.280944,1.176,0.46499999999999997,2.6733599999999997,0.591,0.4114258302
5579,8/20/2012 11:00,0.9225000000000001,7.6384,1.2960000000000003,15.00807,1.155,0.462,2.33208,0.7635000000000001,0.46228909755
5580,8/20/2012 12:00,0.0,6.86464,0.0,13.487772,1.038,5.0025,1.9765799999999998,0.894,0.51944993205
5581,8/20/2012 13:00,0.0,1.44832,0.0,2.845686,0.219,5.3325,80.00171999999999,0.12,0.5223004048500001
5582,8/20/2012 14:00,0.9635,0.9027200000000001,1.3536000000000001,1.773681,0.1365,1.3605,1.3366799999999999,0.1095,0.4934424978
5583,8/20/2012 15:00,1.763,3.77952,2.4768,7.426071,0.5715,0.2205,1.4646599999999999,0.0,0.5159194656
5584,8/20/2012 16:00,2.94175,1.4384000000000001,4.1328,2.8261950000000002,0.2175,0.1905,1.6495199999999997,0.0,0.5008691205
5585,8/20/2012 17:00,0.0,0.80352,0.0,1.578771,0.1215,0.15300000000000002,0.0,0.0,0.44865749039999997
5586,8/20/2012 18:00,0.0,0.9324800000000001,0.0,1.832154,0.14100000000000001,0.111,8.3187,0.162,0.32826026415000004
5587,8/20/2012 19:00,1.0455,1.8848,1.4688,3.70329,0.285,0.0,3.7682999999999995,0.2715,0.08255613660000001
5588,8/20/2012 20:00,0.97375,8.69984,1.3679999999999999,17.093607,1.3155000000000001,0.0,0.0,0.429,0.0
5589,8/20/2012 21:00,1.0045,1.2400000000000002,1.4112,2.436375,0.1875,0.41999999999999993,1.09494,0.5579999999999999,0.0
5590,8/20/2012 22:00,1.11725,0.0,1.5695999999999999,0.0,0.0,0.777,1.53576,0.696,0.0
5591,8/20/2012 23:00,1.2505000000000002,8.45184,1.7568000000000001,16.606332,1.278,0.6615,1.9765799999999998,0.7140000000000001,0.0
5592,8/21/2012 0:00,1.38375,7.519360000000001,1.944,14.774178000000001,1.137,0.0,0.0,0.5984999999999999,0.0
5593,8/21/2012 1:00,7.6465,8.21376,10.7424,16.138548,1.242,0.0,0.0,0.15,0.0
5594,8/21/2012 2:00,14.8215,28.83744,20.822400000000002,56.660337,4.3605,0.0,16.111259999999998,0.501,0.0
5595,8/21/2012 3:00,1.3325,21.328,1.872,41.90565,3.225,0.0,10.60812,0.3615,0.0
5596,8/21/2012 4:00,2.01925,0.0,2.8367999999999998,0.0,0.0,0.0,11.959019999999999,0.0,0.0
5597,8/21/2012 5:00,6.7035,1.32928,9.4176,2.611794,0.201,0.4455,8.83062,1.6155000000000002,0.04369766625
5598,8/21/2012 6:00,6.5600000000000005,5.71392,9.216000000000001,11.226816,0.864,0.378,3.9958199999999997,1.6875,0.19088573805000003
5599,8/21/2012 7:00,6.7444999999999995,5.654400000000001,9.4752,11.10987,0.855,0.276,0.0,0.9405000000000001,0.4665507399
5600,8/21/2012 8:00,7.10325,42.74528,9.9792,83.986719,6.4635,0.192,0.0,0.6134999999999999,0.3537541161
5601,8/21/2012 9:00,7.20575,38.50944,10.1232,75.664062,5.8229999999999995,0.0,0.0,0.603,0.3335097108
5602,8/21/2012 10:00,6.7855,60.968320000000006,9.5328,119.791686,9.219000000000001,0.0,0.0,0.46799999999999997,0.41200069575000003
5603,8/21/2012 11:00,6.81625,0.0,9.576,0.0,0.0,0.0,0.0,1.9859999999999998,0.4585165095
5604,8/21/2012 12:00,7.544,0.0,10.5984,0.0,0.0,0.0,0.0,1.8555000000000001,0.50777060145
5605,8/21/2012 13:00,7.9334999999999996,0.0,11.1456,0.0,0.0,0.0,0.0,1.9965,0.5281446828
5606,8/21/2012 14:00,0.74825,2.56928,1.0512,5.048169,0.3885,0.0,0.0,3.0345,0.54064037475
5607,8/21/2012 15:00,0.0,2.3212800000000002,0.0,4.560894,0.35100000000000003,0.0,0.0,3.1905,0.50047471425
5608,8/21/2012 16:00,0.0,2.14272,0.0,4.210056,0.324,0.0,16.12548,3.1485,0.43107371895
5609,8/21/2012 17:00,0.0,0.0,0.0,0.0,0.0,0.0,18.07362,2.871,0.22986943980000005
5610,8/21/2012 18:00,0.0,0.0,0.0,0.0,0.0,0.108,9.612719999999998,2.5635,0.1150894563
5611,8/21/2012 19:00,0.0,0.0,0.0,0.0,0.0,0.1245,14.376419999999998,2.4,0.053064812850000004
5612,8/21/2012 20:00,0.0,0.0,0.0,0.0,0.0,0.11249999999999999,24.34464,2.556,0.0
5613,8/21/2012 21:00,0.0,1.77568,0.0,3.488889,0.26849999999999996,0.114,34.42662,3.0495,0.0
5614,8/21/2012 22:00,12.5665,1.06144,17.6544,2.085537,0.1605,0.0,32.17986,3.1799999999999997,0.0
5615,8/21/2012 23:00,0.0,1.42848,0.0,2.806704,0.216,0.14550000000000002,2.1329999999999996,3.1275,0.0
5616,8/22/2012 0:00,0.0,1.9840000000000002,0.0,3.8982,0.3,0.738,12.200759999999999,2.967,0.0
5617,8/22/2012 1:00,0.0,23.09376,0.0,45.375048,3.492,1.2299999999999998,16.87914,2.4705000000000004,0.0
5618,8/22/2012 2:00,0.0,21.85376,0.0,42.938673,3.3045,0.9885,0.0,1.887,0.0
5619,8/22/2012 3:00,0.0,18.639680000000002,0.0,36.623589,2.8185000000000002,0.387,0.0,1.494,0.0
5620,8/22/2012 4:00,0.78925,12.221440000000001,1.1088,24.012912,1.848,0.345,0.0,1.2105,0.0
5621,8/22/2012 5:00,0.861,8.15424,1.2096,16.021601999999998,1.2329999999999999,0.531,0.0,1.2435,0.11571460740000002
5622,8/22/2012 6:00,1.6195000000000002,5.8032,2.2752000000000003,11.402235000000001,0.8775000000000001,3.5025000000000004,42.04854,1.3725,0.30197543880000005
5623,8/22/2012 7:00,1.5887499999999999,5.654400000000001,2.232,11.10987,0.855,4.1819999999999995,0.0,1.389,0.33601336230000006
5624,8/22/2012 8:00,1.7834999999999999,0.0,2.5056,0.0,0.0,0.423,1.00962,1.263,0.33330494715000003
5625,8/22/2012 9:00,2.1115,0.0,2.9664,0.0,0.0,0.354,1.1518199999999998,0.9494999999999999,0.32297610345
5626,8/22/2012 10:00,2.6035,0.7936000000000001,3.6576,1.55928,0.12,0.30600000000000005,3.09996,0.738,0.4017636798
5627,8/22/2012 11:00,3.06475,1.3887999999999998,4.3056,2.7287399999999997,0.20999999999999996,0.2655,0.0,0.651,0.47866693560000007
5628,8/22/2012 12:00,4.27425,0.0,6.0048,0.0,0.0,0.147,0.0,0.5235,0.5208812994
5629,8/22/2012 13:00,6.888,0.0,9.6768,0.0,0.0,0.0,0.0,0.2475,0.5334048069
5630,8/22/2012 14:00,10.93675,0.0,15.3648,0.0,0.0,0.0,0.0,0.29700000000000004,0.49200231045000004
5631,8/22/2012 15:00,12.546,0.0,17.6256,0.0,0.0,0.843,1.1518199999999998,1.059,0.4636978269
5632,8/22/2012 16:00,14.309000000000001,4.29536,20.1024,8.439603,0.6495,1.0995000000000001,6.242579999999999,1.3725,0.2267535711
5633,8/22/2012 17:00,0.9635,2.9363200000000003,1.3536000000000001,5.769336,0.444,0.618,2.9861999999999997,1.7655,0.17091478529999998
5634,8/22/2012 18:00,1.394,0.0,1.9584,0.0,0.0,0.6225,2.3889599999999995,2.1990000000000003,0.1125612873
5635,8/22/2012 19:00,1.2505000000000002,0.0,1.7568000000000001,0.0,0.0,0.5940000000000001,3.22794,1.812,0.0160352976
5636,8/22/2012 20:00,1.19925,0.0,1.6848,0.0,0.0,0.5640000000000001,3.1852799999999997,1.1010000000000002,0.0
5637,8/22/2012 21:00,1.3632499999999999,0.0,1.9152,0.0,0.0,1.977,3.2563799999999996,1.038,0.0
5638,8/22/2012 22:00,1.7425000000000002,0.0,2.4480000000000004,0.0,0.0,5.833500000000001,3.2563799999999996,0.3855,0.0
5639,8/22/2012 23:00,1.722,0.8630399999999999,2.4192,1.695717,0.1305,5.6129999999999995,3.88206,0.35700000000000004,0.0
5640,8/23/2012 0:00,1.5170000000000001,8.05504,2.1312,15.826691999999998,1.218,5.367,4.67838,0.333,0.0
5641,8/23/2012 1:00,1.4144999999999999,9.7216,1.9872,19.10118,1.47,5.673,4.89168,0.3045,0.0
5642,8/23/2012 2:00,1.40425,10.74336,1.9728,21.108753,1.6244999999999998,10.371,4.977,0.1095,0.0
5643,8/23/2012 3:00,1.28125,10.068800000000001,1.8,19.783365,1.5225000000000002,10.149,4.93434,0.2595,0.0
5644,8/23/2012 4:00,1.03525,9.31488,1.4544,18.302049,1.4084999999999999,3.1065,3.65454,0.4005,0.0
5645,8/23/2012 5:00,0.0,9.225600000000002,0.0,18.126630000000002,1.3950000000000002,6.0344999999999995,2.46006,1.1175,0.00365509935
5646,8/23/2012 6:00,0.0,9.11648,0.0,17.912229,1.3784999999999998,9.444,6.484319999999999,1.2029999999999998,0.07461972105
5647,8/23/2012 7:00,0.0,8.7792,0.0,17.249534999999998,1.3275,11.920499999999999,8.34714,1.1235,0.1144305015
5648,8/23/2012 8:00,0.0,8.14432,0.0,16.002111,1.2315,13.234499999999999,9.35676,0.786,0.0852843138
5649,8/23/2012 9:00,0.0,7.30112,0.0,14.345376,1.104,13.83,0.0,0.5115,0.07845238065000001
5650,8/23/2012 10:00,0.0,6.557120000000001,0.0,12.883551,0.9915,14.16,0.0,0.9165,0.13599583305000001
5651,8/23/2012 11:00,0.0,1.3788799999999999,0.0,2.709249,0.2085,14.2725,0.0,2.184,0.14263249770000003
5652,8/23/2012 12:00,1.89625,2.1824000000000003,2.6639999999999997,4.28802,0.33,14.193000000000001,0.0,2.3295,0.361621428
5653,8/23/2012 13:00,3.3415,2.2319999999999998,4.6944,4.385475,0.33749999999999997,13.8735,0.0,1.8615,0.2993570076
5654,8/23/2012 14:00,4.78675,31.744000000000003,6.7248,62.3712,4.8,6.8415,0.0,1.1805,0.39424580055
5655,8/23/2012 15:00,6.01675,1.0416,8.4528,2.046555,0.1575,4.6785000000000005,0.0,0.0,0.173433036
5656,8/23/2012 16:00,6.631749999999999,0.0,9.316799999999999,0.0,0.0,2.421,0.0,0.0,0.06115507755
5657,8/23/2012 17:00,6.724,0.0,9.4464,0.0,0.0,1.1159999999999999,1.03806,0.0,0.035425459650000005
5658,8/23/2012 18:00,6.601,0.0,9.2736,0.0,0.0,0.5984999999999999,0.0,0.0,0.027726166650000002
5659,8/23/2012 19:00,6.81625,0.83328,9.576,1.637244,0.126,0.6255000000000001,1.03806,0.0,0.00215151615
5660,8/23/2012 20:00,7.84125,3.36288,11.016,6.607449,0.5085,11.172,1.1944799999999998,0.0,0.0
5661,8/23/2012 21:00,8.2,3.1545600000000005,11.52,6.198138,0.47700000000000004,2.064,1.16604,0.0,0.0
5662,8/23/2012 22:00,7.12375,2.6288,10.008000000000001,5.165115,0.39749999999999996,2.6535,0.0,0.0,0.0
5663,8/23/2012 23:00,4.92,2.34112,6.912,4.599876,0.354,0.2925,3.6972,0.0,0.0
5664,8/24/2012 0:00,4.4485,2.16256,6.2496,4.249038,0.327,0.267,3.9389399999999997,0.0,0.0
5665,8/24/2012 1:00,4.059,2.04352,5.702400000000001,4.015146,0.309,0.22949999999999998,3.5692199999999996,0.0,0.0
5666,8/24/2012 2:00,2.85975,2.61888,4.0176,5.145624,0.396,0.20550000000000002,2.8582199999999998,0.252,0.0
5667,8/24/2012 3:00,3.3415,1.7459200000000001,4.6944,3.430416,0.264,0.189,2.16144,0.22949999999999998,0.0
5668,8/24/2012 4:00,1.05575,0.8630399999999999,1.4832,1.695717,0.1305,0.18,1.6352999999999998,0.1965,0.0
5669,8/24/2012 5:00,1.48625,1.2896,2.088,2.53383,0.195,0.11249999999999999,2.60226,0.18,0.0004830084000000001
5670,8/24/2012 6:00,0.902,2.04352,1.2672,4.015146,0.309,9.8775,2.9435399999999996,0.1725,0.0065147376
5671,8/24/2012 7:00,0.0,0.0,0.0,0.0,0.0,9.8415,2.6164799999999997,0.11850000000000001,0.01782491865
5672,8/24/2012 8:00,0.0,0.0,0.0,0.0,0.0,9.9765,1.3651199999999997,0.2475,0.023825298
5673,8/24/2012 9:00,0.0,0.0,0.0,0.0,0.0,0.684,1.5642,0.0,0.03316415339999999
5674,8/24/2012 10:00,0.0,0.0,0.0,0.0,0.0,9.546,34.09956,0.10499999999999998,0.051049037549999995
5675,8/24/2012 11:00,0.0,2.83712,0.0,5.574426,0.429,8.493,0.0,0.0,0.0566039964
5676,8/24/2012 12:00,0.0,3.3232000000000004,0.0,6.529485,0.5025000000000001,6.606,1.73484,0.0,0.07049106855
5677,8/24/2012 13:00,0.0,3.48192,0.0,6.841341,0.5265,4.686,4.03848,0.0,0.21489633585
5678,8/24/2012 14:00,0.0,3.4918400000000003,0.0,6.860832,0.528,3.345,3.8251799999999996,0.7184999999999999,0.24372806535
5679,8/24/2012 15:00,2.75725,3.7100800000000005,3.8736,7.289634,0.561,2.775,5.03388,0.69,0.23346401295
5680,8/24/2012 16:00,8.077,4.17632,11.347199999999999,8.205710999999999,0.6315,2.5829999999999997,2.14722,0.6465,0.2412683112
5681,8/24/2012 17:00,8.12825,4.65248,11.4192,9.141278999999999,0.7035,2.775,2.26098,0.5175000000000001,0.38703073815
5682,8/24/2012 18:00,12.382,4.65248,17.3952,9.141278999999999,0.7035,0.342,3.07152,0.0,0.25116360675
5683,8/24/2012 19:00,15.129000000000001,1.6368,21.2544,3.216015,0.2475,0.387,2.4885,0.0,0.025846609950000002
5684,8/24/2012 20:00,19.382749999999998,18.451200000000004,27.2304,36.253260000000004,2.7900000000000005,0.4335,1.45044,0.6585,0.0
5685,8/24/2012 21:00,19.91575,0.0,27.9792,0.0,0.0,6.7755,0.0,0.3075,0.0
5686,8/24/2012 22:00,14.97525,15.04864,21.038400000000003,29.567847,2.2755,7.0845,18.30114,0.2985,0.0
5687,8/24/2012 23:00,9.6145,4.70208,13.5072,9.238734,0.711,7.284,20.56212,0.294,0.0
5688,8/25/2012 0:00,5.50425,0.9027200000000001,7.732799999999999,1.773681,0.1365,7.3245000000000005,22.08366,0.1545,0.0
5689,8/25/2012 1:00,3.6182499999999997,0.8432000000000001,5.0832,1.656735,0.1275,7.2015,24.984539999999996,0.129,0.0
5690,8/25/2012 2:00,7.175000000000001,6.656320000000001,10.080000000000002,13.078461,1.0065000000000002,6.9315,29.734019999999997,0.27,0.0
5691,8/25/2012 3:00,0.8917499999999999,10.02912,1.2528,19.705401,1.5165,6.4005,33.17526,0.1935,0.0
5692,8/25/2012 4:00,0.7995,9.43392,1.1232,18.535941,1.4265,6.0555,32.8482,0.1605,0.0
5693,8/25/2012 5:00,0.0,7.7872,0.0,15.300435,1.1775,5.5275,31.34088,0.0,0.06681312435
5694,8/25/2012 6:00,1.93725,7.221760000000001,2.7216,14.189448,1.092,5.4435,27.5157,0.0,0.4583077716
5695,8/25/2012 7:00,1.353,9.35456,1.9008,18.380012999999998,1.4144999999999999,5.379,23.164379999999998,0.0,0.4053689388000001
5696,8/25/2012 8:00,57.34875,9.473600000000001,80.568,18.613905,1.4325,10.557,17.26308,0.4635,0.28336016835
5697,8/25/2012 9:00,56.251999999999995,8.41216,79.0272,16.528368,1.272,10.0275,14.248439999999999,0.5445,0.2859714333
5698,8/25/2012 10:00,65.395,7.07296,91.872,13.897083,1.0695000000000001,9.5985,0.0,0.5640000000000001,0.3617862633
5699,8/25/2012 11:00,0.8097500000000001,1.59712,1.1376000000000002,3.138051,0.2415,9.42,2.0476799999999997,0.6255000000000001,0.42230100150000005
5700,8/25/2012 12:00,0.0,0.9820800000000001,0.0,1.9296090000000001,0.14850000000000002,9.627,1.52154,0.48750000000000004,0.50248514925
5701,8/25/2012 13:00,0.0,2.4204800000000004,0.0,4.755804,0.36600000000000005,10.6095,1.10916,0.5925,0.50765703765
5702,8/25/2012 14:00,81.16975000000001,3.54144,114.0336,6.958287,0.5355000000000001,11.575500000000002,0.0,0.24449999999999997,0.44792899830000005
5703,8/25/2012 15:00,0.0,3.54144,0.0,6.958287,0.5355000000000001,12.219,34.18488,0.2265,0.4663147335
5704,8/25/2012 16:00,48.9335,0.0,68.7456,0.0,0.0,12.519,29.35008,0.1935,0.46424624715
5705,8/25/2012 17:00,60.065,0.0,84.384,0.0,0.0,12.57,24.11712,0.192,0.43185269085000005
5706,8/25/2012 18:00,67.12725,0.0,94.3056,0.0,0.0,12.2625,19.197,0.20550000000000002,0.3119006352
5707,8/25/2012 19:00,72.8365,0.0,102.3264,0.0,0.0,11.6265,15.58512,0.19949999999999998,0.02715676635
5708,8/25/2012 20:00,76.383,0.0,107.30879999999999,0.0,0.0,0.0,5.48892,0.6749999999999999,0.0
5709,8/25/2012 21:00,73.21575,0.0,102.8592,0.0,0.0,0.0,11.39022,0.1605,0.0
5710,8/25/2012 22:00,68.142,0.0,95.73119999999999,0.0,0.0,0.156,3.66876,6.5835,0.0
5711,8/25/2012 23:00,54.284,0.0,76.2624,0.0,0.0,0.111,4.03848,5.5125,0.0
5712,8/26/2012 0:00,1.3325,0.0,1.872,0.0,0.0,0.0,6.839819999999999,4.425,0.0
5713,8/26/2012 1:00,1.0762500000000002,0.0,1.512,0.0,0.0,0.0,6.839819999999999,3.4829999999999997,0.0
5714,8/26/2012 2:00,0.8200000000000001,0.0,1.1520000000000001,0.0,0.0,0.0,6.242579999999999,2.439,0.0
5715,8/26/2012 3:00,0.0,0.0,0.0,0.0,0.0,0.0,2.8866599999999996,1.716,0.0
5716,8/26/2012 4:00,0.0,21.427200000000003,0.0,42.10056,3.24,0.0,2.16144,2.9955,0.0
5717,8/26/2012 5:00,6.273,16.88384,8.8128,33.173682,2.553,0.402,1.79172,4.3965000000000005,0.0271604865
5718,8/26/2012 6:00,3.31075,14.493120000000001,4.6512,28.476351,2.1915,0.2595,2.1329999999999996,0.0,0.1989372756
5719,8/26/2012 7:00,0.0,0.0,0.0,0.0,0.0,0.216,2.5596,0.0,0.233398809
5720,8/26/2012 8:00,0.0,0.0,0.0,0.0,0.0,0.1725,2.5453799999999998,0.0,0.297506118
5721,8/26/2012 9:00,5.89375,0.0,8.280000000000001,0.0,0.0,0.147,2.09034,0.0,0.33271549499999997
5722,8/26/2012 10:00,0.0,0.0,0.0,0.0,0.0,0.1365,14.461739999999999,0.0,0.36757458465
5723,8/26/2012 11:00,0.0,0.0,0.0,0.0,0.0,0.0,0.0,0.0,0.36129813195
5724,8/26/2012 12:00,0.0,0.0,0.0,0.0,0.0,0.0,0.0,0.0,0.39292465169999996
5725,8/26/2012 13:00,4.76625,0.0,6.696,0.0,0.0,0.1725,0.0,0.0,0.4068415239
5726,8/26/2012 14:00,2.55225,0.0,3.5856,0.0,0.0,3.5445,0.0,0.5445,0.39948867525
5727,8/26/2012 15:00,2.706,0.0,3.8016,0.0,0.0,3.069,0.0,0.5085,0.30512696445
5728,8/26/2012 16:00,1.0455,0.0,1.4688,0.0,0.0,3.5595000000000003,0.0,0.7605000000000001,0.43610504595
5729,8/26/2012 17:00,1.65025,0.0,2.3184,0.0,0.0,4.1955,0.0,1.9965,0.36348518745
5730,8/26/2012 18:00,1.5170000000000001,0.0,2.1312,0.0,0.0,0.14550000000000002,0.0,0.2175,0.3061565808
5731,8/26/2012 19:00,1.2197500000000001,0.0,1.7136,0.0,0.0,0.1335,0.0,0.216,0.026519748149999998
5732,8/26/2012 20:00,1.13775,0.0,1.5984,0.0,0.0,0.0,0.0,0.22949999999999998,0.0
5733,8/26/2012 21:00,1.30175,0.0,1.8288,0.0,0.0,0.9825,0.0,0.26849999999999996,0.0
5734,8/26/2012 22:00,1.5170000000000001,0.0,2.1312,0.0,0.0,0.6149999999999999,0.0,0.327,0.0
5735,8/26/2012 23:00,1.38375,0.0,1.944,0.0,0.0,0.483,0.0,0.49950000000000006,0.0
5736,8/27/2012 0:00,1.34275,0.7836800000000002,1.8864,1.539789,0.11850000000000001,0.75,1.00962,0.4365,0.0
5737,8/27/2012 1:00,0.0,1.2896,0.0,2.53383,0.195,0.0,1.52154,0.4035,0.0
5738,8/27/2012 2:00,1.5785,1.41856,2.2176,2.787213,0.2145,0.0,2.03346,0.6435,0.0
5739,8/27/2012 3:00,12.095,1.36896,16.992,2.689758,0.207,0.0,7.053119999999999,0.534,0.0
5740,8/27/2012 4:00,0.0,1.1804800000000002,0.0,2.319429,0.17850000000000002,0.0,6.9820199999999994,0.369,0.0
5741,8/27/2012 5:00,0.0,0.97216,0.0,1.910118,0.147,0.0,7.010459999999999,0.2415,0.06722897895
5742,8/27/2012 6:00,0.0,0.0,0.0,0.0,0.0,0.0,6.839819999999999,0.255,0.42267784545
5743,8/27/2012 7:00,2.583,0.0,3.6288,0.0,0.0,0.0,6.427439999999999,0.44999999999999996,0.4256220444
5744,8/27/2012 8:00,12.392249999999999,0.0,17.409599999999998,0.0,0.0,0.0,3.8536199999999994,0.6990000000000001,0.33742534245
5745,8/27/2012 9:00,12.84325,0.0,18.0432,0.0,0.0,0.0,4.15224,0.8895,0.27107726730000004
5746,8/27/2012 10:00,0.0,0.9424,0.0,1.851645,0.1425,0.0,4.39398,0.813,0.34150765845000003
5747,8/27/2012 11:00,0.0,1.1904000000000001,0.0,2.33892,0.18,0.0,4.42242,0.6749999999999999,0.34517467530000007
5748,8/27/2012 12:00,0.0,3.60096,0.0,7.075233,0.5445,0.0,8.688419999999999,0.549,0.3640342629
5749,8/27/2012 13:00,4.007750000000001,1.26976,5.630400000000001,2.494848,0.192,0.0,9.65538,0.4755,0.14431394775
5750,8/27/2012 14:00,3.74125,17.012800000000002,5.255999999999999,33.427065,2.5725000000000002,0.1095,9.498959999999999,0.438,0.21578987115
5751,8/27/2012 15:00,3.2595,15.64384,4.5792,30.737307,2.3655,0.177,0.0,0.3135,0.15676095435
5752,8/27/2012 16:00,2.55225,15.395840000000002,3.5856,30.250032,2.3280000000000003,0.2505,0.0,0.24600000000000002,0.16393666904999998
5753,8/27/2012 17:00,0.0,13.62016,0.0,26.761143,2.0595,0.41100000000000003,2.1329999999999996,0.252,0.15747815475000002
5754,8/27/2012 18:00,0.0,15.038720000000001,0.0,29.548356000000002,2.274,0.192,1.8912599999999997,0.27749999999999997,0.05792814720000001
5755,8/27/2012 19:00,0.0,15.594240000000001,0.0,30.639852,2.358,2.4525,1.0238399999999999,0.8190000000000001,0.0
5756,8/27/2012 20:00,0.0,15.73312,0.0,30.912726,2.379,0.6555000000000001,1.03806,0.28200000000000003,0.0
5757,8/27/2012 21:00,0.0,12.24128,0.0,24.051893999999997,1.851,1.179,1.12338,0.261,0.0
5758,8/27/2012 22:00,0.0,8.20384,0.0,16.119056999999998,1.2405,0.0,0.0,0.219,0.0
5759,8/27/2012 23:00,0.0,7.955839999999999,0.0,15.631781999999998,1.2029999999999998,0.0,0.0,0.48750000000000004,0.0
