,date,Wind_1,Wind_2,Wind_3,Wind_4,Wind_5,Wind_6,Wind_7,Wind_8,Solar_1
1440,3/1/2012 0:00,1.1275000000000002,2.6982399999999997,1.584,5.301552,0.408,4.9815000000000005,4.6215,0.786,0.0
1441,3/1/2012 1:00,99.4865,3.4224000000000006,139.7664,6.724395,0.5175000000000001,0.0,3.8394,0.942,0.0
1442,3/1/2012 2:00,99.1995,4.44416,139.3632,8.731968,0.672,0.0,3.2705999999999995,1.1580000000000001,0.0
1443,3/1/2012 3:00,3.70025,4.80128,5.1984,9.433644,0.726,0.543,2.65914,0.1215,0.0
1444,3/1/2012 4:00,3.4337500000000003,0.71424,4.824,1.403352,0.108,0.16949999999999998,2.7729,0.1305,0.0
1445,3/1/2012 5:00,1.26075,0.9027200000000001,1.7712,1.773681,0.1365,0.9390000000000001,2.51694,0.135,0.0
1446,3/1/2012 6:00,1.44525,0.9225599999999999,2.0303999999999998,1.812663,0.13949999999999999,0.0,2.8724399999999997,2.3175,0.0
1447,3/1/2012 7:00,1.15825,6.22976,1.6272,12.240348,0.942,0.0,15.784199999999998,2.727,0.10903852785
1448,3/1/2012 8:00,1.599,7.2118400000000005,2.2464,14.169957,1.0905,0.0,19.73736,2.493,0.32780476365000005
1449,3/1/2012 9:00,1.34275,0.744,1.8864,1.461825,0.11249999999999999,0.2835,3.14262,2.0415,0.33807144
1450,3/1/2012 10:00,83.89625,7.221760000000001,117.864,14.189448,1.092,0.396,3.5123399999999996,1.9080000000000001,0.3827438181000001
1451,3/1/2012 11:00,80.90325,1.10112,113.6592,2.163501,0.1665,0.519,4.13802,0.0,0.4578669711
1452,3/1/2012 12:00,79.79625,2.7676800000000004,112.104,5.437989,0.41850000000000004,0.4395,4.1949,3.5415,0.7518360349500001
1453,3/1/2012 13:00,80.80075,2.66848,113.5152,5.243079,0.4035,0.2175,1.1802599999999999,1.752,0.7653681126000002
1454,3/1/2012 14:00,0.0,2.79744,0.0,5.496462,0.423,0.1305,1.25136,0.0,0.7273316221499999
1455,3/1/2012 15:00,1.3735,0.0,1.9296,0.0,0.0,0.0,1.7206199999999998,0.0,0.6286709341500001
1456,3/1/2012 16:00,1.353,0.0,1.9008,0.0,0.0,0.2565,2.6449199999999995,0.0,0.46905251295
1457,3/1/2012 17:00,2.296,0.0,3.2256,0.0,0.0,0.14100000000000001,3.2421599999999997,0.108,0.21970676595
1458,3/1/2012 18:00,7.1442499999999995,0.7340800000000001,10.0368,1.442334,0.111,0.0,3.8536199999999994,0.12300000000000001,0.0
1459,3/1/2012 19:00,79.4785,6.557120000000001,111.6576,12.883551,0.9915,0.0,1.0664999999999998,0.1275,0.0
1460,3/1/2012 20:00,71.176,28.827520000000003,99.9936,56.640846,4.359,0.0,1.08072,0.0,0.0
1461,3/1/2012 21:00,61.41799999999999,1.17056,86.28479999999999,2.299938,0.177,0.0,0.0,0.2355,0.0
1462,3/1/2012 22:00,0.0,0.9920000000000001,0.0,1.9491,0.15,0.0,0.0,0.5865,0.0
1463,3/1/2012 23:00,2.26525,0.0,3.1824000000000003,0.0,0.0,2.2455,1.10916,0.651,0.0
1464,3/2/2012 0:00,0.0,0.0,0.0,0.0,0.0,2.1870000000000003,2.2041,0.7320000000000001,0.0
1465,3/2/2012 1:00,1.97825,0.0,2.7792000000000003,0.0,0.0,2.106,0.0,0.375,0.0
1466,3/2/2012 2:00,5.23775,0.0,7.3584,0.0,0.0,2.661,0.0,0.44999999999999996,0.0
1467,3/2/2012 3:00,0.0,3.90848,0.0,7.679454,0.591,3.738,0.0,0.3645,0.0
1468,3/2/2012 4:00,0.0,7.20192,0.0,14.150466,1.089,0.3135,1.25136,0.252,0.0
1469,3/2/2012 5:00,4.561249999999999,5.84288,6.4079999999999995,11.480199,0.8835000000000001,0.2115,0.0,1.3365,0.0
1470,3/2/2012 6:00,0.0,1.2499200000000001,0.0,2.455866,0.189,5.3685,1.3651199999999997,1.029,0.0
1471,3/2/2012 7:00,0.0,25.80192,0.0,50.696090999999996,3.9015,4.968,12.030119999999998,0.3525,0.1770255732
1472,3/2/2012 8:00,0.0,0.9622400000000001,0.0,1.890627,0.14550000000000002,3.9825000000000004,3.09996,0.14850000000000002,0.52364918445
1473,3/2/2012 9:00,0.9635,1.3887999999999998,1.3536000000000001,2.7287399999999997,0.20999999999999996,0.46649999999999997,2.9293199999999997,0.0,0.48787394880000007
1474,3/2/2012 10:00,0.0,0.7340800000000001,0.0,1.442334,0.111,0.0,2.9293199999999997,0.0,0.5182145241000001
1475,3/2/2012 11:00,2.53175,0.9523199999999999,3.5568,1.871136,0.144,0.0,0.0,0.1575,0.5877581073
1476,3/2/2012 12:00,1.38375,0.0,1.944,0.0,0.0,0.0,0.0,0.2745,0.62925789255
1477,3/2/2012 13:00,1.3632499999999999,0.0,1.9152,0.0,0.0,0.0,32.66334,1.038,0.6739602208500001
1478,3/2/2012 14:00,0.0,0.0,0.0,0.0,0.0,0.0,12.200759999999999,0.9779999999999999,0.67788907515
1479,3/2/2012 15:00,0.0,0.0,0.0,0.0,0.0,0.0,11.176919999999999,0.3315,0.6381398793
1480,3/2/2012 16:00,9.60425,0.0,13.4928,0.0,0.0,0.441,10.1673,0.408,0.49472299065
1481,3/2/2012 17:00,2.30625,0.0,3.2399999999999998,0.0,0.0,0.402,25.311600000000002,0.369,0.29321744025
1482,3/2/2012 18:00,1.4965,0.7043200000000001,2.1024,1.383861,0.10650000000000001,0.3285,14.490179999999999,0.0,0.0
1483,3/2/2012 19:00,1.03525,0.81344,1.4544,1.598262,0.12300000000000001,11.314499999999999,4.45086,0.24600000000000002,0.0
1484,3/2/2012 20:00,0.9635,0.0,1.3536000000000001,0.0,0.0,11.094000000000001,0.0,0.135,0.0
1485,3/2/2012 21:00,0.8097500000000001,0.0,1.1376000000000002,0.0,0.0,10.977,4.30866,0.1845,0.0
1486,3/2/2012 22:00,0.0,0.0,0.0,0.0,0.0,0.3465,3.01464,0.252,0.0
1487,3/2/2012 23:00,0.0,0.71424,0.0,1.403352,0.108,0.25349999999999995,26.705159999999996,3.2445,0.0
1488,3/3/2012 0:00,0.861,0.83328,1.2096,1.637244,0.126,0.2985,2.5596,2.3325,0.0
1489,3/3/2012 1:00,0.9225000000000001,1.2400000000000002,1.2960000000000003,2.436375,0.1875,0.294,1.09494,1.4625000000000001,0.0
1490,3/3/2012 2:00,0.0,1.8848,0.0,3.70329,0.285,0.19949999999999998,1.94814,1.083,0.0
1491,3/3/2012 3:00,0.0,2.94624,0.0,5.788827,0.4455,1.293,35.9766,1.086,0.0
1492,3/3/2012 4:00,0.0,5.61472,0.0,11.031906,0.849,1.143,27.714779999999998,0.9555000000000001,0.0
1493,3/3/2012 5:00,0.0,8.62048,0.0,16.937679,1.3035,0.417,47.30994,0.744,0.0
1494,3/3/2012 6:00,0.0,1.4384000000000001,0.0,2.8261950000000002,0.2175,0.36,0.0,0.669,0.0
1495,3/3/2012 7:00,0.7687499999999999,1.39872,1.08,2.748231,0.2115,0.3045,0.0,0.7214999999999999,0.21453121830000002
1496,3/3/2012 8:00,0.0,1.26976,0.0,2.494848,0.192,0.47250000000000003,0.0,0.711,0.4966255287
1497,3/3/2012 9:00,0.0,0.0,0.0,0.0,0.0,0.603,2.82978,0.549,0.44064154785000004
1498,3/3/2012 10:00,0.0,0.0,0.0,0.0,0.0,0.7364999999999999,0.0,0.4365,0.47386997070000003
1499,3/3/2012 11:00,2.18325,0.0,3.0671999999999997,0.0,0.0,0.0,3.4128,0.0,0.55863816225
1500,3/3/2012 12:00,2.5010000000000003,0.0,3.5136000000000003,0.0,0.0,0.0,2.4031799999999994,0.0,0.6728429316000001
1501,3/3/2012 13:00,0.0,0.0,0.0,0.0,0.0,0.0,2.46006,0.1215,0.7209571572000001
1502,3/3/2012 14:00,0.0,0.0,0.0,0.0,0.0,1.416,2.6306999999999996,0.786,0.7302285742500001
1503,3/3/2012 15:00,0.0,0.0,0.0,0.0,0.0,1.3484999999999998,2.7302399999999993,1.0110000000000001,0.6919355803500001
1504,3/3/2012 16:00,0.0,0.8729600000000001,0.0,1.715208,0.132,0.9540000000000001,2.74446,0.5805,0.58714549845
1505,3/3/2012 17:00,0.7995,3.5612800000000004,1.1232,6.997269,0.5385,0.5805,3.6972,0.6105,0.35201634825
1506,3/3/2012 18:00,0.943,4.07712,1.3248,8.010800999999999,0.6164999999999999,1.482,4.6926,0.51,0.0
1507,3/3/2012 19:00,0.0,4.58304,0.0,9.004842,0.693,1.4144999999999999,5.14764,0.384,0.0
1508,3/3/2012 20:00,0.0,4.12672,0.0,8.108255999999999,0.624,1.7774999999999999,4.30866,0.19949999999999998,0.0
1509,3/3/2012 21:00,1.2197500000000001,1.23008,1.7136,2.416884,0.186,2.0130000000000003,3.07152,0.0,0.0
1510,3/3/2012 22:00,1.3632499999999999,1.3193599999999999,1.9152,2.592303,0.19949999999999998,0.171,2.28942,0.177,0.0
1511,3/3/2012 23:00,1.353,0.0,1.9008,0.0,0.0,0.1245,2.2325399999999997,0.189,0.0
1512,3/4/2012 0:00,1.3325,3.74976,1.872,7.367598,0.567,0.2865,2.9435399999999996,0.204,0.0
1513,3/4/2012 1:00,1.3632499999999999,24.7504,1.9152,48.630044999999996,3.7425,1.3844999999999998,5.92974,0.19949999999999998,0.0
1514,3/4/2012 2:00,1.46575,19.56224,2.0592,38.436251999999996,2.9579999999999997,0.8655,8.1054,0.165,0.0
1515,3/4/2012 3:00,1.67075,13.808639999999999,2.3472,27.131472,2.088,0.501,10.096199999999998,0.0,0.0
1516,3/4/2012 4:00,14.329500000000001,12.687680000000002,20.1312,24.928989,1.9185000000000003,0.5625,11.688839999999999,0.3165,0.0
1517,3/4/2012 5:00,12.1155,2.73792,17.0208,5.379516,0.414,0.4335,13.452119999999999,0.4395,0.0
1518,3/4/2012 6:00,9.43,1.9344000000000001,13.248,3.800745,0.2925,0.0,15.087419999999998,0.5834999999999999,0.0
1519,3/4/2012 7:00,4.0897499999999996,5.178240000000001,5.7456,10.174302,0.783,0.0,11.489759999999999,0.198,0.02236113705
1520,3/4/2012 8:00,0.0,5.03936,0.0,9.901428,0.762,0.0,3.22794,0.15,0.06635849115
1521,3/4/2012 9:00,0.0,4.8806400000000005,0.0,9.589572,0.738,0.0,43.442099999999996,0.111,0.211285074
1522,3/4/2012 10:00,4.66375,4.74176,6.552,9.316698,0.7170000000000001,0.28950000000000004,51.689699999999995,0.0,0.22952533275
1523,3/4/2012 11:00,16.24625,7.0432,22.824,13.83861,1.065,0.49649999999999994,61.52993999999999,0.5235,0.290462865
1524,3/4/2012 12:00,1.6195000000000002,7.936000000000001,2.2752000000000003,15.5928,1.2,0.0,84.01176,0.0,0.30539488769999995
1525,3/4/2012 13:00,1.8450000000000002,3.8688000000000002,2.5920000000000005,7.60149,0.585,0.6075,0.0,0.8145,0.34163479245
1526,3/4/2012 14:00,1.681,11.29888,2.3616,22.200249,1.7085,0.135,0.0,0.0,0.23483475015000002
1527,3/4/2012 15:00,5.986,11.7552,8.4096,23.096835,1.7774999999999999,0.0,0.0,0.0,0.4429326195
1528,3/4/2012 16:00,10.13725,14.7312,14.2416,28.944135,2.2275,7.9665,0.0,0.3435,0.51757918275
1529,3/4/2012 17:00,9.72725,0.0,13.6656,0.0,0.0,0.0,0.0,0.288,0.30961282905
1530,3/4/2012 18:00,10.219249999999999,1.23008,14.3568,2.416884,0.186,0.0,0.0,0.2835,0.0
1531,3/4/2012 19:00,7.964250000000001,0.9027200000000001,11.1888,1.773681,0.1365,1.6455000000000002,0.0,0.27749999999999997,0.0
1532,3/4/2012 20:00,6.03725,0.0,8.4816,0.0,0.0,0.1305,2.0050199999999996,0.0,0.0
1533,3/4/2012 21:00,4.3665,0.0,6.134399999999999,0.0,0.0,6.657,3.5407799999999994,0.0,0.0
1534,3/4/2012 22:00,3.198,0.0,4.4928,0.0,0.0,6.81,5.48892,0.2595,0.0
1535,3/4/2012 23:00,2.1935,0.0,3.0816,0.0,0.0,0.0,20.334600000000002,0.252,0.0
1536,3/5/2012 0:00,1.5170000000000001,0.0,2.1312,0.0,0.0,0.0,20.363039999999998,0.2745,0.0
1537,3/5/2012 1:00,1.1275000000000002,0.0,1.584,0.0,0.0,0.0,18.130499999999998,0.0,0.0
1538,3/5/2012 2:00,83.56825,0.0,117.4032,0.0,0.0,3.585,4.94856,0.0,0.0
1539,3/5/2012 3:00,77.039,3.95808,108.2304,7.776909,0.5984999999999999,4.413,18.030959999999997,0.0,0.0
1540,3/5/2012 4:00,68.429,3.55136,96.1344,6.977778,0.5369999999999999,4.896000000000001,18.6282,0.0,0.0
1541,3/5/2012 5:00,67.10674999999999,3.39264,94.2768,6.665922,0.513,0.49649999999999994,10.665,0.0,0.0
1542,3/5/2012 6:00,0.0,3.43232,0.0,6.743886,0.519,3.012,9.8118,0.0,0.0
1543,3/5/2012 7:00,2.01925,3.3430400000000002,2.8367999999999998,6.568467,0.5055000000000001,3.0615,1.3082399999999998,0.15300000000000002,0.2094239406
1544,3/5/2012 8:00,1.8347499999999999,0.0,2.5776,0.0,0.0,3.0345,1.10916,0.15,0.4629655233
1545,3/5/2012 9:00,1.65025,0.0,2.3184,0.0,0.0,1.992,8.944379999999999,0.8085,0.41875828260000003
1546,3/5/2012 10:00,1.558,3.83904,2.1888,7.543017,0.5805,0.1575,8.446679999999999,0.648,0.47628378945
1547,3/5/2012 11:00,1.26075,0.75392,1.7712,1.481316,0.114,1.842,9.58428,0.501,0.56595836745
1548,3/5/2012 12:00,0.9635,0.0,1.3536000000000001,0.0,0.0,0.0,13.964039999999999,0.3675,0.6140297215500001
1549,3/5/2012 13:00,1.066,1.4979200000000001,1.4975999999999998,2.9431410000000002,0.2265,3.4875000000000003,10.807199999999998,0.0,0.66723791925
1550,3/5/2012 14:00,2.132,0.0,2.9951999999999996,0.0,0.0,0.4785,5.048099999999999,0.0,0.6739728345
1551,3/5/2012 15:00,0.0,0.0,0.0,0.0,0.0,0.6195,21.927239999999998,0.0,0.57976111725
1552,3/5/2012 16:00,1.107,1.2201600000000001,1.5552000000000001,2.397393,0.1845,0.5834999999999999,21.24468,0.9494999999999999,0.39943852830000004
1553,3/5/2012 17:00,1.1889999999999998,0.75392,1.6703999999999999,1.481316,0.114,12.922500000000001,4.635719999999999,0.23399999999999999,0.26751119219999997
1554,3/5/2012 18:00,1.32225,0.0,1.8576,0.0,0.0,0.35700000000000004,5.73066,2.358,0.0
1555,3/5/2012 19:00,1.46575,1.7459200000000001,2.0592,3.430416,0.264,0.47400000000000003,6.271019999999999,0.2475,0.0
1556,3/5/2012 20:00,1.5170000000000001,46.0288,2.1312,90.43824,6.959999999999999,0.6120000000000001,1.8770399999999998,0.267,0.0
1557,3/5/2012 21:00,0.0,42.784960000000005,0.0,84.064683,6.4695,0.0,90.70938,0.29700000000000004,0.0
1558,3/5/2012 22:00,1.312,40.126400000000004,1.8432000000000002,78.84109500000001,6.067500000000001,0.0,85.90301999999998,0.0,0.0
1559,3/5/2012 23:00,1.23,1.17056,1.728,2.299938,0.177,0.549,88.0218,0.876,0.0
1560,3/6/2012 0:00,1.148,0.0,1.6128,0.0,0.0,0.7305,1.3651199999999997,0.543,0.0
1561,3/6/2012 1:00,1.0865,0.0,1.5264,0.0,0.0,0.0,1.16604,0.3345,0.0
1562,3/6/2012 2:00,1.01475,0.0,1.4256000000000002,0.0,0.0,0.693,1.0522799999999999,0.5295,0.0
1563,3/6/2012 3:00,0.0,0.0,0.0,0.0,0.0,0.8535,0.0,0.48450000000000004,0.0
1564,3/6/2012 4:00,2.091,0.0,2.9376,0.0,0.0,2.961,0.0,0.7995,0.0
1565,3/6/2012 5:00,5.4325,1.47808,7.632,2.904159,0.2235,0.0,0.0,4.1145,0.0
1566,3/6/2012 6:00,0.0,2.29152,0.0,4.502421,0.3465,0.942,91.07909999999998,3.7965,0.0
1567,3/6/2012 7:00,0.0,2.91648,0.0,5.730353999999999,0.441,0.9015,5.78754,2.94,0.22566390315
1568,3/6/2012 8:00,6.9597500000000005,2.10304,9.7776,4.132092,0.318,0.7214999999999999,6.669179999999999,4.269,0.2525775336
1569,3/6/2012 9:00,1.01475,9.03712,1.4256000000000002,17.756301,1.3665,0.5685,6.484319999999999,1.02,0.2370135831
1570,3/6/2012 10:00,4.5817499999999995,8.14432,6.4368,16.002111,1.2315,0.6225,0.0,0.9585,0.31500171465
1571,3/6/2012 11:00,0.0,14.22528,0.0,27.950094,2.151,0.0,1.4646599999999999,0.9435,0.30845030265
1572,3/6/2012 12:00,0.0,2.7775999999999996,0.0,5.457479999999999,0.41999999999999993,0.0,0.0,0.1245,0.32922975225
1573,3/6/2012 13:00,0.0,0.8432000000000001,0.0,1.656735,0.1275,0.0,0.0,0.1725,0.1586004987
1574,3/6/2012 14:00,15.5595,0.71424,21.859199999999998,1.403352,0.108,0.0,6.65496,0.15300000000000002,0.26736070515000004
1575,3/6/2012 15:00,0.0,0.0,0.0,0.0,0.0,0.0,0.0,0.0,0.2745188943
1576,3/6/2012 16:00,0.0,2.5891200000000003,0.0,5.087151,0.3915,0.0,1.66374,0.0,0.13459133520000002
1577,3/6/2012 17:00,0.0,3.3033600000000005,0.0,6.490503,0.49950000000000006,0.0,2.6875799999999996,2.3939999999999997,0.016193048550000002
1578,3/6/2012 18:00,0.0,3.1545600000000005,0.0,6.198138,0.47700000000000004,0.0,0.0,0.0,0.0
1579,3/6/2012 19:00,0.0,3.0256,0.0,5.944755,0.4575,0.0,0.0,0.11850000000000001,0.0
1580,3/6/2012 20:00,0.0,1.4681600000000001,0.0,2.884668,0.222,0.0,2.9719799999999994,0.11850000000000001,0.0
1581,3/6/2012 21:00,0.0,1.25984,0.0,2.475357,0.1905,7.665,2.7302399999999993,1.353,0.0
1582,3/6/2012 22:00,0.9635,7.02336,1.3536000000000001,13.799628,1.062,9.209999999999999,7.8494399999999995,0.132,0.0
1583,3/6/2012 23:00,50.829750000000004,7.87648,71.4096,15.475854,1.191,7.2285,8.446679999999999,1.272,0.0
1584,3/7/2012 0:00,0.0,1.23008,0.0,2.416884,0.186,0.14100000000000001,0.0,1.2045,0.0
1585,3/7/2012 1:00,14.93425,15.04864,20.9808,29.567847,2.2755,0.17850000000000002,0.0,0.5265,0.0
1586,3/7/2012 2:00,14.17575,17.81632,19.915200000000002,35.005836,2.694,0.20249999999999999,1.8486,0.414,0.0
1587,3/7/2012 3:00,1.9475,14.463360000000002,2.7359999999999998,28.417878,2.1870000000000003,4.806,2.5453799999999998,1.5195,0.0
1588,3/7/2012 4:00,2.6855,8.64032,3.7728,16.976661,1.3065,5.463,2.8866599999999996,0.303,0.0
1589,3/7/2012 5:00,0.8405,7.697920000000001,1.1808,15.125016,1.1640000000000001,5.742,0.0,0.294,0.0
1590,3/7/2012 6:00,0.8815,6.348800000000001,1.2384,12.47424,0.96,4.987500000000001,1.45044,0.6075,0.0
1591,3/7/2012 7:00,0.0,1.05152,0.0,2.066046,0.159,3.786,1.6210799999999999,1.401,0.25907123025
1592,3/7/2012 8:00,1.6604999999999999,29.492160000000002,2.3327999999999998,57.946743,4.4595,3.9375,1.8059399999999999,0.504,0.4455035109
1593,3/7/2012 9:00,1.476,0.0,2.0736,0.0,0.0,3.5549999999999997,1.9623599999999999,0.45899999999999996,0.4087341426
1594,3/7/2012 10:00,0.9942500000000001,53.349759999999996,1.3968,104.82259799999999,8.066999999999998,3.516,12.11544,0.0,0.43994825175
1595,3/7/2012 11:00,1.394,0.0,1.9584,0.0,0.0,3.8220000000000005,0.0,0.3165,0.52283216265
1596,3/7/2012 12:00,4.92,0.0,6.912,0.0,0.0,4.306500000000001,13.267259999999998,0.498,0.56295971445
1597,3/7/2012 13:00,1.353,18.08416,1.9008,35.532092999999996,2.7344999999999997,0.0,14.41908,0.8594999999999999,0.6976178674500001
1598,3/7/2012 14:00,0.0,26.367359999999998,0.0,51.807078,3.9869999999999997,0.0,0.0,0.27749999999999997,0.51068989545
1599,3/7/2012 15:00,1.476,15.63392,2.0736,30.717816,2.364,0.10650000000000001,0.0,0.36600000000000005,0.49353990945
1600,3/7/2012 16:00,0.0,13.87808,0.0,27.267909,2.0985,0.108,0.0,0.41850000000000004,0.16025431905
1601,3/7/2012 17:00,0.0,7.697920000000001,0.0,15.125016,1.1640000000000001,0.0,10.11042,0.4335,0.03343579995
1602,3/7/2012 18:00,9.307,4.79136,13.0752,9.414153,0.7245,3.9555,8.30448,0.42600000000000005,0.0
1603,3/7/2012 19:00,0.0,2.5296,0.0,4.970205,0.38249999999999995,4.6725,0.0,0.4155,0.0
1604,3/7/2012 20:00,13.673499999999999,2.4800000000000004,19.2096,4.87275,0.375,5.2635,7.252199999999999,0.348,0.0
1605,3/7/2012 21:00,1.7117499999999999,2.3312,2.4048,4.580385,0.3525,6.943499999999999,4.29444,4.023,0.0
1606,3/7/2012 22:00,2.788,2.4403200000000003,3.9168,4.794786,0.369,9.507,11.703059999999999,3.7035,0.0
1607,3/7/2012 23:00,3.5875000000000004,2.74784,5.040000000000001,5.399007,0.4155,1.383,0.0,3.5535,0.0
1608,3/8/2012 0:00,1.11725,2.6387199999999997,1.5695999999999999,5.184606,0.39899999999999997,12.408000000000001,1.03806,3.1935000000000002,0.0
1609,3/8/2012 1:00,0.72775,1.9344000000000001,1.0224,3.800745,0.2925,6.0075,1.4362199999999998,1.9364999999999999,0.0
1610,3/8/2012 2:00,0.0,1.30944,0.0,2.572812,0.198,0.6765,4.45086,1.1744999999999999,0.0
1611,3/8/2012 3:00,0.0,1.5376,0.0,3.021105,0.23249999999999998,0.552,5.07654,0.8685,0.0
1612,3/8/2012 4:00,0.0,2.50976,0.0,4.931223,0.3795,0.681,1.79172,0.6285,0.0
1613,3/8/2012 5:00,6.980249999999999,3.9184,9.8064,7.698945,0.5925,0.6990000000000001,1.94814,0.444,0.0
1614,3/8/2012 6:00,6.0475,5.07904,8.496,9.979392,0.768,0.7155,1.5926399999999998,1.185,0.0
1615,3/8/2012 7:00,1.17875,5.77344,1.656,11.343762,0.873,0.7140000000000001,37.59768,0.15,0.30460063935000004
1616,3/8/2012 8:00,1.40425,3.94816,1.9728,7.757418,0.597,2.4825,56.083679999999994,1.029,0.40288048605000004
1617,3/8/2012 9:00,1.48625,6.6265600000000004,2.088,13.019988,1.002,1.6005,29.421179999999996,0.0,0.33742730595
1618,3/8/2012 10:00,1.4349999999999998,4.29536,2.016,8.439603,0.6495,0.2955,2.21832,0.0,0.46215543465000003
1619,3/8/2012 11:00,0.0,4.721920000000001,0.0,9.277716,0.7140000000000001,0.405,1.7064,0.0,0.52356202815
1620,3/8/2012 12:00,0.8302499999999999,6.8547199999999995,1.1663999999999999,13.468281,1.0365,0.0,1.4362199999999998,0.0,0.61083159795
1621,3/8/2012 13:00,32.267,8.36256,45.3312,16.430913,1.2645,14.145,1.2798,0.0,0.68435774085
1622,3/8/2012 14:00,18.52175,1.2896,26.0208,2.53383,0.195,14.2965,0.0,0.1095,0.6846947656500001
1623,3/8/2012 15:00,0.0,17.47904,0.0,34.343142,2.643,14.406,0.0,0.192,0.5969998608
1624,3/8/2012 16:00,0.0,18.29248,0.0,35.941404,2.766,1.2225000000000001,0.0,4.8255,0.55114542945
1625,3/8/2012 17:00,0.0,18.0048,0.0,35.376165,2.7225,0.24600000000000002,0.0,4.4475,0.25997234235
1626,3/8/2012 18:00,0.0,16.58624,0.0,32.588952,2.508,0.228,0.0,4.2375,0.0
1627,3/8/2012 19:00,0.0,14.75104,0.0,28.983117,2.2305,0.192,11.26224,4.2015,0.0
1628,3/8/2012 20:00,0.0,13.292800000000002,0.0,26.11794,2.0100000000000002,0.1635,11.63196,4.6274999999999995,0.0
1629,3/8/2012 21:00,64.09325,12.28096,90.0432,24.129858,1.857,0.51,11.959019999999999,4.884,0.0
1630,3/8/2012 22:00,3.6387499999999995,11.46752,5.111999999999999,22.531595999999997,1.734,0.687,13.03974,5.181,0.0
1631,3/8/2012 23:00,2.88025,10.842559999999999,4.0464,21.303663,1.6395,2.1345,13.679639999999997,0.2085,0.0
1632,3/9/2012 0:00,1.9475,9.85056,2.7359999999999998,19.354563,1.4895,2.064,14.2911,0.1905,0.0
1633,3/9/2012 1:00,1.148,0.0,1.6128,0.0,0.0,0.189,2.57382,5.955,0.0
1634,3/9/2012 2:00,0.0,4.54336,0.0,8.926878,0.687,0.174,1.3508999999999998,6.156,0.0
1635,3/9/2012 3:00,0.779,4.10688,1.0944,8.069274,0.621,6.286499999999999,1.82016,6.456,0.0
1636,3/9/2012 4:00,42.21975,0.0,59.3136,0.0,0.0,5.5424999999999995,2.9151,0.0,0.0
1637,3/9/2012 5:00,44.98725,0.0,63.2016,0.0,0.0,5.088,3.8536199999999994,0.1575,0.0
1638,3/9/2012 6:00,2.788,0.0,3.9168,0.0,0.0,2.9175,4.507739999999999,0.0,0.0
1639,3/9/2012 7:00,1.7834999999999999,0.0,2.5056,0.0,0.0,0.2925,4.6215,0.0,0.5006314162500001
1640,3/9/2012 8:00,7.79,1.3887999999999998,10.943999999999999,2.7287399999999997,0.20999999999999996,0.1815,4.2091199999999995,0.0,0.62572356525
1641,3/9/2012 9:00,6.20125,1.35904,8.712,2.670267,0.20550000000000002,7.851,3.6118799999999998,0.0,0.46878349245
1642,3/9/2012 10:00,4.7355,2.0832,6.6528,4.09311,0.315,7.1895,3.66876,0.0,0.5302630347
1643,3/9/2012 11:00,18.27575,2.4403200000000003,25.675199999999997,4.794786,0.369,0.51,9.62694,3.4650000000000003,0.6211692816000001
1644,3/9/2012 12:00,41.7175,2.8272000000000004,58.608000000000004,5.554935,0.4275,0.49950000000000006,8.33292,3.1650000000000005,0.6653216293500002
1645,3/9/2012 13:00,38.44775,1.11104,54.014399999999995,2.182992,0.168,0.3945,6.598079999999999,0.7875,0.7039589340000001
1646,3/9/2012 14:00,0.8302499999999999,0.0,1.1663999999999999,0.0,0.0,3.0885,5.1192,4.433999999999999,0.7577416423500001
1647,3/9/2012 15:00,18.11175,1.76576,25.4448,3.469398,0.267,0.3255,3.88206,5.139,0.7220997462000001
1648,3/9/2012 16:00,3.9975,28.688640000000003,5.616,56.367972,4.338,2.6220000000000003,17.9883,5.4014999999999995,0.6156693732
1649,3/9/2012 17:00,29.069000000000003,27.46848,40.8384,53.970578999999994,4.153499999999999,0.1245,19.481399999999997,5.2875,0.4321774002
1650,3/9/2012 18:00,22.714,0.0,31.9104,0.0,0.0,5.223,19.92222,4.8495,0.0
1651,3/9/2012 19:00,24.48725,0.0,34.4016,0.0,0.0,5.9415000000000004,20.334600000000002,4.827,0.0
1652,3/9/2012 20:00,7.8105,0.0,10.972800000000001,0.0,0.0,0.6045,22.112099999999998,5.223,0.0
1653,3/9/2012 21:00,6.0475,0.0,8.496,0.0,0.0,0.4425,3.66876,5.568,0.0
1654,3/9/2012 22:00,6.478000000000001,59.10336,9.100800000000001,116.127378,8.937,0.39,20.946059999999996,6.1875,0.0
1655,3/9/2012 23:00,44.413250000000005,62.33728,62.3952,122.481444,9.426,0.363,1.50732,6.432,0.0
1656,3/10/2012 0:00,53.35124999999999,59.69856,74.952,117.296838,9.027,0.28200000000000003,1.4930999999999999,5.9745,0.0
1657,3/10/2012 1:00,57.0515,57.60544,80.15039999999999,113.184237,8.7105,0.321,1.39356,4.9245,0.0
1658,3/10/2012 2:00,1.87575,50.72096,2.6352,99.657483,7.669499999999999,0.3165,0.0,0.29100000000000004,0.0
1659,3/10/2012 3:00,0.0,31.8928,0.0,62.663565,4.8225,0.29100000000000004,0.0,2.3925,0.0
1660,3/10/2012 4:00,0.0,2.0336000000000003,0.0,3.995655,0.3075,0.32249999999999995,0.0,4.011,0.0
1661,3/10/2012 5:00,2.57275,2.88672,3.6144000000000003,5.671881,0.4365,0.354,0.0,4.725,0.0
1662,3/10/2012 6:00,3.18775,4.1664,4.4784,8.18622,0.63,4.5195,0.0,0.0,0.0
1663,3/10/2012 7:00,4.838,5.48576,6.7968,10.778523,0.8295,0.192,0.0,0.6375000000000001,0.0981108702
1664,3/10/2012 8:00,7.677249999999999,6.0016,10.785599999999999,11.792055,0.9075,0.462,0.0,1.032,0.3952155249
1665,3/10/2012 9:00,9.31725,6.557120000000001,13.089599999999999,12.883551,0.9915,0.16949999999999998,0.0,0.261,0.43924789545
1666,3/10/2012 10:00,7.749,7.06304,10.8864,13.877592,1.068,0.0,7.323299999999999,0.23850000000000002,0.5067696511500001
1667,3/10/2012 11:00,16.7895,6.25952,23.5872,12.298821,0.9465,1.3635,7.749899999999999,0.0,0.58171107855
1668,3/10/2012 12:00,0.0,2.54944,0.0,5.009187,0.3855,1.734,7.565039999999999,0.0,0.6432857844
1669,3/10/2012 13:00,0.0,2.4998400000000003,0.0,4.911732,0.378,0.0,0.0,0.243,0.7222109013
1670,3/10/2012 14:00,0.0,2.8272000000000004,0.0,5.554935,0.4275,1.476,18.486,0.204,0.6736436217
1671,3/10/2012 15:00,14.03225,3.4224000000000006,19.7136,6.724395,0.5175000000000001,0.0,21.67128,0.0,0.56722789305
1672,3/10/2012 16:00,12.55625,8.01536,17.64,15.748728,1.212,12.9255,20.903399999999998,0.0,0.4966227273
1673,3/10/2012 17:00,0.0,4.49376,0.0,8.829423,0.6795,0.48149999999999993,15.954839999999997,0.0,0.28886030355
1674,3/10/2012 18:00,0.0,0.0,0.0,0.0,0.0,12.0405,9.91134,0.0,0.0
1675,3/10/2012 19:00,7.88225,30.41472,11.073599999999999,59.759406,4.599,0.219,6.427439999999999,0.0,0.0
1676,3/10/2012 20:00,0.8917499999999999,14.06656,1.2528,27.638238,2.1270000000000002,0.0,4.86324,0.0,0.0
1677,3/10/2012 21:00,0.0,0.0,0.0,0.0,0.0,0.0,1.3508999999999998,0.0,0.0
1678,3/10/2012 22:00,10.014249999999999,0.0,14.0688,0.0,0.0,0.0,5.57424,0.0,0.0
1679,3/10/2012 23:00,0.0,1.69632,0.0,3.332961,0.2565,0.687,2.5453799999999998,0.0,0.0
1680,3/11/2012 0:00,0.0,8.64032,0.0,16.976661,1.3065,0.0,2.4173999999999998,0.0,0.0
1681,3/11/2012 1:00,0.0,9.38432,0.0,18.438486,1.419,0.0,2.7302399999999993,0.0,0.0
1682,3/11/2012 2:00,0.0,28.26208,0.0,55.529858999999995,4.273499999999999,0.6075,2.3036399999999997,0.0,0.0
1683,3/11/2012 3:00,0.0,11.67584,0.0,22.940907,1.7655,0.129,2.16144,1.9289999999999998,0.0
1684,3/11/2012 4:00,0.0,2.50976,0.0,4.931223,0.3795,0.177,2.3463,0.1875,0.0
1685,3/11/2012 5:00,0.0,3.3728000000000002,0.0,6.62694,0.51,0.14550000000000002,2.6875799999999996,0.0,0.0
1686,3/11/2012 6:00,3.3415,3.0752,4.6944,6.04221,0.46499999999999997,0.9765,19.125899999999998,1.6799999999999997,0.0
1687,3/11/2012 7:00,2.5010000000000003,2.61888,3.5136000000000003,5.145624,0.396,1.1715,121.52412,0.15,0.0537118554
1688,3/11/2012 8:00,4.17175,2.30144,5.8608,4.5219119999999995,0.348,0.0,22.24008,0.1335,0.13224383445000001
1689,3/11/2012 9:00,33.50725,2.16256,47.073600000000006,4.249038,0.327,1.2510000000000001,30.800519999999995,0.0,0.106320228
1690,3/11/2012 10:00,1.13775,2.976,1.5984,5.8473,0.44999999999999996,0.0,24.34464,0.0,0.10222267545000001
1691,3/11/2012 11:00,1.2197500000000001,3.01568,1.7136,5.925264,0.456,0.14100000000000001,0.0,0.0,0.214566576
1692,3/11/2012 12:00,1.44525,6.81504,2.0303999999999998,13.390317,1.0305,0.195,0.0,1.0095,0.4699179429
1693,3/11/2012 13:00,1.62975,5.59488,2.2896,10.992924,0.846,0.243,0.0,0.7995,0.6676491181499999
1694,3/11/2012 14:00,1.7117499999999999,15.286719999999999,2.4048,30.035631,2.3114999999999997,0.3,14.63238,0.858,0.6288540846
1695,3/11/2012 15:00,2.4395000000000002,1.17056,3.4272,2.299938,0.177,0.39,15.3576,0.9885,0.6036793906500001
1696,3/11/2012 16:00,6.6419999999999995,0.0,9.331199999999999,0.0,0.0,0.4785,1.4646599999999999,0.909,0.47133735075
1697,3/11/2012 17:00,10.106499999999999,1.0416,14.1984,2.046555,0.1575,0.33749999999999997,6.427439999999999,0.11249999999999999,0.1790393094
1698,3/11/2012 18:00,9.471,1.67648,13.3056,3.2939789999999998,0.25349999999999995,0.843,8.14806,1.5405,0.0
1699,3/11/2012 19:00,7.84125,2.06336,11.016,4.0541279999999995,0.312,0.0,15.613559999999998,0.0,0.0
1700,3/11/2012 20:00,6.539499999999999,1.9939200000000001,9.187199999999999,3.917691,0.3015,0.0,9.171899999999999,2.784,0.0
1701,3/11/2012 21:00,0.0,3.3232000000000004,0.0,6.529485,0.5025000000000001,0.0,30.331259999999997,2.4509999999999996,0.0
1702,3/11/2012 22:00,0.0,1.2896,0.0,2.53383,0.195,0.6405000000000001,3.15684,0.19949999999999998,0.0
1703,3/11/2012 23:00,0.0,1.9344000000000001,0.0,3.800745,0.2925,0.9944999999999999,32.59224,2.4195,0.0
1704,3/12/2012 0:00,1.9167500000000002,0.81344,2.6928,1.598262,0.12300000000000001,1.4549999999999998,31.326659999999997,2.2785,0.0
1705,3/12/2012 1:00,1.2915,10.32672,1.8144,20.290131,1.5614999999999999,1.7685,8.219159999999999,0.1365,0.0
1706,3/12/2012 2:00,38.65275,0.9523199999999999,54.3024,1.871136,0.144,1.7955,0.0,1.287,0.0
1707,3/12/2012 3:00,33.87625,0.9920000000000001,47.592,1.9491,0.15,0.11850000000000001,3.1852799999999997,0.21300000000000002,0.0
1708,3/12/2012 4:00,10.0655,0.75392,14.140799999999999,1.481316,0.114,0.192,3.4412399999999996,0.3405,0.0
1709,3/12/2012 5:00,7.61575,20.59392,10.699200000000001,40.463316,3.114,0.24,8.475119999999999,0.198,0.0
1710,3/12/2012 6:00,5.750249999999999,0.0,8.0784,0.0,0.0,0.20249999999999999,3.71142,0.1905,0.0
1711,3/12/2012 7:00,18.419249999999998,1.08128,25.8768,2.124519,0.1635,0.258,12.001679999999999,0.126,0.04070971485
1712,3/12/2012 8:00,2.911,0.7638400000000001,4.0896,1.500807,0.1155,0.2955,2.78712,0.9195,0.057476203049999994
1713,3/12/2012 9:00,8.938,0.0,12.556799999999999,0.0,0.0,0.2625,0.0,0.5025000000000001,0.30650456130000003
1714,3/12/2012 10:00,2.03975,0.0,2.8656,0.0,0.0,0.2475,1.25136,0.0,0.4062164925
1715,3/12/2012 11:00,7.995,35.0672,11.232,68.900685,5.302499999999999,0.3945,1.0522799999999999,0.0,0.34041748860000004
1716,3/12/2012 12:00,1.89625,13.709439999999999,2.6639999999999997,26.936562,2.073,1.8059999999999998,4.64994,0.1875,0.5990815404
1717,3/12/2012 13:00,1.4144999999999999,18.42144,1.9872,36.194787,2.7855,1.7955,1.86282,0.0,0.6238974063
1718,3/12/2012 14:00,0.0,2.29152,0.0,4.502421,0.3465,0.9045,1.12338,0.5175000000000001,0.5805054864
1719,3/12/2012 15:00,1.5374999999999999,2.16256,2.16,4.249038,0.327,0.8985000000000001,2.8724399999999997,2.82,0.47108280975
1720,3/12/2012 16:00,0.0,2.07328,0.0,4.073619,0.3135,0.7245,2.0476799999999997,2.8785,0.49420356195
1721,3/12/2012 17:00,2.2345,1.488,3.1391999999999998,2.92365,0.22499999999999998,1.191,0.0,0.0,0.0345684444
1722,3/12/2012 18:00,8.8355,1.27968,12.4128,2.514339,0.1935,1.3515,0.0,0.0,0.0
1723,3/12/2012 19:00,4.54075,2.05344,6.3792,4.034637,0.3105,0.7170000000000001,9.3141,0.2475,0.0
1724,3/12/2012 20:00,3.9565,2.47008,5.558400000000001,4.8532589999999995,0.3735,0.48899999999999993,11.432879999999999,0.20550000000000002,0.0
1725,3/12/2012 21:00,3.0237499999999997,2.37088,4.247999999999999,4.658349,0.35850000000000004,0.69,0.0,1.083,0.0
1726,3/12/2012 22:00,0.0,2.71808,0.0,5.340534,0.41100000000000003,0.8775000000000001,6.0435,1.212,0.0
1727,3/12/2012 23:00,0.0,2.31136,0.0,4.541403,0.34950000000000003,0.0,11.64618,0.0,0.0
1728,3/13/2012 0:00,0.0,2.12288,0.0,4.171074,0.321,0.0,3.5692199999999996,0.0,0.0
1729,3/13/2012 1:00,0.0,2.19232,0.0,4.307511,0.3315,0.0,7.3944,0.405,0.0
1730,3/13/2012 2:00,0.0,2.20224,0.0,4.327002,0.333,0.0,4.67838,0.423,0.0
1731,3/13/2012 3:00,0.0,2.96608,0.0,5.827809,0.4485,14.226,7.920539999999999,0.0,0.0
1732,3/13/2012 4:00,0.0,0.0,0.0,0.0,0.0,14.1375,8.020079999999998,0.9375,0.0
1733,3/13/2012 5:00,0.0,6.696000000000001,0.0,13.156425,1.0125000000000002,14.061,2.8724399999999997,0.0,0.0
1734,3/13/2012 6:00,0.0,7.191999999999999,0.0,14.130975,1.0875,14.083499999999999,5.87286,0.0,0.0
1735,3/13/2012 7:00,0.0,8.56096,0.0,16.820733,1.2945,14.193000000000001,7.252199999999999,0.0,0.3238063794
1736,3/13/2012 8:00,0.0,10.068800000000001,0.0,19.783365,1.5225000000000002,14.13,1.1376,0.0,0.3281411658
1737,3/13/2012 9:00,0.0,1.30944,0.0,2.572812,0.198,13.602,3.1852799999999997,0.0,0.4136466957
1738,3/13/2012 10:00,0.0,4.75168,0.0,9.336189,0.7184999999999999,0.42600000000000005,3.6972,0.0,0.58574412225
1739,3/13/2012 11:00,0.0,4.80128,0.0,9.433644,0.726,0.6855,55.47221999999999,0.0,0.6205758152999999
1740,3/13/2012 12:00,0.0,4.07712,0.0,8.010800999999999,0.6164999999999999,1.017,0.0,0.0,0.66090667965
1741,3/13/2012 13:00,3.7822500000000003,3.08512,5.3136,6.061700999999999,0.46649999999999997,1.5870000000000002,24.202439999999996,0.0,0.7466346972000001
1742,3/13/2012 14:00,3.362,1.97408,4.7232,3.878709,0.2985,2.424,0.0,0.0,0.63041463135
1743,3/13/2012 15:00,3.06475,1.41856,4.3056,2.787213,0.2145,0.318,9.3141,0.393,0.49284665850000003
1744,3/13/2012 16:00,0.0,1.20032,0.0,2.358411,0.1815,0.9779999999999999,24.102899999999998,0.447,0.24655930425
1745,3/13/2012 17:00,0.0,1.23008,0.0,2.416884,0.186,1.7955,21.20202,0.4635,0.26928212640000004
1746,3/13/2012 18:00,0.0,1.36896,0.0,2.689758,0.207,2.0909999999999997,18.358019999999996,0.0,0.0
1747,3/13/2012 19:00,0.0,1.5772800000000002,0.0,3.099069,0.23850000000000002,2.6670000000000003,24.102899999999998,0.0,0.0
1748,3/13/2012 20:00,0.0,1.4979200000000001,0.0,2.9431410000000002,0.2265,6.7425,8.048519999999998,0.0,0.0
1749,3/13/2012 21:00,0.8097500000000001,1.66656,1.1376000000000002,3.274488,0.252,5.8995,12.428279999999999,1.6965000000000001,0.0
1750,3/13/2012 22:00,0.0,5.8726400000000005,0.0,11.538672,0.888,3.018,6.9820199999999994,1.6935,0.0
1751,3/13/2012 23:00,0.0,5.6345600000000005,0.0,11.070888,0.8520000000000001,3.0420000000000003,3.7825199999999994,1.431,0.0
1752,3/14/2012 0:00,0.0,5.59488,0.0,10.992924,0.846,0.1215,4.507739999999999,0.0,0.0
1753,3/14/2012 1:00,19.28025,0.0,27.086399999999998,0.0,0.0,0.0,5.44626,0.1215,0.0
1754,3/14/2012 2:00,13.95025,5.83296,19.598399999999998,11.460707999999999,0.882,0.0,6.000839999999999,0.10650000000000001,0.0
1755,3/14/2012 3:00,8.43575,32.89472,11.8512,64.632156,4.974,0.0,6.612299999999999,0.1365,0.0
1756,3/14/2012 4:00,3.8847500000000004,0.0,5.4576,0.0,0.0,0.0,7.152659999999999,0.147,0.0
1757,3/14/2012 5:00,2.40875,0.0,3.384,0.0,0.0,0.0,7.266419999999999,6.6705,0.0
1758,3/14/2012 6:00,2.911,0.0,4.0896,0.0,0.0,0.0,7.252199999999999,0.126,0.0
1759,3/14/2012 7:00,3.3005,14.17568,4.6368,27.852639,2.1435,0.0,0.0,0.20999999999999996,0.5575959354
1760,3/14/2012 8:00,3.10575,8.372480000000001,4.3632,16.450404,1.266,1.782,0.0,0.195,0.5897546991
1761,3/14/2012 9:00,2.94175,4.44416,4.1328,8.731968,0.672,2.178,1.9907999999999997,0.114,0.46836649230000005
1762,3/14/2012 10:00,2.7777499999999997,4.8707199999999995,3.9024,9.570081,0.7364999999999999,2.7465,3.1710599999999998,0.0,0.5537189133
1763,3/14/2012 11:00,4.0897499999999996,4.721920000000001,5.7456,9.277716,0.7140000000000001,0.0,2.2041,0.0,0.6393963481499999
1764,3/14/2012 12:00,0.0,0.0,0.0,0.0,0.0,0.0,1.03806,0.129,0.7247150379
1765,3/14/2012 13:00,0.0,0.0,0.0,0.0,0.0,0.135,1.4788799999999998,0.276,0.7400513011500001
1766,3/14/2012 14:00,0.0,0.0,0.0,0.0,0.0,0.0,1.53576,0.5235,0.7477204035
1767,3/14/2012 15:00,0.0,57.11936,0.0,112.22917799999999,8.637,0.2355,31.028039999999997,0.48450000000000004,0.6404794913999999
1768,3/14/2012 16:00,0.0,52.764480000000006,0.0,103.672629,7.9785,0.0,29.69136,0.384,0.5388951771000001
1769,3/14/2012 17:00,0.0,53.65728000000001,0.0,105.42681900000001,8.1135,0.1245,26.93268,0.3255,0.25742912475
1770,3/14/2012 18:00,0.902,53.2208,1.2672,104.569215,8.0475,0.1515,25.169399999999996,0.4605,0.0
1771,3/14/2012 19:00,3.1774999999999998,59.1232,4.464,116.16636,8.94,0.174,25.610219999999998,0.3,0.0
1772,3/14/2012 20:00,4.78675,66.50368,6.7248,130.667664,10.056,2.0175,24.25932,0.2565,0.0
1773,3/14/2012 21:00,1.75275,73.67584000000001,2.4624,144.759657,11.140500000000001,0.7545,18.79884,0.17550000000000002,0.0
1774,3/14/2012 22:00,0.0,79.79648,0.0,156.785604,12.066,0.753,13.480559999999999,0.32249999999999995,0.0
1775,3/14/2012 23:00,0.0,81.344,0.0,159.8262,12.299999999999999,4.4145,8.190719999999999,0.156,0.0
1776,3/15/2012 0:00,1.9577499999999999,1.62688,2.7504,3.196524,0.24600000000000002,6.492,0.0,0.135,0.0
1777,3/15/2012 1:00,20.3565,1.94432,28.598399999999998,3.820236,0.294,5.832,0.0,0.0,0.0
1778,3/15/2012 2:00,18.35775,3.00576,25.7904,5.905773,0.4545,4.548,0.0,0.0,0.0
1779,3/15/2012 3:00,13.468499999999999,3.41248,18.921599999999998,6.704904,0.516,3.2714999999999996,1.1518199999999998,0.0,0.0
1780,3/15/2012 4:00,8.568999999999999,0.0,12.0384,0.0,0.0,2.2455,1.67796,0.0,0.0
1781,3/15/2012 5:00,35.731500000000004,0.0,50.19840000000001,0.0,0.0,1.554,1.83438,0.0,0.0
1782,3/15/2012 6:00,0.0,0.0,0.0,0.0,0.0,1.0935000000000001,16.708499999999997,0.0,0.0
1783,3/15/2012 7:00,0.0,1.71616,0.0,3.371943,0.2595,0.1965,8.63154,0.0,0.5170121481000001
1784,3/15/2012 8:00,0.0,0.0,0.0,0.0,0.0,0.0,0.0,0.0,0.5802420130500001
1785,3/15/2012 9:00,0.738,1.1904000000000001,1.0368,2.33892,0.18,0.0,0.0,0.0,0.40505973585000005
1786,3/15/2012 10:00,1.353,0.0,1.9008,0.0,0.0,0.0,0.0,0.264,0.49590522555000005
1787,3/15/2012 11:00,2.05,0.0,2.88,0.0,0.0,0.15,8.48934,0.1725,0.61351982475
1788,3/15/2012 12:00,2.22425,0.0,3.1248,0.0,0.0,0.0,8.13384,0.15,0.67756551555
1789,3/15/2012 13:00,2.53175,0.0,3.5568,0.0,0.0,1.992,7.42284,0.1665,0.7145661096000001
1790,3/15/2012 14:00,2.993,0.0,4.2048,0.0,0.0,2.2635,10.693439999999999,0.192,0.6999356553
1791,3/15/2012 15:00,3.24925,0.0,4.5648,0.0,0.0,3.0029999999999997,13.565879999999998,1.5975,0.6685280595
1792,3/15/2012 16:00,3.3209999999999997,22.18112,4.6655999999999995,43.581876,3.354,2.1135,13.1535,0.13949999999999999,0.41191079475000003
1793,3/15/2012 17:00,3.1365,20.2368,4.4064,39.76164,3.0599999999999996,4.4145,14.689259999999999,0.23399999999999999,0.0981457827
1794,3/15/2012 18:00,3.0135,21.41728,4.2336,42.081069,3.2385,0.3285,0.0,0.33749999999999997,0.0
1795,3/15/2012 19:00,2.61375,18.01472,3.6719999999999997,35.395656,2.724,0.1215,0.0,0.3435,0.0
1796,3/15/2012 20:00,1.8347499999999999,9.761280000000001,2.5776,19.179144,1.476,1.137,1.00962,0.32249999999999995,0.0
1797,3/15/2012 21:00,3.82325,9.8208,5.3712,19.29609,1.485,0.9345,0.0,0.0,0.0
1798,3/15/2012 22:00,2.59325,9.63232,3.6431999999999998,18.925761,1.4565000000000001,0.741,1.4362199999999998,0.0,0.0
1799,3/15/2012 23:00,22.66275,7.936000000000001,31.8384,15.5928,1.2,0.8355,2.1329999999999996,1.5870000000000002,0.0
1800,3/16/2012 0:00,2.0295,5.78336,2.8512000000000004,11.363252999999998,0.8744999999999999,1.0050000000000001,2.28942,0.651,0.0
1801,3/16/2012 1:00,2.7982500000000003,0.9820800000000001,3.9312,1.9296090000000001,0.14850000000000002,0.8025,2.21832,0.696,0.0
1802,3/16/2012 2:00,93.30575,1.4086400000000001,131.0832,2.767722,0.21300000000000002,0.771,2.1045599999999998,0.3465,0.0
1803,3/16/2012 3:00,1.2095,1.11104,1.6992,2.182992,0.168,7.3635,2.0619,0.23399999999999999,0.0
1804,3/16/2012 4:00,1.11725,2.56928,1.5695999999999999,5.048169,0.3885,4.039499999999999,10.693439999999999,0.23399999999999999,0.0
1805,3/16/2012 5:00,1.4555,0.7340800000000001,2.0448,1.442334,0.111,2.961,11.57508,0.1575,0.0
1806,3/16/2012 6:00,2.5625,0.0,3.6,0.0,0.0,0.6435,8.30448,0.0,0.0
1807,3/16/2012 7:00,1.312,0.0,1.8432000000000002,0.0,0.0,0.231,4.32288,0.0,0.32877403650000003
1808,3/16/2012 8:00,1.32225,0.0,1.8576,0.0,0.0,0.0,2.4173999999999998,0.0,0.48513634260000005
1809,3/16/2012 9:00,1.48625,0.0,2.088,0.0,0.0,0.0,3.59766,0.6795,0.49557823455000005
1810,3/16/2012 10:00,5.27875,0.0,7.4159999999999995,0.0,0.0,0.0,4.749479999999999,0.7455,0.5863878741
1811,3/16/2012 11:00,1.271,0.0,1.7855999999999999,0.0,0.0,0.0,1.83438,0.7095,0.47769120105000007
1812,3/16/2012 12:00,1.03525,0.0,1.4544,0.0,0.0,0.0,2.16144,0.753,0.5699572662
1813,3/16/2012 13:00,0.91225,3.6108800000000003,1.2816,7.094724,0.546,0.0,4.43664,0.768,0.5160329768999999
1814,3/16/2012 14:00,1.13775,3.8688000000000002,1.5984,7.60149,0.585,0.0,4.010039999999999,1.1115,0.5458832231999999
1815,3/16/2012 15:00,1.722,1.13088,2.4192,2.221974,0.171,0.0,3.88206,1.623,0.38785889205
1816,3/16/2012 16:00,2.12175,1.5673600000000003,2.9808,3.079578,0.23700000000000002,0.0,4.37976,2.238,0.1347558996
1817,3/16/2012 17:00,1.9167500000000002,1.11104,2.6928,2.182992,0.168,0.0,3.9815999999999994,2.43,0.05152120365
1818,3/16/2012 18:00,14.33975,0.0,20.145599999999998,0.0,0.0,0.0,4.0527,1.3350000000000002,0.0
1819,3/16/2012 19:00,0.0,0.0,0.0,0.0,0.0,0.0,1.66374,0.0,0.0
1820,3/16/2012 20:00,0.0,2.14272,0.0,4.210056,0.324,0.543,1.5642,1.7565,0.0
1821,3/16/2012 21:00,83.67075,1.9939200000000001,117.5472,3.917691,0.3015,1.758,1.26558,2.1,0.0
1822,3/16/2012 22:00,2.788,1.71616,3.9168,3.371943,0.2595,1.3784999999999998,1.12338,2.2155,0.0
1823,3/16/2012 23:00,0.8405,1.1408,1.1808,2.241465,0.1725,2.556,1.08072,2.37,0.0
1824,3/17/2012 0:00,0.902,3.40256,1.2672,6.685413,0.5145,3.7935000000000003,0.0,1.4055,0.0
1825,3/17/2012 1:00,0.7687499999999999,1.15072,1.08,2.2609559999999997,0.174,4.875,1.03806,1.1159999999999999,0.0
1826,3/17/2012 2:00,1.13775,4.721920000000001,1.5984,9.277716,0.7140000000000001,5.8095,1.6352999999999998,0.15300000000000002,0.0
1827,3/17/2012 3:00,0.0,9.1264,0.0,17.93172,1.38,7.468500000000001,1.53576,1.14,0.0
1828,3/17/2012 4:00,2.1012500000000003,3.79936,2.952,7.465053,0.5745,8.676,0.0,0.273,0.0
1829,3/17/2012 5:00,31.323999999999998,1.6566400000000001,44.0064,3.254997,0.2505,9.099,0.0,0.273,0.0
1830,3/17/2012 6:00,2.0807499999999997,0.0,2.9231999999999996,0.0,0.0,8.6505,0.0,0.27899999999999997,0.0
1831,3/17/2012 7:00,0.0,0.0,0.0,0.0,0.0,0.192,0.0,0.627,0.0541751994
1832,3/17/2012 8:00,0.0,0.9424,0.0,1.851645,0.1425,0.135,1.00962,0.0,0.14918658825
1833,3/17/2012 9:00,7.093,0.0,9.9648,0.0,0.0,0.111,0.0,0.276,0.23883832245
1834,3/17/2012 10:00,3.3415,0.0,4.6944,0.0,0.0,0.15300000000000002,0.0,0.0,0.30861336765
1835,3/17/2012 11:00,1.3632499999999999,37.815039999999996,1.9152,74.299692,5.718,0.1215,0.0,0.687,0.17688940290000002
1836,3/17/2012 12:00,1.19925,1.35904,1.6848,2.670267,0.20550000000000002,0.11249999999999999,0.0,0.0,0.18541039755000002
1837,3/17/2012 13:00,1.24025,0.0,1.7424,0.0,0.0,2.643,1.8059399999999999,1.3875,0.7350106606500001
1838,3/17/2012 14:00,1.0045,2.60896,1.4112,5.126133,0.3945,2.4735,1.52154,1.008,0.7553668164
1839,3/17/2012 15:00,0.0,0.0,0.0,0.0,0.0,0.0,1.25136,0.3885,0.7363366142999999
1840,3/17/2012 16:00,0.779,0.0,1.0944,0.0,0.0,7.6065,1.3366799999999999,1.1669999999999998,0.5975313393
1841,3/17/2012 17:00,0.0,0.0,0.0,0.0,0.0,1.206,1.12338,0.20550000000000002,0.51666057975
1842,3/17/2012 18:00,0.0,0.0,0.0,0.0,0.0,1.044,0.0,0.201,0.0
1843,3/17/2012 19:00,0.0,0.8729600000000001,0.0,1.715208,0.132,1.029,0.0,2.7735000000000003,0.0
1844,3/17/2012 20:00,14.514000000000001,0.97216,20.3904,1.910118,0.147,0.0,16.76538,2.541,0.0
1845,3/17/2012 21:00,1.52725,0.8729600000000001,2.1456,1.715208,0.132,0.0,17.44794,2.163,0.0
1846,3/17/2012 22:00,0.861,3.3033600000000005,1.2096,6.490503,0.49950000000000006,0.0,13.59432,1.5285,0.0
1847,3/17/2012 23:00,0.0,2.96608,0.0,5.827809,0.4485,0.0,17.09244,0.9794999999999999,0.0
1848,3/18/2012 0:00,0.0,2.1328,0.0,4.190564999999999,0.32249999999999995,0.204,11.24802,0.6675,0.0
1849,3/18/2012 1:00,0.0,0.71424,0.0,1.403352,0.108,0.2265,8.745299999999999,0.0,0.0
1850,3/18/2012 2:00,0.0,1.29952,0.0,2.553321,0.1965,0.216,6.44166,0.0,0.0
1851,3/18/2012 3:00,1.48625,0.0,2.088,0.0,0.0,0.2565,1.67796,0.0,0.0
1852,3/18/2012 4:00,2.34725,4.5136,3.2976,8.868405,0.6825,0.204,4.123799999999999,0.0,0.0
1853,3/18/2012 5:00,2.6445,1.5376,3.7152,3.021105,0.23249999999999998,0.1215,1.9623599999999999,0.0,0.0
1854,3/18/2012 6:00,0.0,0.80352,0.0,1.578771,0.1215,0.1155,5.232959999999999,0.0,0.0
1855,3/18/2012 7:00,0.0,1.2201600000000001,0.0,2.397393,0.1845,0.132,2.1756599999999997,0.0,0.0417678786
1856,3/18/2012 8:00,0.0,2.0832,0.0,4.09311,0.315,0.174,0.0,0.414,0.10741141950000001
1857,3/18/2012 9:00,0.0,2.6486400000000003,0.0,5.204097,0.4005,0.23850000000000002,24.11712,0.5625,0.44086041195000003
1858,3/18/2012 10:00,0.0,2.91648,0.0,5.730353999999999,0.441,0.285,6.76872,0.2595,0.63276966585
1859,3/18/2012 11:00,0.0,2.94624,0.0,5.788827,0.4455,0.2745,13.082399999999998,0.24449999999999997,0.6756102475500001
1860,3/18/2012 12:00,0.0,2.6784000000000003,0.0,5.26257,0.405,0.264,3.2705999999999995,0.219,0.66044662425
1861,3/18/2012 13:00,0.0,1.00192,0.0,1.968591,0.1515,0.24449999999999997,3.2563799999999996,1.092,0.46431471555000003
1862,3/18/2012 14:00,0.0,0.0,0.0,0.0,0.0,0.0,2.18988,1.272,0.44075435460000006
1863,3/18/2012 15:00,0.0,0.0,0.0,0.0,0.0,0.0,2.3036399999999997,1.206,0.44688335895000003
1864,3/18/2012 16:00,0.0,0.8729600000000001,0.0,1.715208,0.132,0.0,17.078219999999998,0.9540000000000001,0.27705516300000005
1865,3/18/2012 17:00,0.0,1.1606400000000001,0.0,2.280447,0.17550000000000002,1.1775,0.0,0.7875,0.11172117809999998
1866,3/18/2012 18:00,0.0,1.3491199999999999,0.0,2.650776,0.204,0.9555000000000001,0.0,0.6705,0.0
1867,3/18/2012 19:00,1.681,19.92928,2.3616,39.157419,3.0135,0.8414999999999999,3.31326,0.4155,0.0
1868,3/18/2012 20:00,1.1685,3.10496,1.6416,6.100683,0.46950000000000003,0.6675,3.7398599999999997,1.1535,0.0
1869,3/18/2012 21:00,1.24025,3.14464,1.7424,6.178647,0.4755,0.0,3.8536199999999994,1.2750000000000001,0.0
1870,3/18/2012 22:00,2.24475,2.3212800000000002,3.1536,4.560894,0.35100000000000003,0.0,3.9389399999999997,1.314,0.0
1871,3/18/2012 23:00,5.56575,1.69632,7.8192,3.332961,0.2565,0.0,3.9247199999999998,1.1925000000000001,0.0
1872,3/19/2012 0:00,10.73175,1.36896,15.0768,2.689758,0.207,0.5940000000000001,4.3370999999999995,1.0995000000000001,0.0
1873,3/19/2012 1:00,12.65875,2.60896,17.784,5.126133,0.3945,0.495,3.72564,0.951,0.0
1874,3/19/2012 2:00,0.0,1.64672,0.0,3.235506,0.249,0.41999999999999993,3.4128,0.0,0.0
1875,3/19/2012 3:00,0.0,0.0,0.0,0.0,0.0,0.3945,1.6210799999999999,0.0,0.0
1876,3/19/2012 4:00,0.0,4.05728,0.0,7.971819,0.6134999999999999,0.573,1.8059399999999999,0.0,0.0
1877,3/19/2012 5:00,0.0,1.32928,0.0,2.611794,0.201,0.801,2.6875799999999996,0.0,0.0
1878,3/19/2012 6:00,0.0,1.2499200000000001,0.0,2.455866,0.189,1.026,4.536179999999999,0.0,0.0
1879,3/19/2012 7:00,0.0,1.6566400000000001,0.0,3.254997,0.2505,1.377,0.0,0.0,0.7061875506
1880,3/19/2012 8:00,0.0,1.1408,0.0,2.241465,0.1725,1.503,0.0,0.0,0.6828950814
1881,3/19/2012 9:00,0.0,1.2201600000000001,0.0,2.397393,0.1845,1.5195,0.0,0.111,0.5152257684
1882,3/19/2012 10:00,24.241249999999997,1.3392,34.056,2.631285,0.20249999999999999,1.5675,1.0238399999999999,0.3465,0.6267662593500001
1883,3/19/2012 11:00,28.648750000000003,1.44832,40.248000000000005,2.845686,0.219,1.3995,1.422,0.20550000000000002,0.72313053225
1884,3/19/2012 12:00,30.43225,1.50784,42.7536,2.962632,0.228,1.566,1.69218,1.4729999999999999,0.7926644039999999
1885,3/19/2012 13:00,30.0735,1.2201600000000001,42.2496,2.397393,0.1845,1.7910000000000001,1.79172,1.2945,0.82953625965
1886,3/19/2012 14:00,28.5155,4.90048,40.0608,9.628554,0.741,0.0,1.7632799999999997,0.9299999999999999,0.84940010505
1887,3/19/2012 15:00,25.707,3.43232,36.1152,6.743886,0.519,0.0,1.4646599999999999,0.0,0.82133864505
1888,3/19/2012 16:00,23.595499999999998,4.92032,33.1488,9.667536,0.744,0.0,27.47304,0.636,0.6963883962
1889,3/19/2012 17:00,23.50325,11.52704,33.0192,22.648542,1.7429999999999999,10.3455,92.74283999999999,0.7455,0.5269688193000001
1890,3/19/2012 18:00,26.475749999999998,17.9056,37.1952,35.181255,2.7075,11.1675,96.25517999999998,0.711,0.06100929975
1891,3/19/2012 19:00,0.0,8.60064,0.0,16.898697,1.3005,11.0265,100.73447999999999,0.0,0.0
1892,3/19/2012 20:00,0.0,8.372480000000001,0.0,16.450404,1.266,10.614,105.04314,0.318,0.0
1893,3/19/2012 21:00,0.0,7.9657599999999995,0.0,15.651273,1.2045,10.197,108.42749999999998,0.0,0.0
1894,3/19/2012 22:00,0.0,0.0,0.0,0.0,0.0,9.696,103.79177999999999,0.0,0.0
1895,3/19/2012 23:00,3.08525,0.0,4.3344,0.0,0.0,9.549000000000001,95.80013999999998,0.0,0.0
1896,3/20/2012 0:00,1.7834999999999999,0.0,2.5056,0.0,0.0,8.736,0.0,0.0,0.0
1897,3/20/2012 1:00,0.8405,0.0,1.1808,0.0,0.0,2.3655,0.0,0.4125,0.0
1898,3/20/2012 2:00,0.0,0.0,0.0,0.0,0.0,3.0075000000000003,0.0,0.0,0.0
1899,3/20/2012 3:00,0.0,0.0,0.0,0.0,0.0,3.378,6.17148,0.0,0.0
1900,3/20/2012 4:00,0.0,0.0,0.0,0.0,0.0,3.3195,68.49774,0.0,0.0
1901,3/20/2012 5:00,0.0,0.0,0.0,0.0,0.0,4.2195,79.93062,0.3915,0.0
1902,3/20/2012 6:00,0.0,0.0,0.0,0.0,0.0,0.1215,89.69976,0.27749999999999997,0.0
1903,3/20/2012 7:00,0.0,2.9958400000000003,0.0,5.8862820000000005,0.453,0.17850000000000002,98.91431999999999,0.33,0.100708398
1904,3/20/2012 8:00,3.1365,3.224,4.4064,6.334575,0.48750000000000004,0.2115,106.4367,0.35700000000000004,0.14620979730000003
1905,3/20/2012 9:00,2.7777499999999997,3.55136,3.9024,6.977778,0.5369999999999999,0.195,18.4149,0.375,0.29052423855000004
1906,3/20/2012 10:00,2.3779999999999997,3.7696,3.3407999999999998,7.40658,0.57,12.0105,2.0050199999999996,0.35700000000000004,0.5497556211000001
1907,3/20/2012 11:00,2.2550000000000003,3.6704000000000008,3.168,7.211670000000001,0.555,11.163,1.9339199999999996,0.3315,0.5341984095
1908,3/20/2012 12:00,0.0,3.1744000000000003,0.0,6.23712,0.48,9.288,1.6210799999999999,0.276,0.52793243475
1909,3/20/2012 13:00,0.0,2.79744,0.0,5.496462,0.423,1.065,97.35011999999999,0.2265,0.45529109325
1910,3/20/2012 14:00,0.0,0.0,0.0,0.0,0.0,0.0,89.99838,0.1965,0.39617898180000005
1911,3/20/2012 15:00,0.0,3.9184,0.0,7.698945,0.5925,0.0,7.20954,0.192,0.49338727830000007
1912,3/20/2012 16:00,0.8200000000000001,3.4521599999999997,1.1520000000000001,6.782868,0.522,2.949,9.754919999999998,0.186,0.23061001005000004
1913,3/20/2012 17:00,0.9635,0.0,1.3536000000000001,0.0,0.0,1.41,4.86324,0.264,0.41226174150000006
1914,3/20/2012 18:00,0.9942500000000001,3.3033600000000005,1.3968,6.490503,0.49950000000000006,0.1575,20.7612,0.23249999999999998,0.05289578595
1915,3/20/2012 19:00,3.2595,2.65856,4.5792,5.223588,0.402,0.132,22.680899999999998,2.6475,0.0
1916,3/20/2012 20:00,4.43825,0.0,6.2352,0.0,0.0,1.5,28.653299999999998,0.0,0.0
1917,3/20/2012 21:00,6.28325,0.0,8.8272,0.0,0.0,0.0,21.472199999999997,0.663,0.0
1918,3/20/2012 22:00,2.01925,0.0,2.8367999999999998,0.0,0.0,0.0,15.969059999999999,2.5349999999999997,0.0
1919,3/20/2012 23:00,1.599,0.0,2.2464,0.0,0.0,0.0,12.925979999999997,1.983,0.0
1920,3/21/2012 0:00,9.07125,0.744,12.744,1.461825,0.11249999999999999,0.0,18.685079999999996,1.494,0.0
1921,3/21/2012 1:00,0.8815,0.9424,1.2384,1.851645,0.1425,0.8295,16.324559999999998,1.2299999999999998,0.0
1922,3/21/2012 2:00,8.98925,1.20032,12.6288,2.358411,0.1815,0.0,15.016319999999999,0.2595,0.0
1923,3/21/2012 3:00,7.5337499999999995,2.04352,10.584,4.015146,0.309,0.0,14.490179999999999,0.813,0.0
1924,3/21/2012 4:00,6.273,32.398720000000004,8.8128,63.657606,4.899,0.6345,59.652899999999995,0.657,0.0
1925,3/21/2012 5:00,5.03275,6.894400000000001,7.070399999999999,13.546245,1.0425,0.744,33.246359999999996,0.3285,0.0
1926,3/21/2012 6:00,0.0,9.79104,0.0,19.237617,1.4805,0.957,35.00964,0.4755,0.033209729699999996
1927,3/21/2012 7:00,0.0,1.01184,0.0,1.9880820000000001,0.15300000000000002,4.3905,30.615659999999995,0.6749999999999999,0.27427190175
1928,3/21/2012 8:00,0.0,1.3788799999999999,0.0,2.709249,0.2085,1.2105,50.665859999999995,0.0,0.25862726085
1929,3/21/2012 9:00,1.927,0.0,2.7072000000000003,0.0,0.0,2.244,39.11922,0.801,0.37699165664999995
1930,3/21/2012 10:00,4.2844999999999995,0.82336,6.0192,1.617753,0.1245,2.6985,7.0957799999999995,1.563,0.5595026535000001
1931,3/21/2012 11:00,4.72525,1.06144,6.638400000000001,2.085537,0.1605,0.231,5.432039999999999,0.0,0.6111080104500001
1932,3/21/2012 12:00,1.2915,1.08128,1.8144,2.124519,0.1635,0.15,4.49352,0.0,0.6491995923
1933,3/21/2012 13:00,0.0,0.9225599999999999,0.0,1.812663,0.13949999999999999,0.0,4.010039999999999,5.199,0.53691735615
1934,3/21/2012 14:00,0.0,0.0,0.0,0.0,0.0,0.0,2.51694,5.808,0.46649195564999996
1935,3/21/2012 15:00,9.09175,0.0,12.7728,0.0,0.0,0.0,1.53576,5.295,0.37950931410000005
1936,3/21/2012 16:00,12.7715,0.0,17.9424,0.0,0.0,0.0,1.8912599999999997,5.3055,0.22471156469999998
1937,3/21/2012 17:00,13.84775,4.33504,19.4544,8.517567,0.6555000000000001,0.0,1.6210799999999999,4.737,0.09636789750000001
1938,3/21/2012 18:00,13.099499999999999,3.04544,18.4032,5.9837370000000005,0.4605,0.0,1.3082399999999998,0.174,0.011404022699999999
1939,3/21/2012 19:00,13.64275,1.15072,19.1664,2.2609559999999997,0.174,0.1095,0.0,2.592,0.0
1940,3/21/2012 20:00,12.709999999999999,2.21216,17.856,4.346493,0.3345,0.14100000000000001,0.0,0.8190000000000001,0.0
1941,3/21/2012 21:00,16.892,2.4800000000000004,23.7312,4.87275,0.375,0.2115,3.35592,0.0,0.0
1942,3/21/2012 22:00,11.910499999999999,2.51968,16.7328,4.950714,0.381,0.2835,3.1710599999999998,2.1450000000000005,0.0
1943,3/21/2012 23:00,7.954000000000001,2.6982399999999997,11.1744,5.301552,0.408,0.3045,3.1141799999999997,1.8359999999999999,0.0
1944,3/22/2012 0:00,9.266,1.7955200000000002,13.0176,3.527871,0.2715,0.2865,10.49436,1.7895,0.0
1945,3/22/2012 1:00,7.5337499999999995,0.0,10.584,0.0,0.0,0.0,15.016319999999999,1.0755,0.0
1946,3/22/2012 2:00,5.87325,3.04544,8.251199999999999,5.9837370000000005,0.4605,0.171,9.39942,0.738,0.0
1947,3/22/2012 3:00,0.8200000000000001,1.2896,1.1520000000000001,2.53383,0.195,0.17850000000000002,10.181519999999999,0.14100000000000001,0.0
1948,3/22/2012 4:00,0.8917499999999999,0.0,1.2528,0.0,0.0,5.9775,11.006279999999999,0.1665,0.0
1949,3/22/2012 5:00,0.85075,1.1606400000000001,1.1952,2.280447,0.17550000000000002,1.0005,7.323299999999999,0.243,0.0
1950,3/22/2012 6:00,1.6092499999999998,1.9046399999999999,2.2607999999999997,3.742272,0.288,0.39749999999999996,0.0,0.3645,0.007432557300000001
1951,3/22/2012 7:00,1.13775,5.13856,1.5984,10.096338,0.777,0.18,1.1802599999999999,0.354,0.0787372278
1952,3/22/2012 8:00,0.0,11.77504,0.0,23.135817,1.7805,0.1245,1.9623599999999999,0.3015,0.1416788772
1953,3/22/2012 9:00,0.0,0.0,0.0,0.0,0.0,0.0,2.6306999999999996,0.4785,0.15828237285
1954,3/22/2012 10:00,17.98875,0.0,25.272,0.0,0.0,0.0,4.18068,0.0,0.1663274571
1955,3/22/2012 11:00,4.3665,0.0,6.134399999999999,0.0,0.0,0.0,4.49352,0.3435,0.40454673630000004
1956,3/22/2012 12:00,1.50675,52.952960000000004,2.1168,104.04295800000001,8.007000000000001,2.7975,2.50272,0.4485,0.4643609607
1957,3/22/2012 13:00,8.815,50.41344,12.383999999999999,99.05326199999999,7.622999999999999,1.9005,0.0,0.0,0.5173195797
1958,3/22/2012 14:00,2.61375,0.0,3.6719999999999997,0.0,0.0,1.5765,0.0,1.0574999999999999,0.32673635925
1959,3/22/2012 15:00,0.0,1.4086400000000001,0.0,2.767722,0.21300000000000002,1.4505,0.9953999999999998,1.5195,0.2607205986
1960,3/22/2012 16:00,0.97375,48.83616,1.3679999999999999,95.954193,7.3845,0.8625,3.15684,0.3045,0.0872487063
1961,3/22/2012 17:00,8.036,34.13472,11.2896,67.06853100000001,5.1615,4.6335,1.03806,0.6014999999999999,0.040653438
1962,3/22/2012 18:00,11.644,24.542080000000002,16.3584,48.220734,3.7110000000000003,4.641,15.229619999999999,0.723,0.02423746395
1963,3/22/2012 19:00,8.2205,20.11776,11.5488,39.527748,3.0420000000000003,0.789,14.518619999999999,0.41100000000000003,0.0
1964,3/22/2012 20:00,8.47675,19.17536,11.9088,37.676103,2.8995,0.9494999999999999,0.0,1.0845,0.0
1965,3/22/2012 21:00,0.0,20.07808,0.0,39.449784,3.036,0.8744999999999999,0.0,0.0,0.0
1966,3/22/2012 22:00,0.0,22.538240000000002,0.0,44.283552,3.4080000000000004,0.7649999999999999,0.0,0.0,0.0
1967,3/22/2012 23:00,0.0,2.96608,0.0,5.827809,0.4485,0.6255000000000001,0.0,0.0,0.0
1968,3/23/2012 0:00,6.7855,1.01184,9.5328,1.9880820000000001,0.15300000000000002,0.5069999999999999,1.0664999999999998,0.0,0.0
1969,3/23/2012 1:00,6.888,0.0,9.6768,0.0,0.0,0.4455,21.443759999999997,0.0,0.0
1970,3/23/2012 2:00,24.559,0.0,34.5024,0.0,0.0,0.4155,3.9247199999999998,0.0,0.0
1971,3/23/2012 3:00,15.487750000000002,0.0,21.7584,0.0,0.0,11.7735,2.0050199999999996,0.0,0.0
1972,3/23/2012 4:00,0.9839999999999999,0.0,1.3823999999999999,0.0,0.0,12.69,1.6352999999999998,0.78,0.0
1973,3/23/2012 5:00,1.1685,21.29824,1.6416,41.847177,3.2205,7.773,28.78128,0.8385,0.0
1974,3/23/2012 6:00,1.24025,13.06464,1.7424,25.669647,1.9755000000000003,0.0,28.83816,0.8520000000000001,0.12408246165000002
1975,3/23/2012 7:00,1.1685,13.99712,1.6416,27.501801,2.1165000000000003,1.047,0.0,0.6255000000000001,0.6367543413
1976,3/23/2012 8:00,1.1685,16.34816,1.6416,32.121168,2.472,0.8190000000000001,6.3279,0.47400000000000003,0.5957561589
1977,3/23/2012 9:00,1.09675,20.17728,1.5408,39.644694,3.051,0.5805,1.1944799999999998,0.3735,0.49401639105
1978,3/23/2012 10:00,0.9635,23.639360000000003,1.3536000000000001,46.447053000000004,3.5745,0.453,0.0,0.273,0.59694945555
1979,3/23/2012 11:00,0.7687499999999999,24.6016,1.08,48.33768,3.7199999999999998,0.41999999999999993,0.0,0.18,0.6784363278000001
1980,3/23/2012 12:00,0.0,23.84768,0.0,46.856364,3.606,0.0,3.5265599999999995,0.1845,0.6977399068500001
1981,3/23/2012 13:00,0.0,20.2368,0.0,39.76164,3.0599999999999996,3.222,23.846939999999996,0.1935,0.7425319251000001
1982,3/23/2012 14:00,0.0,16.38784,0.0,32.199132,2.478,1.1115,11.134259999999998,0.1965,0.7504318563
1983,3/23/2012 15:00,0.0,2.30144,0.0,4.5219119999999995,0.348,0.9540000000000001,11.831039999999998,0.1905,0.7195825077000001
1984,3/23/2012 16:00,0.0,2.66848,0.0,5.243079,0.4035,13.9395,5.80176,0.156,0.6379381512000001
1985,3/23/2012 17:00,0.0,2.71808,0.0,5.340534,0.41100000000000003,0.786,3.89628,0.135,0.5150873364
1986,3/23/2012 18:00,0.943,2.41056,1.3248,4.736313,0.3645,0.957,5.019659999999999,0.8414999999999999,0.10161020940000001
1987,3/23/2012 19:00,10.3525,0.8928000000000001,14.543999999999999,1.7541900000000001,0.135,1.2045,5.616899999999999,0.9285,0.0
1988,3/23/2012 20:00,5.9552499999999995,0.0,8.3664,0.0,0.0,1.362,7.408619999999999,0.0,0.0
1989,3/23/2012 21:00,11.070000000000002,0.0,15.552000000000001,0.0,0.0,1.0815,8.14806,0.0,0.0
1990,3/23/2012 22:00,10.291,1.2201600000000001,14.457600000000001,2.397393,0.1845,0.885,0.0,0.0,0.0
1991,3/23/2012 23:00,8.92775,1.9145600000000003,12.542399999999999,3.761763,0.28950000000000004,0.7979999999999999,1.37934,0.0,0.0
1992,3/24/2012 0:00,7.18525,1.9244800000000002,10.0944,3.781254,0.29100000000000004,0.0,2.5453799999999998,0.0,0.0
1993,3/24/2012 1:00,4.35625,1.61696,6.12,3.1770329999999998,0.24449999999999997,0.126,3.5549999999999997,0.0,0.0
1994,3/24/2012 2:00,4.4485,1.35904,6.2496,2.670267,0.20550000000000002,0.0,4.3370999999999995,0.0,0.0
1995,3/24/2012 3:00,5.6785,1.2499200000000001,7.9776,2.455866,0.189,0.0,4.16646,0.0,0.0
1996,3/24/2012 4:00,7.30825,1.23008,10.2672,2.416884,0.186,8.786999999999999,3.09996,0.0,0.0
1997,3/24/2012 5:00,10.26025,9.11648,14.414399999999999,17.912229,1.3784999999999998,7.808999999999999,1.7632799999999997,0.0,0.0
1998,3/24/2012 6:00,14.554999999999998,8.233600000000001,20.447999999999997,16.17753,1.245,7.0680000000000005,96.76709999999999,0.0,0.127668366
1999,3/24/2012 7:00,16.65625,2.6387199999999997,23.400000000000002,5.184606,0.39899999999999997,0.20550000000000002,114.78384,0.0,0.5932132479000001
2000,3/24/2012 8:00,18.70625,1.32928,26.28,2.611794,0.201,0.20550000000000002,15.016319999999999,3.2910000000000004,0.58783663365
2001,3/24/2012 9:00,21.32,1.0416,29.952,2.046555,0.1575,1.983,25.382699999999996,2.787,0.56977892265
2002,3/24/2012 10:00,24.969,0.81344,35.0784,1.598262,0.12300000000000001,5.223,20.946059999999996,2.085,0.67253901645
2003,3/24/2012 11:00,28.638499999999997,0.0,40.233599999999996,0.0,0.0,5.9565,15.414479999999998,1.194,0.7539433482000002
2004,3/24/2012 12:00,1.599,0.0,2.2464,0.0,0.0,6.9375,11.674619999999999,0.627,0.7896012936000001
2005,3/24/2012 13:00,1.50675,0.72416,2.1168,1.422843,0.1095,7.732499999999999,8.702639999999999,0.3405,0.74399141775
2006,3/24/2012 14:00,1.42475,1.25984,2.0016,2.475357,0.1905,8.0835,3.22794,0.285,0.7012585251000001
2007,3/24/2012 15:00,1.4349999999999998,3.0553600000000003,2.016,6.003228,0.462,6.168,3.2990399999999993,0.0,0.58915347015
2008,3/24/2012 16:00,1.6912500000000001,2.0832,2.3760000000000003,4.09311,0.315,4.695,3.32748,0.0,0.5093626933500001
2009,3/24/2012 17:00,0.0,0.0,0.0,0.0,0.0,3.714,3.3417,0.2595,0.3518037705
2010,3/24/2012 18:00,41.07175,1.2201600000000001,57.7008,2.397393,0.1845,0.7605000000000001,2.9861999999999997,0.2115,0.08928835965000001
2011,3/24/2012 19:00,12.49475,11.58656,17.5536,22.765488,1.752,6.7410000000000005,1.9623599999999999,0.1725,0.0
2012,3/24/2012 20:00,13.407,0.9027200000000001,18.8352,1.773681,0.1365,0.0,2.0050199999999996,0.147,0.0
2013,3/24/2012 21:00,3.9359999999999995,1.25984,5.529599999999999,2.475357,0.1905,0.8999999999999999,3.2705999999999995,0.1215,0.0
2014,3/24/2012 22:00,3.9770000000000003,1.2201600000000001,5.5872,2.397393,0.1845,4.329000000000001,78.80724,0.0,0.0
2015,3/24/2012 23:00,16.625500000000002,1.13088,23.3568,2.221974,0.171,1.5765,74.47014,0.0,0.0
2016,3/25/2012 0:00,13.95025,1.08128,19.598399999999998,2.124519,0.1635,0.5984999999999999,79.44713999999999,0.0,0.0
2017,3/25/2012 1:00,11.4595,7.82688,16.0992,15.378399,1.1835,0.693,82.94526,0.0,0.0
2018,3/25/2012 2:00,3.9872499999999995,7.33088,5.6015999999999995,14.403849,1.1084999999999998,0.915,86.25851999999999,0.0,0.0
2019,3/25/2012 3:00,3.6797500000000003,6.75552,5.1696,13.273371,1.0214999999999999,1.185,83.48561999999998,0.126,0.0
2020,3/25/2012 4:00,0.0,41.029120000000006,0.0,80.614776,6.204000000000001,1.4895,5.7164399999999995,0.17550000000000002,0.0
2021,3/25/2012 5:00,0.0,46.65376,0.0,91.666173,7.0545,0.348,61.17444,0.2355,0.0
2022,3/25/2012 6:00,0.0,48.885760000000005,0.0,96.051648,7.392,0.29700000000000004,45.19116,0.258,0.19044584685
2023,3/25/2012 7:00,2.24475,46.16768,3.1536,90.711114,6.981,0.2505,35.82018,0.0,0.56532607215
2024,3/25/2012 8:00,1.8450000000000002,39.372479999999996,2.5920000000000005,77.35977899999999,5.9535,0.23249999999999998,31.59684,0.0,0.5915957712
2025,3/25/2012 9:00,1.599,34.87872,2.2464,68.530356,5.274,0.2145,30.388139999999996,0.0,0.5427980722500001
2026,3/25/2012 10:00,1.44525,33.41056,2.0303999999999998,65.64568799999999,5.052,0.333,30.032639999999997,0.0,0.56297824485
2027,3/25/2012 11:00,1.2915,43.88608,1.8144,86.228184,6.636,0.3945,31.511519999999997,0.0,0.67964925735
2028,3/25/2012 12:00,1.19925,52.09984,1.6848,102.366732,7.878,0.36600000000000005,40.37058,0.0,0.6899465937
2029,3/25/2012 13:00,1.13775,57.96256,1.5984,113.885913,8.7645,0.525,4.8347999999999995,0.0,0.70471021425
2030,3/25/2012 14:00,0.943,55.74048,1.3248,109.51992899999999,8.4285,3.336,4.30866,0.0,0.6819376557
2031,3/25/2012 15:00,0.7687499999999999,2.02368,1.08,3.9761640000000003,0.30600000000000005,3.3585,3.9389399999999997,0.0,0.6535785228000001
2032,3/25/2012 16:00,0.738,2.31136,1.0368,4.541403,0.34950000000000003,0.0,3.6260999999999997,0.0,0.50030221395
2033,3/25/2012 17:00,0.0,2.55936,0.0,5.028678,0.387,0.0,7.69302,0.0,0.25910337075
2034,3/25/2012 18:00,0.0,22.845760000000002,0.0,44.887773,3.4545,0.0,7.3517399999999995,0.0,0.07957423005
2035,3/25/2012 19:00,0.0,19.393600000000003,0.0,38.104905,2.9325,1.3305,6.370559999999999,0.1635,0.0
2036,3/25/2012 20:00,0.0,13.36224,0.0,26.254376999999998,2.0204999999999997,0.0,5.78754,0.126,0.0
2037,3/25/2012 21:00,0.8405,10.82272,1.1808,21.264681,1.6365,5.679,5.87286,0.0,0.0
2038,3/25/2012 22:00,0.943,0.0,1.3248,0.0,0.0,5.422499999999999,4.82058,0.0,0.0
2039,3/25/2012 23:00,0.0,16.9632,0.0,33.32961,2.5650000000000004,1.9215,2.47428,0.0,0.0
2040,3/26/2012 0:00,0.0,15.70336,0.0,30.854253,2.3745,4.401,1.422,0.0,0.0
2041,3/26/2012 1:00,4.5817499999999995,0.0,6.4368,0.0,0.0,1.3965,2.81556,0.0,0.0
2042,3/26/2012 2:00,3.5157499999999997,1.9046399999999999,4.9392,3.742272,0.288,0.0,1.7206199999999998,0.0,0.0
2043,3/26/2012 3:00,3.49525,10.53504,4.9104,20.699442,1.593,0.8175,3.6260999999999997,0.0,0.0
2044,3/26/2012 4:00,18.0605,0.9324800000000001,25.372799999999998,1.832154,0.14100000000000001,10.1895,136.02852,0.0,0.0
2045,3/26/2012 5:00,21.65825,0.80352,30.4272,1.578771,0.1215,0.7275,3.5123399999999996,0.0,0.0
2046,3/26/2012 6:00,27.715999999999998,0.0,38.937599999999996,0.0,0.0,0.28950000000000004,3.02886,0.0,0.16516365495000002
2047,3/26/2012 7:00,34.28625,0.0,48.168000000000006,0.0,0.0,0.47400000000000003,2.28942,0.2265,0.2719156314
2048,3/26/2012 8:00,3.00325,5.07904,4.2192,9.979392,0.768,1.3425,1.53576,0.0,0.30719768940000003
2049,3/26/2012 9:00,2.67525,2.37088,3.7584000000000004,4.658349,0.35850000000000004,1.9889999999999999,2.3747399999999996,1.8495000000000001,0.46959207960000005
2050,3/26/2012 10:00,2.1525000000000003,1.8848,3.024,3.70329,0.285,2.793,2.60226,0.168,0.56768818995
2051,3/26/2012 11:00,1.44525,1.1904000000000001,2.0303999999999998,2.33892,0.18,3.096,24.629039999999996,0.165,0.6670178109
2052,3/26/2012 12:00,0.0,1.12096,0.0,2.202483,0.16949999999999998,3.2115,1.03806,0.12,0.70749905415
2053,3/26/2012 13:00,0.0,3.1248,0.0,6.139665,0.47250000000000003,3.2325,0.0,0.0,0.5771664906
2054,3/26/2012 14:00,39.28825,1.8451199999999999,55.1952,3.625326,0.27899999999999997,3.3825000000000003,2.8724399999999997,0.1335,0.5549400664499999
2055,3/26/2012 15:00,31.10875,2.16256,43.704,4.249038,0.327,3.6915,36.787139999999994,0.17850000000000002,0.5061006573
2056,3/26/2012 16:00,26.619249999999997,1.03168,37.3968,2.0270639999999998,0.156,4.7355,42.68844,0.2265,0.4799532013500001
2057,3/26/2012 17:00,22.04775,0.88288,30.974400000000003,1.734699,0.1335,5.2875,38.99124,0.9525,0.4031827632
2058,3/26/2012 18:00,15.4775,0.8630399999999999,21.744,1.695717,0.1305,5.3580000000000005,0.0,0.0,0.12141739785
2059,3/26/2012 19:00,10.045,4.70208,14.112,9.238734,0.711,5.5965,0.0,0.0,0.0
2060,3/26/2012 20:00,5.07375,2.86688,7.128,5.632898999999999,0.4335,5.4135,25.55334,0.168,0.0
2061,3/26/2012 21:00,2.3165,3.5612800000000004,3.2544,6.997269,0.5385,0.48899999999999993,25.084079999999997,0.0,0.0
2062,3/26/2012 22:00,1.3735,3.83904,1.9296,7.543017,0.5805,0.0,26.17902,0.75,0.0
2063,3/26/2012 23:00,1.0762500000000002,2.68832,1.512,5.282061,0.4065,6.396,8.11962,0.684,0.0
2064,3/27/2012 0:00,0.8405,1.05152,1.1808,2.066046,0.159,6.468,30.075299999999995,0.729,0.0
2065,3/27/2012 1:00,2.1525000000000003,1.6566400000000001,3.024,3.254997,0.2505,6.555000000000001,30.98538,1.44,0.0
2066,3/27/2012 2:00,2.16275,0.0,3.0384,0.0,0.0,5.415,30.686759999999996,0.516,0.0
2067,3/27/2012 3:00,1.763,0.0,2.4768,0.0,0.0,5.3580000000000005,9.5274,0.46799999999999997,0.0
2068,3/27/2012 4:00,0.0,1.3193599999999999,0.0,2.592303,0.19949999999999998,4.4235,11.53242,0.36600000000000005,0.0
2069,3/27/2012 5:00,0.0,2.74784,0.0,5.399007,0.4155,4.2524999999999995,29.392739999999996,1.8074999999999999,0.0
2070,3/27/2012 6:00,1.40425,3.4620800000000003,1.9728,6.802359,0.5235,3.843,25.354259999999996,0.156,0.22397424105000002
2071,3/27/2012 7:00,0.97375,3.7299200000000003,1.3679999999999999,7.328616,0.5640000000000001,4.140000000000001,7.991639999999999,0.22949999999999998,0.42366214064999996
2072,3/27/2012 8:00,0.0,15.435519999999999,0.0,30.327996,2.3339999999999996,4.758,8.11962,0.0,0.37938133905000004
2073,3/27/2012 9:00,1.30175,25.20672,1.8288,49.526630999999995,3.8114999999999997,4.983,13.949819999999999,2.19,0.34075908090000007
2074,3/27/2012 10:00,1.46575,0.0,2.0592,0.0,0.0,5.106,10.29528,0.2205,0.56209874805
2075,3/27/2012 11:00,0.0,45.26496,0.0,88.937433,6.8445,5.271,3.64032,0.483,0.5154218874000001
2076,3/27/2012 12:00,0.0,12.23136,0.0,24.032403000000002,1.8495000000000001,5.409,2.28942,0.16949999999999998,0.37235405445
2077,3/27/2012 13:00,4.3665,52.952960000000004,6.134399999999999,104.04295800000001,8.007000000000001,5.28,1.3366799999999999,1.3605,0.47851516755
2078,3/27/2012 14:00,1.3325,0.0,1.872,0.0,0.0,5.1105,2.7160199999999994,0.20550000000000002,0.43960910070000003
2079,3/27/2012 15:00,8.53825,0.0,11.9952,0.0,0.0,10.08,3.88206,0.1905,0.39122381655000005
2080,3/27/2012 16:00,1.01475,1.1804800000000002,1.4256000000000002,2.319429,0.17850000000000002,0.924,16.26768,0.0,0.20184661140000001
2081,3/27/2012 17:00,2.0295,0.0,2.8512000000000004,0.0,0.0,1.8644999999999998,16.310339999999997,0.0,0.21177033885
2082,3/27/2012 18:00,1.6195000000000002,2.12288,2.2752000000000003,4.171074,0.321,2.295,1.3651199999999997,2.5665,0.037103960250000005
2083,3/27/2012 19:00,16.90225,1.488,23.7456,2.92365,0.22499999999999998,0.41999999999999993,0.0,0.504,0.0
2084,3/27/2012 20:00,0.0,1.7360000000000002,0.0,3.410925,0.2625,11.8005,0.0,0.45899999999999996,0.0
2085,3/27/2012 21:00,0.0,1.7955200000000002,0.0,3.527871,0.2715,12.8835,1.66374,0.447,0.0
2086,3/27/2012 22:00,10.414,1.82528,14.6304,3.586344,0.276,4.083,0.0,0.32249999999999995,0.0
2087,3/27/2012 23:00,0.0,2.71808,0.0,5.340534,0.41100000000000003,4.154999999999999,0.0,0.0,0.0
2088,3/28/2012 0:00,0.0,4.1664,0.0,8.18622,0.63,4.3934999999999995,0.0,0.0,0.0
2089,3/28/2012 1:00,0.0,5.8726400000000005,0.0,11.538672,0.888,4.5375,19.6947,0.0,0.0
2090,3/28/2012 2:00,0.9225000000000001,7.20192,1.2960000000000003,14.150466,1.089,4.398000000000001,0.0,0.0,0.0
2091,3/28/2012 3:00,0.7995,8.16416,1.1232,16.041093,1.2345,4.446,3.1284,0.0,0.0
2092,3/28/2012 4:00,1.066,0.0,1.4975999999999998,0.0,0.0,14.512500000000001,4.237559999999999,0.0,0.0
2093,3/28/2012 5:00,0.0,0.0,0.0,0.0,0.0,0.9105,4.1949,0.0,0.0
2094,3/28/2012 6:00,0.0,0.0,0.0,0.0,0.0,1.0739999999999998,0.0,0.0,0.33271742805000004
2095,3/28/2012 7:00,4.7765,0.0,6.7104,0.0,0.0,0.111,0.0,0.333,0.6028307796000001
2096,3/28/2012 8:00,5.1865,0.0,7.2863999999999995,0.0,0.0,0.147,4.635719999999999,0.0,0.5367238128
2097,3/28/2012 9:00,6.9085,1.1804800000000002,9.7056,2.319429,0.17850000000000002,0.2805,0.0,0.0,0.4692730371
2098,3/28/2012 10:00,0.0,1.6864000000000001,0.0,3.31347,0.255,0.543,18.8415,0.0,0.5385384921
2099,3/28/2012 11:00,1.1889999999999998,1.47808,1.6703999999999999,2.904159,0.2235,0.6795,23.121719999999996,0.0,0.6522516283500001
2100,3/28/2012 12:00,1.23,1.02176,1.728,2.007573,0.1545,0.7649999999999999,6.754499999999999,0.0,0.6422471359499999
2101,3/28/2012 13:00,1.09675,0.0,1.5408,0.0,0.0,0.867,31.41198,0.0,0.5852075775000001
2102,3/28/2012 14:00,1.56825,3.73984,2.2032,7.348107,0.5655,1.056,67.03308,0.0,0.56340023775
2103,3/28/2012 15:00,1.44525,3.55136,2.0303999999999998,6.977778,0.5369999999999999,1.3545,19.49562,0.11699999999999999,0.5660207668500001
2104,3/28/2012 16:00,1.6195000000000002,3.4918400000000003,2.2752000000000003,6.860832,0.528,1.5795000000000001,20.149739999999998,0.0,0.5880752944500001
2105,3/28/2012 17:00,1.6912500000000001,3.6208,2.3760000000000003,7.114215,0.5475,0.9494999999999999,0.0,0.0,0.51171424605
2106,3/28/2012 18:00,1.6195000000000002,1.02176,2.2752000000000003,2.007573,0.1545,0.0,16.523639999999997,0.0,0.23358094515
2107,3/28/2012 19:00,1.67075,1.39872,2.3472,2.748231,0.2115,0.381,21.386879999999998,0.0,0.0
2108,3/28/2012 20:00,1.558,1.50784,2.1888,2.962632,0.228,5.0565,8.33292,0.0,0.0
2109,3/28/2012 21:00,11.73625,1.3788799999999999,16.488,2.709249,0.2085,4.8315,33.303239999999995,0.0,0.0
2110,3/28/2012 22:00,12.84325,4.96992,18.0432,9.764991,0.7515,3.0795000000000003,49.755779999999994,0.0,0.0
2111,3/28/2012 23:00,14.688250000000002,8.56096,20.6352,16.820733,1.2945,9.5985,15.812639999999998,0.0,0.0
2112,3/29/2012 0:00,19.311,14.40384,27.129600000000003,28.300932,2.178,3.2625,0.0,0.0,0.0
2113,3/29/2012 1:00,25.4815,20.990720000000003,35.7984,41.242956,3.1740000000000004,3.1125,46.4283,0.0,0.0
2114,3/29/2012 2:00,28.1465,26.545920000000002,39.5424,52.157916,4.014,0.7905,0.0,0.0,0.0
2115,3/29/2012 3:00,27.74675,31.317439999999998,38.9808,61.533086999999995,4.7355,0.9225,19.424519999999998,0.0,0.0
2116,3/29/2012 4:00,27.029249999999998,36.0592,37.9728,70.849785,5.4525,3.2190000000000003,26.22168,0.0,0.0
2117,3/29/2012 5:00,0.0,6.22976,0.0,12.240348,0.942,2.8185000000000002,30.544559999999997,0.0,0.0
2118,3/29/2012 6:00,0.0,0.0,0.0,0.0,0.0,2.4225,29.5776,0.6990000000000001,0.06612729165
2119,3/29/2012 7:00,0.0,0.0,0.0,0.0,0.0,7.927499999999999,31.852799999999995,0.5565,0.46375447230000005
2120,3/29/2012 8:00,0.0,1.1408,0.0,2.241465,0.1725,0.996,30.174839999999996,0.5235,0.52567361385
2121,3/29/2012 9:00,0.0,1.06144,0.0,2.085537,0.1605,2.1495,31.0707,0.156,0.5102481174
2122,3/29/2012 10:00,0.0,0.9027200000000001,0.0,1.773681,0.1365,1.8435,27.572579999999995,0.222,0.5569292463000001
2123,3/29/2012 11:00,0.0,0.0,0.0,0.0,0.0,1.689,7.1811,0.4035,0.6660332353500001
2124,3/29/2012 12:00,0.0,0.0,0.0,0.0,0.0,12.8625,6.398999999999999,0.39,0.66256620045
2125,3/29/2012 13:00,0.0,0.0,0.0,0.0,0.0,13.1655,6.242579999999999,0.1335,0.7335476421
2126,3/29/2012 14:00,0.0,0.0,0.0,0.0,0.0,13.4895,8.176499999999999,0.5369999999999999,0.69209965335
2127,3/29/2012 15:00,2.624,5.23776,3.6864000000000003,10.291248,0.792,3.708,1.6210799999999999,0.5595,0.62718466125
2128,3/29/2012 16:00,3.9565,5.5155199999999995,5.558400000000001,10.836996,0.834,4.7145,13.764959999999999,0.519,0.5427933084000001
2129,3/29/2012 17:00,0.0,2.05344,0.0,4.034637,0.3105,0.0,13.964039999999999,0.1815,0.46494884310000006
2130,3/29/2012 18:00,0.0,2.7577599999999998,0.0,5.418498,0.417,0.0,31.909679999999994,0.273,0.18215095080000004
2131,3/29/2012 19:00,0.0,5.555199999999999,0.0,10.914959999999999,0.8399999999999999,0.0,41.62194,0.4275,0.0
2132,3/29/2012 20:00,0.0,6.73568,0.0,13.234389,1.0185,0.2655,1.66374,0.276,0.0
2133,3/29/2012 21:00,0.0,7.03328,0.0,13.819119,1.0635000000000001,0.2745,1.73484,0.0,0.0
2134,3/29/2012 22:00,0.0,7.02336,0.0,13.799628,1.062,0.216,1.9054799999999998,0.0,0.0
2135,3/29/2012 23:00,0.85075,6.25952,1.1952,12.298821,0.9465,0.15300000000000002,2.47428,0.0,0.0
2136,3/30/2012 0:00,1.7425000000000002,6.7456000000000005,2.4480000000000004,13.25388,1.02,0.1095,3.1852799999999997,0.0,0.0
2137,3/30/2012 1:00,1.2197500000000001,6.884480000000001,1.7136,13.526754,1.0410000000000001,11.058,4.92012,0.0,0.0
2138,3/30/2012 2:00,1.44525,8.57088,2.0303999999999998,16.840224,1.296,10.329,7.20954,0.0,0.0
2139,3/30/2012 3:00,1.9475,9.16608,2.7359999999999998,18.009684,1.386,0.6795,8.06274,0.1215,0.0
2140,3/30/2012 4:00,4.19225,8.84864,5.8896,17.385972,1.338,0.48,6.52698,0.11850000000000001,0.0
2141,3/30/2012 5:00,6.71375,7.936000000000001,9.432,15.5928,1.2,0.1665,5.375159999999999,0.11699999999999999,0.0
2142,3/30/2012 6:00,0.97375,6.646400000000001,1.3679999999999999,13.05897,1.0050000000000001,0.162,5.019659999999999,0.12300000000000001,0.4337696128500001
2143,3/30/2012 7:00,0.0,8.98752,0.0,17.658846,1.359,0.138,3.9247199999999998,0.1245,0.17148737865
2144,3/30/2012 8:00,1.23,8.184000000000001,1.728,16.080075,1.2375,11.142,2.844,0.1275,0.19908680295
2145,3/30/2012 9:00,2.9724999999999997,19.046400000000002,4.176,37.42272,2.88,11.046000000000001,2.0476799999999997,0.0,0.24935476965
2146,3/30/2012 10:00,6.5497499999999995,18.61984,9.2016,36.584607,2.8155,10.404,1.3651199999999997,0.1575,0.34557917835
2147,3/30/2012 11:00,9.95275,11.76512,13.9824,23.116325999999997,1.779,0.0,3.46968,0.165,0.2772931518
2148,3/30/2012 12:00,11.67475,6.47776,16.401600000000002,12.727623,0.9794999999999999,0.0,3.0572999999999997,0.11699999999999999,0.44605226610000004
2149,3/30/2012 13:00,12.412749999999999,3.70016,17.4384,7.270143,0.5595,9.1005,2.03346,0.14550000000000002,0.5720059149
2150,3/30/2012 14:00,5.084,3.2041600000000003,7.142399999999999,6.295593,0.48450000000000004,8.145,19.111679999999996,0.1845,0.52420280325
2151,3/30/2012 15:00,4.141,4.7616000000000005,5.8176,9.35568,0.72,0.5369999999999999,0.0,0.216,0.42412797525000007
2152,3/30/2012 16:00,2.5010000000000003,7.420160000000001,3.5136000000000003,14.579268,1.122,0.4935,0.0,0.138,0.22517068245
2153,3/30/2012 17:00,2.3985,0.0,3.3696,0.0,0.0,0.0,0.0,0.12,0.27556583040000004
2154,3/30/2012 18:00,2.0295,0.0,2.8512000000000004,0.0,0.0,3.3089999999999997,0.0,0.981,0.12454369409999999
2155,3/30/2012 19:00,1.6604999999999999,0.72416,2.3327999999999998,1.422843,0.1095,0.1575,0.0,0.1635,0.0
2156,3/30/2012 20:00,1.40425,0.77376,1.9728,1.520298,0.11699999999999999,0.0,0.0,2.178,0.0
2157,3/30/2012 21:00,1.2197500000000001,0.9225599999999999,1.7136,1.812663,0.13949999999999999,0.0,0.0,2.2035,0.0
2158,3/30/2012 22:00,0.0,1.27968,0.0,2.514339,0.1935,0.0,1.12338,1.5825,0.0
2159,3/30/2012 23:00,0.0,2.24192,0.0,4.404966,0.33899999999999997,0.1245,0.0,0.6855,0.0
