,date,Wind_1,Wind_2,Wind_3,Wind_4,Wind_5,Wind_6,Wind_7,Wind_8,Solar_1
2160,3/31/2012 0:00,0.0,3.6208,0.0,7.114215,0.5475,0.174,0.0,0.14850000000000002,0.0
2161,3/31/2012 1:00,0.0,3.8787200000000004,0.0,7.6209810000000004,0.5865,0.261,0.0,0.1305,0.0
2162,3/31/2012 2:00,2.9315,2.8172800000000002,4.1184,5.535444,0.42600000000000005,0.402,1.08072,0.2955,0.0
2163,3/31/2012 3:00,1.8245,2.3808000000000002,2.5632,4.67784,0.36,1.3395000000000001,1.3651199999999997,0.2745,0.0
2164,3/31/2012 4:00,1.15825,1.7260799999999998,1.6272,3.391434,0.261,0.768,1.3366799999999999,0.165,0.0
2165,3/31/2012 5:00,2.85975,2.59904,4.0176,5.106642,0.393,0.669,1.1518199999999998,0.20550000000000002,0.0
2166,3/31/2012 6:00,0.0,0.0,0.0,0.0,0.0,12.160499999999999,0.0,0.0,0.6271156689
2167,3/31/2012 7:00,16.02075,0.0,22.507199999999997,0.0,0.0,3.2835,1.0522799999999999,0.1635,0.8038395424500001
2168,3/31/2012 8:00,1.03525,0.0,1.4544,0.0,0.0,0.0,1.94814,0.135,0.7089212707500001
2169,3/31/2012 9:00,4.797,0.0,6.7392,0.0,0.0,3.5204999999999997,2.0050199999999996,3.327,0.58817269035
2170,3/31/2012 10:00,4.674,0.0,6.5664,0.0,0.0,5.4435,2.16144,0.1575,0.6888036834
2171,3/31/2012 11:00,9.102,0.0,12.7872,0.0,0.0,0.0,2.26098,0.171,0.77392583205
2172,3/31/2012 12:00,1.2197500000000001,2.53952,1.7136,4.989696,0.384,2.1345,2.09034,0.23700000000000002,0.8124391978500001
2173,3/31/2012 13:00,7.164750000000001,0.0,10.0656,0.0,0.0,0.7949999999999999,1.6068599999999997,0.4245,0.8397056619000001
2174,3/31/2012 14:00,3.5157499999999997,0.9622400000000001,4.9392,1.890627,0.14550000000000002,0.747,1.4788799999999998,0.7695,0.845369679
2175,3/31/2012 15:00,3.9154999999999998,2.55936,5.5008,5.028678,0.387,0.7275,5.232959999999999,1.3005,0.81079937925
2176,3/31/2012 16:00,0.9225000000000001,3.8092799999999998,1.2960000000000003,7.484544,0.576,0.747,4.86324,1.6605,0.74469766455
2177,3/31/2012 17:00,0.0,0.72416,0.0,1.422843,0.1095,0.726,13.338359999999998,1.9305,0.5642450793
2178,3/31/2012 18:00,0.0,7.8566400000000005,0.0,15.436872000000001,1.1880000000000002,0.7335,6.38478,1.875,0.2922835944
2179,3/31/2012 19:00,0.0,7.430079999999999,0.0,14.598759,1.1235,0.7065,3.89628,1.6455000000000002,0.0
2180,3/31/2012 20:00,0.0,7.08288,0.0,13.916574,1.0710000000000002,0.627,4.42242,1.4595,0.0
2181,3/31/2012 21:00,0.0,3.77952,0.0,7.426071,0.5715,0.49950000000000006,2.53116,1.1969999999999998,0.0
2182,3/31/2012 22:00,7.20575,3.60096,10.1232,7.075233,0.5445,0.3135,3.8394,0.657,0.0
2183,3/31/2012 23:00,6.0680000000000005,2.9958400000000003,8.5248,5.8862820000000005,0.453,0.2715,4.010039999999999,2.676,0.0
2184,4/1/2012 0:00,5.48375,4.4144,7.704,8.673494999999999,0.6675,0.255,3.9958199999999997,2.559,0.0
2185,4/1/2012 1:00,0.0,4.50368,0.0,8.848914,0.681,0.2475,3.38436,0.11850000000000001,0.0
2186,4/1/2012 2:00,83.968,0.0,117.96480000000001,0.0,0.0,0.24600000000000002,2.7017999999999995,0.6705,0.0
2187,4/1/2012 3:00,6.836749999999999,3.9283200000000003,9.6048,7.7184360000000005,0.5940000000000001,0.22949999999999998,2.0050199999999996,0.0,0.0
2188,4/1/2012 4:00,5.89375,1.9344000000000001,8.280000000000001,3.800745,0.2925,0.216,4.223339999999999,0.0,0.0
2189,4/1/2012 5:00,5.258249999999999,1.9046399999999999,7.3872,3.742272,0.288,1.9995,3.6829799999999997,0.0,0.0
2190,4/1/2012 6:00,4.346,2.59904,6.1056,5.106642,0.393,1.905,4.64994,0.0,0.61600394625
2191,4/1/2012 7:00,3.3415,0.0,4.6944,0.0,0.0,0.303,22.979519999999997,0.0,0.7722000814500001
2192,4/1/2012 8:00,0.0,2.68832,0.0,5.282061,0.4065,0.3195,28.980359999999997,0.1845,0.6832134834
2193,4/1/2012 9:00,1.7322499999999998,0.83328,2.4335999999999998,1.637244,0.126,0.4035,30.459239999999998,0.231,0.57440707275
2194,4/1/2012 10:00,17.8555,1.7856000000000003,25.084799999999998,3.5083800000000003,0.27,0.0,27.714779999999998,0.0,0.6802321638000001
2195,4/1/2012 11:00,17.599249999999998,35.126720000000006,24.7248,69.01763100000001,5.3115000000000006,0.0,27.430379999999996,1.374,0.76804440615
2196,4/1/2012 12:00,26.5475,1.32928,37.296,2.611794,0.201,0.0,32.1372,0.6675,0.8304049540499999
2197,4/1/2012 13:00,18.86,0.9820800000000001,26.496,1.9296090000000001,0.14850000000000002,0.0,28.35468,0.402,0.8678256499500001
2198,4/1/2012 14:00,1.8142500000000001,48.15168,2.5488,94.609314,7.281,0.11699999999999999,26.235899999999997,0.228,0.81836261325
2199,4/1/2012 15:00,0.0,0.744,0.0,1.461825,0.11249999999999999,0.2175,22.85154,0.525,0.7886153614500001
2200,4/1/2012 16:00,2.1422499999999998,0.9424,3.0096,1.851645,0.1425,0.24600000000000002,17.334179999999996,0.0,0.7250327112
2201,4/1/2012 17:00,2.7777499999999997,0.0,3.9024,0.0,0.0,0.14550000000000002,12.28608,0.0,0.6646332661500001
2202,4/1/2012 18:00,0.0,0.7340800000000001,0.0,1.442334,0.111,0.114,9.712259999999999,0.1965,0.3935175163500001
2203,4/1/2012 19:00,0.0,1.39872,0.0,2.748231,0.2115,0.7484999999999999,10.963619999999999,0.186,0.0
2204,4/1/2012 20:00,0.0,0.0,0.0,0.0,0.0,0.981,22.24008,0.20249999999999999,0.0
2205,4/1/2012 21:00,0.0,0.0,0.0,0.0,0.0,1.1325,0.0,1.452,0.0
2206,4/1/2012 22:00,14.4935,1.00192,20.3616,1.968591,0.1515,1.1595,0.0,1.287,0.0
2207,4/1/2012 23:00,1.3632499999999999,0.0,1.9152,0.0,0.0,0.8145,0.0,0.0,0.0
2208,4/2/2012 0:00,1.44525,1.82528,2.0303999999999998,3.586344,0.276,0.9255,44.522819999999996,0.8385,0.0
2209,4/2/2012 1:00,1.8347499999999999,2.7775999999999996,2.5776,5.457479999999999,0.41999999999999993,0.7935000000000001,0.0,0.138,0.0
2210,4/2/2012 2:00,0.0,0.0,0.0,0.0,0.0,0.6705,0.0,0.10650000000000001,0.0
2211,4/2/2012 3:00,2.57275,2.4998400000000003,3.6144000000000003,4.911732,0.378,0.576,0.0,0.0,0.0
2212,4/2/2012 4:00,2.7264999999999997,3.5910400000000005,3.8304,7.055742,0.543,0.22499999999999998,2.3889599999999995,0.0,0.0
2213,4/2/2012 5:00,5.781,4.216,8.121599999999999,8.283675,0.6375000000000001,0.186,21.67128,0.12,0.0
2214,4/2/2012 6:00,8.57925,0.0,12.0528,0.0,0.0,0.1845,24.188219999999998,0.14850000000000002,0.6266799336000001
2215,4/2/2012 7:00,9.706750000000001,1.60704,13.636800000000001,3.157542,0.243,0.5175000000000001,29.193659999999998,0.138,0.77133336315
2216,4/2/2012 8:00,7.861750000000001,7.430079999999999,11.0448,14.598759,1.1235,0.0,25.53912,0.216,0.68314784895
2217,4/2/2012 9:00,7.062250000000001,7.995520000000001,9.9216,15.709746,1.209,0.12,19.14012,0.303,0.59241917175
2218,4/2/2012 10:00,2.4292499999999997,8.26336,3.4128,16.236003,1.2495,0.159,4.73526,0.348,0.69501657645
2219,4/2/2012 11:00,2.06025,8.22368,2.8944,16.158039,1.2435,0.2355,4.536179999999999,0.447,0.7772180849999999
2220,4/2/2012 12:00,1.7322499999999998,7.89632,2.4335999999999998,15.514836,1.194,0.29700000000000004,2.3605199999999997,0.696,0.8084865159
2221,4/2/2012 13:00,1.50675,7.985600000000001,2.1168,15.690255,1.2075,0.309,3.8394,1.242,0.8231947479
2222,4/2/2012 14:00,1.26075,6.73568,1.7712,13.234389,1.0185,0.28950000000000004,3.3417,0.10650000000000001,0.8368166467500001
2223,4/2/2012 15:00,0.85075,1.13088,1.1952,2.221974,0.171,0.2595,1.7632799999999997,0.0,0.79302439755
2224,4/2/2012 16:00,3.59775,0.7638400000000001,5.0544,1.500807,0.1155,0.21300000000000002,2.2325399999999997,0.0,0.7274777664000001
2225,4/2/2012 17:00,1.8347499999999999,2.41056,2.5776,4.736313,0.3645,0.147,4.0527,0.0,0.6117328749
2226,4/2/2012 18:00,2.8085,2.31136,3.9456,4.541403,0.34950000000000003,0.0,1.26558,0.0,0.37088258760000004
2227,4/2/2012 19:00,0.0,2.24192,0.0,4.404966,0.33899999999999997,0.0,1.2086999999999999,0.12,0.0
2228,4/2/2012 20:00,0.0,2.19232,0.0,4.307511,0.3315,0.13949999999999999,1.10916,0.14100000000000001,0.0
2229,4/2/2012 21:00,0.0,1.71616,0.0,3.371943,0.2595,0.15,1.08072,0.15,0.0
2230,4/2/2012 22:00,0.738,1.05152,1.0368,2.066046,0.159,0.114,1.4646599999999999,0.0,0.0
2231,4/2/2012 23:00,0.74825,1.27968,1.0512,2.514339,0.1935,0.0,1.0238399999999999,0.0,0.0
2232,4/3/2012 0:00,4.1,3.11488,5.76,6.120174,0.471,0.0,1.4788799999999998,0.5640000000000001,0.0
2233,4/3/2012 1:00,11.1725,4.53344,15.696,8.907387,0.6855,0.0,2.3605199999999997,1.731,0.0
2234,4/3/2012 2:00,16.0105,6.66624,22.492800000000003,13.097952,1.008,0.0,3.6972,1.632,0.0
2235,4/3/2012 3:00,19.557,8.898240000000001,27.4752,17.483427,1.3455,0.0,5.51736,1.5855000000000001,0.0
2236,4/3/2012 4:00,23.74925,10.65408,33.364799999999995,20.933334,1.611,0.0,7.323299999999999,1.5405,0.0
2237,4/3/2012 5:00,27.572499999999994,11.58656,38.736,22.765488,1.752,0.0,0.0,1.5165,0.0
2238,4/3/2012 6:00,29.6225,11.81472,41.616,23.213781,1.7865,0.108,11.276459999999998,0.9615,0.6462044263500001
2239,4/3/2012 7:00,28.91525,2.19232,40.6224,4.307511,0.3315,0.1725,19.59516,0.9105,0.7731219531000001
2240,4/3/2012 8:00,1.8347499999999999,0.0,2.5776,0.0,0.0,0.3315,22.353839999999998,0.9494999999999999,0.68459923455
2241,4/3/2012 9:00,1.8245,0.0,2.5632,0.0,0.0,0.6134999999999999,23.5341,0.8699999999999999,0.5859479073
2242,4/3/2012 10:00,1.722,0.0,2.4192,0.0,0.0,0.36,25.46802,0.8475,0.6800927122500001
2243,4/3/2012 11:00,1.54775,1.1606400000000001,2.1744,2.280447,0.17550000000000002,0.41999999999999993,24.188219999999998,0.783,0.7667051973
2244,4/3/2012 12:00,1.394,11.04096,1.9584,21.693483,1.6695,1.0845,25.76664,0.258,0.82855770375
2245,4/3/2012 13:00,1.28125,0.91264,1.8,1.793172,0.138,0.7605000000000001,26.54874,0.2595,0.8687266738500001
2246,4/3/2012 14:00,1.312,4.75168,1.8432000000000002,9.336189,0.7184999999999999,0.48149999999999993,25.738200000000003,0.2805,0.88718691915
2247,4/3/2012 15:00,1.3325,5.21792,1.872,10.252266,0.789,0.252,20.24928,0.3045,0.8712153313500001
2248,4/3/2012 16:00,1.40425,4.721920000000001,1.9728,9.277716,0.7140000000000001,0.1305,13.25304,0.333,0.7947628647000001
2249,4/3/2012 17:00,1.5170000000000001,3.73984,2.1312,7.348107,0.5655,0.0,10.90674,0.3795,0.6695805438000001
2250,4/3/2012 18:00,1.476,0.0,2.0736,0.0,0.0,2.4765,9.37098,0.4275,0.41188075635000004
2251,4/3/2012 19:00,0.943,1.10112,1.3248,2.163501,0.1665,3.8819999999999997,3.08574,0.669,0.0
2252,4/3/2012 20:00,0.9532499999999999,1.51776,1.3392,2.9821229999999996,0.22949999999999998,7.505999999999999,2.844,0.0,0.0
2253,4/3/2012 21:00,1.34275,11.53696,1.8864,22.668033,1.7445,0.6134999999999999,27.928079999999998,0.0,0.0
2254,4/3/2012 22:00,1.722,1.66656,2.4192,3.274488,0.252,0.40950000000000003,26.00838,0.0,0.0
2255,4/3/2012 23:00,2.706,1.67648,3.8016,3.2939789999999998,0.25349999999999995,0.27749999999999997,20.533679999999997,0.381,0.0
2256,4/4/2012 0:00,1.763,1.64672,2.4768,3.235506,0.249,0.1875,16.196579999999997,0.0,0.0
2257,4/4/2012 1:00,1.5785,1.5276800000000001,2.2176,3.001614,0.231,3.4259999999999997,13.821839999999998,0.0,0.0
2258,4/4/2012 2:00,1.05575,23.252480000000002,1.4832,45.686904,3.516,3.3105,12.328739999999998,0.0,0.0
2259,4/4/2012 3:00,0.0,26.96256,0.0,52.976538,4.077,3.2295,10.736099999999999,0.0,0.0
2260,4/4/2012 4:00,0.0,27.20064,0.0,53.444322,4.1129999999999995,3.4995000000000003,90.88001999999999,0.111,0.0
2261,4/4/2012 5:00,0.0,24.244480000000003,0.0,47.636004,3.666,3.6975,91.74744,0.0,0.0
2262,4/4/2012 6:00,0.0,10.12832,0.0,19.900311,1.5314999999999999,4.4055,90.76625999999999,0.0,0.47495446635000005
2263,4/4/2012 7:00,0.0,6.368639999999999,0.0,12.513221999999999,0.9629999999999999,4.7955,0.0,0.0,0.6316182558
2264,4/4/2012 8:00,0.0,5.43616,0.0,10.681068,0.8220000000000001,0.0,0.0,0.0,0.70699692105
2265,4/4/2012 9:00,0.0,1.3392,0.0,2.631285,0.20249999999999999,0.0,0.0,0.0,0.6810974373
2266,4/4/2012 10:00,0.0,1.2499200000000001,0.0,2.455866,0.189,3.2475,0.0,0.0,0.60968675355
2267,4/4/2012 11:00,1.3325,3.6704000000000008,1.872,7.211670000000001,0.555,2.634,18.2727,0.9075,0.9200695045499999
2268,4/4/2012 12:00,1.025,1.4979200000000001,1.44,2.9431410000000002,0.2265,2.151,0.0,0.5505000000000001,0.9691619038500001
2269,4/4/2012 13:00,1.271,1.5276800000000001,1.7855999999999999,3.001614,0.231,1.5645,1.1802599999999999,0.2835,0.8481316746
2270,4/4/2012 14:00,1.8245,1.36896,2.5632,2.689758,0.207,0.9540000000000001,1.73484,0.40950000000000003,0.8583189888
2271,4/4/2012 15:00,3.3209999999999997,1.2201600000000001,4.6655999999999995,2.397393,0.1845,4.531499999999999,14.006699999999999,0.6495,0.7649661327
2272,4/4/2012 16:00,3.6387499999999995,3.4422400000000004,5.111999999999999,6.763377,0.5205000000000001,4.3125,10.949399999999999,0.8699999999999999,0.3776742774
2273,4/4/2012 17:00,3.198,3.26368,4.4928,6.412539,0.4935,6.944999999999999,6.05772,0.195,0.3637091724
2274,4/4/2012 18:00,29.786500000000004,3.66048,41.8464,7.192179,0.5535,0.438,6.811379999999999,0.2205,0.15994398315000002
2275,4/4/2012 19:00,44.65925,1.2896,62.74079999999999,2.53383,0.195,0.39,83.65626,0.243,0.0
2276,4/4/2012 20:00,45.1205,1.0912000000000002,63.388799999999996,2.14401,0.165,0.0,8.98704,0.2205,0.0
2277,4/4/2012 21:00,50.3685,1.7459200000000001,70.7616,3.430416,0.264,0.0,5.460479999999999,0.171,0.0
2278,4/4/2012 22:00,2.173,1.39872,3.0528,2.748231,0.2115,2.157,75.62196,0.0,0.0
2279,4/4/2012 23:00,0.0,1.5673600000000003,0.0,3.079578,0.23700000000000002,0.15300000000000002,74.55546,0.231,0.0
2280,4/5/2012 0:00,1.1685,1.97408,1.6416,3.878709,0.2985,6.525,76.19076,0.1365,0.0
2281,4/5/2012 1:00,1.8347499999999999,2.61888,2.5776,5.145624,0.396,0.0,78.94944,0.2175,0.0
2282,4/5/2012 2:00,1.5887499999999999,2.6486400000000003,2.232,5.204097,0.4005,0.6975,97.62029999999999,0.27,0.0
2283,4/5/2012 3:00,1.3632499999999999,64.53952,1.9152,126.80844599999999,9.758999999999999,0.17550000000000002,94.49189999999999,0.0,0.0
2284,4/5/2012 4:00,0.74825,2.9065600000000003,1.0512,5.710863,0.4395,0.3345,85.63283999999999,0.177,0.0
2285,4/5/2012 5:00,0.7687499999999999,3.224,1.08,6.334575,0.48750000000000004,0.708,5.65956,0.5235,0.0
2286,4/5/2012 6:00,0.7995,2.6486400000000003,1.1232,5.204097,0.4005,0.9075,2.75868,0.9135000000000001,0.17183912445000002
2287,4/5/2012 7:00,0.8405,1.26976,1.1808,2.494848,0.192,1.0725,2.07612,1.3875,0.09972157440000001
2288,4/5/2012 8:00,0.8200000000000001,0.7836800000000002,1.1520000000000001,1.539789,0.11850000000000001,1.2165000000000001,2.3605199999999997,0.192,0.474194763
2289,4/5/2012 9:00,0.0,0.0,0.0,0.0,0.0,1.1865,2.3178599999999996,0.0,0.38777579085
2290,4/5/2012 10:00,0.0,0.71424,0.0,1.403352,0.108,1.482,2.1329999999999996,0.17550000000000002,0.3647080615500001
2291,4/5/2012 11:00,0.0,0.0,0.0,0.0,0.0,2.0805,2.0050199999999996,0.216,0.5519405409
2292,4/5/2012 12:00,0.0,19.71104,0.0,38.728617,2.9804999999999997,3.1020000000000003,1.9907999999999997,0.2145,0.44010204630000005
2293,4/5/2012 13:00,0.0,1.60704,0.0,3.157542,0.243,4.488,2.18988,0.0,0.50074346385
2294,4/5/2012 14:00,2.009,1.7360000000000002,2.8224,3.410925,0.2625,0.7484999999999999,2.3605199999999997,0.0,0.4608654939
2295,4/5/2012 15:00,2.7777499999999997,1.77568,3.9024,3.488889,0.26849999999999996,1.779,2.43162,1.6305,0.38676362025
2296,4/5/2012 16:00,0.0,1.9344000000000001,0.0,3.800745,0.2925,13.3305,93.19787999999998,2.265,0.2900993718
2297,4/5/2012 17:00,0.0,1.97408,0.0,3.878709,0.2985,9.138,90.297,0.0,0.23122352610000002
2298,4/5/2012 18:00,0.0,1.95424,0.0,3.839727,0.2955,0.24449999999999997,2.51694,0.14550000000000002,0.11492232465000002
2299,4/5/2012 19:00,0.738,1.66656,1.0368,3.274488,0.252,0.372,2.6164799999999997,0.1095,0.0
2300,4/5/2012 20:00,1.24025,0.9424,1.7424,1.851645,0.1425,0.708,2.82978,0.1365,0.0
2301,4/5/2012 21:00,1.804,0.0,2.5344,0.0,0.0,1.8855000000000002,3.1141799999999997,0.1575,0.0
2302,4/5/2012 22:00,2.40875,0.0,3.384,0.0,0.0,2.355,3.04308,1.0350000000000001,0.0
2303,4/5/2012 23:00,3.0749999999999997,14.7808,4.32,29.04159,2.235,2.6220000000000003,1.4788799999999998,0.9135000000000001,0.0
2304,4/6/2012 0:00,3.895,0.72416,5.4719999999999995,1.422843,0.1095,2.706,6.3421199999999995,0.1515,0.0
2305,4/6/2012 1:00,4.25375,0.0,5.976,0.0,0.0,2.421,3.9105,0.1635,0.0
2306,4/6/2012 2:00,0.0,3.0752,0.0,6.04221,0.46499999999999997,1.8465,3.79674,0.1965,0.0
2307,4/6/2012 3:00,0.0,4.186240000000001,0.0,8.225202,0.633,1.6215,9.5985,0.14550000000000002,0.0
2308,4/6/2012 4:00,9.99375,2.79744,14.040000000000001,5.496462,0.423,1.71,3.5265599999999995,0.0,0.0
2309,4/6/2012 5:00,0.7687499999999999,4.62272,1.08,9.082806,0.6990000000000001,1.8885,3.2848199999999994,0.216,0.0
2310,4/6/2012 6:00,0.779,5.22784,1.0944,10.271757,0.7905,2.1885,8.773739999999998,0.2265,0.30978731175
2311,4/6/2012 7:00,4.6125,0.7043200000000001,6.4799999999999995,1.383861,0.10650000000000001,5.898,3.4981199999999997,0.0,0.248781939
2312,4/6/2012 8:00,3.70025,1.75584,5.1984,3.449907,0.2655,4.815,2.53116,0.0,0.5366943939
2313,4/6/2012 9:00,2.4497500000000003,3.00576,3.4416,5.905773,0.4545,4.4385,2.90088,0.0,0.13835333084999998
2314,4/6/2012 10:00,3.2800000000000002,2.79744,4.6080000000000005,5.496462,0.423,4.32,4.79214,0.0,0.20786436405000003
2315,4/6/2012 11:00,1.01475,21.685119999999998,1.4256000000000002,42.607326,3.279,4.365,4.536179999999999,0.255,0.4189703847
2316,4/6/2012 12:00,1.0455,1.60704,1.4688,3.157542,0.243,0.0,3.65454,0.15300000000000002,0.5875826082000001
2317,4/6/2012 13:00,18.286,3.26368,25.6896,6.412539,0.4935,0.108,3.4554599999999995,1.2254999999999998,0.60246232725
2318,4/6/2012 14:00,1.4965,3.4918400000000003,2.1024,6.860832,0.528,0.13949999999999999,12.39984,0.8744999999999999,0.69885081525
2319,4/6/2012 15:00,2.46,2.3609600000000004,3.456,4.638858,0.35700000000000004,0.0,2.82978,0.0,0.53075643495
2320,4/6/2012 16:00,0.0,1.2400000000000002,0.0,2.436375,0.1875,0.0,5.0907599999999995,0.219,0.45859906995
2321,4/6/2012 17:00,0.85075,1.3788799999999999,1.1952,2.709249,0.2085,0.0,2.2752,0.423,0.35362042065
2322,4/6/2012 18:00,1.13775,1.1606400000000001,1.5984,2.280447,0.17550000000000002,0.0,2.01924,0.4575,0.27794509889999996
2323,4/6/2012 19:00,1.0455,0.0,1.4688,0.0,0.0,0.0,1.86282,0.5175000000000001,0.0
2324,4/6/2012 20:00,0.0,0.0,0.0,0.0,0.0,0.0,10.82142,0.531,0.0
2325,4/6/2012 21:00,0.0,0.0,0.0,0.0,0.0,0.5834999999999999,11.020499999999998,0.4755,0.0
2326,4/6/2012 22:00,4.76625,18.6496,6.696,36.64308,2.82,0.324,11.063159999999998,0.0,0.0
2327,4/6/2012 23:00,6.601,0.77376,9.2736,1.520298,0.11699999999999999,0.0,0.0,0.0,0.0
2328,4/7/2012 0:00,7.369750000000001,34.14464,10.3536,67.088022,5.163,0.657,13.90716,0.0,0.0
2329,4/7/2012 1:00,7.164750000000001,36.49568,10.0656,71.707389,5.5185,1.1205,9.35676,0.0,0.0
2330,4/7/2012 2:00,2.59325,30.573439999999998,3.6431999999999998,60.071262,4.622999999999999,2.268,50.33879999999999,0.0,0.0
2331,4/7/2012 3:00,1.54775,15.3264,2.1744,30.113595,2.3175,0.1095,40.88249999999999,0.0,0.0
2332,4/7/2012 4:00,3.403,7.26144,4.7808,14.267412,1.098,0.1095,1.79172,0.0,0.0
2333,4/7/2012 5:00,37.556,8.62048,52.7616,16.937679,1.3035,0.126,10.43748,0.0,0.0
2334,4/7/2012 6:00,1.5887499999999999,10.27712,2.232,20.192676,1.554,1.788,8.98704,0.0,0.1325589594
2335,4/7/2012 7:00,2.05,10.862400000000001,2.88,21.342645,1.6425,0.2955,0.0,0.0,0.1468400682
2336,4/7/2012 8:00,1.2505000000000002,10.981440000000001,1.7568000000000001,21.576537000000002,1.6605,0.192,2.07612,0.0,0.16392553485
2337,4/7/2012 9:00,1.1889999999999998,11.0608,1.6703999999999999,21.732465,1.6725,12.9285,1.26558,0.0,0.32011514325
2338,4/7/2012 10:00,0.0,10.67392,0.0,20.972316,1.614,5.7825,2.07612,0.0,0.21206667194999998
2339,4/7/2012 11:00,0.0,9.176,0.0,18.029175,1.3875,0.4035,11.7315,0.0,0.25380195855000004
2340,4/7/2012 12:00,0.0,7.4499200000000005,0.0,14.637741,1.1265,1.4729999999999999,0.0,0.0,0.29477827995
2341,4/7/2012 13:00,0.0,28.9664,0.0,56.91372,4.38,2.1254999999999997,3.66876,0.0,0.33883815525
2342,4/7/2012 14:00,0.0,30.583360000000003,0.0,60.090753,4.6245,2.8395,3.66876,0.0,0.24724482930000002
2343,4/7/2012 15:00,0.7687499999999999,35.22592,1.08,69.212541,5.3265,3.1740000000000004,3.6118799999999998,0.0,0.11329496955
2344,4/7/2012 16:00,0.779,35.444160000000004,1.0944,69.641343,5.3595,3.012,3.46968,0.0,0.10238944485
2345,4/7/2012 17:00,0.0,39.27328,0.0,77.164869,5.9384999999999994,0.36600000000000005,21.941459999999996,0.0,0.10040299920000001
2346,4/7/2012 18:00,0.0,36.952,0.0,72.60397499999999,5.5875,13.0215,26.22168,0.0,0.0525011109
2347,4/7/2012 19:00,0.0,37.16032,0.0,73.013286,5.619,13.5765,2.7302399999999993,0.0,0.0
2348,4/7/2012 20:00,0.0,4.592960000000001,0.0,9.024333,0.6945,4.0755,0.0,0.0,0.0
2349,4/7/2012 21:00,0.8200000000000001,23.12352,1.1520000000000001,45.433521,3.4965,4.461,0.0,0.0,0.0
2350,4/7/2012 22:00,0.8097500000000001,22.439040000000002,1.1376000000000002,44.088642,3.3930000000000002,4.718999999999999,0.0,0.147,0.0
2351,4/7/2012 23:00,1.107,1.9939200000000001,1.5552000000000001,3.917691,0.3015,4.6754999999999995,0.0,0.174,0.0
2352,4/8/2012 0:00,1.066,1.01184,1.4975999999999998,1.9880820000000001,0.15300000000000002,4.524,0.0,0.0,0.0
2353,4/8/2012 1:00,0.861,0.0,1.2096,0.0,0.0,14.385000000000002,0.0,0.0,0.0
2354,4/8/2012 2:00,0.0,0.7638400000000001,0.0,1.500807,0.1155,1.9455000000000002,0.0,0.108,0.0
2355,4/8/2012 3:00,0.0,1.15072,0.0,2.2609559999999997,0.174,2.5905,0.0,0.1275,0.0
2356,4/8/2012 4:00,52.03925,1.3392,73.1088,2.631285,0.20249999999999999,1.7685,0.0,0.1425,0.0
2357,4/8/2012 5:00,0.0,1.7459200000000001,0.0,3.430416,0.264,0.6315,0.0,5.205,0.0
2358,4/8/2012 6:00,0.0,2.6288,0.0,5.165115,0.39749999999999996,0.243,0.0,5.1165,0.03268417215
2359,4/8/2012 7:00,2.8085,3.51168,3.9456,6.899814,0.531,0.10650000000000001,0.0,4.8285,0.0831819366
2360,4/8/2012 8:00,3.157,3.9184,4.4352,7.698945,0.5925,0.0,0.0,4.2780000000000005,0.1286945247
2361,4/8/2012 9:00,3.2287500000000002,1.20032,4.536,2.358411,0.1815,0.6345,0.0,3.1650000000000005,0.0689434872
2362,4/8/2012 10:00,2.7982500000000003,0.9424,3.9312,1.851645,0.1425,0.5475,0.0,0.27899999999999997,0.1040439645
2363,4/8/2012 11:00,2.4395000000000002,8.17408,3.4272,16.060584,1.236,0.3795,1.5926399999999998,1.8989999999999998,0.08806077315
2364,4/8/2012 12:00,2.1935,8.85856,3.0816,17.405463,1.3395000000000001,0.189,2.5453799999999998,1.3395000000000001,0.23254937055000005
2365,4/8/2012 13:00,1.44525,9.84064,2.0303999999999998,19.335072,1.488,0.1245,3.38436,0.9345,0.6707330532
2366,4/8/2012 14:00,2.2755,5.208,3.1968,10.232775,0.7875,1.6215,3.8109599999999997,0.735,0.6172467315000001
2367,4/8/2012 15:00,4.674,6.97376,6.5664,13.702173,1.0545,0.18300000000000002,3.8678399999999993,0.876,0.7519673479500001
2368,4/8/2012 16:00,28.864,11.27904,40.5504,22.161267,1.7055,3.63,7.252199999999999,1.4955,0.5503120161
2369,4/8/2012 17:00,30.186249999999998,0.0,42.408,0.0,0.0,0.21300000000000002,0.0,2.0700000000000003,0.5167770310500001
2370,4/8/2012 18:00,35.465,0.0,49.824000000000005,0.0,0.0,0.2475,24.58638,2.373,0.40627621125
2371,4/8/2012 19:00,41.123,0.0,57.772800000000004,0.0,0.0,0.0,0.0,2.4825,0.0
2372,4/8/2012 20:00,41.861,0.0,58.809599999999996,0.0,0.0,0.0,1.2086999999999999,1.632,0.0
2373,4/8/2012 21:00,2.091,1.3491199999999999,2.9376,2.650776,0.204,0.0,1.7632799999999997,0.9285,0.0
2374,4/8/2012 22:00,0.0,11.89408,0.0,23.369709,1.7985000000000002,0.0,2.1329999999999996,1.1535,0.0
2375,4/8/2012 23:00,0.0,5.02944,0.0,9.881937,0.7605000000000001,0.24449999999999997,2.3463,0.46499999999999997,0.0
2376,4/9/2012 0:00,0.7995,4.53344,1.1232,8.907387,0.6855,0.216,2.46006,0.2415,0.0
2377,4/9/2012 1:00,13.704250000000002,4.28544,19.2528,8.420112,0.648,0.0,2.3178599999999996,0.0,0.0
2378,4/9/2012 2:00,14.401250000000001,4.2358400000000005,20.232000000000003,8.322657,0.6405000000000001,1.5165,1.8912599999999997,0.0,0.0
2379,4/9/2012 3:00,14.42175,4.0176,20.2608,7.893855,0.6075,2.2095,1.12338,0.177,0.0
2380,4/9/2012 4:00,12.412749999999999,3.26368,17.4384,6.412539,0.4935,6.3765,1.1376,0.24600000000000002,0.0
2381,4/9/2012 5:00,0.9225000000000001,1.97408,1.2960000000000003,3.878709,0.2985,7.141500000000001,1.1376,0.20999999999999996,0.0
2382,4/9/2012 6:00,1.3325,1.2400000000000002,1.872,2.436375,0.1875,8.098500000000001,1.23714,0.147,0.6071023549500001
2383,4/9/2012 7:00,2.091,1.15072,2.9376,2.2609559999999997,0.174,9.2415,1.422,0.138,0.71853149235
2384,4/9/2012 8:00,2.8289999999999997,1.4979200000000001,3.9744,2.9431410000000002,0.2265,8.9955,16.466759999999997,0.1425,0.6407512303500001
2385,4/9/2012 9:00,2.96225,2.3808000000000002,4.1616,4.67784,0.36,8.9235,14.376419999999998,0.0,0.58686596955
2386,4/9/2012 10:00,2.6855,3.77952,3.7728,7.426071,0.5715,8.88,12.1581,0.0,0.67863500985
2387,4/9/2012 11:00,1.87575,1.3788799999999999,2.6352,2.709249,0.2085,8.61,10.195739999999999,4.1865000000000006,0.84289490565
2388,4/9/2012 12:00,1.6604999999999999,1.02176,2.3327999999999998,2.007573,0.1545,8.0115,8.233379999999999,3.6705,0.89353104645
2389,4/9/2012 13:00,0.0,1.0416,0.0,2.046555,0.1575,7.7459999999999996,6.398999999999999,3.3914999999999997,0.8973746659500001
2390,4/9/2012 14:00,0.0,1.7260799999999998,0.0,3.391434,0.261,2.412,1.4788799999999998,3.6255,0.86327565345
2391,4/9/2012 15:00,0.0,1.8352,0.0,3.605835,0.27749999999999997,1.7055,1.4788799999999998,1.4625000000000001,0.85450492155
2392,4/9/2012 16:00,0.0,1.54752,0.0,3.040596,0.23399999999999999,1.1415,1.52154,1.8659999999999999,0.7699440084
2393,4/9/2012 17:00,0.0,1.35904,0.0,2.670267,0.20550000000000002,0.2475,3.01464,5.5335,0.6358949331000001
2394,4/9/2012 18:00,0.0,1.41856,0.0,2.787213,0.2145,0.231,2.6164799999999997,5.0865,0.41979838635000005
2395,4/9/2012 19:00,0.0,1.6864000000000001,0.0,3.31347,0.255,7.449,2.3605199999999997,5.3235,0.0
2396,4/9/2012 20:00,0.0,7.81696,0.0,15.358908,1.182,3.399,1.9623599999999999,5.491499999999999,0.0
2397,4/9/2012 21:00,0.0,7.3904,0.0,14.520795,1.1175,0.33899999999999997,3.0572999999999997,5.271,0.0
2398,4/9/2012 22:00,0.0,6.9936,0.0,13.741155,1.0574999999999999,2.5395000000000003,3.9247199999999998,4.8255,0.0
2399,4/9/2012 23:00,0.8302499999999999,6.6860800000000005,1.1663999999999999,13.136934,1.0110000000000001,2.1555,17.917199999999998,0.0,0.0
2400,4/10/2012 0:00,0.85075,6.25952,1.1952,12.298821,0.9465,6.1335,18.969479999999997,0.585,0.0
2401,4/10/2012 1:00,0.0,5.74368,0.0,11.285289,0.8685,0.0,20.87496,0.543,0.0
2402,4/10/2012 2:00,0.0,10.168,0.0,19.978275,1.5374999999999999,0.138,23.562539999999995,0.0,0.0
2403,4/10/2012 3:00,1.11725,11.54688,1.5695999999999999,22.687524,1.746,1.4955,30.217499999999998,0.0,0.0
2404,4/10/2012 4:00,1.107,13.798720000000001,1.5552000000000001,27.111981,2.0865,1.542,34.696799999999996,0.0,0.0
2405,4/10/2012 5:00,0.861,0.0,1.2096,0.0,0.0,1.4355,37.62612,0.0,0.0
2406,4/10/2012 6:00,0.0,1.9145600000000003,0.0,3.761763,0.28950000000000004,0.525,42.0912,0.0,0.57807569925
2407,4/10/2012 7:00,0.0,1.05152,0.0,2.066046,0.159,0.66,0.0,0.0,0.74242009065
2408,4/10/2012 8:00,0.0,1.05152,0.0,2.066046,0.159,0.867,0.0,0.0,0.6619946298
2409,4/10/2012 9:00,0.0,22.161279999999998,0.0,43.542894,3.351,0.36,0.0,0.0,0.61722859905
2410,4/10/2012 10:00,0.0,0.0,0.0,0.0,0.0,3.7064999999999997,0.0,0.0,0.70170394245
2411,4/10/2012 11:00,3.41325,0.0,4.7952,0.0,0.0,0.159,0.0,0.16949999999999998,0.7768896555
2412,4/10/2012 12:00,3.3825000000000003,0.0,4.752000000000001,0.0,0.0,0.381,0.0,0.0,0.8327130482999999
2413,4/10/2012 13:00,3.2902499999999995,0.7936000000000001,4.6224,1.55928,0.12,0.2985,0.0,0.0,0.83609523585
2414,4/10/2012 14:00,3.3722499999999997,1.1804800000000002,4.7376,2.319429,0.17850000000000002,2.988,0.0,0.192,0.84759994095
2415,4/10/2012 15:00,2.706,2.0832,3.8016,4.09311,0.315,0.0,0.0,0.0,0.816134298
2416,4/10/2012 16:00,1.28125,2.95616,1.8,5.808318,0.447,0.0,0.0,0.0,0.7351280559
2417,4/10/2012 17:00,1.2197500000000001,7.06304,1.7136,13.877592,1.068,0.0,0.0,0.0,0.6300784161
2418,4/10/2012 18:00,2.46,12.320640000000001,3.456,24.207822,1.863,0.0,0.0,0.0,0.42608967345
2419,4/10/2012 19:00,2.38825,15.74304,3.3552,30.932217,2.3805,0.0,1.5642,0.0,0.0
2420,4/10/2012 20:00,2.1422499999999998,3.53152,3.0096,6.938796,0.534,0.1245,1.67796,0.0,0.0
2421,4/10/2012 21:00,0.0,4.2358400000000005,0.0,8.322657,0.6405000000000001,0.15300000000000002,1.66374,0.2475,0.0
2422,4/10/2012 22:00,0.0,4.97984,0.0,9.784482,0.753,0.186,33.71562,0.2625,0.0
2423,4/10/2012 23:00,0.0,1.66656,0.0,3.274488,0.252,0.165,28.3689,0.6014999999999999,0.0
2424,4/11/2012 0:00,0.0,1.9145600000000003,0.0,3.761763,0.28950000000000004,0.189,1.6352999999999998,0.0,0.0
2425,4/11/2012 1:00,0.0,2.14272,0.0,4.210056,0.324,5.4285,2.8866599999999996,0.3165,0.0
2426,4/11/2012 2:00,0.0,2.7676800000000004,0.0,5.437989,0.41850000000000004,6.1215,4.64994,0.0,0.0
2427,4/11/2012 3:00,0.0,3.88864,0.0,7.640472,0.588,0.8744999999999999,6.2283599999999995,0.0,0.0
2428,4/11/2012 4:00,0.0,3.224,0.0,6.334575,0.48750000000000004,9.322500000000002,7.152659999999999,0.189,0.0
2429,4/11/2012 5:00,0.0,12.9456,0.0,25.435755,1.9575,9.3285,16.836479999999998,0.189,0.0
2430,4/11/2012 6:00,0.861,2.5891200000000003,1.2096,5.087151,0.3915,9.5805,7.52238,0.0,0.6354088901999999
2431,4/11/2012 7:00,1.1889999999999998,1.05152,1.6703999999999999,2.066046,0.159,0.6075,23.647859999999998,0.0,0.73257988335
2432,4/11/2012 8:00,1.0455,2.27168,1.4688,4.463439,0.3435,0.7575000000000001,21.287339999999997,0.22949999999999998,0.6471208054500001
2433,4/11/2012 9:00,0.85075,0.0,1.1952,0.0,0.0,0.9405000000000001,9.78336,0.342,0.60588578715
2434,4/11/2012 10:00,1.26075,3.1644799999999997,1.7712,6.217629,0.4785,1.317,8.460899999999999,0.5025000000000001,0.76367608905
2435,4/11/2012 11:00,1.3325,3.1744000000000003,1.872,6.23712,0.48,0.1095,23.71896,0.5805,0.8572489926000001
2436,4/11/2012 12:00,0.0,2.20224,0.0,4.327002,0.333,0.0,18.358019999999996,0.0,0.8839696593
2437,4/11/2012 13:00,0.0,29.6112,0.0,58.180634999999995,4.4775,1.6335,15.030539999999998,0.0,0.84645879255
2438,4/11/2012 14:00,1.30175,40.63232,1.8288,79.835136,6.144,1.659,13.750739999999999,0.2625,0.81379506915
2439,4/11/2012 15:00,0.0,3.66048,0.0,7.192179,0.5535,1.5225000000000002,9.555839999999998,1.0785,0.78882329505
2440,4/11/2012 16:00,0.97375,0.85312,1.3679999999999999,1.676226,0.129,1.353,11.063159999999998,0.972,0.7477892037000001
2441,4/11/2012 17:00,1.7322499999999998,6.269440000000001,2.4335999999999998,12.318312,0.9480000000000001,1.1145,12.812219999999998,0.0,0.60833312295
2442,4/11/2012 18:00,0.72775,16.38784,1.0224,32.199132,2.478,2.985,12.741119999999999,0.0,0.40734891225000003
2443,4/11/2012 19:00,2.1115,19.423360000000002,2.9664,38.163378,2.937,2.7315,3.65454,0.0,0.0
2444,4/11/2012 20:00,1.26075,0.0,1.7712,0.0,0.0,1.194,13.52322,0.0,0.0
2445,4/11/2012 21:00,3.3825000000000003,22.87552,4.752000000000001,44.946246,3.459,1.4685,35.30826,0.0,0.0
2446,4/11/2012 22:00,0.0,25.544,0.0,50.189325000000004,3.8625000000000003,1.731,4.5504,1.485,0.0
2447,4/11/2012 23:00,0.0,30.21632,0.0,59.369586,4.569,1.6185,5.830199999999999,2.6145,0.0
2448,4/12/2012 0:00,0.0,28.589440000000003,0.0,56.173062,4.323,0.8399999999999999,11.134259999999998,0.114,0.0
2449,4/12/2012 1:00,0.0,29.96832,0.0,58.882310999999994,4.531499999999999,0.7095,10.423259999999999,0.0,0.0
2450,4/12/2012 2:00,0.0,27.22048,0.0,53.483304,4.116,0.5790000000000001,9.0297,0.0,0.0
2451,4/12/2012 3:00,0.0,22.42912,0.0,44.069151,3.3914999999999997,0.5805,7.59348,1.0514999999999999,0.0
2452,4/12/2012 4:00,0.0,16.85408,0.0,33.115209,2.5484999999999998,0.534,1.2086999999999999,0.9854999999999999,0.0
2453,4/12/2012 5:00,0.0,15.068480000000001,0.0,29.606829,2.2785,0.522,8.09118,0.9750000000000001,0.0
2454,4/12/2012 6:00,0.0,12.965440000000001,0.0,25.474737,1.9605000000000001,0.48,1.4930999999999999,0.0,0.4024686582
2455,4/12/2012 7:00,0.0,10.12832,0.0,19.900311,1.5314999999999999,0.519,7.124219999999999,0.0,0.38541967905
2456,4/12/2012 8:00,0.0,6.51744,0.0,12.805587,0.9854999999999999,0.624,3.0004199999999996,0.0,0.32687058705000005
2457,4/12/2012 9:00,0.0,3.1744000000000003,0.0,6.23712,0.48,0.756,2.78712,0.0,0.268087428
2458,4/12/2012 10:00,0.7585000000000001,1.50784,1.0656,2.962632,0.228,1.0110000000000001,3.71142,0.0,0.3108641844
2459,4/12/2012 11:00,0.9327500000000001,0.97216,1.3104,1.910118,0.147,1.2795,4.49352,0.0,0.44659993455
2460,4/12/2012 12:00,0.9327500000000001,0.9225599999999999,1.3104,1.812663,0.13949999999999999,0.1815,23.42034,0.0,0.4840154214
2461,4/12/2012 13:00,0.0,1.10112,0.0,2.163501,0.1665,0.16949999999999998,19.0548,0.0,0.5046474636
2462,4/12/2012 14:00,0.0,1.5376,0.0,3.021105,0.23249999999999998,0.1665,17.405279999999998,0.0,0.4232232207
2463,4/12/2012 15:00,0.0,1.9344000000000001,0.0,3.800745,0.2925,0.174,64.31706,0.0,0.29674626135
2464,4/12/2012 16:00,0.0,1.94432,0.0,3.820236,0.294,0.192,26.19324,0.0,0.35604217425
2465,4/12/2012 17:00,0.0,2.17248,0.0,4.268529,0.3285,0.219,47.30994,0.0,0.21730789605
2466,4/12/2012 18:00,0.0,2.4998400000000003,0.0,4.911732,0.378,0.207,7.565039999999999,0.0,0.12411472185
2467,4/12/2012 19:00,0.0,3.7100800000000005,0.0,7.289634,0.561,12.57,62.240939999999995,0.0,0.0
2468,4/12/2012 20:00,1.4965,5.64448,2.1024,11.090379,0.8535,11.137500000000001,58.685939999999995,0.0,0.0
2469,4/12/2012 21:00,1.17875,6.2198400000000005,1.656,12.220857,0.9405000000000001,9.402000000000001,13.73652,0.129,0.0
2470,4/12/2012 22:00,0.9327500000000001,1.35904,1.3104,2.670267,0.20550000000000002,7.2780000000000005,10.807199999999998,0.207,0.0
2471,4/12/2012 23:00,0.74825,1.51776,1.0512,2.9821229999999996,0.22949999999999998,5.8260000000000005,8.802179999999998,0.2625,0.0
2472,4/13/2012 0:00,0.0,2.16256,0.0,4.249038,0.327,0.14100000000000001,10.84986,0.2625,0.0
2473,4/13/2012 1:00,0.0,4.12672,0.0,8.108255999999999,0.624,0.147,12.62736,0.2355,0.0
2474,4/13/2012 2:00,2.952,4.186240000000001,4.1472,8.225202,0.633,0.3,14.17734,0.1905,0.0
2475,4/13/2012 3:00,2.9827500000000002,3.40256,4.1904,6.685413,0.5145,0.429,61.586819999999996,0.1545,0.0
2476,4/13/2012 4:00,2.8289999999999997,2.51968,3.9744,4.950714,0.381,1.4475,15.04476,0.13949999999999999,0.0
2477,4/13/2012 5:00,2.583,1.7856000000000003,3.6288,3.5083800000000003,0.27,0.9480000000000001,3.7682999999999995,0.1275,0.00172870845
2478,4/13/2012 6:00,2.4292499999999997,1.26976,3.4128,2.494848,0.192,0.762,3.4838999999999998,0.108,0.02245778955
2479,4/13/2012 7:00,2.2345,0.8432000000000001,3.1391999999999998,1.656735,0.1275,0.0,10.62234,0.0,0.0569793798
2480,4/13/2012 8:00,0.78925,0.0,1.1088,0.0,0.0,0.0,8.09118,0.0,0.0968226651
2481,4/13/2012 9:00,0.0,41.3168,0.0,81.180015,6.2475,0.0,6.8967,0.0,0.34698191535
2482,4/13/2012 10:00,0.0,41.8128,0.0,82.15456499999999,6.3225,0.0,6.1003799999999995,0.171,0.4105405647
2483,4/13/2012 11:00,0.0,39.10464,0.0,76.833522,5.913,0.0,6.370559999999999,0.24600000000000002,0.44655304889999997
2484,4/13/2012 12:00,0.0,0.0,0.0,0.0,0.0,2.2155,0.0,0.261,0.45464552805
2485,4/13/2012 13:00,0.0,0.0,0.0,0.0,0.0,3.099,0.0,0.2505,0.5008079223
2486,4/13/2012 14:00,0.0,0.0,0.0,0.0,0.0,3.2190000000000003,0.0,0.1905,0.5260713444
2487,4/13/2012 15:00,0.0,0.0,0.0,0.0,0.0,2.346,27.131759999999996,0.0,0.80411466975
2488,4/13/2012 16:00,0.0,0.0,0.0,0.0,0.0,2.109,22.29696,0.162,0.7873602124500001
2489,4/13/2012 17:00,0.8097500000000001,2.79744,1.1376000000000002,5.496462,0.423,1.8555000000000001,25.851959999999995,0.1275,0.6719660766000001
2490,4/13/2012 18:00,0.8712500000000001,2.65856,1.2240000000000002,5.223588,0.402,0.9285,29.10834,0.0,0.5119351461
2491,4/13/2012 19:00,0.0,2.19232,0.0,4.307511,0.3315,0.483,33.1326,0.0,0.0
2492,4/13/2012 20:00,2.71625,1.9145600000000003,3.816,3.761763,0.28950000000000004,0.3285,36.63072,0.1605,0.0
2493,4/13/2012 21:00,2.81875,0.0,3.96,0.0,0.0,0.405,38.64995999999999,0.39899999999999997,0.0
2494,4/13/2012 22:00,2.6035,0.0,3.6576,0.0,0.0,0.2745,40.19994,0.2655,0.0
2495,4/13/2012 23:00,0.0,0.0,0.0,0.0,0.0,0.228,0.0,0.303,0.0
2496,4/14/2012 0:00,1.312,0.0,1.8432000000000002,0.0,0.0,0.0,1.12338,0.4065,0.0
2497,4/14/2012 1:00,0.0,0.0,0.0,0.0,0.0,0.471,1.54998,0.546,0.0
2498,4/14/2012 2:00,0.0,0.7638400000000001,0.0,1.500807,0.1155,0.48450000000000004,1.79172,0.5984999999999999,0.0
2499,4/14/2012 3:00,0.8302499999999999,0.81344,1.1663999999999999,1.598262,0.12300000000000001,0.46799999999999997,1.1944799999999998,0.6585,0.0
2500,4/14/2012 4:00,0.8712500000000001,0.7638400000000001,1.2240000000000002,1.500807,0.1155,0.46649999999999997,0.0,0.0,0.0
2501,4/14/2012 5:00,0.0,0.7043200000000001,0.0,1.383861,0.10650000000000001,0.0,0.0,0.0,0.07937815725
2502,4/14/2012 6:00,1.4965,0.7936000000000001,2.1024,1.55928,0.12,0.5175000000000001,0.0,0.33749999999999997,0.5540334807
2503,4/14/2012 7:00,2.2755,0.9424,3.1968,1.851645,0.1425,9.4095,0.0,0.3915,0.53000101665
2504,4/14/2012 8:00,4.797,1.13088,6.7392,2.221974,0.171,8.3505,8.162279999999999,0.4335,0.39009959625
2505,4/14/2012 9:00,0.0,75.86816,0.0,149.067168,11.472000000000001,7.177499999999999,8.83062,0.41850000000000004,0.32575686045
2506,4/14/2012 10:00,1.353,77.68352,1.9008,152.634021,11.746500000000001,0.0,9.11502,0.3855,0.4250741607
2507,4/14/2012 11:00,5.42225,70.95776000000001,7.6176,139.419123,10.729500000000002,0.1095,9.37098,0.36,0.5012623308
2508,4/14/2012 12:00,18.3885,67.27744,25.8336,132.187962,10.173,0.156,10.01088,0.33,0.56488197465
2509,4/14/2012 13:00,37.207499999999996,66.55328,52.272,130.765119,10.063500000000001,0.222,11.717279999999999,0.3045,0.61181837745
2510,4/14/2012 14:00,0.0,70.65024000000001,0.0,138.81490200000002,10.683000000000002,0.2715,4.32288,0.273,0.6263072361
2511,4/14/2012 15:00,0.0,5.952,0.0,11.6946,0.8999999999999999,0.267,9.228779999999999,0.25349999999999995,0.5696866833
2512,4/14/2012 16:00,0.0,0.0,0.0,0.0,0.0,0.23700000000000002,0.0,0.23700000000000002,0.5279775689999999
2513,4/14/2012 17:00,0.0,0.0,0.0,0.0,0.0,0.816,3.2705999999999995,0.18300000000000002,0.42699905745000005
2514,4/14/2012 18:00,0.0,0.0,0.0,0.0,0.0,0.627,3.2990399999999993,0.174,0.19564554765
2515,4/14/2012 19:00,0.0,0.0,0.0,0.0,0.0,0.0,3.31326,0.22949999999999998,0.0
2516,4/14/2012 20:00,1.312,0.0,1.8432000000000002,0.0,0.0,0.255,0.0,0.2355,0.0
2517,4/14/2012 21:00,1.3325,6.46784,1.872,12.708131999999999,0.9779999999999999,0.2925,0.0,0.222,0.0
2518,4/14/2012 22:00,1.52725,3.36288,2.1456,6.607449,0.5085,7.622999999999999,0.0,0.2115,0.0
2519,4/14/2012 23:00,1.7322499999999998,16.864,2.4335999999999998,33.1347,2.5500000000000003,0.273,3.5123399999999996,0.35850000000000004,0.0
2520,4/15/2012 0:00,1.77325,22.25056,2.4912,43.718313,3.3645,3.6615,0.0,0.138,0.0
2521,4/15/2012 1:00,1.6604999999999999,1.70624,2.3327999999999998,3.352452,0.258,0.1875,0.0,0.11249999999999999,0.0
2522,4/15/2012 2:00,1.7425000000000002,0.0,2.4480000000000004,0.0,0.0,0.1155,11.46132,0.12,0.0
2523,4/15/2012 3:00,1.9167500000000002,0.0,2.6928,0.0,0.0,0.11699999999999999,10.480139999999999,0.1275,0.0
2524,4/15/2012 4:00,2.009,0.0,2.8224,0.0,0.0,13.608,8.204939999999999,0.11699999999999999,0.0
2525,4/15/2012 5:00,1.927,0.0,2.7072000000000003,0.0,0.0,13.8825,6.000839999999999,0.7545,0.0687154209
2526,4/15/2012 6:00,0.7995,0.0,1.1232,0.0,0.0,14.022,5.460479999999999,0.6945,0.43945339619999996
2527,4/15/2012 7:00,2.4395000000000002,0.0,3.4272,0.0,0.0,0.621,5.38938,0.5535,0.41166689970000003
2528,4/15/2012 8:00,2.009,0.0,2.8224,0.0,0.0,0.855,0.0,0.207,0.3095026851
2529,4/15/2012 9:00,0.0,0.0,0.0,0.0,0.0,14.1795,1.79172,0.195,0.24477474840000002
2530,4/15/2012 10:00,91.4505,0.9027200000000001,128.4768,1.773681,0.1365,13.9245,0.0,0.174,0.29101025205
2531,4/15/2012 11:00,7.84125,2.95616,11.016,5.808318,0.447,13.368,5.104979999999999,2.2845,0.37695150675
2532,4/15/2012 12:00,7.871999999999999,0.0,11.059199999999999,0.0,0.0,0.7320000000000001,14.2911,2.8905000000000003,0.33621686805
2533,4/15/2012 13:00,1.93725,3.09504,2.7216,6.081192,0.46799999999999997,4.2255,11.831039999999998,0.0,0.31257414195
2534,4/15/2012 14:00,10.496,3.03552,14.745600000000001,5.964245999999999,0.45899999999999996,4.7265,9.62694,0.25349999999999995,0.2888669175
2535,4/15/2012 15:00,5.44275,2.8768,7.6464,5.65239,0.43499999999999994,1.9244999999999999,8.290259999999998,0.2235,0.27196428840000003
2536,4/15/2012 16:00,3.94625,2.3609600000000004,5.544,4.638858,0.35700000000000004,0.0,7.636139999999999,0.195,0.29040306959999995
2537,4/15/2012 17:00,53.6485,2.2319999999999998,75.36959999999999,4.385475,0.33749999999999997,0.0,1.5642,0.114,0.1534069488
2538,4/15/2012 18:00,52.85925,2.12288,74.2608,4.171074,0.321,0.0,3.3417,1.254,0.26472811575
2539,4/15/2012 19:00,6.01675,1.9145600000000003,8.4528,3.761763,0.28950000000000004,0.0,8.475119999999999,0.1425,0.0
2540,4/15/2012 20:00,4.592,3.33312,6.4512,6.548976,0.504,0.8594999999999999,9.129239999999998,0.17850000000000002,0.0
2541,4/15/2012 21:00,4.8790000000000004,3.63072,6.8544,7.133706,0.549,0.51,9.669599999999999,0.23850000000000002,0.0
2542,4/15/2012 22:00,5.299250000000001,3.14464,7.444800000000001,6.178647,0.4755,0.0,2.6875799999999996,0.3315,0.0
2543,4/15/2012 23:00,5.596500000000001,0.0,7.8624,0.0,0.0,0.0,10.266839999999998,0.26849999999999996,0.0
2544,4/16/2012 0:00,8.5075,0.0,11.952,0.0,0.0,0.129,8.531999999999998,0.273,0.0
2545,4/16/2012 1:00,8.55875,6.73568,12.024000000000001,13.234389,1.0185,0.22949999999999998,10.679219999999999,0.204,0.0
2546,4/16/2012 2:00,11.65425,6.82496,16.372799999999998,13.409808,1.032,0.5055000000000001,16.02594,0.132,0.0
2547,4/16/2012 3:00,0.0,7.3408000000000015,0.0,14.423340000000001,1.11,0.4155,16.836479999999998,0.5579999999999999,0.0
2548,4/16/2012 4:00,0.0,7.955839999999999,0.0,15.631781999999998,1.2029999999999998,0.34950000000000003,4.7210399999999995,0.5265,0.0
2549,4/16/2012 5:00,5.33,7.182080000000001,7.488,14.111484,1.086,0.525,4.36554,0.25349999999999995,0.09545391345000001
2550,4/16/2012 6:00,0.0,8.5312,0.0,16.762259999999998,1.2899999999999998,0.5175000000000001,4.265999999999999,0.2745,0.5055620577
2551,4/16/2012 7:00,5.5145,2.80736,7.7472,5.515953,0.4245,0.5069999999999999,9.271439999999998,0.2805,0.4832435559
2552,4/16/2012 8:00,5.258249999999999,2.27168,7.3872,4.463439,0.3435,0.51,12.755339999999999,0.288,0.35724736845000005
2553,4/16/2012 9:00,4.899500000000001,2.8272000000000004,6.8832,5.554935,0.4275,0.5085,15.37182,0.2865,0.30538428585
2554,4/16/2012 10:00,5.166,5.48576,7.2576,10.778523,0.8295,0.0,18.86994,0.255,0.32957158080000004
2555,4/16/2012 11:00,5.781,5.76352,8.121599999999999,11.324271,0.8714999999999999,0.0,22.72356,0.0,0.39273810135000004
2556,4/16/2012 12:00,6.81625,3.11488,9.576,6.120174,0.471,0.0,1.7064,0.0,0.42900690945
2557,4/16/2012 13:00,7.216,13.58048,10.1376,26.683179,2.0535,0.0,37.29906,0.7965,0.33198139905
2558,4/16/2012 14:00,7.995,2.976,11.232,5.8473,0.44999999999999996,0.0,42.44669999999999,0.9794999999999999,0.3443560974
2559,4/16/2012 15:00,0.0,2.98592,0.0,5.866790999999999,0.45149999999999996,0.0,40.55544,0.0,0.30618008715
2560,4/16/2012 16:00,2.65475,0.8630399999999999,3.7296,1.695717,0.1305,0.0,35.052299999999995,0.2925,0.28251546015
2561,4/16/2012 17:00,3.59775,4.80128,5.0544,9.433644,0.726,0.0,23.761619999999997,0.9854999999999999,0.28474187595
2562,4/16/2012 18:00,1.4965,15.405759999999999,2.1024,30.269523,2.3295,4.7235000000000005,8.58888,0.0,0.20434656795
2563,4/16/2012 19:00,0.861,1.59712,1.2096,3.138051,0.2415,5.233499999999999,5.104979999999999,0.9779999999999999,0.0
2564,4/16/2012 20:00,0.0,3.83904,0.0,7.543017,0.5805,5.130000000000001,5.21874,0.549,0.0
2565,4/16/2012 21:00,1.23,0.7638400000000001,1.728,1.500807,0.1155,0.3435,5.57424,0.35850000000000004,0.0
2566,4/16/2012 22:00,1.67075,0.7340800000000001,2.3472,1.442334,0.111,0.516,8.83062,0.0,0.0
2567,4/16/2012 23:00,0.0,1.23008,0.0,2.416884,0.186,5.1285,15.542459999999998,0.1425,0.0
2568,4/17/2012 0:00,1.2197500000000001,0.0,1.7136,0.0,0.0,0.11699999999999999,0.0,1.263,0.0
2569,4/17/2012 1:00,1.271,0.0,1.7855999999999999,0.0,0.0,0.129,30.700979999999998,0.0,0.0
2570,4/17/2012 2:00,1.34275,0.0,1.8864,0.0,0.0,0.1515,31.31244,0.1095,0.0
2571,4/17/2012 3:00,0.0,0.9324800000000001,0.0,1.832154,0.14100000000000001,0.2145,0.0,0.1635,0.0
2572,4/17/2012 4:00,0.0,2.9958400000000003,0.0,5.8862820000000005,0.453,0.4935,0.0,0.201,0.0
2573,4/17/2012 5:00,0.0,3.23392,0.0,6.3540659999999995,0.48899999999999993,0.35700000000000004,3.9389399999999997,0.2085,0.1311564891
2574,4/17/2012 6:00,3.4337500000000003,3.41248,4.824,6.704904,0.516,0.0,4.73526,0.1875,0.5618685555
2575,4/17/2012 7:00,9.6555,3.9680000000000004,13.564800000000002,7.7964,0.6,0.0,32.90508,0.0,0.5283074286
2576,4/17/2012 8:00,3.8847500000000004,0.0,5.4576,0.0,0.0,0.0,0.0,0.147,0.38643016650000006
2577,4/17/2012 9:00,0.8097500000000001,0.0,1.1376000000000002,0.0,0.0,0.14100000000000001,2.81556,0.10650000000000001,0.3390525159
2578,4/17/2012 10:00,0.779,1.02176,1.0944,2.007573,0.1545,0.28200000000000003,0.0,1.0665,0.42850080735000007
2579,4/17/2012 11:00,0.8815,0.0,1.2384,0.0,0.0,0.7949999999999999,0.0,1.7189999999999999,0.50862369075
2580,4/17/2012 12:00,0.0,0.0,0.0,0.0,0.0,0.8475,0.0,2.5875,0.5739048336000001
2581,4/17/2012 13:00,0.0,1.39872,0.0,2.748231,0.2115,0.843,0.0,0.0,0.6100895031
2582,4/17/2012 14:00,0.0,3.94816,0.0,7.757418,0.597,0.7305,0.0,0.0,0.62883329985
2583,4/17/2012 15:00,0.0,8.84864,0.0,17.385972,1.338,0.834,1.8912599999999997,0.0,0.5823850263
2584,4/17/2012 16:00,0.0,13.937600000000002,0.0,27.384855,2.1075000000000004,1.0725,3.9531599999999996,0.0,0.54242241375
2585,4/17/2012 17:00,0.0,15.872000000000002,0.0,31.1856,2.4,1.0725,3.46968,0.0,0.40884349485000004
2586,4/17/2012 18:00,0.0,15.50496,0.0,30.464433,2.3445,0.897,4.0811399999999995,0.0,0.2912596911
2587,4/17/2012 19:00,0.0,15.8224,0.0,31.088145,2.3925,0.6945,0.0,0.0,0.029597716050000004
2588,4/17/2012 20:00,0.0,15.7728,0.0,30.99069,2.3850000000000002,0.48899999999999993,0.0,0.0,0.0
2589,4/17/2012 21:00,0.0,16.34816,0.0,32.121168,2.472,0.423,0.0,0.0,0.0
2590,4/17/2012 22:00,0.0,17.57824,0.0,34.538052,2.658,0.41850000000000004,0.0,0.0,0.0
2591,4/17/2012 23:00,0.0,18.361919999999998,0.0,36.077841,2.7765,0.3735,2.24676,0.0,0.0
2592,4/18/2012 0:00,0.0,18.947200000000002,0.0,37.22781,2.865,0.3855,2.28942,0.0,0.0
2593,4/18/2012 1:00,0.0,19.28448,0.0,37.890504,2.916,0.3885,2.46006,2.007,0.0
2594,4/18/2012 2:00,8.446,19.89952,11.8656,39.098946,3.009,0.432,3.14262,1.0875,0.0
2595,4/18/2012 3:00,0.0,19.8896,0.0,39.079455,3.0075000000000003,0.2625,4.351319999999999,0.0,0.0
2596,4/18/2012 4:00,18.13225,3.8192,25.4736,7.504035,0.5775,0.114,5.24718,0.0,0.0
2597,4/18/2012 5:00,31.94925,20.05824,44.8848,39.410802,3.033,0.0,5.31828,0.0,0.09158687265000001
2598,4/18/2012 6:00,43.6445,19.67136,61.315200000000004,38.650653,2.9745,0.0,3.2421599999999997,0.0,0.31123218734999997
2599,4/18/2012 7:00,51.93675,19.8896,72.96480000000001,39.079455,3.0075000000000003,0.0,1.2798,0.0,0.10743950595
2600,4/18/2012 8:00,53.33075,17.52864,74.9232,34.440597,2.6505,0.114,0.0,0.0,0.14582854965
2601,4/18/2012 9:00,54.33525,1.95424,76.3344,3.839727,0.2955,0.28950000000000004,0.0,0.0,0.18672306135
2602,4/18/2012 10:00,53.6075,1.76576,75.312,3.469398,0.267,0.6885,0.0,1.392,0.24783712485
2603,4/18/2012 11:00,54.81700000000001,1.11104,77.0112,2.182992,0.168,1.3965,1.8770399999999998,1.4205,0.37573826219999995
2604,4/18/2012 12:00,51.46525,1.0416,72.3024,2.046555,0.1575,2.25,2.58804,2.04,0.38491389930000003
2605,4/18/2012 13:00,44.39275,1.44832,62.3664,2.845686,0.219,1.629,2.2752,1.6425,0.4932679153500001
2606,4/18/2012 14:00,32.820499999999996,1.3788799999999999,46.108799999999995,2.709249,0.2085,1.218,1.83438,1.1475,0.35268627555
2607,4/18/2012 15:00,23.68775,1.13088,33.2784,2.221974,0.171,1.2,4.6215,0.9975,0.34908607125
2608,4/18/2012 16:00,16.24625,1.03168,22.824,2.0270639999999998,0.156,0.687,6.79716,0.606,0.20171707395
2609,4/18/2012 17:00,0.0,1.23008,0.0,2.416884,0.186,0.0,8.531999999999998,0.46649999999999997,0.07198052295
2610,4/18/2012 18:00,0.78925,7.62848,1.1088,14.988579,1.1535,0.0,9.214559999999999,0.609,0.02115252615
2611,4/18/2012 19:00,0.9327500000000001,6.6265600000000004,1.3104,13.019988,1.002,0.0,10.792979999999998,1.05,0.0029654719500000004
2612,4/18/2012 20:00,1.1889999999999998,5.79328,1.6703999999999999,11.382744,0.876,0.0,10.579679999999998,0.1635,0.0
2613,4/18/2012 21:00,2.16275,5.19808,3.0384,10.213284,0.786,0.0,12.57048,0.0,0.0
2614,4/18/2012 22:00,3.403,2.0832,4.7808,4.09311,0.315,0.132,13.608539999999998,0.0,0.0
2615,4/18/2012 23:00,3.4234999999999998,0.7340800000000001,4.8096,1.442334,0.111,0.192,13.551659999999998,1.323,0.0
2616,4/19/2012 0:00,2.1525000000000003,5.128640000000001,3.024,10.076847,0.7755000000000001,0.3,12.044339999999998,0.40950000000000003,0.0
2617,4/19/2012 1:00,1.54775,5.66432,2.1744,11.129361,0.8564999999999999,0.495,2.6449199999999995,0.19949999999999998,0.0
2618,4/19/2012 2:00,14.64725,5.3072,20.5776,10.427685,0.8025,0.0,2.4885,0.0,0.0
2619,4/19/2012 3:00,13.00725,0.0,18.273600000000002,0.0,0.0,0.0,2.9719799999999994,0.23399999999999999,0.0
2620,4/19/2012 4:00,0.8302499999999999,0.0,1.1663999999999999,0.0,0.0,0.0,4.43664,0.0,0.0
2621,4/19/2012 5:00,5.3505,0.0,7.516800000000001,0.0,0.0,0.0,4.86324,0.0,0.008177876700000001
2622,4/19/2012 6:00,5.248,0.7836800000000002,7.372800000000001,1.539789,0.11850000000000001,0.0,3.71142,0.3885,0.30309978405000004
2623,4/19/2012 7:00,4.93025,0.8928000000000001,6.926399999999999,1.7541900000000001,0.135,1.5195,3.46968,0.453,0.30029236649999996
2624,4/19/2012 8:00,4.37675,0.9523199999999999,6.1488000000000005,1.871136,0.144,8.309999999999999,8.85906,0.46649999999999997,0.17922275385
2625,4/19/2012 9:00,10.865,0.8729600000000001,15.264,1.715208,0.132,0.0,7.59348,0.456,0.26845391055
2626,4/19/2012 10:00,10.8855,0.0,15.2928,0.0,0.0,9.2685,6.79716,0.0,0.43358079764999996
2627,4/19/2012 11:00,9.881,1.64672,13.8816,3.235506,0.249,9.8265,95.80013999999998,0.1665,0.5252846476499999
2628,4/19/2012 12:00,8.41525,3.4620800000000003,11.822400000000002,6.802359,0.5235,7.085999999999999,105.56927999999998,0.0,0.5296989390000001
2629,4/19/2012 13:00,7.462000000000001,3.7299200000000003,10.4832,7.328616,0.5640000000000001,6.8265,111.51324,0.0,0.54502128975
2630,4/19/2012 14:00,5.89375,3.3232000000000004,8.280000000000001,6.529485,0.5025000000000001,6.3075,6.0435,0.33899999999999997,0.40930601564999997
2631,4/19/2012 15:00,3.31075,3.0752,4.6512,6.04221,0.46499999999999997,4.970999999999999,5.51736,0.4065,0.44588248425000004
2632,4/19/2012 16:00,2.8905,3.1545600000000005,4.0607999999999995,6.198138,0.47700000000000004,3.8775,5.06232,0.42600000000000005,0.37195130489999995
2633,4/19/2012 17:00,0.0,3.36288,0.0,6.607449,0.5085,3.321,4.479299999999999,0.423,0.32797443945000004
2634,4/19/2012 18:00,0.0,3.54144,0.0,6.958287,0.5355000000000001,3.354,108.78299999999999,0.315,0.26144652765000004
2635,4/19/2012 19:00,0.0,3.53152,0.0,6.938796,0.534,1.044,106.47936,0.198,0.02988928005
2636,4/19/2012 20:00,0.0,1.6566400000000001,0.0,3.254997,0.2505,0.447,102.89591999999999,0.198,0.0
2637,4/19/2012 21:00,0.0,2.4998400000000003,0.0,4.911732,0.378,4.386,3.6260999999999997,0.249,0.0
2638,4/19/2012 22:00,0.0,3.21408,0.0,6.315084,0.486,4.893,2.44584,3.2910000000000004,0.0
2639,4/19/2012 23:00,0.0,3.43232,0.0,6.743886,0.519,0.3255,6.811379999999999,0.14550000000000002,0.0
2640,4/20/2012 0:00,0.0,0.0,0.0,0.0,0.0,5.9445,6.2141399999999996,0.1335,0.0
2641,4/20/2012 1:00,0.0,1.50784,0.0,2.962632,0.228,5.886,78.87834,0.39899999999999997,0.0
2642,4/20/2012 2:00,0.0,3.73984,0.0,7.348107,0.5655,0.108,16.836479999999998,0.30600000000000005,0.0
2643,4/20/2012 3:00,0.0,3.8489600000000004,0.0,7.562508,0.5820000000000001,5.8215,14.461739999999999,0.0,0.0
2644,4/20/2012 4:00,0.0,3.9878400000000003,0.0,7.835382,0.603,5.524500000000001,12.271859999999998,0.0,0.0
2645,4/20/2012 5:00,0.0,0.81344,0.0,1.598262,0.12300000000000001,7.4985,10.70766,0.0,0.23590639905000005
2646,4/20/2012 6:00,0.0,0.8928000000000001,0.0,1.7541900000000001,0.135,6.944999999999999,8.34714,0.9135000000000001,0.5323468101000001
2647,4/20/2012 7:00,0.0,2.51968,0.0,4.950714,0.381,5.682,3.4554599999999995,0.3285,0.49953693930000004
2648,4/20/2012 8:00,7.995,2.10304,11.232,4.132092,0.318,4.377,1.8770399999999998,0.345,0.3689955759
2649,4/20/2012 9:00,8.21025,1.64672,11.534400000000002,3.235506,0.249,4.4715,2.2325399999999997,0.333,0.30551575844999995
2650,4/20/2012 10:00,8.53825,1.54752,11.9952,3.040596,0.23399999999999999,3.4575,2.28942,0.9029999999999999,0.4422786669
2651,4/20/2012 11:00,9.35825,6.03136,13.147200000000002,11.850528,0.912,2.3339999999999996,1.8770399999999998,0.315,0.41137487580000004
2652,4/20/2012 12:00,0.0,0.0,0.0,0.0,0.0,2.088,1.53576,0.6645,0.40389678630000003
2653,4/20/2012 13:00,0.0,0.0,0.0,0.0,0.0,1.809,0.0,0.5025000000000001,0.359842539
2654,4/20/2012 14:00,0.0,0.0,0.0,0.0,0.0,1.6155000000000002,0.0,0.3345,0.30440900490000006
2655,4/20/2012 15:00,0.0,0.0,0.0,0.0,0.0,1.278,0.0,0.408,0.25250895075
2656,4/20/2012 16:00,0.0,1.70624,0.0,3.352452,0.258,0.879,0.0,0.261,0.17994625530000002
2657,4/20/2012 17:00,0.0,20.6832,0.0,40.638735,3.1275,0.951,0.0,0.408,0.3765382131
2658,4/20/2012 18:00,0.0,0.0,0.0,0.0,0.0,0.4305,0.0,0.6315,0.11418464295000001
2659,4/20/2012 19:00,0.0,0.0,0.0,0.0,0.0,0.333,0.0,0.531,0.0096159546
2660,4/20/2012 20:00,0.0,0.0,0.0,0.0,0.0,1.503,0.0,0.444,0.0
2661,4/20/2012 21:00,3.772,0.0,5.2992,0.0,0.0,1.8225,0.0,0.51,0.0
2662,4/20/2012 22:00,4.264,0.0,5.990399999999999,0.0,0.0,2.2635,0.0,0.396,0.0
2663,4/20/2012 23:00,4.264,0.0,5.990399999999999,0.0,0.0,2.5695,0.0,0.315,0.0
2664,4/21/2012 0:00,3.72075,0.71424,5.2272,1.403352,0.108,0.7635000000000001,0.0,0.2865,0.0
2665,4/21/2012 1:00,3.18775,0.75392,4.4784,1.481316,0.114,0.6675,0.0,0.26849999999999996,0.0
2666,4/21/2012 2:00,2.36775,0.91264,3.3264,1.793172,0.138,0.519,0.0,0.2205,0.0
2667,4/21/2012 3:00,1.6912500000000001,0.81344,2.3760000000000003,1.598262,0.12300000000000001,0.0,0.0,0.162,0.0
2668,4/21/2012 4:00,1.8347499999999999,0.0,2.5776,0.0,0.0,0.0,1.66374,0.9450000000000001,0.0
2669,4/21/2012 5:00,2.009,4.39456,2.8224,8.634513,0.6645,0.0,2.4031799999999994,0.873,0.30504494265000004
2670,4/21/2012 6:00,1.927,0.0,2.7072000000000003,0.0,0.0,0.0,8.36136,0.705,0.5393296818000001
2671,4/21/2012 7:00,1.93725,0.0,2.7216,0.0,0.0,0.0,8.85906,0.46649999999999997,0.495877452
2672,4/21/2012 8:00,0.0,0.0,0.0,0.0,0.0,0.0,19.296539999999997,0.2625,0.38029109685000007
2673,4/21/2012 9:00,0.0,0.0,0.0,0.0,0.0,0.0,8.773739999999998,0.216,0.3544616313
2674,4/21/2012 10:00,0.0,2.4204800000000004,0.0,4.755804,0.36600000000000005,0.0,9.08658,0.20550000000000002,0.4675856346
2675,4/21/2012 11:00,0.0,2.71808,0.0,5.340534,0.41100000000000003,0.0,11.3049,0.591,0.5060720238
2676,4/21/2012 12:00,0.0,5.44608,0.0,10.700559,0.8235,0.0,11.10582,0.24,0.5631838737
2677,4/21/2012 13:00,2.03975,5.57504,2.8656,10.953942,0.843,0.0,10.992059999999999,0.258,0.5823118812
2678,4/21/2012 14:00,0.0,2.54944,0.0,5.009187,0.3855,0.0,9.51318,0.0,0.5563637499
2679,4/21/2012 15:00,4.02825,2.07328,5.6592,4.073619,0.3135,8.9025,2.43162,0.6915,0.5376041653500001
2680,4/21/2012 16:00,4.5305,3.78944,6.364800000000001,7.445562,0.573,10.2645,2.1756599999999997,0.321,0.44659622280000005
2681,4/21/2012 17:00,4.0897499999999996,4.14656,5.7456,8.147238,0.627,10.5045,1.83438,0.1965,0.32152404689999997
2682,4/21/2012 18:00,3.35175,14.7312,4.7088,28.944135,2.2275,9.839999999999998,1.5642,0.3435,0.22307066565
2683,4/21/2012 19:00,2.8289999999999997,2.12288,3.9744,4.171074,0.321,8.9415,1.3508999999999998,1.6635,0.03427599315
2684,4/21/2012 20:00,4.31525,2.1824000000000003,6.0624,4.28802,0.33,0.0,1.23714,0.7005,0.0
2685,4/21/2012 21:00,4.858499999999999,7.995520000000001,6.8256,15.709746,1.209,0.0,7.1811,0.369,0.0
2686,4/21/2012 22:00,0.0,8.56096,0.0,16.820733,1.2945,0.0,8.503559999999998,0.2835,0.0
2687,4/21/2012 23:00,0.0,1.9344000000000001,0.0,3.800745,0.2925,0.12300000000000001,9.271439999999998,0.4305,0.0
2688,4/22/2012 0:00,13.366,1.8550400000000002,18.7776,3.644817,0.2805,0.0,8.48934,0.2145,0.0
2689,4/22/2012 1:00,2.55225,1.7360000000000002,3.5856,3.410925,0.2625,0.0,3.2990399999999993,0.201,0.0
2690,4/22/2012 2:00,3.0237499999999997,1.69632,4.247999999999999,3.332961,0.2565,0.0,3.2137199999999995,0.135,0.0
2691,4/22/2012 3:00,0.0,1.66656,0.0,3.274488,0.252,0.138,2.65914,0.0,0.0
2692,4/22/2012 4:00,0.0,1.0416,0.0,2.046555,0.1575,4.3125,1.53576,0.0,0.0
2693,4/22/2012 5:00,7.421,0.0,10.425600000000001,0.0,0.0,1.0574999999999999,1.0664999999999998,0.0,0.17022899354999999
2694,4/22/2012 6:00,6.6419999999999995,6.02144,9.331199999999999,11.831036999999998,0.9105,1.3275,1.08072,0.0,0.36329936265
2695,4/22/2012 7:00,0.0,2.22208,0.0,4.365984,0.336,1.5959999999999999,6.6834,0.0,0.42079476495
2696,4/22/2012 8:00,51.219249999999995,1.55744,71.9568,3.060087,0.2355,1.764,6.44166,0.0,0.31945671555
2697,4/22/2012 9:00,0.8302499999999999,3.03552,1.1663999999999999,5.964245999999999,0.45899999999999996,1.8735,29.079899999999995,0.0,0.31977741390000003
2698,4/22/2012 10:00,7.8925,3.11488,11.088,6.120174,0.471,1.2810000000000001,2.9861999999999997,0.0,0.25814972085
2699,4/22/2012 11:00,9.58375,3.7596800000000004,13.464,7.3870890000000005,0.5685,2.0204999999999997,0.0,0.2985,0.12548845050000001
2700,4/22/2012 12:00,7.1135,4.38464,9.9936,8.615022,0.663,2.7135000000000002,0.0,0.27749999999999997,0.2954593047
2701,4/22/2012 13:00,6.91875,4.42432,9.72,8.692986,0.669,0.12300000000000001,0.0,0.26849999999999996,0.55550092395
2702,4/22/2012 14:00,7.072500000000001,4.00768,9.936,7.874364,0.606,1.2225000000000001,0.0,0.2565,0.5180290521
2703,4/22/2012 15:00,6.539499999999999,3.36288,9.187199999999999,6.607449,0.5085,1.044,3.2848199999999994,0.1815,0.45215201745
2704,4/22/2012 16:00,5.83225,2.6982399999999997,8.1936,5.301552,0.408,0.33749999999999997,1.4362199999999998,0.3075,0.39061140825
2705,4/22/2012 17:00,5.68875,2.0832,7.992,4.09311,0.315,0.3,1.2086999999999999,0.441,0.3615583965
2706,4/22/2012 18:00,6.1499999999999995,1.50784,8.64,2.962632,0.228,0.19949999999999998,0.0,0.43499999999999994,0.23008378575
2707,4/22/2012 19:00,7.08275,1.1904000000000001,9.950399999999998,2.33892,0.18,0.162,0.0,0.35100000000000003,0.03446088135
2708,4/22/2012 20:00,0.0,0.9324800000000001,0.0,1.832154,0.14100000000000001,0.14850000000000002,3.07152,0.2955,0.0
2709,4/22/2012 21:00,0.7687499999999999,0.0,1.08,0.0,0.0,0.1605,2.844,0.0,0.0
2710,4/22/2012 22:00,0.0,0.0,0.0,0.0,0.0,0.66,0.0,1.47,0.0
2711,4/22/2012 23:00,0.0,5.67424,0.0,11.148852,0.858,3.675,0.0,0.39749999999999996,0.0
2712,4/23/2012 0:00,0.9532499999999999,4.3152,1.3392,8.478584999999999,0.6525,0.0,1.29402,0.342,0.0
2713,4/23/2012 1:00,0.0,2.7577599999999998,0.0,5.418498,0.417,0.0,2.18988,0.294,0.0
2714,4/23/2012 2:00,0.97375,1.7955200000000002,1.3679999999999999,3.527871,0.2715,0.333,2.7017999999999995,0.249,0.0
2715,4/23/2012 3:00,0.0,5.942080000000001,0.0,11.675109,0.8985000000000001,0.46499999999999997,2.9719799999999994,0.18300000000000002,0.0
2716,4/23/2012 4:00,0.0,9.31488,0.0,18.302049,1.4084999999999999,1.2315,3.35592,0.111,0.0
2717,4/23/2012 5:00,0.0,11.29888,0.0,22.200249,1.7085,1.3725,4.39398,0.0,0.0067304055
2718,4/23/2012 6:00,3.3825000000000003,9.920000000000002,4.752000000000001,19.491,1.5,1.7535,4.39398,0.3015,0.052750420799999996
2719,4/23/2012 7:00,1.9885000000000002,6.9836800000000006,2.7936,13.721664,1.056,2.1270000000000002,4.43664,0.3945,0.10616290755
2720,4/23/2012 8:00,1.13775,4.712000000000001,1.5984,9.258225,0.7125,2.6925,4.607279999999999,0.4155,0.15697619910000002
2721,4/23/2012 9:00,0.0,3.6108800000000003,0.0,7.094724,0.546,0.789,4.280219999999999,0.4245,0.19994951340000003
2722,4/23/2012 10:00,4.674,2.9363200000000003,6.5664,5.769336,0.444,0.876,3.5407799999999994,0.423,0.23364949965000004
2723,4/23/2012 11:00,4.6945,2.5792,6.5952,5.06766,0.39,1.089,2.4031799999999994,0.39749999999999996,0.23376487680000002
2724,4/23/2012 12:00,4.06925,2.4998400000000003,5.7168,4.911732,0.378,1.2810000000000001,2.90088,0.3435,0.33032718495
2725,4/23/2012 13:00,3.3825000000000003,4.53344,4.752000000000001,8.907387,0.6855,0.0,4.6926,0.14850000000000002,0.3853840809
2726,4/23/2012 14:00,2.85975,5.73376,4.0176,11.265797999999998,0.867,0.0,6.356339999999999,0.2415,0.37979780685000003
2727,4/23/2012 15:00,2.51125,0.0,3.528,0.0,0.0,0.0,6.9820199999999994,0.1965,0.39279838605
2728,4/23/2012 16:00,2.1422499999999998,0.0,3.0096,0.0,0.0,0.0,7.237979999999999,0.159,0.440189274
2729,4/23/2012 17:00,1.8655000000000002,0.0,2.6208,0.0,0.0,0.0,7.053119999999999,0.14100000000000001,0.32877447330000004
2730,4/23/2012 18:00,1.67075,0.0,2.3472,0.0,0.0,0.0,6.498539999999999,1.3365,0.19503909600000002
2731,4/23/2012 19:00,1.38375,0.9424,1.944,1.851645,0.1425,0.0,5.81598,1.7325000000000002,0.0359472015
2732,4/23/2012 20:00,2.214,0.0,3.1104000000000003,0.0,0.0,0.0,4.89168,1.686,0.0
2733,4/23/2012 21:00,1.681,0.0,2.3616,0.0,0.0,0.0,3.7825199999999994,1.2225000000000001,0.0
2734,4/23/2012 22:00,1.28125,1.41856,1.8,2.787213,0.2145,0.0,3.38436,1.098,0.0
2735,4/23/2012 23:00,0.0,2.51968,0.0,4.950714,0.381,0.3195,3.72564,1.068,0.0
2736,4/24/2012 0:00,0.0,1.30944,0.0,2.572812,0.198,0.41999999999999993,4.0527,0.0,0.0
2737,4/24/2012 1:00,43.46,10.60448,61.056,20.835879,1.6035,0.5579999999999999,4.32288,0.0,0.0
2738,4/24/2012 2:00,0.0,25.80192,0.0,50.696090999999996,3.9015,0.6449999999999999,3.64032,2.4255,0.0
2739,4/24/2012 3:00,18.870250000000002,26.139200000000002,26.5104,51.358785000000005,3.9525,0.4035,1.9765799999999998,1.3665,0.0
2740,4/24/2012 4:00,3.4850000000000003,28.182720000000003,4.896000000000001,55.373931000000006,4.2615,1.575,2.14722,0.51,0.0
2741,4/24/2012 5:00,36.60275,0.0,51.422399999999996,0.0,0.0,0.264,2.8724399999999997,0.28950000000000004,0.00861080745
2742,4/24/2012 6:00,31.23175,0.0,43.8768,0.0,0.0,0.228,3.64032,0.216,0.0350759115
2743,4/24/2012 7:00,34.69625,10.43584,48.744,20.504532,1.578,0.201,4.42242,0.333,0.060601005150000005
2744,4/24/2012 8:00,4.11025,10.37632,5.7744,20.387586,1.569,2.5125,4.45086,0.4905,0.08477860125
2745,4/24/2012 9:00,4.27425,12.85632,6.0048,25.260336,1.944,4.7355,4.18068,0.6134999999999999,0.1300023186
2746,4/24/2012 10:00,4.2435,12.747200000000001,5.9616,25.045935,1.9275,8.229,1.9907999999999997,0.9195,0.22302970830000005
2747,4/24/2012 11:00,31.21125,7.10272,43.848,13.955556,1.0739999999999998,10.959,2.9719799999999994,1.8450000000000002,0.50523691785
2748,4/24/2012 12:00,29.59175,0.0,41.5728,0.0,0.0,10.6905,2.3889599999999995,3.0705,0.55423860345
2749,4/24/2012 13:00,28.741,1.62688,40.3776,3.196524,0.24600000000000002,9.6525,1.69218,3.9419999999999997,0.5812640778
2750,4/24/2012 14:00,7.656750000000001,2.976,10.7568,5.8473,0.44999999999999996,8.214,1.0664999999999998,4.0440000000000005,0.5835182871
2751,4/24/2012 15:00,7.564500000000001,4.25568,10.6272,8.361639,0.6435,6.1875,2.53116,3.8579999999999997,0.5720103522
2752,4/24/2012 16:00,7.503,4.6425600000000005,10.5408,9.121788,0.7020000000000001,4.3125,6.157259999999999,3.342,0.50570252775
2753,4/24/2012 17:00,6.4985,16.338240000000003,9.1296,32.101677,2.4705000000000004,3.156,14.276879999999998,3.2895,0.44887052175000003
2754,4/24/2012 18:00,4.33575,17.91552,6.0912,35.200746,2.709,0.777,35.60688,1.9395,0.33887468895
2755,4/24/2012 19:00,2.9724999999999997,17.09216,4.176,33.582993,2.5845000000000002,0.0,69.10919999999999,0.108,0.05208447929999999
2756,4/24/2012 20:00,16.523,15.80256,23.2128,31.049163,2.3895,0.603,85.19201999999999,0.4485,0.0
2757,4/24/2012 21:00,13.058500000000002,0.0,18.3456,0.0,0.0,1.0785,77.82606,0.21300000000000002,0.0
2758,4/24/2012 22:00,12.08475,14.7312,16.977600000000002,28.944135,2.2275,1.3065,59.041439999999994,0.0,0.0
2759,4/24/2012 23:00,13.704250000000002,13.06464,19.2528,25.669647,1.9755000000000003,1.4685,0.0,0.0,0.0
2760,4/25/2012 0:00,14.924000000000001,12.638080000000002,20.9664,24.831534,1.9110000000000003,7.6815,0.0,0.1275,0.0
2761,4/25/2012 1:00,13.407,11.89408,18.8352,23.369709,1.7985000000000002,0.3075,0.0,0.0,0.0
2762,4/25/2012 2:00,11.65425,11.72544,16.372799999999998,23.038362,1.773,0.252,0.0,0.0,0.0
2763,4/25/2012 3:00,9.25575,13.322560000000001,13.003200000000001,26.176413,2.0145,6.009,0.0,0.2415,0.0
2764,4/25/2012 4:00,4.78675,3.6108800000000003,6.7248,7.094724,0.546,0.1605,0.0,0.22499999999999998,0.0
2765,4/25/2012 5:00,3.9667499999999998,4.473920000000001,5.5728,8.790441,0.6765,0.45899999999999996,0.0,0.0,0.1375812585
2766,4/25/2012 6:00,4.674,5.79328,6.5664,11.382744,0.876,0.26849999999999996,0.0,0.0,0.27759927195
2767,4/25/2012 7:00,5.54525,4.840960000000001,7.7904,9.511608,0.7320000000000001,0.34950000000000003,0.0,0.0,0.25974802035
2768,4/25/2012 8:00,6.5497499999999995,0.0,9.2016,0.0,0.0,0.3765,0.0,0.0,0.29316091980000003
2769,4/25/2012 9:00,7.267250000000001,0.0,10.2096,0.0,0.0,0.41999999999999993,1.00962,0.0,0.3266238528
2770,4/25/2012 10:00,7.30825,1.59712,10.2672,3.138051,0.2415,1.1895,1.29402,0.0,0.38477435219999995
2771,4/25/2012 11:00,0.0,14.47328,0.0,28.437369,2.1885,1.0035,1.79172,0.0,0.4368138894
2772,4/25/2012 12:00,5.56575,26.0896,7.8192,51.26133,3.9450000000000003,0.4065,1.9339199999999996,0.0,0.5259076872
2773,4/25/2012 13:00,4.592,31.3472,6.4512,61.59156,4.74,4.0515,1.73484,0.0,0.47843359830000004
2774,4/25/2012 14:00,3.8642499999999997,32.329280000000004,5.4288,63.521169,4.8885000000000005,0.0,1.57842,0.0,0.39820533480000003
2775,4/25/2012 15:00,5.03275,32.46816,7.070399999999999,63.794042999999995,4.9094999999999995,3.2775,15.59934,0.0,0.41892329325
2776,4/25/2012 16:00,6.8572500000000005,0.0,9.6336,0.0,0.0,2.961,31.938119999999998,0.0,0.37519264545000003
2777,4/25/2012 17:00,0.943,0.0,1.3248,0.0,0.0,2.9114999999999998,52.78463999999999,0.192,0.31686143475
2778,4/25/2012 18:00,1.24025,0.0,1.7424,0.0,0.0,0.0,69.35094,0.0,0.2706557553
2779,4/25/2012 19:00,1.62975,0.0,2.2896,0.0,0.0,1.2810000000000001,3.14262,0.0,0.08747575935
2780,4/25/2012 20:00,3.35175,4.75168,4.7088,9.336189,0.7184999999999999,0.0,3.4412399999999996,0.0,0.0
2781,4/25/2012 21:00,0.0,3.83904,0.0,7.543017,0.5805,1.4775,3.2563799999999996,0.0,0.0
2782,4/25/2012 22:00,36.203,1.5276800000000001,50.860800000000005,3.001614,0.231,1.6155000000000002,2.8866599999999996,0.0,0.0
2783,4/25/2012 23:00,3.5772500000000003,0.8432000000000001,5.0256,1.656735,0.1275,0.8925,34.3413,0.1155,0.0
2784,4/26/2012 0:00,37.52525,18.818240000000003,52.718399999999995,36.974427,2.8455,0.5655,0.0,0.0,0.0
2785,4/26/2012 1:00,2.18325,33.30144,3.0671999999999997,65.431287,5.0355,0.35850000000000004,0.0,0.0,0.0
2786,4/26/2012 2:00,2.1935,51.445119999999996,3.0816,101.08032599999999,7.778999999999999,0.261,1.4930999999999999,0.0,0.0
2787,4/26/2012 3:00,1.99875,62.436479999999996,2.808,122.67635399999999,9.440999999999999,0.189,1.3651199999999997,0.0,0.0
2788,4/26/2012 4:00,2.9724999999999997,69.66816,4.176,136.88529300000002,10.534500000000001,0.2955,0.0,0.43499999999999994,0.0
2789,4/26/2012 5:00,5.996250000000001,76.44351999999999,8.424000000000001,150.197646,11.559,0.396,0.0,0.0,0.32275148115
2790,4/26/2012 6:00,6.0680000000000005,80.44127999999999,8.5248,158.052519,12.163499999999999,0.35100000000000003,0.0,0.207,0.48365583
2791,4/26/2012 7:00,6.1602500000000004,81.72096,8.6544,160.566858,12.357,0.2595,0.0,0.186,0.22036567035000001
2792,4/26/2012 8:00,6.928999999999999,80.41152,9.734399999999999,157.994046,12.158999999999999,0.46799999999999997,6.93936,0.2205,0.06999093255
2793,4/26/2012 9:00,8.015500000000001,76.19552,11.260800000000001,149.710371,11.5215,0.423,7.920539999999999,0.2265,0.1674924006
2794,4/26/2012 10:00,8.271749999999999,20.673280000000002,11.6208,40.619244,3.126,0.4545,20.59056,0.2985,0.0730310574
2795,4/26/2012 11:00,8.68175,24.62144,12.1968,48.376662,3.723,0.0,3.5692199999999996,0.4455,0.07968302055
2796,4/26/2012 12:00,1.6604999999999999,3.1347200000000006,2.3327999999999998,6.159156,0.47400000000000003,0.0,2.0619,0.0,0.08163353520000001
2797,4/26/2012 13:00,2.92125,3.50176,4.104,6.880323,0.5295,0.0,32.37894,0.0,0.0784633836
2798,4/26/2012 14:00,3.35175,2.59904,4.7088,5.106642,0.393,0.0,29.492279999999997,0.0,0.23350126485
2799,4/26/2012 15:00,1.312,0.0,1.8432000000000002,0.0,0.0,0.0,19.538279999999997,0.2415,0.1973653626
2800,4/26/2012 16:00,1.28125,3.1248,1.8,6.139665,0.47250000000000003,0.0,16.9929,0.1635,0.15133625744999998
2801,4/26/2012 17:00,1.3735,0.81344,1.9296,1.598262,0.12300000000000001,0.0,7.3517399999999995,0.6120000000000001,0.0991158609
2802,4/26/2012 18:00,0.0,1.20032,0.0,2.358411,0.1815,0.0,5.986619999999999,0.255,0.0463025997
2803,4/26/2012 19:00,0.0,2.1824000000000003,0.0,4.28802,0.33,0.1425,12.91176,0.0,0.0012592586999999999
2804,4/26/2012 20:00,0.0,1.0416,0.0,2.046555,0.1575,0.1875,12.5136,0.423,0.0
2805,4/26/2012 21:00,0.0,12.846400000000001,0.0,25.240845,1.9425000000000001,0.19949999999999998,23.57676,0.0,0.0
2806,4/26/2012 22:00,3.116,17.30048,4.3776,33.992304,2.616,0.19949999999999998,25.53912,2.793,0.0
2807,4/26/2012 23:00,4.06925,20.742720000000002,5.7168,40.755681,3.1365000000000003,0.2205,13.25304,3.2190000000000003,0.0
2808,4/27/2012 0:00,0.0,3.0752,0.0,6.04221,0.46499999999999997,0.23850000000000002,34.55459999999999,3.2235,0.0
2809,4/27/2012 1:00,0.0,1.9939200000000001,0.0,3.917691,0.3015,0.273,37.19952,2.9625000000000004,0.0
2810,4/27/2012 2:00,0.0,1.3788799999999999,0.0,2.709249,0.2085,0.303,34.66835999999999,2.649,0.0
2811,4/27/2012 3:00,0.0,21.7744,0.0,42.782745,3.2925,0.41100000000000003,33.16103999999999,0.7545,0.0
2812,4/27/2012 4:00,0.0,27.16096,0.0,53.366358,4.107,10.641,7.30908,1.1744999999999999,0.0
2813,4/27/2012 5:00,0.0,28.787840000000003,0.0,56.562882,4.353,7.032,8.190719999999999,1.245,0.018292984499999998
2814,4/27/2012 6:00,0.0,30.136960000000002,0.0,59.213658,4.557,1.833,18.571319999999996,1.218,0.053995193700000006
2815,4/27/2012 7:00,0.0,28.29184,0.0,55.588332,4.2780000000000005,0.3285,8.930159999999999,0.0,0.04622286165
2816,4/27/2012 8:00,1.97825,31.595200000000002,2.7792000000000003,62.078835,4.7775,1.4640000000000002,22.83732,0.0,0.021445180050000002
2817,4/27/2012 9:00,17.548,33.06336,24.6528,64.963503,4.999499999999999,0.5295,28.66752,0.0,0.1346246076
2818,4/27/2012 10:00,19.28025,38.777280000000005,27.086399999999998,76.190319,5.8635,0.393,6.541199999999999,0.0,0.1576507107
2819,4/27/2012 11:00,17.0355,37.8448,23.932799999999997,74.358165,5.7225,0.294,0.0,0.0,0.038009946450000005
2820,4/27/2012 12:00,0.9225000000000001,2.10304,1.2960000000000003,4.132092,0.318,9.3165,2.57382,0.0,0.0387610881
2821,4/27/2012 13:00,0.0,2.02368,0.0,3.9761640000000003,0.30600000000000005,10.330499999999999,28.05606,0.0,0.0472630683
2822,4/27/2012 14:00,1.15825,2.2816,1.6272,4.48293,0.345,10.755,28.255139999999997,0.25349999999999995,0.05325234495
2823,4/27/2012 15:00,0.0,3.01568,0.0,5.925264,0.456,11.04,25.68132,0.20999999999999996,0.12678359085000002
2824,4/27/2012 16:00,0.0,3.70016,0.0,7.270143,0.5595,11.4315,11.475539999999999,0.204,0.09489638759999999
2825,4/27/2012 17:00,0.0,3.9184,0.0,7.698945,0.5925,11.498999999999999,12.997079999999999,0.0,0.0589826538
2826,4/27/2012 18:00,0.9942500000000001,3.6406400000000003,1.3968,7.1531970000000005,0.5505000000000001,11.031,14.703479999999999,0.33899999999999997,0.021193615800000003
2827,4/27/2012 19:00,1.4555,3.10496,2.0448,6.100683,0.46950000000000003,10.5285,16.76538,0.447,0.02421781425
2828,4/27/2012 20:00,1.99875,1.7856000000000003,2.808,3.5083800000000003,0.27,0.24,69.59268,0.0,0.0
2829,4/27/2012 21:00,2.40875,1.6566400000000001,3.384,3.254997,0.2505,0.204,72.89171999999999,0.0,0.0
2830,4/27/2012 22:00,2.0295,10.07872,2.8512000000000004,19.802856,1.524,0.2805,69.72066,0.0,0.0
2831,4/27/2012 23:00,1.09675,1.2499200000000001,1.5408,2.455866,0.189,0.378,9.243,0.0,0.0
2832,4/28/2012 0:00,0.8097500000000001,1.2102400000000002,1.1376000000000002,2.377902,0.18300000000000002,0.4605,11.19114,0.0,0.0
2833,4/28/2012 1:00,0.0,1.2499200000000001,0.0,2.455866,0.189,0.6195,0.0,0.0,0.0
2834,4/28/2012 2:00,0.0,1.30944,0.0,2.572812,0.198,0.0,9.72648,0.0,0.0
2835,4/28/2012 3:00,0.0,1.36896,0.0,2.689758,0.207,1.1055,10.309499999999998,0.0,0.0
2836,4/28/2012 4:00,0.0,1.3788799999999999,0.0,2.709249,0.2085,0.9075,55.99835999999999,0.2265,0.0
2837,4/28/2012 5:00,0.0,1.23008,0.0,2.416884,0.186,0.669,10.792979999999998,0.195,0.020319965400000004
2838,4/28/2012 6:00,22.0375,0.8630399999999999,30.96,1.695717,0.1305,0.5369999999999999,11.816819999999998,0.1665,0.02006665395
2839,4/28/2012 7:00,23.35975,0.80352,32.8176,1.578771,0.1215,0.48750000000000004,14.191559999999999,0.0,0.047477595899999996
2840,4/28/2012 8:00,23.07275,1.0912000000000002,32.4144,2.14401,0.165,0.438,60.15059999999999,0.0,0.1693575387
2841,4/28/2012 9:00,22.078500000000002,1.67648,31.0176,3.2939789999999998,0.25349999999999995,0.4065,19.14012,0.0,0.21331260405000002
2842,4/28/2012 10:00,0.0,2.4304,0.0,4.775295,0.3675,0.30600000000000005,19.4103,0.0,0.2460549693
2843,4/28/2012 11:00,0.0,4.20608,0.0,8.264184,0.636,0.192,18.6993,0.0,0.26584971105
2844,4/28/2012 12:00,0.7687499999999999,0.0,1.08,0.0,0.0,0.207,14.12046,0.0,0.2695738941
2845,4/28/2012 13:00,0.78925,0.0,1.1088,0.0,0.0,0.2475,10.33794,0.0,0.25852258740000006
2846,4/28/2012 14:00,0.779,0.0,1.0944,0.0,0.0,0.321,9.228779999999999,0.0,0.15650637240000004
2847,4/28/2012 15:00,0.0,6.904319999999999,0.0,13.565736,1.044,0.453,9.15768,0.0,0.19944794625
2848,4/28/2012 16:00,0.0,6.894400000000001,0.0,13.546245,1.0425,0.6495,8.51778,0.0,0.09209845155
2849,4/28/2012 17:00,0.9327500000000001,9.473600000000001,1.3104,18.613905,1.4325,0.783,8.560439999999998,0.0,0.0692536362
2850,4/28/2012 18:00,1.312,13.60032,1.8432000000000002,26.722161,2.0564999999999998,1.2075,8.09118,0.0,0.04829845545000001
2851,4/28/2012 19:00,1.6195000000000002,16.744960000000003,2.2752000000000003,32.900808,2.532,1.1280000000000001,7.59348,0.0,0.024161361000000003
2852,4/28/2012 20:00,1.89625,1.55744,2.6639999999999997,3.060087,0.2355,0.8355,4.280219999999999,0.0,0.0
2853,4/28/2012 21:00,2.091,1.7955200000000002,2.9376,3.527871,0.2715,0.5625,6.07194,0.0,0.0
2854,4/28/2012 22:00,2.419,2.0832,3.3984,4.09311,0.315,0.35100000000000003,6.76872,0.0,0.0
2855,4/28/2012 23:00,1.0762500000000002,2.1526400000000003,1.512,4.229547,0.3255,0.309,8.219159999999999,0.0,0.0
2856,4/29/2012 0:00,0.0,1.8550400000000002,0.0,3.644817,0.2805,0.3465,12.442499999999999,0.0,0.0
2857,4/29/2012 1:00,0.0,4.44416,0.0,8.731968,0.672,0.2505,9.7407,0.2205,0.0
2858,4/29/2012 2:00,0.0,4.2358400000000005,0.0,8.322657,0.6405000000000001,0.1725,9.8829,0.2835,0.0
2859,4/29/2012 3:00,3.7925000000000004,4.04736,5.328000000000001,7.9523280000000005,0.6120000000000001,0.11850000000000001,9.712259999999999,0.294,0.0
2860,4/29/2012 4:00,3.0749999999999997,0.0,4.32,0.0,0.0,12.0285,8.34714,0.2715,0.0
2861,4/29/2012 5:00,2.3985,0.0,3.3696,0.0,0.0,12.033000000000001,15.3576,0.243,0.054089183400000004
2862,4/29/2012 6:00,2.63425,0.0,3.7008,0.0,0.0,12.156,18.542879999999997,0.204,0.0647484621
2863,4/29/2012 7:00,0.0,0.0,0.0,0.0,0.0,11.9325,19.46718,0.207,0.0476108535
2864,4/29/2012 8:00,0.0,0.0,0.0,0.0,0.0,11.600999999999999,16.864919999999998,0.441,0.10328145975000001
2865,4/29/2012 9:00,0.943,0.0,1.3248,0.0,0.0,0.8445,13.793399999999997,0.3525,0.15892826355
2866,4/29/2012 10:00,4.4075,0.0,6.191999999999999,0.0,0.0,1.0905,12.07278,0.1815,0.19068344190000003
2867,4/29/2012 11:00,4.797,0.0,6.7392,0.0,0.0,0.555,9.698039999999999,0.12300000000000001,0.2328012645
2868,4/29/2012 12:00,73.923,0.0,103.85279999999999,0.0,0.0,0.549,4.777919999999999,0.5865,0.13281196950000002
2869,4/29/2012 13:00,2.214,0.0,3.1104000000000003,0.0,0.0,0.783,3.2421599999999997,0.8865,0.14540864940000003
2870,4/29/2012 14:00,2.26525,0.0,3.1824000000000003,0.0,0.0,0.3405,10.56546,1.059,0.08234830695
2871,4/29/2012 15:00,2.30625,0.0,3.2399999999999998,0.0,0.0,0.2565,10.807199999999998,1.029,0.10006316145000001
2872,4/29/2012 16:00,2.419,0.0,3.3984,0.0,0.0,0.216,11.19114,0.8699999999999999,0.042570540600000005
2873,4/29/2012 17:00,2.34725,0.0,3.2976,0.0,0.0,0.114,11.233799999999999,0.9929999999999999,0.1037545383
2874,4/29/2012 18:00,2.2550000000000003,0.0,3.168,0.0,0.0,0.0,9.5274,1.3545,0.1999943694
2875,4/29/2012 19:00,2.16275,0.0,3.0384,0.0,0.0,0.0,6.95358,1.812,0.06161119755
2876,4/29/2012 20:00,1.804,2.20224,2.5344,4.327002,0.333,0.0,7.109999999999999,1.8405,0.0
2877,4/29/2012 21:00,0.9839999999999999,0.0,1.3823999999999999,0.0,0.0,9.8205,12.542039999999998,1.3905,0.0
2878,4/29/2012 22:00,46.934749999999994,0.0,65.9376,0.0,0.0,0.144,16.495199999999997,1.0410000000000001,0.0
2879,4/29/2012 23:00,37.228,0.0,52.3008,0.0,0.0,7.6215,2.14722,0.2235,0.0
