,date,Wind_1,Wind_2,Wind_3,Wind_4,Wind_5,Wind_6,Wind_7,Wind_8,Solar_1
3600,5/30/2012 0:00,66.18425,0.744,92.9808,1.461825,0.11249999999999999,1.5915,2.2325399999999997,0.17850000000000002,0.0
3601,5/30/2012 1:00,64.247,0.7936000000000001,90.2592,1.55928,0.12,1.9665,2.50272,0.1215,0.0
3602,5/30/2012 2:00,67.035,0.75392,94.176,1.481316,0.114,2.8185000000000002,3.38436,0.1425,0.0
3603,5/30/2012 3:00,69.905,0.72416,98.20800000000001,1.422843,0.1095,4.5089999999999995,16.7796,0.162,0.0
3604,5/30/2012 4:00,69.95625,70.93791999999999,98.28,139.38014099999998,10.7265,7.4565,0.0,0.17850000000000002,0.22512386400000003
3605,5/30/2012 5:00,65.01575,72.53504,91.33919999999999,142.518192,10.968,10.147499999999999,3.4981199999999997,0.20550000000000002,0.15943125345000003
3606,5/30/2012 6:00,54.888749999999995,74.31072,77.112,146.007081,11.2365,11.514,8.37558,0.2115,0.09937677435
3607,5/30/2012 7:00,1.0455,3.90848,1.4688,7.679454,0.591,2.439,8.745299999999999,0.243,0.15062009340000002
3608,5/30/2012 8:00,1.8450000000000002,4.65248,2.5920000000000005,9.141278999999999,0.7035,2.1479999999999997,7.0957799999999995,0.29700000000000004,0.19810676444999997
3609,5/30/2012 9:00,1.476,5.19808,2.0736,10.213284,0.786,0.0,3.38436,0.249,0.238521066
3610,5/30/2012 10:00,0.0,0.0,0.0,0.0,0.0,8.7855,3.5549999999999997,0.3645,0.26899478444999997
3611,5/30/2012 11:00,0.0,0.0,0.0,0.0,0.0,1.2465,3.7825199999999994,0.4485,0.28596869384999996
3612,5/30/2012 12:00,0.0,0.0,0.0,0.0,0.0,1.032,2.3178599999999996,0.4395,0.2890779276
3613,5/30/2012 13:00,0.0,0.0,0.0,0.0,0.0,9.956999999999999,1.7490599999999998,0.46649999999999997,0.38099013960000006
3614,5/30/2012 14:00,0.0,0.0,0.0,0.0,0.0,11.177999999999999,1.422,0.0,0.6021561798
3615,5/30/2012 15:00,0.0,0.77376,0.0,1.520298,0.11699999999999999,12.225,0.0,0.0,0.6739100308500001
3616,5/30/2012 16:00,0.0,0.97216,0.0,1.910118,0.147,13.0335,0.0,0.0,0.63996490635
3617,5/30/2012 17:00,0.0,1.08128,0.0,2.124519,0.1635,0.0,1.12338,0.0,0.6226907841
3618,5/30/2012 18:00,1.77325,0.9027200000000001,2.4912,1.773681,0.1365,0.0,1.1944799999999998,2.8305000000000002,0.5334545538
3619,5/30/2012 19:00,1.394,0.83328,1.9584,1.637244,0.126,0.0,0.0,3.432,0.40048874565
3620,5/30/2012 20:00,1.1685,0.82336,1.6416,1.617753,0.1245,0.0,0.0,3.6344999999999996,0.11539444034999999
3621,5/30/2012 21:00,0.0,0.0,0.0,0.0,0.0,0.111,0.0,0.51,0.0
3622,5/30/2012 22:00,0.0,0.0,0.0,0.0,0.0,0.159,0.0,0.45899999999999996,0.0
3623,5/30/2012 23:00,0.0,0.0,0.0,0.0,0.0,0.255,3.01464,0.4065,0.0
3624,5/31/2012 0:00,0.0,0.0,0.0,0.0,0.0,0.453,16.9929,0.0,0.0
3625,5/31/2012 1:00,2.009,4.29536,2.8224,8.439603,0.6495,0.24449999999999997,1.79172,0.24600000000000002,0.0
3626,5/31/2012 2:00,0.0,0.0,0.0,0.0,0.0,0.1965,2.1187799999999997,2.865,0.0
3627,5/31/2012 3:00,14.309000000000001,0.6943999999999999,20.1024,1.3643699999999999,0.10499999999999998,0.15300000000000002,4.32288,2.397,0.0
3628,5/31/2012 4:00,32.56425,1.4086400000000001,45.748799999999996,2.767722,0.21300000000000002,0.1155,8.1054,1.863,0.30654230145
3629,5/31/2012 5:00,44.116,1.4384000000000001,61.9776,2.8261950000000002,0.2175,0.0,11.347559999999998,2.151,0.32046820890000005
3630,5/31/2012 6:00,0.0,1.8848,0.0,3.70329,0.285,0.0,12.61314,3.024,0.37295136585000005
3631,5/31/2012 7:00,0.0,3.09504,0.0,6.081192,0.46799999999999997,1.608,12.214979999999999,3.2849999999999997,0.23249642955000002
3632,5/31/2012 8:00,4.1205,4.305280000000001,5.7888,8.459094,0.651,1.1865,11.560859999999998,3.7664999999999997,0.1701636132
3633,5/31/2012 9:00,0.0,5.654400000000001,0.0,11.10987,0.855,1.962,11.0916,0.483,0.18010942845
3634,5/31/2012 10:00,26.670499999999997,6.596800000000001,37.4688,12.961515,0.9975,2.058,10.70766,0.2715,0.32592567525000005
3635,5/31/2012 11:00,20.202749999999998,6.83488,28.3824,13.429299,1.0335,0.3135,9.79758,0.2955,0.30738936585
3636,5/31/2012 12:00,17.056,7.182080000000001,23.961599999999997,14.111484,1.086,0.192,10.12464,0.23399999999999999,0.42109948335
3637,5/31/2012 13:00,14.7805,6.96384,20.7648,13.682682,1.053,0.111,10.537019999999998,0.1545,0.29919128715000004
3638,5/31/2012 14:00,12.51525,9.29504,17.5824,18.263067,1.4055,0.0,10.97784,0.1155,0.32688373935
3639,5/31/2012 15:00,10.373,0.0,14.572799999999999,0.0,0.0,0.0,10.096199999999998,0.0,0.46993993410000007
3640,5/31/2012 16:00,8.4255,11.904,11.8368,23.3892,1.7999999999999998,0.3615,6.242579999999999,0.0,0.46305801675
3641,5/31/2012 17:00,6.570250000000001,13.55072,9.230400000000001,26.624706,2.049,0.47250000000000003,16.7796,0.0,0.22326881745
3642,5/31/2012 18:00,14.134749999999999,13.72928,19.857599999999998,26.975544,2.076,0.387,16.15392,2.5845000000000002,0.26640451109999996
3643,5/31/2012 19:00,11.30575,0.0,15.883199999999999,0.0,0.0,0.7214999999999999,17.71812,2.3385000000000002,0.30847320735
3644,5/31/2012 20:00,0.0,0.0,0.0,0.0,0.0,1.0125000000000002,20.946059999999996,2.0955,0.06970361685
3645,5/31/2012 21:00,1.4144999999999999,0.0,1.9872,0.0,0.0,1.3095,20.81808,1.485,0.0
3646,5/31/2012 22:00,1.394,0.85312,1.9584,1.676226,0.129,1.8105,14.603939999999998,0.0,0.0
3647,5/31/2012 23:00,1.23,0.0,1.728,0.0,0.0,0.495,4.18068,0.15300000000000002,0.0
3648,6/1/2012 0:00,1.17875,0.0,1.656,0.0,0.0,0.47250000000000003,5.07654,0.23249999999999998,0.0
3649,6/1/2012 1:00,1.3325,0.0,1.872,0.0,0.0,0.0,3.7682999999999995,0.34950000000000003,0.0
3650,6/1/2012 2:00,1.5887499999999999,0.82336,2.232,1.617753,0.1245,0.0,2.24676,0.0,0.0
3651,6/1/2012 3:00,2.0295,1.35904,2.8512000000000004,2.670267,0.20550000000000002,0.0,35.222939999999994,0.0,0.0
3652,6/1/2012 4:00,2.65475,0.9622400000000001,3.7296,1.890627,0.14550000000000002,0.0,32.819759999999995,0.0,0.09434454540000001
3653,6/1/2012 5:00,3.0955,1.54752,4.3488,3.040596,0.23399999999999999,0.0,28.69596,1.875,0.22386228795
3654,6/1/2012 6:00,3.6182499999999997,1.15072,5.0832,2.2609559999999997,0.174,0.0,25.96572,1.4475,0.13560348165
3655,6/1/2012 7:00,0.0,0.9820800000000001,0.0,1.9296090000000001,0.14850000000000002,0.114,23.349239999999998,2.907,0.08968859865
3656,6/1/2012 8:00,9.3685,0.97216,13.1616,1.910118,0.147,0.174,19.538279999999997,1.2555,0.09383376345000001
3657,6/1/2012 9:00,9.706750000000001,0.9920000000000001,13.636800000000001,1.9491,0.15,0.27899999999999997,17.5617,1.0050000000000001,0.08048186789999999
3658,6/1/2012 10:00,0.0,0.75392,0.0,1.481316,0.114,0.3615,22.154759999999996,1.3635,0.09138433709999999
3659,6/1/2012 11:00,0.0,0.0,0.0,0.0,0.0,0.0,28.624859999999998,0.216,0.1380385797
3660,6/1/2012 12:00,0.0,0.0,0.0,0.0,0.0,0.0,35.478899999999996,0.0,0.2451878877
3661,6/1/2012 13:00,0.0,2.35104,0.0,4.619367,0.3555,0.0,0.0,0.0,0.1133000442
3662,6/1/2012 14:00,12.74075,2.21216,17.8992,4.346493,0.3345,5.7285,0.0,0.0,0.12182177385000001
3663,6/1/2012 15:00,11.889999999999999,1.05152,16.704,2.066046,0.159,6.0135,0.0,1.7055,0.21971369385
3664,6/1/2012 16:00,10.54725,3.8588799999999996,14.8176,7.581999,0.5834999999999999,5.52,0.0,1.362,0.19375736835
3665,6/1/2012 17:00,8.76375,2.9065600000000003,12.312000000000001,5.710863,0.4395,5.361,18.59976,0.9615,0.17582222490000002
3666,6/1/2012 18:00,9.112250000000001,1.9641600000000001,12.8016,3.8592180000000003,0.29700000000000004,0.23249999999999998,23.221259999999997,0.6915,0.18280725644999998
3667,6/1/2012 19:00,8.12825,2.50976,11.4192,4.931223,0.3795,0.2175,0.0,0.5295,0.10561244610000001
3668,6/1/2012 20:00,0.9532499999999999,1.7360000000000002,1.3392,3.410925,0.2625,0.198,0.0,0.0,0.034329456
3669,6/1/2012 21:00,1.46575,1.4979200000000001,2.0592,2.9431410000000002,0.2265,0.1905,25.482239999999997,0.1155,0.0
3670,6/1/2012 22:00,1.107,6.656320000000001,1.5552000000000001,13.078461,1.0065000000000002,0.201,23.022179999999995,0.156,0.0
3671,6/1/2012 23:00,1.19925,13.48128,1.6848,26.488269,2.0385,0.20550000000000002,0.0,0.138,0.0
3672,6/2/2012 0:00,1.0455,26.278080000000003,1.4688,51.631659000000006,3.9735000000000005,1.095,1.39356,0.627,0.0
3673,6/2/2012 1:00,0.74825,39.580799999999996,1.0512,77.76908999999999,5.984999999999999,3.087,1.0238399999999999,0.0,0.0
3674,6/2/2012 2:00,0.85075,44.50112,1.1952,87.436626,6.729,3.9450000000000003,4.43664,0.2715,0.0
3675,6/2/2012 3:00,1.13775,42.05088,1.5984,82.622349,6.3585,0.0,6.598079999999999,0.288,0.0
3676,6/2/2012 4:00,1.4349999999999998,41.80288,2.016,82.135074,6.321,0.0,8.07696,0.3315,0.36986750430000004
3677,6/2/2012 5:00,1.75275,37.080960000000005,2.4624,72.857358,5.607,0.0,4.4650799999999995,0.396,0.51434233095
3678,6/2/2012 6:00,2.28575,31.218239999999998,3.2112,61.338176999999995,4.7204999999999995,0.0,7.76412,0.47700000000000004,0.55492914225
3679,6/2/2012 7:00,2.7777499999999997,26.34752,3.9024,51.768096,3.984,0.0,8.91594,0.528,0.47615178660000007
3680,6/2/2012 8:00,2.67525,23.827840000000002,3.7584000000000004,46.817382,3.6029999999999998,0.0,4.0527,0.5745,0.41028070650000004
3681,6/2/2012 9:00,2.5215,24.3536,3.5424,47.850404999999995,3.6825,0.0,7.365959999999999,0.7065,0.4463285064
3682,6/2/2012 10:00,2.3575,27.25024,3.312,53.541776999999996,4.1205,0.0,6.882479999999999,0.9794999999999999,0.52577989065
3683,6/2/2012 11:00,2.1115,33.53952,2.9664,65.899071,5.0715,0.0,3.8394,1.4969999999999999,0.5102759634
3684,6/2/2012 12:00,1.9167500000000002,37.40832,2.6928,73.50056099999999,5.656499999999999,0.0,3.02886,2.0175,0.4912522839
3685,6/2/2012 13:00,2.32675,10.68384,3.2688,20.991807,1.6155000000000002,0.0,2.4885,2.436,0.52499838825
3686,6/2/2012 14:00,3.9975,6.3289599999999995,5.616,12.435258,0.957,0.14550000000000002,7.493939999999999,2.748,0.4690012824
3687,6/2/2012 15:00,1.4144999999999999,4.39456,1.9872,8.634513,0.6645,0.207,2.47428,0.585,0.39462772755000003
3688,6/2/2012 16:00,1.24025,4.305280000000001,1.7424,8.459094,0.651,0.375,1.08072,1.2510000000000001,0.28729469055
3689,6/2/2012 17:00,1.11725,11.408000000000001,1.5695999999999999,22.41465,1.725,0.5805,8.560439999999998,1.2645,0.40551501689999997
3690,6/2/2012 18:00,1.03525,3.224,1.4544,6.334575,0.48750000000000004,0.9375,1.22292,1.056,0.37717882965
3691,6/2/2012 19:00,1.0865,2.7081600000000003,1.5264,5.321043,0.40950000000000003,1.4295,0.0,0.8564999999999999,0.37084639410000003
3692,6/2/2012 20:00,1.1685,2.45024,1.6416,4.814277,0.3705,2.0700000000000003,2.53116,0.705,0.13071596685
3693,6/2/2012 21:00,1.15825,2.6486400000000003,1.6272,5.204097,0.4005,0.35100000000000003,31.255559999999996,0.5625,0.0
3694,6/2/2012 22:00,1.13775,17.44928,1.5984,34.284669,2.6385,0.414,24.614819999999998,0.4425,0.0
3695,6/2/2012 23:00,1.11725,13.144000000000002,1.5695999999999999,25.825575,1.9875,0.597,1.5642,0.354,0.0
3696,6/3/2012 0:00,1.0045,10.5648,1.4112,20.757915,1.5975,0.912,1.5642,0.294,0.0
3697,6/3/2012 1:00,0.0,10.07872,0.0,19.802856,1.524,1.2329999999999999,2.43162,0.261,0.0
3698,6/3/2012 2:00,0.0,10.783040000000002,0.0,21.186717,1.6305,3.033,4.93434,0.243,0.0
3699,6/3/2012 3:00,0.0,11.308800000000002,0.0,22.21974,1.71,3.327,8.418239999999999,0.252,0.0
3700,6/3/2012 4:00,0.0,11.72544,0.0,23.038362,1.773,0.723,12.89754,0.0,0.4249947114
3701,6/3/2012 5:00,0.0,12.13216,0.0,23.837493000000002,1.8345,0.9944999999999999,0.0,0.0,0.5673395763000001
3702,6/3/2012 6:00,6.6625000000000005,10.832640000000001,9.36,21.284172,1.6380000000000001,6.7305,0.0,0.0,0.6117432352500001
3703,6/3/2012 7:00,8.41525,9.11648,11.822400000000002,17.912229,1.3784999999999998,0.27899999999999997,0.0,0.9690000000000001,0.5168578065
3704,6/3/2012 8:00,9.6965,5.66432,13.6224,11.129361,0.8564999999999999,0.0,1.422,0.729,0.38701753125
3705,6/3/2012 9:00,8.08725,6.73568,11.3616,13.234389,1.0185,0.0,2.21832,0.5790000000000001,0.4653403587
3706,6/3/2012 10:00,7.062250000000001,7.11264,9.9216,13.975047,1.0755,0.0,7.109999999999999,0.48,0.53994317685
3707,6/3/2012 11:00,3.92575,8.96768,5.5152,17.619864,1.3559999999999999,0.1545,7.1811,0.336,0.5338699663500001
3708,6/3/2012 12:00,4.82775,12.62816,6.782400000000001,24.812043,1.9095,0.2235,6.9677999999999995,0.0,0.5076415596
3709,6/3/2012 13:00,5.944999999999999,16.30848,8.352,32.043203999999996,2.4659999999999997,0.318,6.92514,0.35700000000000004,0.37256007705000005
3710,6/3/2012 14:00,6.61125,0.0,9.288,0.0,0.0,0.333,6.8967,0.0,0.3274472229
3711,6/3/2012 15:00,6.314,0.0,8.8704,0.0,0.0,0.7545,14.205779999999999,0.0,0.34791662850000005
3712,6/3/2012 16:00,1.28125,70.06496,1.8,137.66493300000002,10.5945,1.0350000000000001,14.56128,0.0,0.2633427426
3713,6/3/2012 17:00,11.2545,3.5612800000000004,15.8112,6.997269,0.5385,1.185,11.19114,0.0,0.21285948075
3714,6/3/2012 18:00,11.2545,2.80736,15.8112,5.515953,0.4245,1.254,7.76412,0.0,0.15178295895
3715,6/3/2012 19:00,9.58375,2.21216,13.464,4.346493,0.3345,1.4235,4.42242,0.0,0.07511161455
3716,6/3/2012 20:00,0.91225,1.8054400000000002,1.2816,3.547362,0.273,8.5785,7.749899999999999,0.0,0.006427909950000001
3717,6/3/2012 21:00,1.7937500000000002,1.69632,2.5200000000000005,3.332961,0.2565,0.171,5.73066,0.0,0.0
3718,6/3/2012 22:00,2.05,1.8451199999999999,2.88,3.625326,0.27899999999999997,6.439500000000001,4.13802,0.0,0.0
3719,6/3/2012 23:00,3.65925,1.7459200000000001,5.1408000000000005,3.430416,0.264,0.423,2.58804,0.0,0.0
3720,6/4/2012 0:00,2.7982500000000003,1.12096,3.9312,2.202483,0.16949999999999998,0.453,1.53576,0.0,0.0
3721,6/4/2012 1:00,2.0807499999999997,0.744,2.9231999999999996,1.461825,0.11249999999999999,9.795,1.6495199999999997,0.0,0.0
3722,6/4/2012 2:00,1.4144999999999999,0.0,1.9872,0.0,0.0,9.689999999999998,2.26098,0.0,0.0
3723,6/4/2012 3:00,0.9942500000000001,0.83328,1.3968,1.637244,0.126,9.633,3.0572999999999997,0.0,0.0
3724,6/4/2012 4:00,0.78925,1.44832,1.1088,2.845686,0.219,9.873,3.7825199999999994,0.0,0.15646047270000002
3725,6/4/2012 5:00,0.0,2.35104,0.0,4.619367,0.3555,11.242500000000001,5.645339999999999,0.0,0.34583136735000003
3726,6/4/2012 6:00,1.6604999999999999,30.6528,2.3327999999999998,60.22719,4.635,11.7885,7.33752,0.0,0.5111752191000001
3727,6/4/2012 7:00,1.6604999999999999,28.847360000000002,2.3327999999999998,56.679828,4.362,4.776,12.84066,0.114,0.4518255903000001
3728,6/4/2012 8:00,1.886,27.518079999999998,2.6496,54.068034,4.161,2.0204999999999997,4.635719999999999,0.15,0.34984851930000005
3729,6/4/2012 9:00,2.419,26.92288,3.3984,52.898573999999996,4.071,1.4535,10.28106,0.159,0.459933159
3730,6/4/2012 10:00,2.85975,93.11904,4.0176,182.962017,14.080499999999999,1.1384999999999998,12.371399999999998,0.10499999999999998,0.5220831
3731,6/4/2012 11:00,2.75725,91.75008000000001,3.8736,180.27225900000002,13.8735,0.49950000000000006,110.71691999999999,0.0,0.5479234246500001
3732,6/4/2012 12:00,2.46,2.05344,3.456,4.034637,0.3105,1.293,102.91014,0.0,0.5249613558
3733,6/4/2012 13:00,2.5010000000000003,89.76608,3.5136000000000003,176.37405900000002,13.573500000000001,1.4115,88.40574,2.241,0.5825098251
3734,6/4/2012 14:00,2.665,39.06496,3.744,76.755558,5.907,1.4715,2.74446,0.1275,0.58604780115
3735,6/4/2012 15:00,2.9315,38.71776,4.1184,76.07337299999999,5.8545,3.6525,1.9623599999999999,0.1305,0.5723144111999999
3736,6/4/2012 16:00,3.08525,31.922559999999997,4.3344,62.72203799999999,4.827,4.564500000000001,1.3224599999999997,0.126,0.49209790664999997
3737,6/4/2012 17:00,2.9827500000000002,23.92704,4.1904,47.012292,3.618,5.5905,88.43418,0.0,0.43792428435
3738,6/4/2012 18:00,2.53175,4.17632,3.5568,8.205710999999999,0.6315,2.124,90.26856,0.20550000000000002,0.44735397839999996
3739,6/4/2012 19:00,3.6182499999999997,4.40448,5.0832,8.654004,0.666,2.496,94.79051999999999,1.4969999999999999,0.3694807557
3740,6/4/2012 20:00,5.46325,0.8630399999999999,7.6752,1.695717,0.1305,10.8315,3.2563799999999996,1.6935,0.1350809985
3741,6/4/2012 21:00,6.877750000000001,0.8729600000000001,9.662400000000002,1.715208,0.132,2.8695,4.024259999999999,0.0,0.0
3742,6/4/2012 22:00,7.8309999999999995,0.9225599999999999,11.0016,1.812663,0.13949999999999999,11.339999999999998,2.1756599999999997,0.24449999999999997,0.0
3743,6/4/2012 23:00,5.70925,0.0,8.0208,0.0,0.0,3.2925,2.6164799999999997,0.0,0.0
3744,6/5/2012 0:00,5.2275,12.55872,7.343999999999999,24.675606,1.8989999999999998,2.418,2.4885,0.921,0.0
3745,6/5/2012 1:00,10.23975,19.80032,14.3856,38.904036,2.9939999999999998,1.611,1.12338,1.641,0.0
3746,6/5/2012 2:00,11.9515,34.19424,16.790399999999998,67.185477,5.1705000000000005,1.2555,0.0,0.1275,0.0
3747,6/5/2012 3:00,13.17125,0.7836800000000002,18.504,1.539789,0.11850000000000001,0.9929999999999999,0.0,2.346,0.0
3748,6/5/2012 4:00,12.6485,1.69632,17.7696,3.332961,0.2565,0.909,0.0,0.22949999999999998,0.11054428035
3749,6/5/2012 5:00,1.67075,26.16896,2.3472,51.417258,3.957,0.9435,0.0,0.1815,0.16855190625000002
3750,6/5/2012 6:00,0.0,26.55584,0.0,52.177406999999995,4.0155,0.2475,0.0,0.189,0.38047665810000003
3751,6/5/2012 7:00,2.34725,28.023999999999997,3.2976,55.06207499999999,4.2375,0.27,0.0,0.1245,0.40342680945
3752,6/5/2012 8:00,2.7675000000000005,30.43456,3.8880000000000003,59.798388,4.602,0.22499999999999998,0.0,0.177,0.37323422535000006
3753,6/5/2012 9:00,0.0,32.319359999999996,0.0,63.50167799999999,4.887,0.29700000000000004,0.0,0.23700000000000002,0.4238904012
3754,6/5/2012 10:00,1.394,34.1248,1.9584,67.04903999999999,5.159999999999999,0.543,0.0,0.2925,0.5408953704
3755,6/5/2012 11:00,1.9885000000000002,32.22016,2.7936,63.30676799999999,4.872,0.9135000000000001,0.0,0.11850000000000001,0.58870808325
3756,6/5/2012 12:00,2.67525,31.734080000000002,3.7584000000000004,62.351709,4.798500000000001,2.7015000000000002,0.0,0.2115,0.6204445695
3757,6/5/2012 13:00,3.45425,32.7856,4.8528,64.417755,4.9575000000000005,0.0,0.0,0.4545,0.65489995305
3758,6/5/2012 14:00,4.346,39.36256,6.1056,77.340288,5.952,0.0,0.0,0.5235,0.6842489272500001
3759,6/5/2012 15:00,4.458749999999999,46.0784,6.263999999999999,90.535695,6.9675,0.0,0.0,0.5775,0.655290531
3760,6/5/2012 16:00,0.0,53.62752,0.0,105.36834599999999,8.109,0.0,0.0,0.285,0.62295727515
3761,6/5/2012 17:00,0.0,26.71456,0.0,52.489262999999994,4.039499999999999,0.0,0.0,0.32249999999999995,0.5675345151000001
3762,6/5/2012 18:00,0.0,15.7232,0.0,30.893235,2.3775,0.453,0.0,0.2145,0.5211466428
3763,6/5/2012 19:00,1.13775,51.7328,1.5984,101.64556499999999,7.8225,0.4035,2.44584,0.23700000000000002,0.40116872564999995
3764,6/5/2012 20:00,1.4965,50.60192,2.1024,99.423591,7.6515,0.3945,4.79214,0.4065,0.17563446494999999
3765,6/5/2012 21:00,1.5374999999999999,5.23776,2.16,10.291248,0.792,0.447,2.4173999999999998,0.4335,0.0
3766,6/5/2012 22:00,1.3735,0.0,1.9296,0.0,0.0,0.4005,2.6875799999999996,0.4035,0.0
3767,6/5/2012 23:00,13.82725,0.0,19.4256,0.0,0.0,0.312,3.1852799999999997,0.3855,0.0
3768,6/6/2012 0:00,13.35575,0.0,18.7632,0.0,0.0,0.0,3.6972,0.96,0.0
3769,6/6/2012 1:00,11.90025,1.7459200000000001,16.7184,3.430416,0.264,0.0,3.72564,0.3045,0.0
3770,6/6/2012 2:00,0.0,0.0,0.0,0.0,0.0,0.0,3.5407799999999994,1.146,0.0
3771,6/6/2012 3:00,6.2115,2.7676800000000004,8.7264,5.437989,0.41850000000000004,0.0,4.79214,1.3275,0.0
3772,6/6/2012 4:00,6.05775,2.78752,8.5104,5.476971,0.4215,0.0,4.849019999999999,1.371,0.10995921195000001
3773,6/6/2012 5:00,2.01925,3.00576,2.8367999999999998,5.905773,0.4545,0.0,7.906319999999999,1.9665,0.1330365687
3774,6/6/2012 6:00,1.9064999999999999,47.9136,2.6784,94.14152999999999,7.245,0.1245,1.7064,0.369,0.3868322997
3775,6/6/2012 7:00,1.42475,8.60064,2.0016,16.898697,1.3005,0.171,1.3508999999999998,0.414,0.44053679775000004
3776,6/6/2012 8:00,0.74825,7.697920000000001,1.0512,15.125016,1.1640000000000001,0.201,1.1944799999999998,2.064,0.32606151375
3777,6/6/2012 9:00,1.13775,6.6860800000000005,1.5984,13.136934,1.0110000000000001,0.204,1.00962,0.0,0.4134070458
3778,6/6/2012 10:00,1.5785,2.7081600000000003,2.2176,5.321043,0.40950000000000003,0.189,0.0,0.0,0.44386908195
3779,6/6/2012 11:00,1.7425000000000002,2.39072,2.4480000000000004,4.697331,0.3615,0.189,0.0,0.0,0.4414690371
3780,6/6/2012 12:00,1.7425000000000002,2.06336,2.4480000000000004,4.0541279999999995,0.312,0.17550000000000002,0.0,0.0,0.5294866815
3781,6/6/2012 13:00,1.6912500000000001,5.66432,2.3760000000000003,11.129361,0.8564999999999999,0.0,0.0,0.0,0.6525331092
3782,6/6/2012 14:00,15.6825,6.42816,22.032,12.630168,0.972,0.0,0.0,1.7925,0.5971869519
3783,6/6/2012 15:00,14.677999999999999,6.81504,20.6208,13.390317,1.0305,0.0,0.0,2.19,0.3035189388
3784,6/6/2012 16:00,14.514000000000001,6.52736,20.3904,12.825078,0.987,0.0,0.0,2.325,0.34979906955000006
3785,6/6/2012 17:00,3.2595,5.06912,4.5792,9.959901,0.7665,0.0,0.0,2.358,0.5044678380000001
3786,6/6/2012 18:00,2.8085,4.305280000000001,3.9456,8.459094,0.651,0.11249999999999999,0.0,2.778,0.43432802805000004
3787,6/6/2012 19:00,2.214,7.5392,3.1104000000000003,14.81316,1.14,0.318,0.0,3.3599999999999994,0.32946674775
3788,6/6/2012 20:00,1.271,1.42848,1.7855999999999999,2.806704,0.216,0.723,0.0,3.6615,0.0804109593
3789,6/6/2012 21:00,15.088,3.0752,21.1968,6.04221,0.46499999999999997,0.3165,0.0,3.8129999999999997,0.0
3790,6/6/2012 22:00,12.24875,5.57504,17.208,10.953942,0.843,0.3525,5.81598,4.167,0.0
3791,6/6/2012 23:00,8.7535,5.66432,12.297600000000001,11.129361,0.8564999999999999,1.392,5.460479999999999,4.5885,0.0
3792,6/7/2012 0:00,0.9635,4.75168,1.3536000000000001,9.336189,0.7184999999999999,1.5735,4.32288,4.9544999999999995,0.0
3793,6/7/2012 1:00,0.861,4.20608,1.2096,8.264184,0.636,0.369,3.38436,5.4195,0.0
3794,6/7/2012 2:00,0.0,4.12672,0.0,8.108255999999999,0.624,0.3165,3.04308,5.6865,0.0
3795,6/7/2012 3:00,0.0,7.35072,0.0,14.442831,1.1115,2.5095,1.9054799999999998,5.8365,0.0
3796,6/7/2012 4:00,0.0,4.63264,0.0,9.102297,0.7005,0.2595,7.6076999999999995,6.0885,0.01184415225
3797,6/7/2012 5:00,0.0,2.16256,0.0,4.249038,0.327,0.48750000000000004,6.015059999999999,5.862,0.03976653555
3798,6/7/2012 6:00,0.0,2.1328,0.0,4.190564999999999,0.32249999999999995,0.6045,6.05772,4.6979999999999995,0.20564908035
3799,6/7/2012 7:00,0.0,2.4998400000000003,0.0,4.911732,0.378,0.6405000000000001,2.3178599999999996,3.516,0.24421477500000002
3800,6/7/2012 8:00,0.0,2.2319999999999998,0.0,4.385475,0.33749999999999997,0.6345,2.3178599999999996,2.223,0.27494342925
3801,6/7/2012 9:00,0.0,1.94432,0.0,3.820236,0.294,0.5475,29.534939999999995,1.6815,0.2346362802
3802,6/7/2012 10:00,1.24025,1.8054400000000002,1.7424,3.547362,0.273,0.16949999999999998,2.3605199999999997,0.192,0.43381856385000006
3803,6/7/2012 11:00,0.8815,1.75584,1.2384,3.449907,0.2655,0.129,2.14722,0.0,0.24007879980000002
3804,6/7/2012 12:00,0.97375,1.9840000000000002,1.3679999999999999,3.8982,0.3,0.273,2.26098,0.0,0.2625948024
3805,6/7/2012 13:00,0.0,0.81344,0.0,1.598262,0.12300000000000001,0.288,3.01464,0.3435,0.38410358175000003
3806,6/7/2012 14:00,0.0,1.97408,0.0,3.878709,0.2985,0.6164999999999999,3.5407799999999994,0.444,0.54399721425
3807,6/7/2012 15:00,0.0,3.93824,0.0,7.737927,0.5955,1.173,3.9531599999999996,0.6465,0.50819469015
3808,6/7/2012 16:00,6.7855,1.8550400000000002,9.5328,3.644817,0.2805,1.1925000000000001,3.9815999999999994,0.3,0.44290024695
3809,6/7/2012 17:00,8.45625,1.8649600000000002,11.88,3.664308,0.28200000000000003,0.861,3.8394,0.192,0.2393671581
3810,6/7/2012 18:00,12.638250000000001,1.6368,17.755200000000002,3.216015,0.2475,0.29100000000000004,3.88206,0.294,0.3721137987
3811,6/7/2012 19:00,15.4365,0.9820800000000001,21.686400000000003,1.9296090000000001,0.14850000000000002,0.1875,4.265999999999999,0.47250000000000003,0.08396573010000001
3812,6/7/2012 20:00,15.40575,0.9920000000000001,21.6432,1.9491,0.15,0.4395,4.49352,0.6735,0.09677808945000001
3813,6/7/2012 21:00,12.433250000000001,1.8054400000000002,17.467200000000002,3.547362,0.273,1.242,5.360939999999999,0.0,0.0
3814,6/7/2012 22:00,7.20575,2.02368,10.1232,3.9761640000000003,0.30600000000000005,2.358,8.36136,0.14100000000000001,0.0
3815,6/7/2012 23:00,1.56825,2.65856,2.2032,5.223588,0.402,3.6015,10.679219999999999,0.159,0.0
3816,6/8/2012 0:00,1.5887499999999999,4.4639999999999995,2.232,8.77095,0.6749999999999999,3.6075,12.11544,0.1635,0.0
3817,6/8/2012 1:00,1.599,7.77728,2.2464,15.280944,1.176,4.032,12.5136,0.1665,0.0
3818,6/8/2012 2:00,1.558,9.65216,2.1888,18.964743,1.4595,4.023,12.954419999999999,0.162,0.0
3819,6/8/2012 3:00,1.30175,0.0,1.8288,0.0,0.0,1.3155000000000001,14.191559999999999,0.312,0.0
3820,6/8/2012 4:00,0.861,0.0,1.2096,0.0,0.0,1.1744999999999999,17.433719999999997,0.5640000000000001,0.1072780422
3821,6/8/2012 5:00,0.0,0.0,0.0,0.0,0.0,0.909,20.391479999999998,0.807,0.11145763545000001
3822,6/8/2012 6:00,0.0,0.0,0.0,0.0,0.0,0.6705,18.82728,1.0395,0.1748407101
3823,6/8/2012 7:00,0.0,1.1408,0.0,2.241465,0.1725,0.14100000000000001,17.078219999999998,0.912,0.3236021586
3824,6/8/2012 8:00,0.0,3.3132800000000002,0.0,6.509994,0.501,0.2265,3.9815999999999994,0.9750000000000001,0.3024707406
3825,6/8/2012 9:00,0.8815,3.2041600000000003,1.2384,6.295593,0.48450000000000004,0.3555,4.67838,1.008,0.3304944636
3826,6/8/2012 10:00,0.8405,3.3033600000000005,1.1808,6.490503,0.49950000000000006,0.5025000000000001,5.41782,1.0214999999999999,0.5205799746
3827,6/8/2012 11:00,0.0,3.48192,0.0,6.841341,0.5265,0.4335,5.943959999999999,1.032,0.43714541535000007
3828,6/8/2012 12:00,0.0,13.163840000000002,0.0,25.864557,1.9905000000000002,0.4125,6.541199999999999,1.0335,0.25339600230000003
3829,6/8/2012 13:00,0.0,6.1008000000000004,0.0,11.986965,0.9225,0.35700000000000004,6.07194,0.9345,0.22917166545
3830,6/8/2012 14:00,0.0,0.0,0.0,0.0,0.0,0.255,8.1054,0.7605000000000001,0.21876861825000002
3831,6/8/2012 15:00,0.0,0.0,0.0,0.0,0.0,0.4575,9.427859999999999,0.0,0.13703281725
3832,6/8/2012 16:00,4.1205,0.0,5.7888,0.0,0.0,1.2810000000000001,11.176919999999999,0.0,0.21631362375
3833,6/8/2012 17:00,40.303,0.0,56.6208,0.0,0.0,0.2115,11.90214,0.0,0.17771513865000002
3834,6/8/2012 18:00,0.0,10.22752,0.0,20.095221,1.5465,1.9634999999999998,4.13802,0.0,0.0603908571
3835,6/8/2012 19:00,0.0,6.43808,0.0,12.649659,0.9735,2.319,3.7398599999999997,0.0,0.07681393545000001
3836,6/8/2012 20:00,0.0,6.52736,0.0,12.825078,0.987,2.283,3.1994999999999996,0.1305,0.004778925900000001
3837,6/8/2012 21:00,29.93,5.356800000000001,42.047999999999995,10.52514,0.81,0.18,2.8013399999999997,0.204,0.0
3838,6/8/2012 22:00,31.2625,2.14272,43.92,4.210056,0.324,0.156,2.50272,0.288,0.0
3839,6/8/2012 23:00,33.83525,1.71616,47.5344,3.371943,0.2595,0.132,2.7729,0.3345,0.0
3840,6/9/2012 0:00,1.9577499999999999,12.588480000000002,2.7504,24.734079,1.9035000000000002,0.114,1.6068599999999997,0.3015,0.0
3841,6/9/2012 1:00,1.56825,11.46752,2.2032,22.531595999999997,1.734,0.108,1.3224599999999997,0.1575,0.0
3842,6/9/2012 2:00,1.1275000000000002,1.1606400000000001,1.584,2.280447,0.17550000000000002,0.12300000000000001,1.08072,0.204,0.0
3843,6/9/2012 3:00,21.894000000000002,1.02176,30.7584,2.007573,0.1545,0.1245,0.0,0.2745,0.0
3844,6/9/2012 4:00,16.4615,13.51104,23.1264,26.546742,2.0429999999999997,0.114,0.0,0.252,0.05689261515
3845,6/9/2012 5:00,14.9035,15.951360000000001,20.9376,31.341528,2.412,0.0,1.0238399999999999,0.2175,0.1612705899
3846,6/9/2012 6:00,17.72225,4.58304,24.8976,9.004842,0.693,0.0,1.39356,2.5275000000000003,0.18637647419999998
3847,6/9/2012 7:00,18.983,4.63264,26.6688,9.102297,0.7005,0.0,1.50732,0.1365,0.14172453750000003
3848,6/9/2012 8:00,18.644750000000002,4.70208,26.1936,9.238734,0.711,0.0,1.4788799999999998,0.1155,0.17463937995
3849,6/9/2012 9:00,21.00225,3.5612800000000004,29.5056,6.997269,0.5385,0.318,1.50732,0.198,0.206274096
3850,6/9/2012 10:00,24.34375,14.4336,34.199999999999996,28.359405,2.1824999999999997,9.2295,1.5642,0.0,0.23605992794999997
3851,6/9/2012 11:00,22.017,0.0,30.931199999999997,0.0,0.0,9.1005,1.39356,0.1155,0.25507393905000003
3852,6/9/2012 12:00,17.80425,5.36672,25.0128,10.544631,0.8115,0.46799999999999997,1.4930999999999999,0.1245,0.2765972181
3853,6/9/2012 13:00,0.0,5.009600000000001,0.0,9.842955,0.7575000000000001,0.39,1.422,0.12300000000000001,0.33245205
3854,6/9/2012 14:00,0.0,5.22784,0.0,10.271757,0.7905,0.3705,1.3366799999999999,0.0,0.2846281053
3855,6/9/2012 15:00,16.65625,6.061120000000001,23.400000000000002,11.909001,0.9165,0.4485,1.23714,0.0,0.386042244
3856,6/9/2012 16:00,16.24625,7.707840000000001,22.824,15.144507,1.1655,5.130000000000001,1.09494,0.0,0.4180222851
3857,6/9/2012 17:00,15.282750000000002,12.9952,21.4704,25.53321,1.965,0.4275,0.0,0.0,0.3714601569
3858,6/9/2012 18:00,12.35125,11.87424,17.352,23.330727,1.7955,4.6695,0.0,0.0,0.30525230610000004
3859,6/9/2012 19:00,8.774,10.287040000000001,12.3264,20.212167,1.5555,3.513,0.0,0.0,0.338083116
3860,6/9/2012 20:00,5.3915,3.7596800000000004,7.5744,7.3870890000000005,0.5685,2.529,0.0,0.0,0.1900361946
3861,6/9/2012 21:00,3.362,2.4998400000000003,4.7232,4.911732,0.378,1.83,0.0,0.0,0.0
3862,6/9/2012 22:00,1.67075,1.6566400000000001,2.3472,3.254997,0.2505,0.0,0.0,0.0,0.0
3863,6/9/2012 23:00,0.0,6.5670399999999995,0.0,12.903042,0.9929999999999999,0.0,0.0,0.0,0.0
3864,6/10/2012 0:00,6.672750000000001,6.944000000000001,9.374400000000001,13.6437,1.05,6.759,1.69218,0.0,0.0
3865,6/10/2012 1:00,0.0,8.51136,0.0,16.723278,1.287,0.3,2.1329999999999996,0.4005,0.0
3866,6/10/2012 2:00,0.0,8.4816,0.0,16.664805,1.2825000000000002,1.8914999999999997,2.09034,0.33749999999999997,0.0
3867,6/10/2012 3:00,0.0,5.72384,0.0,11.246307,0.8655,0.333,1.6352999999999998,0.24600000000000002,0.0
3868,6/10/2012 4:00,1.03525,28.579520000000002,1.4544,56.15357100000001,4.3215,0.369,1.09494,0.30600000000000005,0.26534045580000004
3869,6/10/2012 5:00,1.476,30.49408,2.0736,59.915334,4.611,0.396,0.0,0.363,0.1921689546
3870,6/10/2012 6:00,8.4255,12.638080000000002,11.8368,24.831534,1.9110000000000003,2.1195,0.0,8.52,0.22372742700000003
3871,6/10/2012 7:00,7.052,0.0,9.9072,0.0,0.0,2.457,0.0,0.177,0.1695812202
3872,6/10/2012 8:00,3.94625,0.0,5.544,0.0,0.0,0.0,76.46094,0.198,0.1765373925
3873,6/10/2012 9:00,1.9679999999999997,0.7340800000000001,2.7647999999999997,1.442334,0.111,0.0,78.13889999999999,0.19949999999999998,0.24591359835
3874,6/10/2012 10:00,43.34725,0.7836800000000002,60.8976,1.539789,0.11850000000000001,1.4685,78.15311999999999,0.0,0.27746899635
3875,6/10/2012 11:00,6.1602500000000004,0.85312,8.6544,1.676226,0.129,0.0,75.16691999999999,0.0,0.4540855788
3876,6/10/2012 12:00,7.216,0.7836800000000002,10.1376,1.539789,0.11850000000000001,1.8719999999999999,2.9719799999999994,0.0,0.46210401090000003
3877,6/10/2012 13:00,2.911,0.0,4.0896,0.0,0.0,2.073,3.1852799999999997,0.23850000000000002,0.5761469889
3878,6/10/2012 14:00,0.9942500000000001,0.0,1.3968,0.0,0.0,0.0,0.0,0.33,0.5393863849499999
3879,6/10/2012 15:00,2.06025,0.0,2.8944,0.0,0.0,0.0,1.16604,0.324,0.5270684873999999
3880,6/10/2012 16:00,1.2197500000000001,0.0,1.7136,0.0,0.0,0.0,4.0953599999999994,0.348,0.46940521005
3881,6/10/2012 17:00,0.0,3.14464,0.0,6.178647,0.4755,0.0,3.8536199999999994,0.0,0.35803329555
3882,6/10/2012 18:00,0.0,4.19616,0.0,8.244693,0.6345,0.0,3.65454,0.11249999999999999,0.34248591825
3883,6/10/2012 19:00,0.0,4.305280000000001,0.0,8.459094,0.651,0.0,0.0,0.261,0.29133751394999996
3884,6/10/2012 20:00,0.0,4.03744,0.0,7.932837,0.6105,0.0,0.0,0.252,0.1460955363
3885,6/10/2012 21:00,0.0,4.6128,0.0,9.063315,0.6975,0.0,0.0,0.23850000000000002,0.0
3886,6/10/2012 22:00,0.0,5.56512,0.0,10.934451,0.8414999999999999,0.1845,43.442099999999996,0.1275,0.0
3887,6/10/2012 23:00,0.0,6.52736,0.0,12.825078,0.987,0.135,34.49772,0.13949999999999999,0.0
3888,6/11/2012 0:00,0.0,7.03328,0.0,13.819119,1.0635000000000001,0.0,0.0,0.0,0.0
3889,6/11/2012 1:00,0.0,1.1606400000000001,0.0,2.280447,0.17550000000000002,0.0,10.82142,0.0,0.0
3890,6/11/2012 2:00,0.943,1.5872000000000002,1.3248,3.11856,0.24,0.0,6.02928,0.0,0.0
3891,6/11/2012 3:00,0.9942500000000001,1.9244800000000002,1.3968,3.781254,0.29100000000000004,0.0,0.0,0.0,0.0
3892,6/11/2012 4:00,0.0,1.9840000000000002,0.0,3.8982,0.3,0.0,1.1518199999999998,0.3105,0.34707861405000007
3893,6/11/2012 5:00,1.26075,1.8848,1.7712,3.70329,0.285,7.6515,3.89628,5.1585,0.4714372498500001
3894,6/11/2012 6:00,1.54775,0.0,2.1744,0.0,0.0,8.532,3.8678399999999993,0.288,0.5646946683
3895,6/11/2012 7:00,1.476,1.47808,2.0736,2.904159,0.2235,10.446,4.16646,0.3435,0.5119401504
3896,6/11/2012 8:00,7.964250000000001,30.275840000000002,11.1888,59.486532000000004,4.578,11.961,3.8678399999999993,0.30600000000000005,0.39747941835
3897,6/11/2012 9:00,6.8265,12.55872,9.5904,24.675606,1.8989999999999998,12.491999999999999,2.8724399999999997,3.8910000000000005,0.47533412430000005
3898,6/11/2012 10:00,2.59325,4.28544,3.6431999999999998,8.420112,0.648,12.8085,5.830199999999999,2.34,0.5345279688
3899,6/11/2012 11:00,1.8655000000000002,1.8550400000000002,2.6208,3.644817,0.2805,13.038,0.0,0.267,0.53333343
3900,6/11/2012 12:00,1.1685,3.8192,1.6416,7.504035,0.5775,13.0365,0.0,0.249,0.49998106725
3901,6/11/2012 13:00,0.0,0.9920000000000001,0.0,1.9491,0.15,12.8685,7.977419999999999,0.23850000000000002,0.5201289576000001
3902,6/11/2012 14:00,2.59325,0.7836800000000002,3.6431999999999998,1.539789,0.11850000000000001,12.536999999999999,11.944799999999999,0.231,0.5160988791000001
3903,6/11/2012 15:00,2.2345,0.0,3.1391999999999998,0.0,0.0,12.285,16.26768,0.231,0.4961639151
3904,6/11/2012 16:00,1.62975,0.0,2.2896,0.0,0.0,11.9925,5.07654,0.0,0.3539450019
3905,6/11/2012 17:00,2.2550000000000003,0.9424,3.168,1.851645,0.1425,0.4545,12.925979999999997,0.0,0.3565285416000001
3906,6/11/2012 18:00,0.0,1.41856,0.0,2.787213,0.2145,0.3315,0.0,0.0,0.42517255095
3907,6/11/2012 19:00,2.30625,1.67648,3.2399999999999998,3.2939789999999998,0.25349999999999995,0.363,10.209959999999999,0.0,0.35691344220000004
3908,6/11/2012 20:00,2.03975,1.61696,2.8656,3.1770329999999998,0.24449999999999997,0.39899999999999997,1.7206199999999998,0.0,0.1898933316
3909,6/11/2012 21:00,9.07125,1.2201600000000001,12.744,2.397393,0.1845,8.208,5.432039999999999,0.11249999999999999,0.0
3910,6/11/2012 22:00,17.876,0.75392,25.113599999999998,1.481316,0.114,1.32,7.821,0.255,0.0
3911,6/11/2012 23:00,0.0,0.0,0.0,0.0,0.0,1.104,9.698039999999999,0.21300000000000002,0.0
3912,6/12/2012 0:00,0.0,0.0,0.0,0.0,0.0,1.0110000000000001,9.669599999999999,0.36600000000000005,0.0
3913,6/12/2012 1:00,0.0,0.0,0.0,0.0,0.0,0.216,9.18612,0.348,0.0
3914,6/12/2012 2:00,0.0,0.0,0.0,0.0,0.0,0.147,3.7682999999999995,0.3195,0.0
3915,6/12/2012 3:00,0.0,0.0,0.0,0.0,0.0,0.0,4.024259999999999,0.0,0.0
3916,6/12/2012 4:00,2.091,0.0,2.9376,0.0,0.0,0.858,4.03848,0.0,0.04983699735000001
3917,6/12/2012 5:00,13.448,0.0,18.8928,0.0,0.0,0.8475,3.89628,0.0,0.1135530816
3918,6/12/2012 6:00,2.63425,0.0,3.7008,0.0,0.0,1.0125000000000002,3.5123399999999996,0.2355,0.04721171175
3919,6/12/2012 7:00,0.0,0.0,0.0,0.0,0.0,1.053,2.16144,0.26849999999999996,0.12210646875
3920,6/12/2012 8:00,7.08275,6.884480000000001,9.950399999999998,13.526754,1.0410000000000001,1.2375,1.50732,0.0,0.1024405326
3921,6/12/2012 9:00,4.35625,6.606720000000001,6.12,12.981006,0.9990000000000001,1.7925,1.73484,0.39,0.16103496150000002
3922,6/12/2012 10:00,1.85525,0.0,2.6064000000000003,0.0,0.0,9.915,20.49102,0.2565,0.16613068395
3923,6/12/2012 11:00,0.97375,0.0,1.3679999999999999,0.0,0.0,8.568000000000001,0.0,0.1365,0.23412641594999997
3924,6/12/2012 12:00,15.4365,0.0,21.686400000000003,0.0,0.0,5.302499999999999,0.0,0.156,0.1404529476
3925,6/12/2012 13:00,14.596,1.00192,20.5056,1.968591,0.1515,1.692,8.13384,0.22499999999999998,0.28276220280000003
3926,6/12/2012 14:00,15.293,1.2102400000000002,21.4848,2.377902,0.18300000000000002,0.2835,7.636139999999999,0.23700000000000002,0.12755330385
3927,6/12/2012 15:00,15.323749999999999,0.0,21.528,0.0,0.0,1.323,6.114599999999999,0.204,0.33613020735
3928,6/12/2012 16:00,16.113,1.94432,22.6368,3.820236,0.294,0.3435,26.29278,0.11850000000000001,0.24479427630000003
3929,6/12/2012 17:00,0.0,1.9244800000000002,0.0,3.781254,0.29100000000000004,0.39,40.669200000000004,0.0,0.16770465495
3930,6/12/2012 18:00,1.107,1.75584,1.5552000000000001,3.449907,0.2655,0.2955,66.86243999999999,0.0,0.1161861141
3931,6/12/2012 19:00,2.63425,1.50784,3.7008,2.962632,0.228,0.324,78.02514,0.0,0.16815213450000002
3932,6/12/2012 20:00,7.1135,1.3392,9.9936,2.631285,0.20249999999999999,0.49649999999999994,82.57553999999999,0.0,0.03422986035000001
3933,6/12/2012 21:00,15.088,1.03168,21.1968,2.0270639999999998,0.156,0.8085,85.13513999999999,0.0,0.0
3934,6/12/2012 22:00,13.160999999999998,1.35904,18.4896,2.670267,0.20550000000000002,1.1115,86.23008,0.0,0.0
3935,6/12/2012 23:00,19.32125,1.26976,27.144,2.494848,0.192,1.299,84.89339999999999,0.0,0.0
3936,6/13/2012 0:00,15.897749999999998,1.08128,22.3344,2.124519,0.1635,1.3815,80.08704,0.0,0.0
3937,6/13/2012 1:00,11.1315,0.8729600000000001,15.6384,1.715208,0.132,1.4535,72.01007999999999,0.0,0.0
3938,6/13/2012 2:00,7.8105,0.72416,10.972800000000001,1.422843,0.1095,1.5405,59.82354,0.0,0.0
3939,6/13/2012 3:00,0.861,0.0,1.2096,0.0,0.0,1.7655,49.30074,1.7610000000000001,0.0
3940,6/13/2012 4:00,0.8200000000000001,0.0,1.1520000000000001,0.0,0.0,2.1285,40.89672,0.6014999999999999,0.051171666000000005
3941,6/13/2012 5:00,0.0,0.0,0.0,0.0,0.0,2.505,41.77836,2.2544999999999997,0.050704716299999994
3942,6/13/2012 6:00,0.0,0.0,0.0,0.0,0.0,2.9114999999999998,30.23172,2.076,0.06468618555
3943,6/13/2012 7:00,0.8302499999999999,0.0,1.1663999999999999,0.0,0.0,2.226,25.411139999999996,2.457,0.0821376654
3944,6/13/2012 8:00,0.91225,0.9622400000000001,1.2816,1.890627,0.14550000000000002,1.7399999999999998,21.358439999999998,0.6164999999999999,0.2525565
3945,6/13/2012 9:00,0.9327500000000001,3.06528,1.3104,6.022719,0.4635,1.4175,6.782939999999999,0.597,0.2618132916
3946,6/13/2012 10:00,0.0,1.9344000000000001,0.0,3.800745,0.2925,1.1025,6.1003799999999995,0.57,0.21095011140000003
3947,6/13/2012 11:00,0.0,2.35104,0.0,4.619367,0.3555,0.849,5.95818,0.561,0.31793570865000004
3948,6/13/2012 12:00,1.05575,3.03552,1.4832,5.964245999999999,0.45899999999999996,0.6615,6.015059999999999,0.501,0.37659205815
3949,6/13/2012 13:00,1.01475,3.38272,1.4256000000000002,6.646431,0.5115,0.47400000000000003,9.214559999999999,0.4035,0.25802759955000004
3950,6/13/2012 14:00,0.8815,1.45824,1.2384,2.8651769999999996,0.2205,0.2745,4.49352,0.0,0.18147058125
3951,6/13/2012 15:00,0.72775,1.08128,1.0224,2.124519,0.1635,0.189,3.8251799999999996,0.0,0.3968059473
3952,6/13/2012 16:00,0.0,0.81344,0.0,1.598262,0.12300000000000001,0.47400000000000003,3.3701399999999997,0.0,0.12996617759999998
3953,6/13/2012 17:00,0.0,3.88864,0.0,7.640472,0.588,0.4305,13.80762,0.1245,0.15359410815
3954,6/13/2012 18:00,0.0,3.9779199999999997,0.0,7.815890999999999,0.6014999999999999,0.0,3.2563799999999996,0.1935,0.2152757985
3955,6/13/2012 19:00,0.0,4.24576,0.0,8.342148,0.642,0.312,3.5123399999999996,0.2505,0.1066888767
3956,6/13/2012 20:00,0.72775,4.58304,1.0224,9.004842,0.693,0.3405,3.4554599999999995,0.273,0.0567863289
3957,6/13/2012 21:00,0.779,4.50368,1.0944,8.848914,0.681,1.524,2.6875799999999996,0.222,0.0
3958,6/13/2012 22:00,0.0,4.42432,0.0,8.692986,0.669,1.5270000000000001,1.66374,0.1935,0.0
3959,6/13/2012 23:00,0.0,5.88256,0.0,11.558162999999999,0.8895,1.653,0.0,0.423,0.0
3960,6/14/2012 0:00,3.362,7.67808,4.7232,15.086034,1.161,1.9035000000000002,0.0,0.0,0.0
3961,6/14/2012 1:00,3.16725,8.88832,4.4496,17.463936,1.344,2.646,0.0,0.0,0.0
3962,6/14/2012 2:00,73.31825,8.8784,103.0032,17.444444999999998,1.3425,3.669,0.0,0.11249999999999999,0.0
3963,6/14/2012 3:00,1.19925,8.39232,1.6848,16.489386,1.269,4.4505,3.1852799999999997,0.1425,0.0
3964,6/14/2012 4:00,0.0,8.16416,0.0,16.041093,1.2345,1.5870000000000002,3.1141799999999997,0.1545,0.07981375815
3965,6/14/2012 5:00,0.0,8.32288,0.0,16.352949,1.2585,1.4040000000000001,2.9293199999999997,0.147,0.18047192835
3966,6/14/2012 6:00,0.0,8.31296,0.0,16.333458,1.257,1.137,2.82978,0.1365,0.17685239565000002
3967,6/14/2012 7:00,0.0,0.0,0.0,0.0,0.0,0.711,2.7302399999999993,0.135,0.20163414915000002
3968,6/14/2012 8:00,1.6195000000000002,6.75552,2.2752000000000003,13.273371,1.0214999999999999,0.4425,3.0572999999999997,0.1665,0.19865578215000002
3969,6/14/2012 9:00,1.9167500000000002,5.11872,2.6928,10.057356,0.774,0.285,3.3701399999999997,0.21300000000000002,0.1137746673
3970,6/14/2012 10:00,2.173,0.8729600000000001,3.0528,1.715208,0.132,0.2595,1.8059399999999999,0.2235,0.35548819005000004
3971,6/14/2012 11:00,3.80275,0.75392,5.3424000000000005,1.481316,0.114,11.568,2.09034,0.2235,0.3894625224
3972,6/14/2012 12:00,1.2095,1.9840000000000002,1.6992,3.8982,0.3,12.042,1.10916,0.951,0.46320817095000005
3973,6/14/2012 13:00,1.7425000000000002,0.8928000000000001,2.4480000000000004,1.7541900000000001,0.135,1.8555000000000001,1.3508999999999998,0.0,0.6227562138
3974,6/14/2012 14:00,2.24475,0.9920000000000001,3.1536,1.9491,0.15,1.5645,20.13552,0.0,0.60700480995
3975,6/14/2012 15:00,2.05,0.0,2.88,0.0,0.0,0.0,21.55752,0.0,0.41205371235000005
3976,6/14/2012 16:00,1.75275,0.0,2.4624,0.0,0.0,0.0,22.16898,0.36600000000000005,0.4323130455
3977,6/14/2012 17:00,1.23,0.0,1.728,0.0,0.0,0.2655,19.723139999999997,0.0,0.23472495585
3978,6/14/2012 18:00,0.78925,0.0,1.1088,0.0,0.0,0.204,15.698879999999999,0.0,0.38427371639999996
3979,6/14/2012 19:00,0.0,0.0,0.0,0.0,0.0,0.147,16.168139999999998,0.12,0.3206793219
3980,6/14/2012 20:00,0.8917499999999999,0.0,1.2528,0.0,0.0,0.0,15.570899999999998,0.114,0.17487941205
3981,6/14/2012 21:00,1.28125,0.0,1.8,0.0,0.0,0.0,15.229619999999999,0.0,0.0
3982,6/14/2012 22:00,1.7015,0.0,2.3904,0.0,0.0,0.0,14.66082,0.0,0.0
3983,6/14/2012 23:00,84.5215,0.0,118.7424,0.0,0.0,0.0,15.65622,0.0,0.0
3984,6/15/2012 0:00,87.36075,0.0,122.73119999999999,0.0,0.0,0.369,16.60896,1.113,0.0
3985,6/15/2012 1:00,88.18074999999999,0.0,123.88319999999999,0.0,0.0,0.2955,23.747399999999995,0.0,0.0
3986,6/15/2012 2:00,88.6215,0.0,124.50240000000001,0.0,0.0,0.216,31.19868,0.0,0.0
3987,6/15/2012 3:00,89.3185,1.06144,125.48159999999999,2.085537,0.1605,3.2880000000000003,44.33796,0.34950000000000003,0.0
3988,6/15/2012 4:00,1.54775,1.2400000000000002,2.1744,2.436375,0.1875,3.51,50.39567999999999,0.1245,0.37793708925
3989,6/15/2012 5:00,9.52225,0.0,13.3776,0.0,0.0,0.165,55.913039999999995,2.637,0.51124575495
3990,6/15/2012 6:00,3.7515,0.0,5.2704,0.0,0.0,4.08,59.31162,0.8325,0.5316224497500001
3991,6/15/2012 7:00,9.112250000000001,0.0,12.8016,0.0,0.0,1.008,59.26895999999999,0.6465,0.51056466405
3992,6/15/2012 8:00,4.5715,0.0,6.4224,0.0,0.0,0.657,53.737379999999995,0.6645,0.38581664625000006
3993,6/15/2012 9:00,5.166,0.0,7.2576,0.0,0.0,0.6945,41.82101999999999,0.0,0.4631405352
3994,6/15/2012 10:00,4.90975,2.34112,6.8976,4.599876,0.354,0.753,35.66376,0.0,0.48762529514999997
3995,6/15/2012 11:00,4.2025,1.76576,5.903999999999999,3.469398,0.267,0.5565,40.21416,0.0,0.48703274550000003
3996,6/15/2012 12:00,0.0,1.36896,0.0,2.689758,0.207,0.348,51.97409999999999,0.0,0.3654269493
3997,6/15/2012 13:00,0.0,8.95776,0.0,17.600373,1.3545,0.2475,46.37141999999999,4.3575,0.3262483371
3998,6/15/2012 14:00,0.0,9.185920000000001,0.0,18.048666,1.389,0.0,40.02929999999999,4.47,0.3488478525
3999,6/15/2012 15:00,0.8712500000000001,8.76928,1.2240000000000002,17.230044,1.326,0.0,38.62152,3.9314999999999998,0.427812084
4000,6/15/2012 16:00,5.084,9.106560000000002,7.142399999999999,17.892738,1.377,0.14850000000000002,6.07194,3.687,0.40606948830000006
4001,6/15/2012 17:00,4.1,9.8208,5.76,19.29609,1.485,0.11850000000000001,6.3421199999999995,3.1650000000000005,0.27711141990000004
4002,6/15/2012 18:00,2.3165,0.9920000000000001,3.2544,1.9491,0.15,0.0,6.512759999999999,2.9355,0.18364002930000003
4003,6/15/2012 19:00,1.2197500000000001,2.61888,1.7136,5.145624,0.396,0.4005,4.82058,3.0435,0.31859935905000003
4004,6/15/2012 20:00,0.0,2.07328,0.0,4.073619,0.3135,0.687,4.977,3.0105,0.21479659530000003
4005,6/15/2012 21:00,0.0,1.6368,0.0,3.216015,0.2475,1.0335,4.635719999999999,2.8169999999999997,0.0
4006,6/15/2012 22:00,1.13775,1.30944,1.5984,2.572812,0.198,1.3545,3.6972,0.1545,0.0
4007,6/15/2012 23:00,0.9635,12.98528,1.3536000000000001,25.513719,1.9634999999999998,0.9885,2.53116,0.294,0.0
4008,6/16/2012 0:00,0.78925,12.221440000000001,1.1088,24.012912,1.848,1.0139999999999998,1.1944799999999998,0.39899999999999997,0.0
4009,6/16/2012 1:00,0.0,9.80096,0.0,19.257108,1.482,1.1669999999999998,7.948979999999999,0.44999999999999996,0.0
4010,6/16/2012 2:00,0.0,5.654400000000001,0.0,11.10987,0.855,0.9975,4.79214,0.5625,0.0
4011,6/16/2012 3:00,0.0,1.5376,0.0,3.021105,0.23249999999999998,1.1744999999999999,5.0907599999999995,0.0,0.0
4012,6/16/2012 4:00,0.0,0.82336,0.0,1.617753,0.1245,1.2614999999999998,15.31494,0.1365,0.3754484685
4013,6/16/2012 5:00,0.0,0.0,0.0,0.0,0.0,1.4385,3.8536199999999994,0.0,0.46061991045
4014,6/16/2012 6:00,0.0,1.2102400000000002,0.0,2.377902,0.18300000000000002,1.6635,2.9719799999999994,0.216,0.5543911968
4015,6/16/2012 7:00,0.0,1.9344000000000001,0.0,3.800745,0.2925,1.854,2.3178599999999996,0.20249999999999999,0.40349274314999994
4016,6/16/2012 8:00,0.0,2.3312,0.0,4.580385,0.3525,0.0,3.22794,0.1335,0.3780721728
4017,6/16/2012 9:00,0.0,1.9641600000000001,0.0,3.8592180000000003,0.29700000000000004,2.097,3.4554599999999995,0.0,0.39450261795
4018,6/16/2012 10:00,1.52725,1.6864000000000001,2.1456,3.31347,0.255,1.278,3.1141799999999997,0.0,0.39429430530000004
4019,6/16/2012 11:00,3.0237499999999997,0.81344,4.247999999999999,1.598262,0.12300000000000001,0.8265,2.57382,1.7745,0.5105289042
4020,6/16/2012 12:00,0.0,1.51776,0.0,2.9821229999999996,0.22949999999999998,8.1045,1.8770399999999998,0.0,0.54425430675
4021,6/16/2012 13:00,0.0,1.07136,0.0,2.105028,0.162,7.5135000000000005,1.23714,0.14550000000000002,0.6097359261
4022,6/16/2012 14:00,0.0,3.1843199999999996,0.0,6.2566109999999995,0.48149999999999993,0.0,0.0,0.0,0.4877658702
4023,6/16/2012 15:00,0.0,3.0752,0.0,6.04221,0.46499999999999997,0.0,0.0,0.0,0.37215907155000005
4024,6/16/2012 16:00,10.6395,2.7577599999999998,14.9472,5.418498,0.417,5.667000000000001,0.0,0.0,0.24329805780000002
4025,6/16/2012 17:00,12.88425,0.0,18.1008,0.0,0.0,6.2205,2.5596,0.0,0.21138255495
4026,6/16/2012 18:00,10.4755,2.53952,14.7168,4.989696,0.384,1.815,3.39858,0.0,0.12464184285
4027,6/16/2012 19:00,21.566,3.7596800000000004,30.2976,7.3870890000000005,0.5685,9.873,33.87204,0.345,0.0764627073
4028,6/16/2012 20:00,23.8415,0.0,33.4944,0.0,0.0,2.3805,0.0,0.186,0.033665515800000004
4029,6/16/2012 21:00,27.4905,0.7936000000000001,38.6208,1.55928,0.12,3.7904999999999998,0.0,0.126,0.0
4030,6/16/2012 22:00,5.258249999999999,0.9622400000000001,7.3872,1.890627,0.14550000000000002,0.129,0.0,0.0,0.0
4031,6/16/2012 23:00,0.0,1.81536,0.0,3.566853,0.2745,0.1305,32.450039999999994,0.0,0.0
4032,6/17/2012 0:00,43.08075,1.2400000000000002,60.5232,2.436375,0.1875,0.1365,8.11962,0.11249999999999999,0.0
4033,6/17/2012 1:00,41.8815,0.744,58.8384,1.461825,0.11249999999999999,0.13949999999999999,0.0,0.0,0.0
4034,6/17/2012 2:00,42.30175,0.0,59.4288,0.0,0.0,12.669,0.0,0.0,0.0
4035,6/17/2012 3:00,40.39525,1.8352,56.7504,3.605835,0.27749999999999997,12.722999999999999,10.89252,0.13949999999999999,0.0
4036,6/17/2012 4:00,41.8815,1.6566400000000001,58.8384,3.254997,0.2505,12.651,7.3517399999999995,0.1635,0.365473374
4037,6/17/2012 5:00,38.96025,1.47808,54.7344,2.904159,0.2235,0.12300000000000001,8.84484,0.165,0.5452655134500001
4038,6/17/2012 6:00,39.667500000000004,0.0,55.728,0.0,0.0,0.1575,1.1376,0.17550000000000002,0.5897665735500001
4039,6/17/2012 7:00,37.48425,0.0,52.6608,0.0,0.0,2.646,3.4128,0.2355,0.5026481858999999
4040,6/17/2012 8:00,45.97125,0.0,64.584,0.0,0.0,0.9359999999999999,2.16144,0.3885,0.39758428605
4041,6/17/2012 9:00,51.95725,0.0,72.9936,0.0,0.0,2.244,3.4270199999999997,0.549,0.45994695705000005
4042,6/17/2012 10:00,59.3885,0.0,83.4336,0.0,0.0,3.4755,3.96738,0.4575,0.56003424645
4043,6/17/2012 11:00,61.346250000000005,0.0,86.184,0.0,0.0,2.865,3.7682999999999995,0.6615,0.62834048025
4044,6/17/2012 12:00,64.90299999999999,0.0,91.1808,0.0,0.0,2.3535000000000004,2.50272,0.0,0.6792058812
4045,6/17/2012 13:00,65.86649999999999,0.0,92.53439999999999,0.0,0.0,2.3160000000000003,1.9765799999999998,0.0,0.7125509852999999
4046,6/17/2012 14:00,68.306,0.0,95.9616,0.0,0.0,2.064,3.6972,0.0,0.7239253213500001
4047,6/17/2012 15:00,68.74674999999999,0.0,96.5808,0.0,0.0,2.1,5.4746999999999995,0.7335,0.7177322733
4048,6/17/2012 16:00,67.978,0.88288,95.5008,1.734699,0.1335,2.0055,8.233379999999999,0.741,0.68393471265
4049,6/17/2012 17:00,64.739,0.9820800000000001,90.9504,1.9296090000000001,0.14850000000000002,1.7265,14.63238,0.651,0.6328617603
4050,6/17/2012 18:00,61.110499999999995,2.50976,85.85279999999999,4.931223,0.3795,0.1335,0.0,0.561,0.5507961017999999
4051,6/17/2012 19:00,58.18925,2.65856,81.7488,5.223588,0.402,0.135,7.024679999999999,0.46499999999999997,0.4309696692
4052,6/17/2012 20:00,56.07775,2.8768,78.78240000000001,5.65239,0.43499999999999994,2.3085,5.41782,0.375,0.25276054125
4053,6/17/2012 21:00,48.26725,2.98592,67.8096,5.866790999999999,0.45149999999999996,2.4555000000000002,1.86282,0.372,0.0
4054,6/17/2012 22:00,4.561249999999999,3.04544,6.4079999999999995,5.9837370000000005,0.4605,2.6969999999999996,1.25136,0.4425,0.0
4055,6/17/2012 23:00,6.734249999999999,2.85696,9.460799999999999,5.613408,0.432,0.1635,2.1187799999999997,0.546,0.0
4056,6/18/2012 0:00,10.46525,2.4800000000000004,14.702399999999999,4.87275,0.375,0.20249999999999999,2.9435399999999996,0.6449999999999999,0.0
4057,6/18/2012 1:00,13.058500000000002,2.02368,18.3456,3.9761640000000003,0.30600000000000005,0.28200000000000003,3.08574,0.6495,0.0
4058,6/18/2012 2:00,13.76575,1.5376,19.3392,3.021105,0.23249999999999998,3.216,3.2137199999999995,0.174,0.0
4059,6/18/2012 3:00,14.66775,0.0,20.6064,0.0,0.0,3.1725,33.74406,0.192,0.0
4060,6/18/2012 4:00,16.031000000000002,0.0,22.521600000000003,0.0,0.0,2.976,35.59266,0.22499999999999998,0.42231437115
4061,6/18/2012 5:00,17.5275,0.0,24.624000000000002,0.0,0.0,2.703,35.89128,0.354,0.56429235135
4062,6/18/2012 6:00,17.84525,0.0,25.0704,0.0,0.0,2.4165,0.0,0.36600000000000005,0.59620997415
4063,6/18/2012 7:00,17.2815,0.0,24.2784,0.0,0.0,1.722,0.0,0.34950000000000003,0.5027638917
4064,6/18/2012 8:00,16.8715,1.5673600000000003,23.7024,3.079578,0.23700000000000002,1.2299999999999998,0.0,0.2715,0.39869219775000003
4065,6/18/2012 9:00,3.65925,7.03328,5.1408000000000005,13.819119,1.0635000000000001,0.9179999999999999,0.0,0.2805,0.44207504355000005
4066,6/18/2012 10:00,3.9872499999999995,0.0,5.6015999999999995,0.0,0.0,1.0725,0.0,0.2565,0.51216693465
4067,6/18/2012 11:00,4.0897499999999996,0.0,5.7456,0.0,0.0,1.1669999999999998,0.0,0.195,0.5772565344
4068,6/18/2012 12:00,4.21275,0.0,5.9184,0.0,0.0,1.266,3.6972,0.28200000000000003,0.62951221305
4069,6/18/2012 13:00,3.8642499999999997,0.0,5.4288,0.0,0.0,0.828,1.4646599999999999,0.5085,0.6329770692
4070,6/18/2012 14:00,3.39275,0.0,4.7664,0.0,0.0,0.63,0.0,0.555,0.651380058
4071,6/18/2012 15:00,3.5157499999999997,0.0,4.9392,0.0,0.0,0.5505000000000001,0.0,0.0,0.66668367255
4072,6/18/2012 16:00,3.4644999999999997,0.0,4.8671999999999995,0.0,0.0,0.48149999999999993,0.0,0.0,0.6166623246
4073,6/18/2012 17:00,3.0545,0.0,4.2912,0.0,0.0,0.4455,1.0664999999999998,0.0,0.6156175683
4074,6/18/2012 18:00,2.5215,0.0,3.5424,0.0,0.0,0.46649999999999997,0.0,0.0,0.5347129032
4075,6/18/2012 19:00,2.12175,0.0,2.9808,0.0,0.0,0.5895,0.0,0.0,0.42682540425000004
4076,6/18/2012 20:00,2.1012500000000003,0.0,2.952,0.0,0.0,0.9735,0.0,0.11249999999999999,0.25100033595
4077,6/18/2012 21:00,3.1262499999999998,0.0,4.3919999999999995,0.0,0.0,1.6740000000000002,0.0,0.0,0.0
4078,6/18/2012 22:00,2.38825,0.0,3.3552,0.0,0.0,2.7735000000000003,0.0,0.0,0.0
4079,6/18/2012 23:00,1.8450000000000002,0.0,2.5920000000000005,0.0,0.0,4.553999999999999,0.0,0.0,0.0
4080,6/19/2012 0:00,1.9679999999999997,0.0,2.7647999999999997,0.0,0.0,6.585,0.0,0.0,0.0
4081,6/19/2012 1:00,1.5887499999999999,0.0,2.232,0.0,0.0,7.714499999999999,0.0,0.0,0.0
4082,6/19/2012 2:00,1.32225,1.4384000000000001,1.8576,2.8261950000000002,0.2175,8.080499999999999,0.0,0.0,0.0
4083,6/19/2012 3:00,1.32225,2.27168,1.8576,4.463439,0.3435,0.18,3.1852799999999997,0.0,0.0
4084,6/19/2012 4:00,1.4555,1.2201600000000001,2.0448,2.397393,0.1845,0.1965,2.4173999999999998,0.0,0.28242831225
4085,6/19/2012 5:00,1.7117499999999999,0.0,2.4048,0.0,0.0,0.41100000000000003,1.82016,0.0,0.39063402945000003
4086,6/19/2012 6:00,2.0807499999999997,0.0,2.9231999999999996,0.0,0.0,0.3945,1.4646599999999999,0.0,0.26456649975
4087,6/19/2012 7:00,2.4497500000000003,0.0,3.4416,0.0,0.0,0.41100000000000003,1.10916,0.14850000000000002,0.2016136836
4088,6/19/2012 8:00,2.296,0.0,3.2256,0.0,0.0,7.855500000000001,1.00962,0.0,0.14103282690000002
4089,6/19/2012 9:00,3.94625,0.0,5.544,0.0,0.0,7.5329999999999995,0.0,0.0,0.33597010545
4090,6/19/2012 10:00,4.84825,0.0,6.8112,0.0,0.0,6.4695,0.0,0.6435,0.42142200344999997
4091,6/19/2012 11:00,5.043,0.0,7.0848,0.0,0.0,2.9459999999999997,0.0,0.7979999999999999,0.5479922427
4092,6/19/2012 12:00,4.8175,0.0,6.768,0.0,0.0,0.2595,124.24014,1.0815,0.6641155416000001
4093,6/19/2012 13:00,3.9872499999999995,1.6864000000000001,5.6015999999999995,3.31347,0.255,0.1905,4.86324,1.2825000000000002,0.67883318685
4094,6/19/2012 14:00,0.0,30.52384,0.0,59.973806999999994,4.6155,0.0,89.68554,1.302,0.62968866135
4095,6/19/2012 15:00,0.0,33.837120000000006,0.0,66.483801,5.1165,1.152,85.88879999999999,1.3395000000000001,0.59298158115
4096,6/19/2012 16:00,0.0,38.89632,0.0,76.424211,5.8815,0.0,6.44166,1.2585,0.60472048035
4097,6/19/2012 17:00,1.2915,40.24544,1.8144,79.074987,6.0855,0.0,61.515719999999995,1.0965,0.5190222397500001
4098,6/19/2012 18:00,1.52725,3.5910400000000005,2.1456,7.055742,0.543,0.414,54.91763999999999,1.038,0.50092492065
4099,6/19/2012 19:00,1.65025,3.36288,2.3184,6.607449,0.5085,1.5645,46.12968,1.092,0.32558732955
4100,6/19/2012 20:00,1.6912500000000001,2.8768,2.3760000000000003,5.65239,0.43499999999999994,1.653,89.03142,0.11850000000000001,0.15861115620000002
4101,6/19/2012 21:00,52.16225,0.0,73.2816,0.0,0.0,1.821,0.0,0.13949999999999999,0.0
4102,6/19/2012 22:00,40.70275,40.55296,57.1824,79.679208,6.132,0.0,0.0,0.0,0.0
4103,6/19/2012 23:00,25.57375,49.034560000000006,35.928,96.344013,7.4145,5.9955,1.08072,0.171,0.0
4104,6/20/2012 0:00,13.5095,9.29504,18.9792,18.263067,1.4055,7.5465,1.3508999999999998,0.144,0.0
4105,6/20/2012 1:00,8.53825,5.92224,11.9952,11.636127,0.8955000000000001,0.5415,1.5642,0.0,0.0
4106,6/20/2012 2:00,4.95075,1.59712,6.9552000000000005,3.138051,0.2415,0.4245,2.3747399999999996,0.0,0.0
4107,6/20/2012 3:00,3.72075,1.7459200000000001,5.2272,3.430416,0.264,11.165999999999999,2.1045599999999998,0.19949999999999998,0.0
4108,6/20/2012 4:00,1.7937500000000002,6.7952,2.5200000000000005,13.351335,1.0275,10.891499999999999,1.57842,0.2085,0.24108103425000002
4109,6/20/2012 5:00,0.8917499999999999,7.122560000000001,1.2528,13.994538,1.077,9.973500000000001,1.12338,0.14100000000000001,0.2319574425
4110,6/20/2012 6:00,0.0,9.0272,0.0,17.73681,1.365,8.0505,8.98704,3.5970000000000004,0.26997576375
4111,6/20/2012 7:00,0.0,29.581440000000004,0.0,58.122162,4.473000000000001,2.5125,10.039319999999998,0.108,0.19178517119999997
4112,6/20/2012 8:00,0.8302499999999999,0.0,1.1663999999999999,0.0,0.0,2.3280000000000003,11.276459999999998,0.15300000000000002,0.14441281890000002
4113,6/20/2012 9:00,4.88925,2.14272,6.8688,4.210056,0.324,1.9785,15.94062,0.1095,0.20574480465
4114,6/20/2012 10:00,4.68425,40.126400000000004,6.5808,78.84109500000001,6.067500000000001,1.3784999999999998,21.870359999999998,0.0,0.31744044569999996
4115,6/20/2012 11:00,4.33575,34.55136,6.0912,67.887153,5.2245,0.3915,27.00378,0.1605,0.5191651752
4116,6/20/2012 12:00,0.0,28.54976,0.0,56.095098,4.317,0.18,32.521139999999995,0.11699999999999999,0.54404004375
4117,6/20/2012 13:00,0.8815,27.9744,1.2384,54.96462,4.2299999999999995,0.23249999999999998,28.397339999999996,0.0,0.5032132339500001
4118,6/20/2012 14:00,1.4965,27.35936,2.1024,53.756178,4.137,4.478999999999999,21.657059999999998,0.0,0.58859709405
4119,6/20/2012 15:00,1.3632499999999999,31.80352,1.9152,62.488146,4.809,4.335,18.81306,0.0,0.6199601289
4120,6/20/2012 16:00,1.30175,32.527680000000004,1.8288,63.910989,4.918500000000001,0.0,17.647019999999998,0.0,0.58561645905
4121,6/20/2012 17:00,1.17875,34.72,1.656,68.21849999999999,5.25,0.0,1.53576,0.0,0.53096457015
4122,6/20/2012 18:00,0.0,32.49792,0.0,63.852516,4.914,8.867999999999999,1.39356,0.0,0.4540551561000001
4123,6/20/2012 19:00,0.0,33.529599999999995,0.0,65.87957999999999,5.069999999999999,0.29700000000000004,1.37934,0.0,0.35387085614999997
4124,6/20/2012 20:00,0.0,30.8016,0.0,60.519555,4.6575,0.315,1.3508999999999998,0.6825,0.17435954655
4125,6/20/2012 21:00,0.0,1.45824,0.0,2.8651769999999996,0.2205,0.0,2.8013399999999997,1.608,0.0
4126,6/20/2012 22:00,0.0,0.0,0.0,0.0,0.0,0.0,1.9907999999999997,1.302,0.0
4127,6/20/2012 23:00,0.0,1.61696,0.0,3.1770329999999998,0.24449999999999997,0.129,2.18988,1.1159999999999999,0.0
4128,6/21/2012 0:00,1.0865,1.7260799999999998,1.5264,3.391434,0.261,0.171,2.01924,0.897,0.0
4129,6/21/2012 1:00,2.61375,1.8550400000000002,3.6719999999999997,3.644817,0.2805,0.222,22.467599999999997,0.8445,0.0
4130,6/21/2012 2:00,1.8142500000000001,5.49568,2.5488,10.798014,0.831,0.2805,1.5926399999999998,1.02,0.0
4131,6/21/2012 3:00,10.44475,5.13856,14.6736,10.096338,0.777,0.3255,1.6068599999999997,1.41,0.0
4132,6/21/2012 4:00,10.36275,1.3491199999999999,14.558399999999999,2.650776,0.204,0.2985,5.81598,0.39,0.10551819809999999
4133,6/21/2012 5:00,0.0,0.0,0.0,0.0,0.0,0.498,7.437059999999999,0.3525,0.10222943745
4134,6/21/2012 6:00,0.0,3.06528,0.0,6.022719,0.4635,1.1145,8.233379999999999,0.35700000000000004,0.0538586391
4135,6/21/2012 7:00,1.7425000000000002,0.0,2.4480000000000004,0.0,0.0,0.7455,8.802179999999998,0.4275,0.1650141171
4136,6/21/2012 8:00,1.9577499999999999,0.0,2.7504,0.0,0.0,0.6134999999999999,1.12338,0.5655,0.10659360915
4137,6/21/2012 9:00,0.0,0.0,0.0,0.0,0.0,0.7785,4.86324,1.134,0.14326820550000002
4138,6/21/2012 10:00,0.0,60.740159999999996,0.0,119.34339299999999,9.1845,1.008,0.0,2.0309999999999997,0.1938666618
4139,6/21/2012 11:00,0.0,2.4204800000000004,0.0,4.755804,0.36600000000000005,1.2495,2.0050199999999996,1.9289999999999998,0.13769155154999999
4140,6/21/2012 12:00,0.0,2.80736,0.0,5.515953,0.4245,1.4925000000000002,4.43664,0.7214999999999999,0.257446896
4141,6/21/2012 13:00,1.11725,2.8272000000000004,1.5695999999999999,5.554935,0.4275,1.734,0.0,1.359,0.29653560090000003
4142,6/21/2012 14:00,0.8405,2.65856,1.1808,5.223588,0.402,0.0,3.2137199999999995,1.2329999999999999,0.45887459415
4143,6/21/2012 15:00,5.56575,2.41056,7.8192,4.736313,0.3645,0.0,2.7017999999999995,1.0365,0.5836434429
4144,6/21/2012 16:00,6.4677500000000006,1.95424,9.086400000000001,3.839727,0.2955,0.0,2.09034,0.807,0.47895656550000004
4145,6/21/2012 17:00,7.4005,1.60704,10.3968,3.157542,0.243,0.1515,3.4554599999999995,0.6795,0.5906347062
4146,6/21/2012 18:00,10.557500000000001,2.56928,14.832,5.048169,0.3885,0.1365,1.3508999999999998,1.0365,0.5126071608
4147,6/21/2012 19:00,17.49675,0.0,24.5808,0.0,0.0,0.1245,0.0,0.0,0.40045434345
4148,6/21/2012 20:00,32.021,0.0,44.985600000000005,0.0,0.0,0.0,0.0,0.5715,0.25089072645
4149,6/21/2012 21:00,44.2185,0.0,62.1216,0.0,0.0,0.0,0.0,0.0,0.0
4150,6/21/2012 22:00,56.7235,1.13088,79.6896,2.221974,0.171,3.9119999999999995,0.0,0.11850000000000001,0.0
4151,6/21/2012 23:00,2.7367500000000002,1.1606400000000001,3.8448,2.280447,0.17550000000000002,3.1335,1.67796,0.0,0.0
4152,6/22/2012 0:00,2.8699999999999997,3.78944,4.032,7.445562,0.573,2.19,0.0,0.0,0.0
4153,6/22/2012 1:00,1.3735,0.0,1.9296,0.0,0.0,1.5705,0.0,0.2595,0.0
4154,6/22/2012 2:00,0.9942500000000001,2.29152,1.3968,4.502421,0.3465,1.068,1.82016,0.2115,0.0
4155,6/22/2012 3:00,0.0,4.33504,0.0,8.517567,0.6555000000000001,0.39749999999999996,5.03388,0.24,0.0
4156,6/22/2012 4:00,0.0,3.9779199999999997,0.0,7.815890999999999,0.6014999999999999,0.1305,5.887079999999999,0.1905,0.2956044777
4157,6/22/2012 5:00,0.0,4.37472,0.0,8.595531,0.6615,1.2585,6.128819999999999,0.1215,0.59879992515
4158,6/22/2012 6:00,1.599,4.96992,2.2464,9.764991,0.7515,0.3,6.45588,0.528,0.5910296742
4159,6/22/2012 7:00,1.5374999999999999,3.9283200000000003,2.16,7.7184360000000005,0.5940000000000001,0.23249999999999998,2.7160199999999994,0.5085,0.5031432084
4160,6/22/2012 8:00,2.1935,3.7299200000000003,3.0816,7.328616,0.5640000000000001,0.354,5.5458,0.498,0.39585732375000005
4161,6/22/2012 9:00,3.0749999999999997,0.0,4.32,0.0,0.0,0.159,3.2990399999999993,0.4905,0.47560958550000004
4162,6/22/2012 10:00,3.6694999999999998,0.0,5.1552,0.0,0.0,0.15,2.6164799999999997,0.5235,0.49758526965
4163,6/22/2012 11:00,3.76175,0.0,5.284800000000001,0.0,0.0,0.1275,2.2041,0.5415,0.45943726814999997
4164,6/22/2012 12:00,2.665,0.0,3.744,0.0,0.0,0.1095,2.01924,0.528,0.4962328161000001
4165,6/22/2012 13:00,3.3312500000000003,0.0,4.68,0.0,0.0,0.0,2.3889599999999995,0.5369999999999999,0.51244875465
4166,6/22/2012 14:00,5.289,0.0,7.4304,0.0,0.0,0.531,1.45044,0.585,0.5552901837
4167,6/22/2012 15:00,3.8642499999999997,0.0,5.4288,0.0,0.0,13.1115,1.9339199999999996,0.0,0.5865721575
4168,6/22/2012 16:00,2.92125,0.0,4.104,0.0,0.0,0.0,1.86282,0.0,0.6006559209
4169,6/22/2012 17:00,2.7367500000000002,58.865280000000006,3.8448,115.659594,8.901,0.0,1.422,0.0,0.5496921633
4170,6/22/2012 18:00,2.4395000000000002,61.4048,3.4272,120.64929,9.285,0.0,0.0,0.0,0.51647890455
4171,6/22/2012 19:00,2.173,58.785920000000004,3.0528,115.503666,8.889,0.0,0.0,0.0,0.4039556955
4172,6/22/2012 20:00,1.9064999999999999,49.53056,2.6784,97.318563,7.4895000000000005,0.0,0.0,0.441,0.25643708685
4173,6/22/2012 21:00,1.886,38.221759999999996,2.6496,75.098823,5.7795,0.0,0.0,0.4155,0.0
4174,6/22/2012 22:00,1.3632499999999999,31.0,1.9152,60.909375,4.6875,0.0,0.0,0.0,0.0
4175,6/22/2012 23:00,0.8815,9.731520000000002,1.2384,19.120671,1.4715,0.0,0.0,0.0,0.0
4176,6/23/2012 0:00,0.943,8.35264,1.3248,16.411421999999998,1.263,0.0,0.0,0.0,0.0
4177,6/23/2012 1:00,0.8405,7.5888,1.1808,14.910615,1.1475,0.11699999999999999,0.0,0.0,0.0
4178,6/23/2012 2:00,15.508249999999999,6.894400000000001,21.7872,13.546245,1.0425,0.198,0.0,0.0,0.0
4179,6/23/2012 3:00,1.2197500000000001,6.110720000000001,1.7136,12.006456,0.924,0.309,0.0,0.0,0.0
4180,6/23/2012 4:00,1.32225,5.456,1.8576,10.72005,0.825,0.5145,0.0,0.0,0.014947208850000001
4181,6/23/2012 5:00,0.0,4.8707199999999995,0.0,9.570081,0.7364999999999999,0.672,0.0,0.0,0.0513832494
4182,6/23/2012 6:00,0.0,4.3152,0.0,8.478584999999999,0.6525,0.687,1.0522799999999999,0.0,0.08815084740000001
4183,6/23/2012 7:00,1.2915,4.721920000000001,1.8144,9.277716,0.7140000000000001,0.561,1.26558,0.0,0.13678185465000003
4184,6/23/2012 8:00,2.59325,4.42432,3.6431999999999998,8.692986,0.669,0.375,1.4930999999999999,0.0,0.28181435099999996
4185,6/23/2012 9:00,2.8495,6.20992,4.0032,12.201366,0.9390000000000001,0.20999999999999996,75.02471999999999,0.0,0.29214870195000003
4186,6/23/2012 10:00,2.61375,8.86848,3.6719999999999997,17.424954,1.341,0.177,65.42622,0.0,0.45077713905000005
4187,6/23/2012 11:00,2.5010000000000003,10.644160000000001,3.5136000000000003,20.913843,1.6095000000000002,0.2415,7.892099999999999,0.0,0.5745803143500001
4188,6/23/2012 12:00,2.34725,11.61632,3.2976,22.823960999999997,1.7565,1.7505,33.971579999999996,0.0,0.637329882
4189,6/23/2012 13:00,2.173,12.3008,3.0528,24.16884,1.8599999999999999,1.5255,31.369319999999995,0.0,0.6098598082500001
4190,6/23/2012 14:00,1.85525,14.05664,2.6064000000000003,27.618747,2.1254999999999997,0.16949999999999998,27.9423,0.0,0.58252767405
4191,6/23/2012 15:00,1.7322499999999998,16.82432,2.4335999999999998,33.056736,2.544,0.21300000000000002,23.29236,0.0,0.5575877590500001
4192,6/23/2012 16:00,1.7937500000000002,1.66656,2.5200000000000005,3.274488,0.252,0.0,7.55082,0.0,0.27776028525
4193,6/23/2012 17:00,2.2550000000000003,23.27232,3.168,45.725886,3.519,0.0,7.06734,0.0,0.1246919856
4194,6/23/2012 18:00,4.4485,3.5910400000000005,6.2496,7.055742,0.543,0.0,7.508159999999999,0.25349999999999995,0.06905276175
4195,6/23/2012 19:00,6.3549999999999995,3.66048,8.928,7.192179,0.5535,0.0,4.265999999999999,0.285,0.08703178365
4196,6/23/2012 20:00,7.3185,3.9977600000000004,10.281600000000001,7.854873,0.6045,0.0,3.58344,0.402,0.0363828759
4197,6/23/2012 21:00,9.4915,4.712000000000001,13.3344,9.258225,0.7125,1.1265,3.4412399999999996,0.0,0.0
4198,6/23/2012 22:00,0.0,6.81504,0.0,13.390317,1.0305,1.0739999999999998,2.81556,0.0,0.0
4199,6/23/2012 23:00,0.0,5.06912,0.0,9.959901,0.7665,0.9480000000000001,2.47428,0.0,0.0
4200,6/24/2012 0:00,0.0,4.8608,0.0,9.55059,0.735,0.0,2.50272,0.0,0.0
4201,6/24/2012 1:00,0.0,6.28928,0.0,12.357294,0.951,0.495,2.53116,0.0,0.0
4202,6/24/2012 2:00,0.8815,9.50336,1.2384,18.672378,1.4369999999999998,0.624,3.79674,0.0,0.0
4203,6/24/2012 3:00,26.567999999999998,11.48736,37.324799999999996,22.570578,1.737,0.0,21.728159999999995,0.0,0.0
4204,6/24/2012 4:00,22.878,1.97408,32.1408,3.878709,0.2985,0.0,21.017159999999997,0.0,0.2281502412
4205,6/24/2012 5:00,22.2425,3.08512,31.248,6.061700999999999,0.46649999999999997,0.0,23.761619999999997,0.0,0.33824973105000006
4206,6/24/2012 6:00,16.16425,2.9065600000000003,22.7088,5.710863,0.4395,0.0,4.9059,0.0,0.3857533092
4207,6/24/2012 7:00,10.69075,2.3808000000000002,15.019200000000001,4.67784,0.36,0.0,29.307419999999997,0.10650000000000001,0.42213870615
4208,6/24/2012 8:00,6.0680000000000005,1.94432,8.5248,3.820236,0.294,0.0,33.53076,0.0,0.38671470285000004
4209,6/24/2012 9:00,5.996250000000001,4.6425600000000005,8.424000000000001,9.121788,0.7020000000000001,0.0,35.82018,0.267,0.4335099678
4210,6/24/2012 10:00,7.8309999999999995,16.40768,11.0016,32.238113999999996,2.481,0.12,37.938959999999994,0.6285,0.53325131685
4211,6/24/2012 11:00,9.419749999999999,8.8784,13.2336,17.444444999999998,1.3425,0.111,39.34674,1.0154999999999998,0.56717191965
4212,6/24/2012 12:00,10.07575,4.95008,14.1552,9.726009,0.7484999999999999,2.661,38.365559999999995,1.3005,0.6276733858500001
4213,6/24/2012 13:00,10.557500000000001,5.06912,14.832,9.959901,0.7665,2.517,39.702239999999996,1.059,0.6229015159500001
4214,6/24/2012 14:00,10.742,5.3964799999999995,15.0912,10.603104,0.816,7.880999999999999,42.70266,0.72,0.6092117177999999
4215,6/24/2012 15:00,11.55175,6.04128,16.2288,11.870019000000001,0.9135000000000001,7.668,0.0,0.5625,0.5032688136000001
4216,6/24/2012 16:00,12.7715,7.59872,17.9424,14.930106,1.149,7.9215,0.0,0.4545,0.16263943395
4217,6/24/2012 17:00,13.673499999999999,10.60448,19.2096,20.835879,1.6035,8.190000000000001,1.12338,0.438,0.18665121194999998
4218,6/24/2012 18:00,12.709999999999999,4.03744,17.856,7.932837,0.6105,8.508000000000001,1.3224599999999997,0.5295,0.19447286565000002
4219,6/24/2012 19:00,12.751,3.25376,17.9136,6.393048,0.49200000000000005,8.1825,121.46723999999999,0.5925,0.13302850785
4220,6/24/2012 20:00,18.234750000000002,2.86688,25.6176,5.632898999999999,0.4335,0.4545,122.98877999999999,0.5895,0.0404576067
4221,6/24/2012 21:00,11.910499999999999,2.9958400000000003,16.7328,5.8862820000000005,0.453,6.288,123.98418,0.5865,0.0
4222,6/24/2012 22:00,12.10525,3.08512,17.0064,6.061700999999999,0.46649999999999997,0.396,123.62867999999999,0.5940000000000001,0.0
4223,6/24/2012 23:00,19.649250000000002,2.68832,27.6048,5.282061,0.4065,0.369,123.65711999999999,0.606,0.0
4224,6/25/2012 0:00,17.43525,1.6368,24.4944,3.216015,0.2475,0.342,126.00341999999999,0.49649999999999994,0.0
4225,6/25/2012 1:00,22.591,1.5276800000000001,31.7376,3.001614,0.231,9.3315,128.60567999999998,0.396,0.0
4226,6/25/2012 2:00,33.609750000000005,1.8352,47.217600000000004,3.605835,0.27749999999999997,1.4865,131.16528,0.372,0.0
4227,6/25/2012 3:00,41.9225,1.7459200000000001,58.895999999999994,3.430416,0.264,6.378,133.54002,0.3765,0.0
4228,6/25/2012 4:00,44.884750000000004,1.5376,63.0576,3.021105,0.23249999999999998,0.39,136.35557999999997,0.4005,0.4083854838
4229,6/25/2012 5:00,0.8302499999999999,8.44192,1.1663999999999999,16.586841,1.2765,1.758,137.77758,0.519,0.40070903355000004
4230,6/25/2012 6:00,11.01875,0.8630399999999999,15.48,1.695717,0.1305,0.0,4.94856,0.354,0.46868367000000005
4231,6/25/2012 7:00,11.26475,8.24352,15.8256,16.197021,1.2465,0.0,3.35592,0.2355,0.26677029645
4232,6/25/2012 8:00,10.373,0.0,14.572799999999999,0.0,0.0,0.0,7.806779999999999,0.20999999999999996,0.35835574319999997
4233,6/25/2012 9:00,8.80475,0.0,12.3696,0.0,0.0,0.138,5.360939999999999,0.261,0.4003945428000001
4234,6/25/2012 10:00,1.9885000000000002,0.0,2.7936,0.0,0.0,0.23399999999999999,3.2563799999999996,0.147,0.48000382185000007
4235,6/25/2012 11:00,1.9679999999999997,22.44896,2.7647999999999997,44.108133,3.3945,0.252,21.827699999999997,0.804,0.50194001025
4236,6/25/2012 12:00,1.87575,26.86336,2.6352,52.781628,4.061999999999999,0.2355,22.28274,0.4395,0.50242664115
4237,6/25/2012 13:00,1.48625,36.06912,2.088,70.869276,5.454,0.23399999999999999,123.25895999999999,0.7065,0.51828069405
4238,6/25/2012 14:00,0.0,49.352000000000004,0.0,96.967725,7.4625,0.22499999999999998,0.0,0.927,0.4746918582
4239,6/25/2012 15:00,5.248,52.685120000000005,7.372800000000001,103.516701,7.9665,0.1965,3.2990399999999993,0.864,0.3837219036
4240,6/25/2012 16:00,4.43825,45.39392,6.2352,89.190816,6.864,0.1635,2.3605199999999997,0.6149999999999999,0.2929989846
4241,6/25/2012 17:00,9.17375,0.0,12.888,0.0,0.0,0.162,7.380179999999999,0.5640000000000001,0.22581219780000003
4242,6/25/2012 18:00,11.521,0.0,16.1856,0.0,0.0,0.204,12.030119999999998,0.504,0.25031474055
4243,6/25/2012 19:00,14.022,0.744,19.6992,1.461825,0.11249999999999999,0.23249999999999998,11.290679999999998,0.39899999999999997,0.13249440435
4244,6/25/2012 20:00,15.743999999999998,0.81344,22.118399999999998,1.598262,0.12300000000000001,0.2595,9.968219999999999,0.3465,0.0897684501
4245,6/25/2012 21:00,14.60625,0.8432000000000001,20.52,1.656735,0.1275,0.2625,1.1376,0.327,0.0
4246,6/25/2012 22:00,10.07575,0.9027200000000001,14.1552,1.773681,0.1365,0.23700000000000002,0.0,0.33749999999999997,0.0
4247,6/25/2012 23:00,7.98475,0.7936000000000001,11.2176,1.55928,0.12,0.147,0.0,0.207,0.0
4248,6/26/2012 0:00,7.175000000000001,1.36896,10.080000000000002,2.689758,0.207,0.0,0.0,0.18300000000000002,0.0
4249,6/26/2012 1:00,6.4165,1.87488,9.0144,3.683799,0.2835,0.0,0.0,0.171,0.0
4250,6/26/2012 2:00,5.09425,7.697920000000001,7.1568000000000005,15.125016,1.1640000000000001,0.0,0.0,0.156,0.0
4251,6/26/2012 3:00,3.7822500000000003,16.5168,5.3136,32.452515,2.4975,0.0,0.0,0.14550000000000002,0.0
4252,6/26/2012 4:00,2.69575,31.426560000000002,3.7872,61.747488000000004,4.752000000000001,0.129,27.885419999999996,0.14850000000000002,0.1546119645
4253,6/26/2012 5:00,1.927,7.47968,2.7072000000000003,14.696214,1.131,0.159,0.0,0.108,0.23122216635
4254,6/26/2012 6:00,0.0,8.00544,0.0,15.729236999999998,1.2105,0.17850000000000002,0.0,0.0,0.43871413005000004
4255,6/26/2012 7:00,0.0,9.36448,0.0,18.399504,1.416,0.186,23.27814,0.0,0.40346435325
4256,6/26/2012 8:00,0.0,12.13216,0.0,23.837493000000002,1.8345,5.484,9.5985,0.0,0.30330521865000004
4257,6/26/2012 9:00,0.0,12.23136,0.0,24.032403000000002,1.8495000000000001,5.1645,9.32832,0.0,0.42014147175000005
4258,6/26/2012 10:00,0.0,2.0336000000000003,0.0,3.995655,0.3075,5.268,4.42242,1.7774999999999999,0.39764044845
4259,6/26/2012 11:00,0.0,46.6736,0.0,91.70515499999999,7.057499999999999,5.1555,4.4650799999999995,1.8270000000000002,0.4016855892
4260,6/26/2012 12:00,0.9635,0.0,1.3536000000000001,0.0,0.0,5.5035,4.849019999999999,0.0,0.5329467202500001
4261,6/26/2012 13:00,1.2505000000000002,0.0,1.7568000000000001,0.0,0.0,5.649,5.20452,0.0,0.6141017389500001
4262,6/26/2012 14:00,0.97375,0.0,1.3679999999999999,0.0,0.0,5.37,4.9059,0.0,0.29120795234999997
4263,6/26/2012 15:00,0.7585000000000001,0.0,1.0656,0.0,0.0,5.0715,3.8678399999999993,0.0,0.5162339154
4264,6/26/2012 16:00,0.0,1.2400000000000002,0.0,2.436375,0.1875,4.722,4.265999999999999,0.0,0.6006494508000001
4265,6/26/2012 17:00,0.0,0.0,0.0,0.0,0.0,0.192,11.90214,0.0,0.37257493035
4266,6/26/2012 18:00,0.0,55.01632,0.0,108.09708599999999,8.318999999999999,5.028,12.17232,0.0,0.41995603125000003
4267,6/26/2012 19:00,0.738,2.54944,1.0368,5.009187,0.3855,5.25,12.300299999999998,0.0,0.3219573651
4268,6/26/2012 20:00,4.561249999999999,1.6566400000000001,6.4079999999999995,3.254997,0.2505,4.617,0.0,0.1245,0.12743337600000001
4269,6/26/2012 21:00,4.458749999999999,0.0,6.263999999999999,0.0,0.0,3.7875,0.0,0.0,0.0
4270,6/26/2012 22:00,4.182,0.0,5.8752,0.0,0.0,0.29700000000000004,13.508999999999999,0.0,0.0
4271,6/26/2012 23:00,0.8815,0.0,1.2384,0.0,0.0,0.3285,1.16604,0.0,0.0
4272,6/27/2012 0:00,0.72775,0.0,1.0224,0.0,0.0,0.3435,13.679639999999997,0.6225,0.0
4273,6/27/2012 1:00,0.0,1.70624,0.0,3.352452,0.258,0.3405,9.4563,0.621,0.0
4274,6/27/2012 2:00,0.0,3.9680000000000004,0.0,7.7964,0.6,0.3075,8.61732,0.6,0.0
4275,6/27/2012 3:00,0.0,3.4720000000000004,0.0,6.82185,0.525,0.2985,7.963199999999999,0.672,0.0
4276,6/27/2012 4:00,0.0,2.94624,0.0,5.788827,0.4455,0.312,4.9627799999999995,0.861,0.40137510945
4277,6/27/2012 5:00,0.0,1.64672,0.0,3.235506,0.249,0.3255,4.8347999999999995,0.528,0.5886860784
4278,6/27/2012 6:00,0.0,0.0,0.0,0.0,0.0,2.6205,4.66416,0.4035,0.4729124379
4279,6/27/2012 7:00,0.0,0.0,0.0,0.0,0.0,3.1515,4.7637,0.906,0.43771521255000007
4280,6/27/2012 8:00,4.93025,0.0,6.926399999999999,0.0,0.0,2.781,4.66416,0.8235,0.39674980905
4281,6/27/2012 9:00,0.0,0.75392,0.0,1.481316,0.114,1.902,3.2705999999999995,0.6779999999999999,0.47309376030000005
4282,6/27/2012 10:00,2.4292499999999997,1.00192,3.4128,1.968591,0.1515,0.327,3.08574,0.48,0.44281820310000003
4283,6/27/2012 11:00,2.61375,1.26976,3.6719999999999997,2.494848,0.192,0.26849999999999996,2.8582199999999998,0.294,0.51127646535
4284,6/27/2012 12:00,2.90075,1.47808,4.0752,2.904159,0.2235,0.2655,2.6164799999999997,0.0,0.51520063245
4285,6/27/2012 13:00,3.2697499999999997,1.67648,4.5935999999999995,3.2939789999999998,0.25349999999999995,0.318,24.04602,0.0,0.49809229575
4286,6/27/2012 14:00,3.41325,2.14272,4.7952,4.210056,0.324,0.4065,24.216659999999997,0.0,0.37870138740000003
4287,6/27/2012 15:00,3.895,2.4403200000000003,5.4719999999999995,4.794786,0.369,0.495,2.60226,0.0,0.29198964795
4288,6/27/2012 16:00,0.0,2.53952,0.0,4.989696,0.384,0.5790000000000001,50.182379999999995,0.0,0.30286223835
4289,6/27/2012 17:00,0.0,6.636480000000001,0.0,13.039479,1.0035,10.7025,24.273539999999997,0.0,0.4319078064
4290,6/27/2012 18:00,2.32675,7.707840000000001,3.2688,15.144507,1.1655,10.516499999999999,23.733179999999997,0.0,0.3195967026
4291,6/27/2012 19:00,2.747,7.688,3.8592,15.105525,1.1625,10.6275,21.33,0.0,0.21361523925
4292,6/27/2012 20:00,3.1262499999999998,0.0,4.3919999999999995,0.0,0.0,10.3155,18.400679999999998,0.0,0.0880749534
4293,6/27/2012 21:00,3.2390000000000003,0.0,4.550400000000001,0.0,0.0,9.213,29.961539999999996,0.0,0.0
4294,6/27/2012 22:00,3.198,1.03168,4.4928,2.0270639999999998,0.156,10.1595,1.1376,0.0,0.0
4295,6/27/2012 23:00,2.81875,2.1328,3.96,4.190564999999999,0.32249999999999995,10.6665,1.54998,0.0,0.0
4296,6/28/2012 0:00,0.0,3.1644799999999997,0.0,6.217629,0.4785,10.5435,1.9054799999999998,0.45899999999999996,0.0
4297,6/28/2012 1:00,0.0,2.7775999999999996,0.0,5.457479999999999,0.41999999999999993,4.521,1.422,0.7155,0.0
4298,6/28/2012 2:00,0.0,2.5792,0.0,5.06766,0.39,6.2205,1.10916,0.0,0.0
4299,6/28/2012 3:00,0.0,2.1526400000000003,0.0,4.229547,0.3255,5.8035000000000005,1.09494,0.0,0.0
4300,6/28/2012 4:00,0.0,1.55744,0.0,3.060087,0.2355,6.9855,4.607279999999999,0.0,0.00837802245
4301,6/28/2012 5:00,0.0,2.02368,0.0,3.9761640000000003,0.30600000000000005,9.244499999999999,5.38938,0.0,0.026520539850000004
4302,6/28/2012 6:00,0.0,2.7081600000000003,0.0,5.321043,0.40950000000000003,8.8005,0.0,0.11249999999999999,0.0161626689
4303,6/28/2012 7:00,0.0,2.56928,0.0,5.048169,0.3885,8.385,5.78754,0.3405,0.04325043765
4304,6/28/2012 8:00,1.17875,2.07328,1.656,4.073619,0.3135,9.45,5.602679999999999,0.498,0.05518190475
4305,6/28/2012 9:00,1.025,1.64672,1.44,3.235506,0.249,9.3315,4.86324,0.5325,0.09881767770000001
4306,6/28/2012 10:00,0.9532499999999999,20.52448,1.3392,40.326879,3.1035,9.550500000000001,4.607279999999999,0.51,0.2652638667
4307,6/28/2012 11:00,1.148,16.6656,1.6128,32.74488,2.52,9.459000000000001,4.564619999999999,0.46950000000000003,0.17839761555000003
4308,6/28/2012 12:00,1.6400000000000001,14.00704,2.3040000000000003,27.521292,2.118,9.5115,4.251779999999999,0.39899999999999997,0.2977796304
4309,6/28/2012 13:00,1.312,11.04096,1.8432000000000002,21.693483,1.6695,10.1295,3.88206,0.3195,0.36793847895
4310,6/28/2012 14:00,0.738,8.56096,1.0368,16.820733,1.2945,9.762,3.5407799999999994,0.3075,0.5120416035
4311,6/28/2012 15:00,0.72775,7.410240000000001,1.0224,14.559777,1.1205,9.093,7.2237599999999995,0.5579999999999999,0.38405502239999995
4312,6/28/2012 16:00,0.0,7.420160000000001,0.0,14.579268,1.122,0.5415,4.877459999999999,0.14850000000000002,0.45704928465
4313,6/28/2012 17:00,0.0,0.0,0.0,0.0,0.0,7.7715,4.52196,0.2085,0.48450385095
4314,6/28/2012 18:00,0.7585000000000001,0.0,1.0656,0.0,0.0,13.512,4.94856,0.198,0.20714991780000003
4315,6/28/2012 19:00,1.2095,0.0,1.6992,0.0,0.0,13.480500000000001,4.67838,0.192,0.12220749134999999
4316,6/28/2012 20:00,1.8347499999999999,0.0,2.5776,0.0,0.0,5.3685,4.7637,0.198,0.13383946065
4317,6/28/2012 21:00,2.83925,0.0,3.9888,0.0,0.0,5.1240000000000006,5.48892,0.189,0.0
4318,6/28/2012 22:00,5.81175,0.0,8.1648,0.0,0.0,0.6765,9.58428,0.174,0.0
4319,6/28/2012 23:00,4.78675,9.473600000000001,6.7248,18.613905,1.4325,0.9644999999999999,5.95818,0.1515,0.0
