AP,2025,2030,2035,2040,2045,2050
British Columbia,0,0.037890815,0,0.026583631,0,0.020981006
Alberta,0,0.037890815,0,0.026583631,0,0.020981006
Saskatchewan,0,0.037890815,0,0.026583631,0,0.020981006
Manitoba,0,0.037890815,0,0.026583631,0,0.020981006
Ontario,0,0.037890815,0,0.026583631,0,0.020981006
Quebec,0,0.037890815,0,0.026583631,0,0.020981006
New Brunswick,0,0.037890815,0,0.026583631,0,0.020981006
Prince Edward Island,0,0.037890815,0,0.026583631,0,0.020981006
Nova Scotia,0,0.037890815,0,0.026583631,0,0.020981006
Newfoundland and Labrador,0,0.037890815,0,0.026583631,0,0.020981006
