2030,PHS,British Columbia.a,0.0
2030,PHS,Alberta.a,156.20000000000005
2030,PHS,Saskatchewan.a,233.00000000000006
2030,PHS,Manitoba.a,88.7424565554912
2030,PHS,Ontario.a,28.8
2030,PHS,Ontario.b,211.98040640904128
2030,PHS,Quebec.a,295.2
2030,PHS,Quebec.b,0.0
2030,PHS,New Brunswick.a,0.0
2030,PHS,Newfoundland and Labrador.a,0.0
2030,PHS,Newfoundland and Labrador.b,0.0
2030,PHS,Nova Scotia.a,0.0
2030,PHS,Prince Edward Island.a,0.0
2030,LB,British Columbia.a,0.0
2030,LB,Alberta.a,503.7225337123156
2030,LB,Saskatchewan.a,0.0
2030,LB,Manitoba.a,0.0
2030,LB,Ontario.a,839.2762902938898
2030,LB,Ontario.b,0.0
2030,LB,Quebec.a,0.0
2030,LB,Quebec.b,0.0
2030,LB,New Brunswick.a,0.0
2030,LB,Newfoundland and Labrador.a,0.0
2030,LB,Newfoundland and Labrador.b,0.0
2030,LB,Nova Scotia.a,0.0
2030,LB,Prince Edward Island.a,44.009646169056396
2040,PHS,British Columbia.a,0.0
2040,PHS,Alberta.a,0.0
2040,PHS,Saskatchewan.a,0.0
2040,PHS,Manitoba.a,972.8575434445089
2040,PHS,Ontario.a,0.0
2040,PHS,Ontario.b,492.4195935909588
2040,PHS,Quebec.a,0.0
2040,PHS,Quebec.b,0.0
2040,PHS,New Brunswick.a,172.60000000000002
2040,PHS,Newfoundland and Labrador.a,207.38000000000002
2040,PHS,Newfoundland and Labrador.b,0.0
2040,PHS,Nova Scotia.a,106.93
2040,PHS,Prince Edward Island.a,0.0
2040,LB,British Columbia.a,0.0
2040,LB,Alberta.a,0.0
2040,LB,Saskatchewan.a,0.0
2040,LB,Manitoba.a,0.0
2040,LB,Ontario.a,0.0
2040,LB,Ontario.b,0.0
2040,LB,Quebec.a,0.0
2040,LB,Quebec.b,0.0
2040,LB,New Brunswick.a,0.0
2040,LB,Newfoundland and Labrador.a,0.0
2040,LB,Newfoundland and Labrador.b,0.0
2040,LB,Nova Scotia.a,0.0
2040,LB,Prince Edward Island.a,0.0
2050,PHS,British Columbia.a,0.0
2050,PHS,Alberta.a,0.0
2050,PHS,Saskatchewan.a,0.0
2050,PHS,Manitoba.a,0.0
2050,PHS,Ontario.a,0.0
2050,PHS,Ontario.b,0.0
2050,PHS,Quebec.a,0.0
2050,PHS,Quebec.b,0.0
2050,PHS,New Brunswick.a,0.0
2050,PHS,Newfoundland and Labrador.a,0.0
2050,PHS,Newfoundland and Labrador.b,0.0
2050,PHS,Nova Scotia.a,0.0
2050,PHS,Prince Edward Island.a,0.0
2050,LB,British Columbia.a,0.0
2050,LB,Alberta.a,6361.261963379102
2050,LB,Saskatchewan.a,1464.7844976333458
2050,LB,Manitoba.a,1170.7530223599265
2050,LB,Ontario.a,7710.438426744455
2050,LB,Ontario.b,364.3533173536712
2050,LB,Quebec.a,4868.195950963305
2050,LB,Quebec.b,0.0
2050,LB,New Brunswick.a,0.0
2050,LB,Newfoundland and Labrador.a,963.3950348189363
2050,LB,Newfoundland and Labrador.b,0.0
2050,LB,Nova Scotia.a,867.7190401895299
2050,LB,Prince Edward Island.a,192.64520185250797
