,date,Wind_1,Wind_13,Wind_19
2880,4/30/2012 0:00,0.0,0.0,0.0
2881,4/30/2012 1:00,0.0,0.0,0.0
2882,4/30/2012 2:00,24.624,0.0,0.0
2883,4/30/2012 3:00,44.46,0.0,0.0
2884,4/30/2012 4:00,70.794,0.0,0.0
2885,4/30/2012 5:00,102.942,0.0,0.0
2886,4/30/2012 6:00,145.35000000000002,3.5376000000000003,0.88
2887,4/30/2012 7:00,198.35999999999999,4.2612,1.06
2888,4/30/2012 8:00,251.02800000000002,0.0,0.0
2889,4/30/2012 9:00,868.3380000000001,3.2561999999999998,0.8099999999999999
2890,4/30/2012 10:00,883.7280000000001,5.7084,1.4200000000000002
2891,4/30/2012 11:00,792.414,7.1154,1.77
2892,4/30/2012 12:00,638.1719999999999,9.8088,2.44
2893,4/30/2012 13:00,541.7280000000001,14.2308,3.54
2894,4/30/2012 14:00,541.044,20.1,5.0
2895,4/30/2012 15:00,572.5079999999999,4.623,1.15
2896,4/30/2012 16:00,532.1519999999999,0.0,0.0
2897,4/30/2012 17:00,550.962,0.0,0.0
2898,4/30/2012 18:00,572.166,0.0,0.0
2899,4/30/2012 19:00,510.264,0.0,0.0
2900,4/30/2012 20:00,428.184,0.0,0.0
2901,4/30/2012 21:00,357.73199999999997,0.0,0.0
2902,4/30/2012 22:00,282.492,0.0,0.0
2903,4/30/2012 23:00,177.84,0.0,0.0
2904,5/1/2012 0:00,110.80799999999999,0.0,0.0
2905,5/1/2012 1:00,61.90200000000001,0.0,0.0
2906,5/1/2012 2:00,583.11,0.0,0.0
2907,5/1/2012 3:00,463.752,0.0,0.0
2908,5/1/2012 4:00,303.354,54.551399999999994,13.569999999999999
2909,5/1/2012 5:00,174.762,54.471000000000004,13.55
2910,5/1/2012 6:00,96.102,59.0538,14.69
2911,5/1/2012 7:00,62.586,63.998400000000004,15.920000000000002
2912,5/1/2012 8:00,57.114,59.5362,14.81
2913,5/1/2012 9:00,63.611999999999995,22.11,5.5
2914,5/1/2012 10:00,156.29399999999998,23.8386,5.93
2915,5/1/2012 11:00,145.692,44.7828,11.14
2916,5/1/2012 12:00,127.566,46.8732,11.66
2917,5/1/2012 13:00,137.142,45.627,11.35
2918,5/1/2012 14:00,141.93,43.4562,10.81
2919,5/1/2012 15:00,164.844,48.6018,12.09
2920,5/1/2012 16:00,178.86599999999999,50.732400000000005,12.620000000000001
2921,5/1/2012 17:00,191.862,42.0492,10.459999999999999
2922,5/1/2012 18:00,195.624,5.427,1.35
2923,5/1/2012 19:00,176.13,5.0652,1.26
2924,5/1/2012 20:00,182.62800000000001,4.9044,1.22
2925,5/1/2012 21:00,210.32999999999998,28.4616,7.08
2926,5/1/2012 22:00,216.14400000000003,30.3912,7.5600000000000005
2927,5/1/2012 23:00,174.762,32.562,8.1
2928,5/2/2012 0:00,78.66,0.0,0.0
2929,5/2/2012 1:00,32.148,0.0,0.0
2930,5/2/2012 2:00,0.0,0.0,0.0
2931,5/2/2012 3:00,0.0,0.0,0.0
2932,5/2/2012 4:00,0.0,3.2561999999999998,0.8099999999999999
2933,5/2/2012 5:00,0.0,5.1858,1.29
2934,5/2/2012 6:00,24.966,8.0802,2.01
2935,5/2/2012 7:00,60.192,10.1706,2.53
2936,5/2/2012 8:00,86.868,10.854000000000001,2.7
2937,5/2/2012 9:00,128.934,10.090200000000001,2.5100000000000002
2938,5/2/2012 10:00,174.42,9.4872,2.36
2939,5/2/2012 11:00,214.43400000000003,8.241,2.0500000000000003
2940,5/2/2012 12:00,261.972,22.9944,5.72
2941,5/2/2012 13:00,345.07800000000003,27.0546,6.7299999999999995
2942,5/2/2012 14:00,560.538,24.924,6.2
2943,5/2/2012 15:00,780.444,21.6678,5.390000000000001
2944,5/2/2012 16:00,1017.4499999999999,17.9292,4.46
2945,5/2/2012 17:00,1083.4560000000001,10.8138,2.69
2946,5/2/2012 18:00,1086.8760000000002,3.6984,0.9199999999999999
2947,5/2/2012 19:00,133.03799999999998,0.0,0.0
2948,5/2/2012 20:00,97.47,0.0,0.0
2949,5/2/2012 21:00,73.53,0.0,0.0
2950,5/2/2012 22:00,61.90200000000001,5.3064,1.32
2951,5/2/2012 23:00,55.062,12.7032,3.16
2952,5/3/2012 0:00,55.062,31.999200000000002,7.960000000000001
2953,5/3/2012 1:00,54.378,43.6572,10.86
2954,5/3/2012 2:00,50.958,35.778000000000006,8.9
2955,5/3/2012 3:00,45.828,29.748000000000005,7.400000000000001
2956,5/3/2012 4:00,39.33,27.6978,6.890000000000001
2957,5/3/2012 5:00,34.542,31.5168,7.84
2958,5/3/2012 6:00,35.568,28.340999999999998,7.049999999999999
2959,5/3/2012 7:00,36.252,17.5272,4.36
2960,5/3/2012 8:00,40.698,10.090200000000001,2.5100000000000002
2961,5/3/2012 9:00,51.3,2.9346,0.73
2962,5/3/2012 10:00,78.66,0.0,0.0
2963,5/3/2012 11:00,147.06,0.0,0.0
2964,5/3/2012 12:00,293.778,4.7034,1.17
2965,5/3/2012 13:00,387.144,18.170399999999997,4.52
2966,5/3/2012 14:00,467.172,44.3004,11.020000000000001
2967,5/3/2012 15:00,1048.23,89.2842,22.21
2968,5/3/2012 16:00,995.5620000000001,109.947,27.35
2969,5/3/2012 17:00,954.18,112.3188,27.939999999999998
2970,5/3/2012 18:00,926.478,122.208,30.4
2971,5/3/2012 19:00,887.832,157.8654,39.269999999999996
2972,5/3/2012 20:00,243.846,201.20099999999996,50.05
2973,5/3/2012 21:00,0.0,236.33579999999998,58.79
2974,5/3/2012 22:00,0.0,0.0,0.0
2975,5/3/2012 23:00,0.0,0.0,0.0
2976,5/4/2012 0:00,0.0,0.0,0.0
2977,5/4/2012 1:00,0.0,0.0,0.0
2978,5/4/2012 2:00,0.0,0.0,0.0
2979,5/4/2012 3:00,0.0,0.0,0.0
2980,5/4/2012 4:00,0.0,0.0,0.0
2981,5/4/2012 5:00,0.0,0.0,0.0
2982,5/4/2012 6:00,0.0,0.0,0.0
2983,5/4/2012 7:00,0.0,0.0,0.0
2984,5/4/2012 8:00,0.0,22.069799999999997,5.489999999999999
2985,5/4/2012 9:00,24.624,27.2958,6.79
2986,5/4/2012 10:00,23.939999999999998,33.205200000000005,8.260000000000002
2987,5/4/2012 11:00,38.988,35.4966,8.83
2988,5/4/2012 12:00,40.356,31.356,7.8
2989,5/4/2012 13:00,31.464,0.0,0.0
2990,5/4/2012 14:00,0.0,4.5828,1.1400000000000001
2991,5/4/2012 15:00,0.0,6.0702,1.51
2992,5/4/2012 16:00,1552.6799999999998,6.432,1.6
2993,5/4/2012 17:00,1524.2939999999999,6.432,1.6
2994,5/4/2012 18:00,1465.47,6.029999999999999,1.5
2995,5/4/2012 19:00,1398.4379999999999,5.7486,1.43
2996,5/4/2012 20:00,1590.3000000000002,26.0898,6.49
2997,5/4/2012 21:00,1740.438,32.642399999999995,8.12
2998,5/4/2012 22:00,1839.6180000000002,37.6674,9.370000000000001
2999,5/4/2012 23:00,1847.826,46.5114,11.57
3000,5/5/2012 0:00,1776.6899999999998,51.1746,12.73
3001,5/5/2012 1:00,1676.826,46.3104,11.52
3002,5/5/2012 2:00,1616.9759999999999,38.1096,9.48
3003,5/5/2012 3:00,1618.0020000000002,42.571799999999996,10.59
3004,5/5/2012 4:00,1499.328,42.933600000000006,10.68
3005,5/5/2012 5:00,1365.9479999999999,48.4008,12.04
3006,5/5/2012 6:00,1283.184,50.049,12.45
3007,5/5/2012 7:00,1220.598,73.08359999999999,18.18
3008,5/5/2012 8:00,214.092,117.3438,29.189999999999998
3009,5/5/2012 9:00,453.15000000000003,127.1526,31.630000000000003
3010,5/5/2012 10:00,915.876,124.4994,30.97
3011,5/5/2012 11:00,1441.8719999999998,119.67540000000001,29.770000000000003
3012,5/5/2012 12:00,1615.608,115.8966,28.83
3013,5/5/2012 13:00,1562.2559999999999,123.213,30.65
3014,5/5/2012 14:00,1280.106,151.755,37.75
3015,5/5/2012 15:00,1066.356,120.1578,29.89
3016,5/5/2012 16:00,780.102,28.300800000000002,7.04
3017,5/5/2012 17:00,472.64399999999995,77.4252,19.259999999999998
3018,5/5/2012 18:00,278.388,64.1994,15.97
3019,5/5/2012 19:00,110.46600000000001,49.5264,12.32
3020,5/5/2012 20:00,1174.4279999999999,42.330600000000004,10.530000000000001
3021,5/5/2012 21:00,1137.15,4.542599999999999,1.13
3022,5/5/2012 22:00,736.668,6.1506,1.53
3023,5/5/2012 23:00,807.804,7.839,1.95
3024,5/6/2012 0:00,849.528,9.2862,2.31
3025,5/6/2012 1:00,876.5459999999999,9.447,2.35
3026,5/6/2012 2:00,838.2420000000001,8.5224,2.12
3027,5/6/2012 3:00,797.8860000000001,7.075200000000001,1.76
3028,5/6/2012 4:00,677.8439999999999,5.1053999999999995,1.27
3029,5/6/2012 5:00,769.158,3.4572,0.86
3030,5/6/2012 6:00,1092.348,3.1758,0.79
3031,5/6/2012 7:00,1198.026,3.5778,0.89
3032,5/6/2012 8:00,1093.032,4.542599999999999,1.13
3033,5/6/2012 9:00,1051.308,5.9496,1.48
3034,5/6/2012 10:00,878.2559999999999,8.6028,2.1399999999999997
3035,5/6/2012 11:00,702.1260000000001,12.4218,3.09
3036,5/6/2012 12:00,345.41999999999996,17.8488,4.44
3037,5/6/2012 13:00,352.944,25.567200000000003,6.36
3038,5/6/2012 14:00,416.214,58.732200000000006,14.610000000000001
3039,5/6/2012 15:00,392.274,59.294999999999995,14.75
3040,5/6/2012 16:00,332.424,59.7372,14.860000000000001
3041,5/6/2012 17:00,277.704,64.1994,15.97
3042,5/6/2012 18:00,234.95399999999998,69.7068,17.34
3043,5/6/2012 19:00,174.42,78.0282,19.41
3044,5/6/2012 20:00,128.934,80.6814,20.07
3045,5/6/2012 21:00,106.362,78.63119999999999,19.56
3046,5/6/2012 22:00,117.30599999999998,68.54100000000001,17.05
3047,5/6/2012 23:00,117.648,43.0542,10.71
3048,5/7/2012 0:00,117.30599999999998,22.3512,5.56
3049,5/7/2012 1:00,116.622,9.2058,2.29
3050,5/7/2012 2:00,113.544,3.819,0.95
3051,5/7/2012 3:00,107.38799999999999,0.0,0.0
3052,5/7/2012 4:00,99.17999999999999,3.4170000000000003,0.8500000000000001
3053,5/7/2012 5:00,90.288,6.3516,1.58
3054,5/7/2012 6:00,68.058,6.3516,1.58
3055,5/7/2012 7:00,35.226,79.99799999999999,19.9
3056,5/7/2012 8:00,30.780000000000005,85.1838,21.19
3057,5/7/2012 9:00,1519.164,84.822,21.1
3058,5/7/2012 10:00,78.66,83.33460000000001,20.73
3059,5/7/2012 11:00,143.64000000000001,80.5608,20.04
3060,5/7/2012 12:00,225.036,79.15379999999999,19.689999999999998
3061,5/7/2012 13:00,295.488,75.978,18.9
3062,5/7/2012 14:00,325.242,73.6464,18.32
3063,5/7/2012 15:00,310.194,75.7368,18.84
3064,5/7/2012 16:00,274.626,90.2892,22.46
3065,5/7/2012 17:00,220.59,105.123,26.150000000000002
3066,5/7/2012 18:00,94.734,123.29339999999999,30.669999999999998
3067,5/7/2012 19:00,71.478,0.0,0.0
3068,5/7/2012 20:00,84.132,17.889,4.45
3069,5/7/2012 21:00,102.6,13.1856,3.2800000000000002
3070,5/7/2012 22:00,116.622,13.9494,3.47
3071,5/7/2012 23:00,117.30599999999998,11.135399999999999,2.77
3072,5/8/2012 0:00,118.674,8.241,2.0500000000000003
3073,5/8/2012 1:00,111.834,6.5123999999999995,1.6199999999999999
3074,5/8/2012 2:00,98.496,5.025,1.25
3075,5/8/2012 3:00,83.79,4.5024,1.1199999999999999
3076,5/8/2012 4:00,74.214,3.9396,0.98
3077,5/8/2012 5:00,70.452,3.7385999999999995,0.9299999999999999
3078,5/8/2012 6:00,59.507999999999996,3.7788,0.9400000000000001
3079,5/8/2012 7:00,42.75,3.7788,0.9400000000000001
3080,5/8/2012 8:00,33.858000000000004,4.1808,1.04
3081,5/8/2012 9:00,852.606,4.0200000000000005,1.0
3082,5/8/2012 10:00,788.652,3.6984,0.9199999999999999
3083,5/8/2012 11:00,692.892,3.5376000000000003,0.88
3084,5/8/2012 12:00,546.174,2.9748,0.74
3085,5/8/2012 13:00,402.534,3.3366000000000002,0.83
3086,5/8/2012 14:00,307.8,7.316400000000001,1.82
3087,5/8/2012 15:00,302.32800000000003,13.024799999999999,3.2399999999999998
3088,5/8/2012 16:00,282.15000000000003,22.511999999999997,5.6
3089,5/8/2012 17:00,248.292,32.642399999999995,8.12
3090,5/8/2012 18:00,139.536,42.813,10.65
3091,5/8/2012 19:00,133.722,42.1296,10.48
3092,5/8/2012 20:00,123.462,25.165200000000002,6.260000000000001
3093,5/8/2012 21:00,48.222,18.5724,4.62
3094,5/8/2012 22:00,0.0,17.487,4.35
3095,5/8/2012 23:00,31.122,15.637799999999999,3.8899999999999997
3096,5/9/2012 0:00,49.59,20.5422,5.11
3097,5/9/2012 1:00,60.192,28.5822,7.109999999999999
3098,5/9/2012 2:00,74.214,36.541799999999995,9.09
3099,5/9/2012 3:00,100.206,38.7528,9.64
3100,5/9/2012 4:00,128.25,36.943799999999996,9.19
3101,5/9/2012 5:00,138.168,240.83819999999997,59.91
3102,5/9/2012 6:00,123.80400000000002,17.1252,4.26
3103,5/9/2012 7:00,89.946,18.4116,4.58
3104,5/9/2012 8:00,46.854,16.321199999999997,4.06
3105,5/9/2012 9:00,0.0,15.0348,3.74
3106,5/9/2012 10:00,0.0,14.472000000000001,3.6000000000000005
3107,5/9/2012 11:00,0.0,14.270999999999999,3.55
3108,5/9/2012 12:00,28.044000000000004,25.647599999999997,6.38
3109,5/9/2012 13:00,31.464,28.8234,7.17
3110,5/9/2012 14:00,150.822,30.1902,7.51
3111,5/9/2012 15:00,126.54000000000002,32.4012,8.06
3112,5/9/2012 16:00,106.02,41.4462,10.31
3113,5/9/2012 17:00,94.05,45.9486,11.43
3114,5/9/2012 18:00,81.738,43.3758,10.79
3115,5/9/2012 19:00,76.608,25.7682,6.41
3116,5/9/2012 20:00,71.82000000000001,15.9594,3.9699999999999998
3117,5/9/2012 21:00,68.4,19.7784,4.92
3118,5/9/2012 22:00,72.504,20.7432,5.16
3119,5/9/2012 23:00,73.188,19.215600000000002,4.78
3120,5/10/2012 0:00,70.11,17.9694,4.47
3121,5/10/2012 1:00,43.092,17.9694,4.47
3122,5/10/2012 2:00,42.75,12.783600000000002,3.18
3123,5/10/2012 3:00,71.136,9.5274,2.37
3124,5/10/2012 4:00,113.202,9.5676,2.3800000000000003
3125,5/10/2012 5:00,155.952,11.8992,2.96
3126,5/10/2012 6:00,209.988,13.869000000000002,3.45
3127,5/10/2012 7:00,260.604,15.477,3.85
3128,5/10/2012 8:00,266.07599999999996,17.2458,4.29
3129,5/10/2012 9:00,227.77200000000002,67.6968,16.84
3130,5/10/2012 10:00,322.506,53.868,13.4
3131,5/10/2012 11:00,412.11,3.8994,0.97
3132,5/10/2012 12:00,456.57000000000005,3.3366000000000002,0.83
3133,5/10/2012 13:00,71.82000000000001,4.2612,1.06
3134,5/10/2012 14:00,41.04,7.3566,1.83
3135,5/10/2012 15:00,45.828,9.648,2.4
3136,5/10/2012 16:00,73.872,9.648,2.4
3137,5/10/2012 17:00,101.916,9.6882,2.41
3138,5/10/2012 18:00,139.878,8.9646,2.23
3139,5/10/2012 19:00,206.568,7.9193999999999996,1.97
3140,5/10/2012 20:00,288.648,6.4722,1.6099999999999999
3141,5/10/2012 21:00,365.94,5.1858,1.29
3142,5/10/2012 22:00,479.826,4.6632,1.16
3143,5/10/2012 23:00,669.978,3.9798000000000004,0.9900000000000001
3144,5/11/2012 0:00,971.964,3.6582000000000003,0.91
3145,5/11/2012 1:00,1279.08,104.5602,26.009999999999998
3146,5/11/2012 2:00,1560.888,152.157,37.85
3147,5/11/2012 3:00,1750.3560000000002,184.8396,45.98
3148,5/11/2012 4:00,1811.9160000000002,202.00499999999997,50.24999999999999
3149,5/11/2012 5:00,1824.9119999999998,169.5636,42.18
3150,5/11/2012 6:00,1799.946,174.5886,43.43
3151,5/11/2012 7:00,1669.302,181.0206,45.03
3152,5/11/2012 8:00,0.0,0.0,0.0
3153,5/11/2012 9:00,0.0,0.0,0.0
3154,5/11/2012 10:00,0.0,0.0,0.0
3155,5/11/2012 11:00,0.0,14.5524,3.62
3156,5/11/2012 12:00,0.0,9.0048,2.2399999999999998
3157,5/11/2012 13:00,0.0,5.1053999999999995,1.27
3158,5/11/2012 14:00,0.0,5.5878,1.39
3159,5/11/2012 15:00,0.0,6.0702,1.51
3160,5/11/2012 16:00,0.0,5.5476,1.38
3161,5/11/2012 17:00,24.282,5.025,1.25
3162,5/11/2012 18:00,32.148,5.8692,1.46
3163,5/11/2012 19:00,36.936,4.5828,1.1400000000000001
3164,5/11/2012 20:00,0.0,3.0552,0.76
3165,5/11/2012 21:00,0.0,0.0,0.0
3166,5/11/2012 22:00,25.992,0.0,0.0
3167,5/11/2012 23:00,322.506,66.1692,16.46
3168,5/12/2012 0:00,554.382,62.5914,15.57
3169,5/12/2012 1:00,770.526,63.073800000000006,15.690000000000001
3170,5/12/2012 2:00,851.58,72.8826,18.13
3171,5/12/2012 3:00,782.496,85.46520000000001,21.26
3172,5/12/2012 4:00,632.7,95.5956,23.78
3173,5/12/2012 5:00,466.83000000000004,89.646,22.3
3174,5/12/2012 6:00,321.822,76.2192,18.96
3175,5/12/2012 7:00,239.05800000000002,76.5408,19.040000000000003
3176,5/12/2012 8:00,171.34199999999998,79.797,19.85
3177,5/12/2012 9:00,137.142,73.365,18.25
3178,5/12/2012 10:00,134.064,48.9636,12.18
3179,5/12/2012 11:00,120.042,63.5964,15.82
3180,5/12/2012 12:00,83.106,79.7166,19.830000000000002
3181,5/12/2012 13:00,60.192,101.58539999999999,25.27
3182,5/12/2012 14:00,46.512,129.0822,32.11
3183,5/12/2012 15:00,28.727999999999998,126.8712,31.56
3184,5/12/2012 16:00,0.0,106.77120000000001,26.56
3185,5/12/2012 17:00,0.0,132.01680000000002,32.84
3186,5/12/2012 18:00,0.0,185.88479999999998,46.239999999999995
3187,5/12/2012 19:00,0.0,206.02499999999998,51.24999999999999
3188,5/12/2012 20:00,0.0,190.34699999999998,47.349999999999994
3189,5/12/2012 21:00,0.0,137.08200000000002,34.1
3190,5/12/2012 22:00,0.0,103.2336,25.679999999999996
3191,5/12/2012 23:00,0.0,107.3742,26.71
3192,5/13/2012 0:00,961.0200000000001,125.1426,31.130000000000003
3193,5/13/2012 1:00,1374.8400000000001,147.4536,36.68
3194,5/13/2012 2:00,1336.5359999999998,152.5188,37.940000000000005
3195,5/13/2012 3:00,1162.116,148.338,36.9
3196,5/13/2012 4:00,954.864,140.9814,35.07
3197,5/13/2012 5:00,880.3080000000001,59.696999999999996,14.85
3198,5/13/2012 6:00,718.542,62.953199999999995,15.659999999999998
3199,5/13/2012 7:00,561.906,69.06360000000001,17.18
3200,5/13/2012 8:00,391.93199999999996,59.4156,14.78
3201,5/13/2012 9:00,70.452,37.0242,9.21
3202,5/13/2012 10:00,185.70600000000002,20.9442,5.21
3203,5/13/2012 11:00,353.96999999999997,13.386600000000001,3.3300000000000005
3204,5/13/2012 12:00,472.302,7.959600000000001,1.9800000000000002
3205,5/13/2012 13:00,652.536,6.0702,1.51
3206,5/13/2012 14:00,624.15,7.035000000000001,1.7500000000000002
3207,5/13/2012 15:00,559.512,9.246,2.3
3208,5/13/2012 16:00,571.482,10.1706,2.53
3209,5/13/2012 17:00,530.784,11.0952,2.76
3210,5/13/2012 18:00,89.604,46.9536,11.68
3211,5/13/2012 19:00,1472.652,43.5768,10.84
3212,5/13/2012 20:00,1230.516,50.933400000000006,12.67
3213,5/13/2012 21:00,906.9839999999999,65.8074,16.37
3214,5/13/2012 22:00,598.842,66.531,16.55
3215,5/13/2012 23:00,585.162,74.571,18.55
3216,5/14/2012 0:00,622.782,37.6674,9.370000000000001
3217,5/14/2012 1:00,66.348,27.336000000000002,6.800000000000001
3218,5/14/2012 2:00,89.262,36.8634,9.17
3219,5/14/2012 3:00,124.146,37.7076,9.379999999999999
3220,5/14/2012 4:00,139.536,33.6474,8.37
3221,5/14/2012 5:00,134.064,29.2254,7.2700000000000005
3222,5/14/2012 6:00,114.228,26.2908,6.54
3223,5/14/2012 7:00,99.522,23.4366,5.83
3224,5/14/2012 8:00,87.894,20.9442,5.21
3225,5/14/2012 9:00,76.266,18.371399999999998,4.569999999999999
3226,5/14/2012 10:00,405.954,15.718200000000001,3.91
3227,5/14/2012 11:00,430.236,13.266,3.3000000000000003
3228,5/14/2012 12:00,432.28800000000007,10.854000000000001,2.7
3229,5/14/2012 13:00,300.96000000000004,7.3566,1.83
3230,5/14/2012 14:00,370.38599999999997,6.3114,1.5699999999999998
3231,5/14/2012 15:00,640.566,6.8742,1.71
3232,5/14/2012 16:00,582.768,7.316400000000001,1.82
3233,5/14/2012 17:00,453.83400000000006,7.477199999999999,1.8599999999999999
3234,5/14/2012 18:00,375.858,8.2812,2.06
3235,5/14/2012 19:00,303.696,8.5224,2.12
3236,5/14/2012 20:00,232.56000000000003,9.4872,2.36
3237,5/14/2012 21:00,166.212,42.4512,10.56
3238,5/14/2012 22:00,108.756,39.6372,9.86
3239,5/14/2012 23:00,135.09,23.115000000000002,5.75
3240,5/15/2012 0:00,181.26,24.883799999999997,6.1899999999999995
3241,5/15/2012 1:00,209.988,41.0844,10.22
3242,5/15/2012 2:00,220.93200000000002,88.8018,22.09
3243,5/15/2012 3:00,203.832,106.53,26.5
3244,5/15/2012 4:00,177.49800000000002,122.73060000000001,30.53
3245,5/15/2012 5:00,167.58,128.1174,31.869999999999997
3246,5/15/2012 6:00,160.056,121.3638,30.19
3247,5/15/2012 7:00,160.398,88.7616,22.08
3248,5/15/2012 8:00,167.922,79.99799999999999,19.9
3249,5/15/2012 9:00,179.208,63.516,15.8
3250,5/15/2012 10:00,43.092,45.6672,11.360000000000001
3251,5/15/2012 11:00,38.646,32.562,8.1
3252,5/15/2012 12:00,33.858000000000004,19.8588,4.9399999999999995
3253,5/15/2012 13:00,0.0,45.4662,11.31
3254,5/15/2012 14:00,0.0,40.602,10.1
3255,5/15/2012 15:00,0.0,70.3098,17.49
3256,5/15/2012 16:00,0.0,57.0438,14.19
3257,5/15/2012 17:00,91.998,31.275599999999997,7.779999999999999
3258,5/15/2012 18:00,79.686,30.552,7.6
3259,5/15/2012 19:00,86.184,30.1902,7.51
3260,5/15/2012 20:00,98.838,32.3208,8.04
3261,5/15/2012 21:00,111.49199999999999,35.175,8.75
3262,5/15/2012 22:00,1173.744,39.7578,9.89
3263,5/15/2012 23:00,940.5000000000001,50.0892,12.46
3264,5/16/2012 0:00,794.1239999999999,68.34,17.0
3265,5/16/2012 1:00,737.01,158.38799999999998,39.4
3266,5/16/2012 2:00,608.076,144.8808,36.04
3267,5/16/2012 3:00,538.65,116.98200000000001,29.100000000000005
3268,5/16/2012 4:00,515.052,101.706,25.3
3269,5/16/2012 5:00,688.1039999999999,102.42960000000001,25.480000000000004
3270,5/16/2012 6:00,1263.69,100.1382,24.91
3271,5/16/2012 7:00,1625.184,100.2186,24.93
3272,5/16/2012 8:00,1681.272,98.7714,24.57
3273,5/16/2012 9:00,1728.8099999999997,93.3042,23.21
3274,5/16/2012 10:00,36.252,101.9874,25.369999999999997
3275,5/16/2012 11:00,24.282,44.019,10.95
3276,5/16/2012 12:00,27.701999999999998,37.185,9.25
3277,5/16/2012 13:00,27.701999999999998,39.034200000000006,9.71
3278,5/16/2012 14:00,32.49,50.7726,12.629999999999999
3279,5/16/2012 15:00,44.802,71.6766,17.83
3280,5/16/2012 16:00,259.578,101.2236,25.180000000000003
3281,5/16/2012 17:00,263.34,110.4696,27.48
3282,5/16/2012 18:00,243.846,100.299,24.95
3283,5/16/2012 19:00,232.21800000000002,73.7268,18.34
3284,5/16/2012 20:00,228.456,62.671800000000005,15.590000000000002
3285,5/16/2012 21:00,211.01399999999998,62.6316,15.58
3286,5/16/2012 22:00,183.654,68.5812,17.06
3287,5/16/2012 23:00,211.69799999999998,81.1638,20.19
3288,5/17/2012 0:00,293.778,113.6856,28.28
3289,5/17/2012 1:00,359.442,149.8254,37.269999999999996
3290,5/17/2012 2:00,397.746,177.6438,44.190000000000005
3291,5/17/2012 3:00,397.06199999999995,183.6336,45.68
3292,5/17/2012 4:00,458.96400000000006,186.08579999999998,46.29
3293,5/17/2012 5:00,585.162,183.91500000000002,45.75
3294,5/17/2012 6:00,770.1840000000001,174.1866,43.33
3295,5/17/2012 7:00,837.216,59.3754,14.77
3296,5/17/2012 8:00,773.604,52.7424,13.120000000000001
3297,5/17/2012 9:00,720.9359999999999,44.340599999999995,11.03
3298,5/17/2012 10:00,545.832,46.029,11.450000000000001
3299,5/17/2012 11:00,490.428,59.294999999999995,14.75
3300,5/17/2012 12:00,361.494,58.6518,14.59
3301,5/17/2012 13:00,278.73,103.03259999999999,25.629999999999995
3302,5/17/2012 14:00,163.134,85.023,21.15
3303,5/17/2012 15:00,112.17600000000002,59.7774,14.87
3304,5/17/2012 16:00,70.794,44.059200000000004,10.96
3305,5/17/2012 17:00,49.932,28.4214,7.07
3306,5/17/2012 18:00,34.2,17.7684,4.42
3307,5/17/2012 19:00,31.805999999999997,7.236000000000001,1.8000000000000003
3308,5/17/2012 20:00,33.516,7.477199999999999,1.8599999999999999
3309,5/17/2012 21:00,47.879999999999995,8.1204,2.02
3310,5/17/2012 22:00,0.0,7.5576,1.8800000000000001
3311,5/17/2012 23:00,0.0,6.9144,1.72
3312,5/18/2012 0:00,0.0,6.7134,1.67
3313,5/18/2012 1:00,33.858000000000004,6.7134,1.67
3314,5/18/2012 2:00,64.296,6.1104,1.52
3315,5/18/2012 3:00,88.236,5.3064,1.32
3316,5/18/2012 4:00,109.44,4.422000000000001,1.1
3317,5/18/2012 5:00,36.936,3.4974,0.8699999999999999
3318,5/18/2012 6:00,40.356,0.0,0.0
3319,5/18/2012 7:00,37.620000000000005,0.0,0.0
3320,5/18/2012 8:00,38.988,0.0,0.0
3321,5/18/2012 9:00,45.828,0.0,0.0
3322,5/18/2012 10:00,38.304,0.0,0.0
3323,5/18/2012 11:00,47.196,0.0,0.0
3324,5/18/2012 12:00,86.868,2.8542,0.7100000000000001
3325,5/18/2012 13:00,93.024,100.1784,24.92
3326,5/18/2012 14:00,91.31400000000001,154.4484,38.42
3327,5/18/2012 15:00,85.158,194.56799999999998,48.4
3328,5/18/2012 16:00,79.344,216.4368,53.839999999999996
3329,5/18/2012 17:00,0.0,234.2454,58.269999999999996
3330,5/18/2012 18:00,0.0,264.51599999999996,65.8
3331,5/18/2012 19:00,0.0,303.5904,75.52
3332,5/18/2012 20:00,0.0,324.4542,80.71000000000001
3333,5/18/2012 21:00,0.0,320.9568,79.84
3334,5/18/2012 22:00,0.0,300.9372,74.86
3335,5/18/2012 23:00,0.0,262.9482,65.41
3336,5/19/2012 0:00,0.0,215.11020000000002,53.510000000000005
3337,5/19/2012 1:00,0.0,173.8248,43.24
3338,5/19/2012 2:00,26.334,144.8406,36.03
3339,5/19/2012 3:00,26.676,134.9916,33.58
3340,5/19/2012 4:00,0.0,141.2226,35.13
3341,5/19/2012 5:00,0.0,159.4332,39.660000000000004
3342,5/19/2012 6:00,0.0,192.4374,47.870000000000005
3343,5/19/2012 7:00,126.54000000000002,225.4014,56.07
3344,5/19/2012 8:00,112.86,253.3002,63.01
3345,5/19/2012 9:00,93.366,259.9332,64.66
3346,5/19/2012 10:00,86.184,253.662,63.1
3347,5/19/2012 11:00,112.518,247.4712,61.56
3348,5/19/2012 12:00,149.454,232.1148,57.74
3349,5/19/2012 13:00,162.45,214.26599999999996,53.29999999999999
3350,5/19/2012 14:00,159.372,198.4272,49.36
3351,5/19/2012 15:00,147.402,190.4676,47.38
3352,5/19/2012 16:00,131.32799999999997,181.905,45.25
3353,5/19/2012 17:00,117.99000000000001,171.3726,42.63
3354,5/19/2012 18:00,104.994,141.906,35.3
3355,5/19/2012 19:00,103.968,100.74119999999999,25.06
3356,5/19/2012 20:00,97.812,173.3826,43.13
3357,5/19/2012 21:00,81.738,212.3766,52.83
3358,5/19/2012 22:00,76.95,203.21099999999998,50.55
3359,5/19/2012 23:00,464.09399999999994,165.62400000000002,41.2
3360,5/20/2012 0:00,564.6419999999999,6.8742,1.71
3361,5/20/2012 1:00,95.75999999999999,7.2762,1.81
3362,5/20/2012 2:00,100.89,33.6474,8.37
3363,5/20/2012 3:00,94.392,37.5066,9.33
3364,5/20/2012 4:00,91.656,38.0694,9.47
3365,5/20/2012 5:00,94.392,42.531600000000005,10.58
3366,5/20/2012 6:00,94.734,51.7776,12.879999999999999
3367,5/20/2012 7:00,91.998,51.3354,12.770000000000001
3368,5/20/2012 8:00,79.344,40.7628,10.14
3369,5/20/2012 9:00,62.586,37.7478,9.39
3370,5/20/2012 10:00,52.326,45.7476,11.379999999999999
3371,5/20/2012 11:00,51.3,49.1244,12.22
3372,5/20/2012 12:00,53.01,35.4966,8.83
3373,5/20/2012 13:00,55.403999999999996,17.6478,4.390000000000001
3374,5/20/2012 14:00,56.08800000000001,7.236000000000001,1.8000000000000003
3375,5/20/2012 15:00,53.01,3.819,0.95
3376,5/20/2012 16:00,41.382,2.8542,0.7100000000000001
3377,5/20/2012 17:00,31.122,0.0,0.0
3378,5/20/2012 18:00,42.408,0.0,0.0
3379,5/20/2012 19:00,68.4,0.0,0.0
3380,5/20/2012 20:00,89.262,0.0,0.0
3381,5/20/2012 21:00,110.124,0.0,0.0
3382,5/20/2012 22:00,130.986,0.0,0.0
3383,5/20/2012 23:00,129.96,0.0,0.0
3384,5/21/2012 0:00,238.03199999999998,3.6984,0.9199999999999999
3385,5/21/2012 1:00,221.27399999999997,4.9848,1.24
3386,5/21/2012 2:00,183.312,7.7586,1.9300000000000002
3387,5/21/2012 3:00,98.496,13.788599999999999,3.4299999999999997
3388,5/21/2012 4:00,73.872,24.119999999999997,6.0
3389,5/21/2012 5:00,102.6,31.758,7.9
3390,5/21/2012 6:00,138.852,48.1194,11.97
3391,5/21/2012 7:00,142.272,126.4692,31.46
3392,5/21/2012 8:00,128.25,181.7844,45.22
3393,5/21/2012 9:00,82.764,125.38380000000001,31.19
3394,5/21/2012 10:00,46.512,92.2992,22.96
3395,5/21/2012 11:00,26.334,83.5356,20.78
3396,5/21/2012 12:00,0.0,97.1634,24.169999999999998
3397,5/21/2012 13:00,0.0,102.6708,25.540000000000003
3398,5/21/2012 14:00,0.0,85.5054,21.27
3399,5/21/2012 15:00,0.0,51.7374,12.870000000000001
3400,5/21/2012 16:00,0.0,29.546999999999997,7.35
3401,5/21/2012 17:00,0.0,14.753400000000001,3.6700000000000004
3402,5/21/2012 18:00,0.0,4.824,1.2
3403,5/21/2012 19:00,0.0,0.0,0.0
3404,5/21/2012 20:00,0.0,0.0,0.0
3405,5/21/2012 21:00,0.0,5.1053999999999995,1.27
3406,5/21/2012 22:00,0.0,4.1406,1.03
3407,5/21/2012 23:00,0.0,74.41019999999999,18.509999999999998
3408,5/22/2012 0:00,0.0,87.35459999999999,21.73
3409,5/22/2012 1:00,0.0,90.1686,22.43
3410,5/22/2012 2:00,35.226,86.5908,21.54
3411,5/22/2012 3:00,37.962,79.6764,19.82
3412,5/22/2012 4:00,749.322,59.81759999999999,14.879999999999999
3413,5/22/2012 5:00,763.686,43.617,10.85
3414,5/22/2012 6:00,694.26,33.4062,8.309999999999999
3415,5/22/2012 7:00,685.0260000000001,25.326,6.3
3416,5/22/2012 8:00,771.552,21.8688,5.4399999999999995
3417,5/22/2012 9:00,963.414,19.657799999999998,4.89
3418,5/22/2012 10:00,1049.598,17.4066,4.33
3419,5/22/2012 11:00,965.808,15.436799999999998,3.84
3420,5/22/2012 12:00,891.9359999999999,9.8088,2.44
3421,5/22/2012 13:00,30.438,0.0,0.0
3422,5/22/2012 14:00,32.148,0.0,0.0
3423,5/22/2012 15:00,36.594,0.0,0.0
3424,5/22/2012 16:00,33.516,0.0,0.0
3425,5/22/2012 17:00,27.701999999999998,0.0,0.0
3426,5/22/2012 18:00,38.988,0.0,0.0
3427,5/22/2012 19:00,81.738,3.0552,0.76
3428,5/22/2012 20:00,150.48000000000002,4.9446,1.23
3429,5/22/2012 21:00,276.678,7.2762,1.81
3430,5/22/2012 22:00,456.912,8.3616,2.08
3431,5/22/2012 23:00,639.1980000000001,8.7234,2.17
3432,5/23/2012 0:00,744.876,9.1656,2.2800000000000002
3433,5/23/2012 1:00,753.768,9.5274,2.37
3434,5/23/2012 2:00,669.978,9.8088,2.44
3435,5/23/2012 3:00,324.216,10.090200000000001,2.5100000000000002
3436,5/23/2012 4:00,365.25600000000003,10.2912,2.56
3437,5/23/2012 5:00,398.43,9.8892,2.46
3438,5/23/2012 6:00,422.37,8.6028,2.1399999999999997
3439,5/23/2012 7:00,406.98,8.9646,2.23
3440,5/23/2012 8:00,381.672,11.7384,2.92
3441,5/23/2012 9:00,393.642,16.3614,4.07
3442,5/23/2012 10:00,508.89599999999996,27.376199999999997,6.81
3443,5/23/2012 11:00,594.054,37.0242,9.21
3444,5/23/2012 12:00,589.2660000000001,38.2704,9.520000000000001
3445,5/23/2012 13:00,531.4680000000001,35.8584,8.92
3446,5/23/2012 14:00,421.002,27.738000000000003,6.9
3447,5/23/2012 15:00,306.432,15.637799999999999,3.8899999999999997
3448,5/23/2012 16:00,251.02800000000002,12.7434,3.17
3449,5/23/2012 17:00,210.672,15.5574,3.8699999999999997
3450,5/23/2012 18:00,147.402,18.6126,4.63
3451,5/23/2012 19:00,89.262,18.6528,4.64
3452,5/23/2012 20:00,59.85000000000001,17.9694,4.47
3453,5/23/2012 21:00,32.49,17.1252,4.26
3454,5/23/2012 22:00,0.0,15.9594,3.9699999999999998
3455,5/23/2012 23:00,0.0,14.8338,3.6900000000000004
3456,5/24/2012 0:00,0.0,13.587599999999998,3.38
3457,5/24/2012 1:00,0.0,12.582600000000001,3.1300000000000003
3458,5/24/2012 2:00,0.0,12.1404,3.02
3459,5/24/2012 3:00,0.0,11.457,2.85
3460,5/24/2012 4:00,0.0,10.6932,2.6599999999999997
3461,5/24/2012 5:00,0.0,10.090200000000001,2.5100000000000002
3462,5/24/2012 6:00,0.0,9.4068,2.34
3463,5/24/2012 7:00,0.0,9.8088,2.44
3464,5/24/2012 8:00,0.0,12.582600000000001,3.1300000000000003
3465,5/24/2012 9:00,0.0,0.0,0.0
3466,5/24/2012 10:00,33.858000000000004,0.0,0.0
3467,5/24/2012 11:00,89.946,0.0,0.0
3468,5/24/2012 12:00,141.588,3.6582000000000003,0.91
3469,5/24/2012 13:00,363.888,9.0048,2.2399999999999998
3470,5/24/2012 14:00,378.252,16.2408,4.04
3471,5/24/2012 15:00,390.222,23.878800000000002,5.94
3472,5/24/2012 16:00,381.672,28.4616,7.08
3473,5/24/2012 17:00,363.888,36.582,9.1
3474,5/24/2012 18:00,328.32,105.0426,26.13
3475,5/24/2012 19:00,233.244,119.43419999999999,29.709999999999997
3476,5/24/2012 20:00,140.21999999999997,73.48559999999999,18.279999999999998
3477,5/24/2012 21:00,86.526,61.2648,15.24
3478,5/24/2012 22:00,56.772,42.21,10.5
3479,5/24/2012 23:00,39.672,20.5824,5.12
3480,5/25/2012 0:00,27.701999999999998,12.261,3.05
3481,5/25/2012 1:00,0.0,9.3666,2.33
3482,5/25/2012 2:00,0.0,6.6732000000000005,1.66
3483,5/25/2012 3:00,0.0,5.6682,1.41
3484,5/25/2012 4:00,0.0,6.029999999999999,1.5
3485,5/25/2012 5:00,0.0,6.8340000000000005,1.7000000000000002
3486,5/25/2012 6:00,0.0,6.9144,1.72
3487,5/25/2012 7:00,0.0,7.7988,1.94
3488,5/25/2012 8:00,0.0,8.683200000000001,2.16
3489,5/25/2012 9:00,29.753999999999998,13.2258,3.29
3490,5/25/2012 10:00,37.278,16.8036,4.18
3491,5/25/2012 11:00,40.356,21.5874,5.37
3492,5/25/2012 12:00,42.75,24.6426,6.13
3493,5/25/2012 13:00,54.03600000000001,21.506999999999998,5.35
3494,5/25/2012 14:00,68.742,26.572200000000002,6.61
3495,5/25/2012 15:00,331.398,32.1198,7.99
3496,5/25/2012 16:00,314.64,38.7126,9.629999999999999
3497,5/25/2012 17:00,0.0,50.732400000000005,12.620000000000001
3498,5/25/2012 18:00,0.0,60.3402,15.010000000000002
3499,5/25/2012 19:00,0.0,55.7574,13.87
3500,5/25/2012 20:00,0.0,39.5568,9.84
3501,5/25/2012 21:00,0.0,46.632,11.6
3502,5/25/2012 22:00,0.0,60.501,15.049999999999999
3503,5/25/2012 23:00,0.0,67.93799999999999,16.9
3504,5/26/2012 0:00,24.282,76.38,19.0
3505,5/26/2012 1:00,0.0,115.0122,28.610000000000003
3506,5/26/2012 2:00,0.0,131.01180000000002,32.59
3507,5/26/2012 3:00,41.04,109.10279999999999,27.139999999999997
3508,5/26/2012 4:00,58.14000000000001,94.4298,23.49
3509,5/26/2012 5:00,66.348,57.5262,14.31
3510,5/26/2012 6:00,129.61800000000002,53.9082,13.41
3511,5/26/2012 7:00,217.512,40.7628,10.14
3512,5/26/2012 8:00,255.132,43.7778,10.89
3513,5/26/2012 9:00,241.10999999999999,10.3314,2.5700000000000003
3514,5/26/2012 10:00,215.118,5.3868,1.34
3515,5/26/2012 11:00,202.12199999999999,2.8542,0.7100000000000001
3516,5/26/2012 12:00,199.386,0.0,0.0
3517,5/26/2012 13:00,194.94,0.0,0.0
3518,5/26/2012 14:00,207.252,0.0,0.0
3519,5/26/2012 15:00,38.304,0.0,0.0
3520,5/26/2012 16:00,39.33,0.0,0.0
3521,5/26/2012 17:00,42.408,3.1355999999999997,0.7799999999999999
3522,5/26/2012 18:00,51.642,5.9898,1.49
3523,5/26/2012 19:00,61.217999999999996,7.075200000000001,1.76
3524,5/26/2012 20:00,51.642,13.8288,3.44
3525,5/26/2012 21:00,72.846,24.6024,6.12
3526,5/26/2012 22:00,150.138,45.627,11.35
3527,5/26/2012 23:00,183.312,63.274800000000006,15.740000000000002
3528,5/27/2012 0:00,204.174,68.94300000000001,17.150000000000002
3529,5/27/2012 1:00,220.248,65.9682,16.41
3530,5/27/2012 2:00,226.404,74.4504,18.52
3531,5/27/2012 3:00,150.48000000000002,103.79639999999999,25.82
3532,5/27/2012 4:00,106.704,138.97140000000002,34.57
3533,5/27/2012 5:00,72.846,162.9708,40.54
3534,5/27/2012 6:00,47.196,168.63899999999998,41.949999999999996
3535,5/27/2012 7:00,46.512,168.31740000000002,41.870000000000005
3536,5/27/2012 8:00,0.0,168.036,41.8
3537,5/27/2012 9:00,0.0,165.021,41.05
3538,5/27/2012 10:00,0.0,0.0,0.0
3539,5/27/2012 11:00,0.0,6.432,1.6
3540,5/27/2012 12:00,96.786,4.5828,1.1400000000000001
3541,5/27/2012 13:00,99.522,0.0,0.0
3542,5/27/2012 14:00,123.80400000000002,0.0,0.0
3543,5/27/2012 15:00,228.456,0.0,0.0
3544,5/27/2012 16:00,306.432,0.0,0.0
3545,5/27/2012 17:00,348.156,0.0,0.0
3546,5/27/2012 18:00,384.408,0.0,0.0
3547,5/27/2012 19:00,364.572,0.0,0.0
3548,5/27/2012 20:00,215.46,3.216,0.8
3549,5/27/2012 21:00,144.324,6.6732000000000005,1.66
3550,5/27/2012 22:00,65.66399999999999,9.4068,2.34
3551,5/27/2012 23:00,57.797999999999995,16.3614,4.07
3552,5/28/2012 0:00,70.11,28.6626,7.13
3553,5/28/2012 1:00,79.686,35.2956,8.780000000000001
3554,5/28/2012 2:00,100.206,31.677599999999998,7.88
3555,5/28/2012 3:00,99.522,24.8034,6.17
3556,5/28/2012 4:00,109.098,17.4468,4.34
3557,5/28/2012 5:00,130.302,16.120199999999997,4.01
3558,5/28/2012 6:00,147.06,4.5024,1.1199999999999999
3559,5/28/2012 7:00,140.904,5.2662,1.31
3560,5/28/2012 8:00,112.17600000000002,6.552599999999999,1.63
3561,5/28/2012 9:00,63.611999999999995,7.075200000000001,1.76
3562,5/28/2012 10:00,46.512,6.9948,1.7399999999999998
3563,5/28/2012 11:00,69.084,6.1104,1.52
3564,5/28/2012 12:00,93.024,4.7838,1.1900000000000002
3565,5/28/2012 13:00,109.098,3.3768,0.84
3566,5/28/2012 14:00,107.73,4.4622,1.11
3567,5/28/2012 15:00,90.288,10.6932,2.6599999999999997
3568,5/28/2012 16:00,64.296,19.2558,4.79
3569,5/28/2012 17:00,38.304,25.366200000000003,6.3100000000000005
3570,5/28/2012 18:00,0.0,35.0544,8.72
3571,5/28/2012 19:00,0.0,49.8882,12.41
3572,5/28/2012 20:00,0.0,75.2544,18.72
3573,5/28/2012 21:00,0.0,28.6224,7.12
3574,5/28/2012 22:00,0.0,19.0146,4.73
3575,5/28/2012 23:00,0.0,12.462,3.1
3576,5/29/2012 0:00,0.0,0.0,0.0
3577,5/29/2012 1:00,0.0,0.0,0.0
3578,5/29/2012 2:00,0.0,0.0,0.0
3579,5/29/2012 3:00,25.65,0.0,0.0
3580,5/29/2012 4:00,75.58200000000001,0.0,0.0
3581,5/29/2012 5:00,66.69,0.0,0.0
3582,5/29/2012 6:00,57.455999999999996,0.0,0.0
3583,5/29/2012 7:00,48.564,0.0,0.0
3584,5/29/2012 8:00,38.646,0.0,0.0
3585,5/29/2012 9:00,27.018000000000004,4.9446,1.23
3586,5/29/2012 10:00,29.753999999999998,7.035000000000001,1.7500000000000002
3587,5/29/2012 11:00,30.780000000000005,7.5978,1.8900000000000001
3588,5/29/2012 12:00,33.858000000000004,4.221,1.05
3589,5/29/2012 13:00,82.08,3.6984,0.9199999999999999
3590,5/29/2012 14:00,89.946,18.894,4.7
3591,5/29/2012 15:00,126.882,8.844000000000001,2.2
3592,5/29/2012 16:00,172.71,8.6028,2.1399999999999997
3593,5/29/2012 17:00,202.464,7.316400000000001,1.82
3594,5/29/2012 18:00,189.126,5.1053999999999995,1.27
3595,5/29/2012 19:00,173.736,3.1355999999999997,0.7799999999999999
3596,5/29/2012 20:00,47.538,0.0,0.0
3597,5/29/2012 21:00,68.742,0.0,0.0
3598,5/29/2012 22:00,91.656,29.3058,7.290000000000001
3599,5/29/2012 23:00,88.236,29.948999999999998,7.449999999999999
