,date,Wind_1,Wind_2
5040,7/29/2012 0:00,1.0476,18.5409
5041,7/29/2012 1:00,1.053,18.3249
5042,7/29/2012 2:00,1.0476,17.7957
5043,7/29/2012 3:00,1.1124,16.578
5044,7/29/2012 4:00,1.269,16.0029
5045,7/29/2012 5:00,1.4634,14.6988
5046,7/29/2012 6:00,1.701,12.0609
5047,7/29/2012 7:00,2.2356,8.7129
5048,7/29/2012 8:00,3.3695999999999997,6.7986
5049,7/29/2012 9:00,4.9220999999999995,6.5718000000000005
5050,7/29/2012 10:00,5.912999999999999,8.1243
5051,7/29/2012 11:00,6.0371999999999995,12.7737
5052,7/29/2012 12:00,5.4,19.8936
5053,7/29/2012 13:00,5.0165999999999995,24.0786
5054,7/29/2012 14:00,4.1553,25.3962
5055,7/29/2012 15:00,3.4884000000000004,25.7553
5056,7/29/2012 16:00,3.8663999999999996,25.3287
5057,7/29/2012 17:00,5.372999999999999,24.4161
5058,7/29/2012 18:00,5.896800000000001,22.625999999999998
5059,7/29/2012 19:00,6.4503,19.6317
5060,7/29/2012 20:00,6.7257,16.016399999999997
5061,7/29/2012 21:00,5.869800000000001,13.7079
5062,7/29/2012 22:00,4.2714,14.971499999999999
5063,7/29/2012 23:00,2.9943,17.604
5064,7/30/2012 0:00,2.0466,18.8028
5065,7/30/2012 1:00,1.7145000000000001,18.4626
5066,7/30/2012 2:00,1.6523999999999999,17.3259
5067,7/30/2012 3:00,1.6416,16.3323
5068,7/30/2012 4:00,1.5740999999999998,15.4116
5069,7/30/2012 5:00,1.4958,14.1885
5070,7/30/2012 6:00,1.3824,12.6036
5071,7/30/2012 7:00,1.1907,10.7433
5072,7/30/2012 8:00,0.9963000000000001,8.4753
5073,7/30/2012 9:00,0.8477999999999999,5.8158
5074,7/30/2012 10:00,0.7587,3.4667999999999997
5075,7/30/2012 11:00,0.6345,1.5471
5076,7/30/2012 12:00,0.5076,0.864
5077,7/30/2012 13:00,0.5076,0.459
5078,7/30/2012 14:00,0.4887,0.0
5079,7/30/2012 15:00,0.6939,0.0
5080,7/30/2012 16:00,1.1853,0.0
5081,7/30/2012 17:00,1.9034999999999997,0.5697
5082,7/30/2012 18:00,2.6001,0.4995
5083,7/30/2012 19:00,3.2049,0.27
5084,7/30/2012 20:00,3.5747999999999998,2.8971
5085,7/30/2012 21:00,3.7395000000000005,8.7642
5086,7/30/2012 22:00,3.7260000000000004,13.0275
5087,7/30/2012 23:00,3.2427,16.2027
5088,7/31/2012 0:00,3.1725,17.6175
5089,7/31/2012 1:00,3.2912999999999997,18.0117
5090,7/31/2012 2:00,3.5964000000000005,16.6185
5091,7/31/2012 3:00,3.9555,13.259699999999999
5092,7/31/2012 4:00,4.384799999999999,11.1753
5093,7/31/2012 5:00,4.255199999999999,4.8303
5094,7/31/2012 6:00,3.9312,2.2869
5095,7/31/2012 7:00,3.7935000000000003,13.9698
5096,7/31/2012 8:00,3.9042000000000003,26.330399999999997
5097,7/31/2012 9:00,4.1688,27.0
5098,7/31/2012 10:00,4.5279,27.0
5099,7/31/2012 11:00,4.9220999999999995,4.9248
5100,7/31/2012 12:00,5.2974000000000006,5.5647
5101,7/31/2012 13:00,5.346,5.2082999999999995
5102,7/31/2012 14:00,5.181299999999999,4.2579
5103,7/31/2012 15:00,5.8941,3.3102
5104,7/31/2012 16:00,10.2897,2.4299999999999997
5105,7/31/2012 17:00,15.098400000000002,1.8873000000000002
5106,7/31/2012 18:00,15.5952,1.7199000000000002
5107,7/31/2012 19:00,15.7167,1.9143000000000001
5108,7/31/2012 20:00,14.299199999999999,2.4732
5109,7/31/2012 21:00,11.3076,3.3156000000000003
5110,7/31/2012 22:00,8.2188,3.5046
5111,7/31/2012 23:00,7.2306,4.5279
5112,8/1/2012 0:00,6.8958,5.5998
5113,8/1/2012 1:00,6.5583,6.0777
5114,8/1/2012 2:00,6.2235000000000005,6.6879
5115,8/1/2012 3:00,5.7834,7.8839999999999995
5116,8/1/2012 4:00,5.4675,9.1449
5117,8/1/2012 5:00,5.8455,9.0747
5118,8/1/2012 6:00,6.4989,7.5654
5119,8/1/2012 7:00,7.5141,5.9967
5120,8/1/2012 8:00,8.6859,6.026400000000001
5121,8/1/2012 9:00,9.2367,5.7321
5122,8/1/2012 10:00,9.1314,4.8708
5123,8/1/2012 11:00,8.6562,3.8097000000000003
5124,8/1/2012 12:00,8.3997,2.6649
5125,8/1/2012 13:00,7.600499999999999,1.6497
5126,8/1/2012 14:00,6.5583,1.0341
5127,8/1/2012 15:00,5.7078,0.7047
5128,8/1/2012 16:00,6.6366,0.5318999999999999
5129,8/1/2012 17:00,7.665299999999999,0.4158
5130,8/1/2012 18:00,9.366299999999999,0.3132
5131,8/1/2012 19:00,8.8101,0.2484
5132,8/1/2012 20:00,7.8705,0.1971
5133,8/1/2012 21:00,6.8958,0.0
5134,8/1/2012 22:00,5.5458,0.0
5135,8/1/2012 23:00,3.7367999999999997,0.0
5136,8/2/2012 0:00,2.484,0.0
5137,8/2/2012 1:00,1.9143000000000001,0.0
5138,8/2/2012 2:00,1.6955999999999998,0.0
5139,8/2/2012 3:00,1.6821,0.0
5140,8/2/2012 4:00,1.6497,0.0
5141,8/2/2012 5:00,1.3959000000000001,0.0
5142,8/2/2012 6:00,1.1205,0.0
5143,8/2/2012 7:00,0.9558,0.2727
5144,8/2/2012 8:00,0.8532000000000001,0.37799999999999995
5145,8/2/2012 9:00,0.8451000000000001,0.44009999999999994
5146,8/2/2012 10:00,0.8505,0.5022
5147,8/2/2012 11:00,0.9936,0.4995
5148,8/2/2012 12:00,1.1367,0.45629999999999993
5149,8/2/2012 13:00,1.3797,0.4023
5150,8/2/2012 14:00,1.5228,0.3483
5151,8/2/2012 15:00,1.4337,0.3105
5152,8/2/2012 16:00,1.1772,0.32130000000000003
5153,8/2/2012 17:00,0.8181,0.36719999999999997
5154,8/2/2012 18:00,0.5076,0.44009999999999994
5155,8/2/2012 19:00,0.3186,0.5265
5156,8/2/2012 20:00,0.2052,0.6291
5157,8/2/2012 21:00,0.0,0.6642
5158,8/2/2012 22:00,0.0,0.7290000000000001
5159,8/2/2012 23:00,0.2511,0.7965
5160,8/3/2012 0:00,0.2862,0.9584999999999999
5161,8/3/2012 1:00,0.27540000000000003,1.053
5162,8/3/2012 2:00,0.216,1.0503
5163,8/3/2012 3:00,0.0,1.1232
5164,8/3/2012 4:00,0.0,1.2447000000000001
5165,8/3/2012 5:00,0.0,1.4715
5166,8/3/2012 6:00,0.0,1.6875
5167,8/3/2012 7:00,0.0,1.8143999999999998
5168,8/3/2012 8:00,0.0,2.0574
5169,8/3/2012 9:00,0.0,2.1087000000000002
5170,8/3/2012 10:00,0.0,3.0294
5171,8/3/2012 11:00,0.0,3.7016999999999998
5172,8/3/2012 12:00,0.0,3.5991
5173,8/3/2012 13:00,0.1971,2.9484000000000004
5174,8/3/2012 14:00,0.2619,2.1735
5175,8/3/2012 15:00,0.4023,1.5174
5176,8/3/2012 16:00,0.5562,1.1016000000000001
5177,8/3/2012 17:00,0.8127,0.9665999999999999
5178,8/3/2012 18:00,1.0935000000000001,1.1097
5179,8/3/2012 19:00,1.4121,1.5039
5180,8/3/2012 20:00,1.8495000000000001,2.133
5181,8/3/2012 21:00,2.1140999999999996,2.4408
5182,8/3/2012 22:00,1.836,2.4084
5183,8/3/2012 23:00,0.9477,2.3301
5184,8/4/2012 0:00,0.8046,2.3922
5185,8/4/2012 1:00,0.8883,2.5542000000000002
5186,8/4/2012 2:00,0.8936999999999999,2.8836000000000004
5187,8/4/2012 3:00,0.8936999999999999,3.8610000000000007
5188,8/4/2012 4:00,0.9071999999999999,4.0014
5189,8/4/2012 5:00,0.8936999999999999,3.4911
5190,8/4/2012 6:00,0.8019000000000001,3.1941
5191,8/4/2012 7:00,0.6696,3.294
5192,8/4/2012 8:00,0.5535,3.456
5193,8/4/2012 9:00,0.4617,4.2876
5194,8/4/2012 10:00,0.3699,5.9508
5195,8/4/2012 11:00,0.20249999999999999,7.001099999999999
5196,8/4/2012 12:00,0.0,5.5674
5197,8/4/2012 13:00,0.0,4.3308
5198,8/4/2012 14:00,0.32130000000000003,4.1067
5199,8/4/2012 15:00,0.5076,3.6989999999999994
5200,8/4/2012 16:00,0.6831,3.105
5201,8/4/2012 17:00,0.6426000000000001,1.9034999999999997
5202,8/4/2012 18:00,0.5778,1.0854
5203,8/4/2012 19:00,0.621,0.7371000000000001
5204,8/4/2012 20:00,0.7236,0.5886
5205,8/4/2012 21:00,0.7047,0.5886
5206,8/4/2012 22:00,0.5103,0.648
5207,8/4/2012 23:00,0.5076,0.7749
5208,8/5/2012 0:00,0.6264,1.0503
5209,8/5/2012 1:00,0.7533000000000001,1.9413000000000002
5210,8/5/2012 2:00,0.7992,4.6818
5211,8/5/2012 3:00,0.7695000000000001,6.0318
5212,8/5/2012 4:00,0.7209000000000001,7.136099999999999
5213,8/5/2012 5:00,0.6669,8.9505
5214,8/5/2012 6:00,0.5724,9.584999999999999
5215,8/5/2012 7:00,0.45089999999999997,11.8773
5216,8/5/2012 8:00,0.3564,13.8645
5217,8/5/2012 9:00,0.3186,16.6698
5218,8/5/2012 10:00,0.2727,19.1214
5219,8/5/2012 11:00,0.0,20.169
5220,8/5/2012 12:00,0.0,20.1582
5221,8/5/2012 13:00,0.2052,20.2527
5222,8/5/2012 14:00,0.3267,19.7073
5223,8/5/2012 15:00,0.4968,17.3016
5224,8/5/2012 16:00,0.7829999999999999,15.330599999999999
5225,8/5/2012 17:00,0.7695000000000001,13.446
5226,8/5/2012 18:00,0.6561,10.7298
5227,8/5/2012 19:00,0.5778,7.897499999999999
5228,8/5/2012 20:00,15.2469,5.076
5229,8/5/2012 21:00,13.122,3.2454
5230,8/5/2012 22:00,10.4976,2.079
5231,8/5/2012 23:00,7.7544,1.1609999999999998
5232,8/6/2012 0:00,5.1516,0.7425
5233,8/6/2012 1:00,3.2805,0.5697
5234,8/6/2012 2:00,2.0925,0.48329999999999995
5235,8/6/2012 3:00,1.3986,0.459
5236,8/6/2012 4:00,1.0287,0.42119999999999996
5237,8/6/2012 5:00,0.8046,0.3915
5238,8/6/2012 6:00,1.6686,0.3699
5239,8/6/2012 7:00,3.0375,0.3402
5240,8/6/2012 8:00,3.5046,0.3024
5241,8/6/2012 9:00,3.7476000000000003,0.216
5242,8/6/2012 10:00,4.3821,0.0
5243,8/6/2012 11:00,3.8880000000000003,0.0
5244,8/6/2012 12:00,2.0763,0.0
5245,8/6/2012 13:00,1.2366,0.0
5246,8/6/2012 14:00,1.0287,0.0
5247,8/6/2012 15:00,1.0044,0.4104
5248,8/6/2012 16:00,0.8423999999999999,1.0098
5249,8/6/2012 17:00,0.7317,1.7495999999999998
5250,8/6/2012 18:00,0.8127,2.6622
5251,8/6/2012 19:00,0.9611999999999999,3.9231000000000003
5252,8/6/2012 20:00,0.9639000000000001,5.4486
5253,8/6/2012 21:00,0.9882,7.2143999999999995
5254,8/6/2012 22:00,1.1502,10.0035
5255,8/6/2012 23:00,1.5390000000000001,12.8979
5256,8/7/2012 0:00,2.484,17.4474
5257,8/7/2012 1:00,4.4253,22.164299999999997
5258,8/7/2012 2:00,6.8904,24.1839
5259,8/7/2012 3:00,9.4473,22.4019
5260,8/7/2012 4:00,10.2843,15.3198
5261,8/7/2012 5:00,10.1898,11.4129
5262,8/7/2012 6:00,11.6127,12.884400000000001
5263,8/7/2012 7:00,11.4129,16.8291
5264,8/7/2012 8:00,10.4625,20.1555
5265,8/7/2012 9:00,10.033199999999999,21.9915
5266,8/7/2012 10:00,9.938699999999999,22.9824
5267,8/7/2012 11:00,9.0612,23.4441
5268,8/7/2012 12:00,7.074,23.473799999999997
5269,8/7/2012 13:00,5.0922,22.9662
5270,8/7/2012 14:00,3.0564,22.418100000000003
5271,8/7/2012 15:00,1.6119,21.6837
5272,8/7/2012 16:00,1.0313999999999999,20.4066
5273,8/7/2012 17:00,0.621,18.4491
5274,8/7/2012 18:00,0.4185,16.3026
5275,8/7/2012 19:00,0.3051,14.445
5276,8/7/2012 20:00,0.2349,12.6063
5277,8/7/2012 21:00,0.2322,10.4652
5278,8/7/2012 22:00,0.2349,8.1783
5279,8/7/2012 23:00,0.21330000000000002,5.786099999999999
5280,8/8/2012 0:00,0.0,3.9069
5281,8/8/2012 1:00,0.0,2.4299999999999997
5282,8/8/2012 2:00,0.0,1.4985
5283,8/8/2012 3:00,0.0,0.7938
5284,8/8/2012 4:00,0.0,0.5049
5285,8/8/2012 5:00,0.0,0.4185
5286,8/8/2012 6:00,0.0,0.4023
5287,8/8/2012 7:00,0.0,0.3861
5288,8/8/2012 8:00,0.0,0.3051
5289,8/8/2012 9:00,0.0,0.3456
5290,8/8/2012 10:00,0.2997,0.47250000000000003
5291,8/8/2012 11:00,0.41309999999999997,0.5940000000000001
5292,8/8/2012 12:00,0.45359999999999995,0.7398
5293,8/8/2012 13:00,0.43739999999999996,0.9504
5294,8/8/2012 14:00,0.4023,1.2771000000000001
5295,8/8/2012 15:00,0.29700000000000004,1.7037
5296,8/8/2012 16:00,0.2808,2.0331
5297,8/8/2012 17:00,0.2538,2.1708
5298,8/8/2012 18:00,0.22679999999999997,2.6136
5299,8/8/2012 19:00,0.2646,3.3830999999999998
5300,8/8/2012 20:00,0.3456,4.158
5301,8/8/2012 21:00,0.37799999999999995,4.0581
5302,8/8/2012 22:00,0.3429,3.8826000000000005
5303,8/8/2012 23:00,0.3024,3.0456
5304,8/9/2012 0:00,0.3051,2.2950000000000004
5305,8/9/2012 1:00,0.3186,1.7090999999999998
5306,8/9/2012 2:00,0.3024,1.4256
5307,8/9/2012 3:00,0.2241,1.4067
5308,8/9/2012 4:00,0.0,1.5714000000000001
5309,8/9/2012 5:00,0.0,1.7631
5310,8/9/2012 6:00,0.0,1.8926999999999998
5311,8/9/2012 7:00,0.0,1.9331999999999998
5312,8/9/2012 8:00,0.0,1.7090999999999998
5313,8/9/2012 9:00,0.20249999999999999,1.2555
5314,8/9/2012 10:00,0.37529999999999997,0.9153
5315,8/9/2012 11:00,0.5912999999999999,0.6723
5316,8/9/2012 12:00,0.8316,0.4482
5317,8/9/2012 13:00,1.0368,0.3618
5318,8/9/2012 14:00,1.1124,0.3132
5319,8/9/2012 15:00,0.8936999999999999,0.2781
5320,8/9/2012 16:00,1.1285999999999998,0.2727
5321,8/9/2012 17:00,1.5471,0.324
5322,8/9/2012 18:00,2.2356,0.2916
5323,8/9/2012 19:00,3.267,0.2241
5324,8/9/2012 20:00,4.7682,0.0
5325,8/9/2012 21:00,6.3828,0.0
5326,8/9/2012 22:00,6.947099999999999,0.0
5327,8/9/2012 23:00,7.4871,0.0
5328,8/10/2012 0:00,8.345699999999999,0.0
5329,8/10/2012 1:00,9.3231,0.0
5330,8/10/2012 2:00,9.801,0.0
5331,8/10/2012 3:00,9.0369,0.0
5332,8/10/2012 4:00,7.7814000000000005,0.0
5333,8/10/2012 5:00,4.05,0.0
5334,8/10/2012 6:00,1.0098,0.0
5335,8/10/2012 7:00,0.0,0.0
5336,8/10/2012 8:00,0.28350000000000003,0.0
5337,8/10/2012 9:00,1.3203,0.0
5338,8/10/2012 10:00,2.3571,0.2241
5339,8/10/2012 11:00,2.2734,0.27540000000000003
5340,8/10/2012 12:00,2.1735,0.3078
5341,8/10/2012 13:00,1.9062,0.3645
5342,8/10/2012 14:00,1.6119,0.4482
5343,8/10/2012 15:00,1.2797999999999998,0.6777
5344,8/10/2012 16:00,1.1880000000000002,0.9207
5345,8/10/2012 17:00,0.8775000000000001,0.9099
5346,8/10/2012 18:00,0.5103,0.7479
5347,8/10/2012 19:00,0.4158,0.6318
5348,8/10/2012 20:00,0.4104,0.5238
5349,8/10/2012 21:00,0.42660000000000003,0.3078
5350,8/10/2012 22:00,0.46709999999999996,0.0
5351,8/10/2012 23:00,0.4914,0.0
5352,8/11/2012 0:00,0.45089999999999997,0.0
5353,8/11/2012 1:00,0.459,0.0
5354,8/11/2012 2:00,0.7371000000000001,0.0
5355,8/11/2012 3:00,2.052,0.0
5356,8/11/2012 4:00,6.6177,0.2376
5357,8/11/2012 5:00,14.258700000000001,0.3888
5358,8/11/2012 6:00,19.0944,0.48600000000000004
5359,8/11/2012 7:00,22.3614,0.432
5360,8/11/2012 8:00,24.3594,0.3807
5361,8/11/2012 9:00,25.1154,0.5022
5362,8/11/2012 10:00,25.4124,0.6048
5363,8/11/2012 11:00,25.506899999999998,0.5994
5364,8/11/2012 12:00,25.377299999999998,0.5292
5365,8/11/2012 13:00,25.331400000000002,0.48059999999999997
5366,8/11/2012 14:00,25.3611,0.4617
5367,8/11/2012 15:00,25.0587,0.3348
5368,8/11/2012 16:00,24.8886,0.21330000000000002
5369,8/11/2012 17:00,24.831899999999997,0.0
5370,8/11/2012 18:00,24.764400000000002,0.0
5371,8/11/2012 19:00,24.6186,0.0
5372,8/11/2012 20:00,24.2217,0.0
5373,8/11/2012 21:00,23.7114,6.7661999999999995
5374,8/11/2012 22:00,23.651999999999997,8.5266
5375,8/11/2012 23:00,23.8464,8.3295
5376,8/12/2012 0:00,22.7313,8.7588
5377,8/12/2012 1:00,17.0964,8.3889
5378,8/12/2012 2:00,6.8877,8.9289
5379,8/12/2012 3:00,3.9501000000000004,10.0764
5380,8/12/2012 4:00,4.5279,12.6117
5381,8/12/2012 5:00,6.677099999999999,16.1055
5382,8/12/2012 6:00,8.4213,18.252
5383,8/12/2012 7:00,10.2627,19.7073
5384,8/12/2012 8:00,12.6549,20.376900000000003
5385,8/12/2012 9:00,13.8402,20.147399999999998
5386,8/12/2012 10:00,14.075099999999999,19.2348
5387,8/12/2012 11:00,13.4946,18.416700000000002
5388,8/12/2012 12:00,12.3984,18.106199999999998
5389,8/12/2012 13:00,10.1952,17.9469
5390,8/12/2012 14:00,7.3224,17.199
5391,8/12/2012 15:00,4.8654,16.1892
5392,8/12/2012 16:00,4.3659,15.0282
5393,8/12/2012 17:00,3.8880000000000003,13.2138
5394,8/12/2012 18:00,3.2751,11.0241
5395,8/12/2012 19:00,3.1887,9.2259
5396,8/12/2012 20:00,3.3695999999999997,7.8678
5397,8/12/2012 21:00,3.1077,6.6204
5398,8/12/2012 22:00,2.7648,5.3676
5399,8/12/2012 23:00,2.6136,5.1408000000000005
5400,8/13/2012 0:00,2.5164,5.4944999999999995
5401,8/13/2012 1:00,2.4489,5.5593
5402,8/13/2012 2:00,2.0736,5.4837
5403,8/13/2012 3:00,1.5416999999999998,4.6521
5404,8/13/2012 4:00,1.1069999999999998,4.1472
5405,8/13/2012 5:00,0.7425,3.5289
5406,8/13/2012 6:00,0.5022,3.0483000000000002
5407,8/13/2012 7:00,0.3375,2.5785
5408,8/13/2012 8:00,0.21330000000000002,2.0655
5409,8/13/2012 9:00,0.0,1.6659
5410,8/13/2012 10:00,0.0,1.4472
5411,8/13/2012 11:00,0.0,1.4418000000000002
5412,8/13/2012 12:00,0.0,1.5740999999999998
5413,8/13/2012 13:00,0.0,1.7685
5414,8/13/2012 14:00,0.0,1.7523
5415,8/13/2012 15:00,0.0,1.7090999999999998
5416,8/13/2012 16:00,0.0,2.025
5417,8/13/2012 17:00,0.0,2.2194
5418,8/13/2012 18:00,0.0,2.0898
5419,8/13/2012 19:00,0.0,1.782
5420,8/13/2012 20:00,0.0,1.0313999999999999
5421,8/13/2012 21:00,0.0,0.4941
5422,8/13/2012 22:00,0.0,0.2538
5423,8/13/2012 23:00,0.2592,0.0
5424,8/14/2012 0:00,0.3996,0.0
5425,8/14/2012 1:00,0.6993,0.0
5426,8/14/2012 2:00,1.35,0.0
5427,8/14/2012 3:00,1.9791,0.3132
5428,8/14/2012 4:00,2.5704000000000002,0.6993
5429,8/14/2012 5:00,3.9609,1.0719
5430,8/14/2012 6:00,6.3531,1.2339
5431,8/14/2012 7:00,8.8911,1.1556
5432,8/14/2012 8:00,10.4328,0.8261999999999999
5433,8/14/2012 9:00,11.1051,0.5562
5434,8/14/2012 10:00,11.6397,0.42660000000000003
5435,8/14/2012 11:00,9.5256,0.35100000000000003
5436,8/14/2012 12:00,5.4486,0.3159
5437,8/14/2012 13:00,4.2309,0.2592
5438,8/14/2012 14:00,5.1273,0.2079
5439,8/14/2012 15:00,5.9616,0.0
5440,8/14/2012 16:00,8.4294,0.0
5441,8/14/2012 17:00,13.054499999999999,0.0
5442,8/14/2012 18:00,16.507800000000003,0.0
5443,8/14/2012 19:00,19.7586,0.0
5444,8/14/2012 20:00,21.5271,0.0
5445,8/14/2012 21:00,21.834899999999998,0.0
5446,8/14/2012 22:00,21.7377,0.0
5447,8/14/2012 23:00,21.413700000000002,0.0
5448,8/15/2012 0:00,20.4309,0.0
5449,8/15/2012 1:00,19.8045,0.0
5450,8/15/2012 2:00,19.3509,0.0
5451,8/15/2012 3:00,18.1413,0.216
5452,8/15/2012 4:00,18.8379,0.2484
5453,8/15/2012 5:00,24.1596,0.2052
5454,8/15/2012 6:00,25.2612,0.0
5455,8/15/2012 7:00,25.5636,0.0
5456,8/15/2012 8:00,25.5717,0.0
5457,8/15/2012 9:00,25.6878,0.0
5458,8/15/2012 10:00,25.5177,0.0
5459,8/15/2012 11:00,25.3368,0.0
5460,8/15/2012 12:00,24.7482,0.0
5461,8/15/2012 13:00,22.766399999999997,0.0
5462,8/15/2012 14:00,17.1531,0.0
5463,8/15/2012 15:00,10.3545,0.0
5464,8/15/2012 16:00,7.5573,0.0
5465,8/15/2012 17:00,5.7509999999999994,0.0
5466,8/15/2012 18:00,4.608899999999999,0.0
5467,8/15/2012 19:00,4.4577,0.0
5468,8/15/2012 20:00,3.7988999999999997,0.0
5469,8/15/2012 21:00,3.2886,0.2781
5470,8/15/2012 22:00,3.1131,0.6939
5471,8/15/2012 23:00,3.3858,1.5822
5472,8/16/2012 0:00,3.7125000000000004,2.7674999999999996
5473,8/16/2012 1:00,4.1013,3.537
5474,8/16/2012 2:00,4.2957,3.321
5475,8/16/2012 3:00,5.073300000000001,2.3733
5476,8/16/2012 4:00,5.7483,2.1519
5477,8/16/2012 5:00,8.629199999999999,2.2437
5478,8/16/2012 6:00,11.477699999999999,2.5623
5479,8/16/2012 7:00,12.6684,2.9889
5480,8/16/2012 8:00,12.811499999999999,3.7827
5481,8/16/2012 9:00,14.5341,4.7682
5482,8/16/2012 10:00,14.7042,5.6943
5483,8/16/2012 11:00,14.121,6.6393
5484,8/16/2012 12:00,13.6458,7.0065
5485,8/16/2012 13:00,11.3049,6.809399999999999
5486,8/16/2012 14:00,6.4287,6.0966000000000005
5487,8/16/2012 15:00,4.401,6.1641
5488,8/16/2012 16:00,3.6963,7.0524
5489,8/16/2012 17:00,3.1536,8.4618
5490,8/16/2012 18:00,3.0239999999999996,10.773
5491,8/16/2012 19:00,2.9835,11.5101
5492,8/16/2012 20:00,2.9565,10.9539
5493,8/16/2012 21:00,2.4543,10.694700000000001
5494,8/16/2012 22:00,1.8981000000000001,11.3211
5495,8/16/2012 23:00,1.4931,11.8935
5496,8/17/2012 0:00,1.2285,11.8962
5497,8/17/2012 1:00,1.0961999999999998,11.6532
5498,8/17/2012 2:00,1.0665,13.953600000000002
5499,8/17/2012 3:00,1.0719,18.4464
5500,8/17/2012 4:00,0.8397,22.4586
5501,8/17/2012 5:00,0.7857000000000001,24.4296
5502,8/17/2012 6:00,0.8532000000000001,25.0533
5503,8/17/2012 7:00,0.5724,25.104599999999998
5504,8/17/2012 8:00,0.45359999999999995,25.0101
5505,8/17/2012 9:00,0.43739999999999996,24.5781
5506,8/17/2012 10:00,0.47250000000000003,23.9679
5507,8/17/2012 11:00,0.5346000000000001,22.4694
5508,8/17/2012 12:00,0.5778,17.9847
5509,8/17/2012 13:00,0.6669,8.2242
5510,8/17/2012 14:00,0.6264,2.4137999999999997
5511,8/17/2012 15:00,0.5076,0.9099
5512,8/17/2012 16:00,0.54,0.45089999999999997
5513,8/17/2012 17:00,0.5346000000000001,0.2592
5514,8/17/2012 18:00,0.5265,0.0
5515,8/17/2012 19:00,0.5238,0.0
5516,8/17/2012 20:00,4.1688,0.0
5517,8/17/2012 21:00,5.229900000000001,0.0
5518,8/17/2012 22:00,6.4287,0.0
5519,8/17/2012 23:00,7.6734,0.0
5520,8/18/2012 0:00,8.9559,0.0
5521,8/18/2012 1:00,9.271799999999999,0.0
5522,8/18/2012 2:00,9.0855,2.6487000000000003
5523,8/18/2012 3:00,9.385200000000001,3.0402
5524,8/18/2012 4:00,9.8712,3.0321
5525,8/18/2012 5:00,10.449,2.4705
5526,8/18/2012 6:00,11.5047,2.1303
5527,8/18/2012 7:00,12.187800000000001,1.8468
5528,8/18/2012 8:00,12.5901,1.7523
5529,8/18/2012 9:00,13.2138,1.8683999999999998
5530,8/18/2012 10:00,13.856399999999999,2.1006
5531,8/18/2012 11:00,12.9708,2.2005
5532,8/18/2012 12:00,10.311300000000001,0.8397
5533,8/18/2012 13:00,6.3747,0.48600000000000004
5534,8/18/2012 14:00,2.9511,0.2997
5535,8/18/2012 15:00,1.9008,0.2484
5536,8/18/2012 16:00,1.7955,0.3402
5537,8/18/2012 17:00,2.5893,0.5912999999999999
5538,8/18/2012 18:00,4.2687,1.1151
5539,8/18/2012 19:00,5.2812,1.9737
5540,8/18/2012 20:00,5.0895,2.781
5541,8/18/2012 21:00,6.7365,3.483
5542,8/18/2012 22:00,8.9721,3.8933999999999997
5543,8/18/2012 23:00,12.4902,4.9356
5544,8/19/2012 0:00,16.016399999999997,5.767200000000001
5545,8/19/2012 1:00,17.8902,5.8293
5546,8/19/2012 2:00,18.3897,6.7014000000000005
5547,8/19/2012 3:00,18.4032,8.5914
5548,8/19/2012 4:00,15.6195,7.6248
5549,8/19/2012 5:00,13.564799999999998,7.1145000000000005
5550,8/19/2012 6:00,12.004199999999999,6.739199999999999
5551,8/19/2012 7:00,10.745999999999999,6.8904
5552,8/19/2012 8:00,9.774000000000001,7.9353
5553,8/19/2012 9:00,7.802999999999999,9.7092
5554,8/19/2012 10:00,5.7591,10.694700000000001
5555,8/19/2012 11:00,3.7584,11.3967
5556,8/19/2012 12:00,2.2788,9.968399999999999
5557,8/19/2012 13:00,1.1475000000000002,9.4311
5558,8/19/2012 14:00,0.5589,9.6282
5559,8/19/2012 15:00,0.5265,9.5958
5560,8/19/2012 16:00,0.7452,9.968399999999999
5561,8/19/2012 17:00,1.5363,9.7983
5562,8/19/2012 18:00,2.4219,8.583300000000001
5563,8/19/2012 19:00,2.6892,7.4601
5564,8/19/2012 20:00,4.0365,7.2468
5565,8/19/2012 21:00,5.5485,5.9805
5566,8/19/2012 22:00,6.876899999999999,4.4037
5567,8/19/2012 23:00,7.9083,0.9315000000000001
5568,8/20/2012 0:00,8.375399999999999,1.2231
5569,8/20/2012 1:00,7.643700000000001,1.7090999999999998
5570,8/20/2012 2:00,7.6113,2.0736
5571,8/20/2012 3:00,9.603900000000001,2.3706
5572,8/20/2012 4:00,9.3582,2.4273
5573,8/20/2012 5:00,7.970400000000001,2.4003
5574,8/20/2012 6:00,7.2143999999999995,2.0627999999999997
5575,8/20/2012 7:00,8.3889,1.6254
5576,8/20/2012 8:00,9.4689,1.3878
5577,8/20/2012 9:00,8.9829,1.3419
5578,8/20/2012 10:00,7.9893,1.4904
5579,8/20/2012 11:00,7.0146,1.5687
5580,8/20/2012 12:00,6.183,1.7631
5581,8/20/2012 13:00,5.5889999999999995,2.0061
5582,8/20/2012 14:00,5.0679,2.0547
5583,8/20/2012 15:00,4.4982,1.8521999999999998
5584,8/20/2012 16:00,3.9069,1.7603999999999997
5585,8/20/2012 17:00,3.348,1.5174
5586,8/20/2012 18:00,2.8161,1.2744
5587,8/20/2012 19:00,2.3679,1.0665
5588,8/20/2012 20:00,2.2248,0.864
5589,8/20/2012 21:00,1.8035999999999999,0.7911
5590,8/20/2012 22:00,1.3743,0.6831
5591,8/20/2012 23:00,1.0503,0.675
5592,8/21/2012 0:00,0.7479,0.9423
5593,8/21/2012 1:00,0.7209000000000001,1.2123000000000002
5594,8/21/2012 2:00,0.5508000000000001,1.1556
5595,8/21/2012 3:00,0.3888,1.0313999999999999
5596,8/21/2012 4:00,0.27540000000000003,0.9909000000000001
5597,8/21/2012 5:00,0.0,1.2987
5598,8/21/2012 6:00,0.0,1.9709999999999999
5599,8/21/2012 7:00,0.0,2.8971
5600,8/21/2012 8:00,0.0,3.7178999999999998
5601,8/21/2012 9:00,0.2349,3.7611000000000003
5602,8/21/2012 10:00,0.2727,3.5747999999999998
5603,8/21/2012 11:00,0.2781,2.8457999999999997
5604,8/21/2012 12:00,0.2511,2.2086
5605,8/21/2012 13:00,0.21869999999999998,1.8819
5606,8/21/2012 14:00,0.21330000000000002,1.4094
5607,8/21/2012 15:00,0.2349,1.0692000000000002
5608,8/21/2012 16:00,0.2457,1.0503
5609,8/21/2012 17:00,0.24300000000000002,1.1502
5610,8/21/2012 18:00,0.2484,1.3689
5611,8/21/2012 19:00,0.2592,1.7118
5612,8/21/2012 20:00,0.2781,2.1843
5613,8/21/2012 21:00,0.3105,2.6946
5614,8/21/2012 22:00,0.3402,3.051
5615,8/21/2012 23:00,0.35100000000000003,3.4209
5616,8/22/2012 0:00,0.3321,4.2606
5617,8/22/2012 1:00,0.3267,3.9905999999999997
5618,8/22/2012 2:00,0.2565,2.9673
5619,8/22/2012 3:00,0.2214,1.9466999999999999
5620,8/22/2012 4:00,0.2052,1.4553
5621,8/22/2012 5:00,0.21059999999999998,1.5147
5622,8/22/2012 6:00,0.2079,1.8225000000000002
5623,8/22/2012 7:00,0.2376,2.2058999999999997
5624,8/22/2012 8:00,0.3375,2.7783
5625,8/22/2012 9:00,0.3915,3.6071999999999997
5626,8/22/2012 10:00,0.42660000000000003,4.6035
5627,8/22/2012 11:00,0.3888,5.146199999999999
5628,8/22/2012 12:00,0.3564,5.8239
5629,8/22/2012 13:00,0.36719999999999997,6.331499999999999
5630,8/22/2012 14:00,0.3456,6.120900000000001
5631,8/22/2012 15:00,0.2916,5.5134
5632,8/22/2012 16:00,0.2619,4.4928
5633,8/22/2012 17:00,0.2619,4.079700000000001
5634,8/22/2012 18:00,0.21330000000000002,3.9501000000000004
5635,8/22/2012 19:00,0.0,3.8232
5636,8/22/2012 20:00,0.0,3.6773999999999996
5637,8/22/2012 21:00,0.0,3.402
5638,8/22/2012 22:00,0.0,3.2832
5639,8/22/2012 23:00,0.0,3.5181
5640,8/23/2012 0:00,0.0,3.9852000000000003
5641,8/23/2012 1:00,0.0,5.3433
5642,8/23/2012 2:00,0.0,6.7743
5643,8/23/2012 3:00,0.0,8.4537
5644,8/23/2012 4:00,0.0,10.5813
5645,8/23/2012 5:00,0.0,10.8027
5646,8/23/2012 6:00,0.0,9.107099999999999
5647,8/23/2012 7:00,0.0,7.1064
5648,8/23/2012 8:00,0.0,5.9589
5649,8/23/2012 9:00,0.0,5.0382
5650,8/23/2012 10:00,0.0,4.8168
5651,8/23/2012 11:00,0.0,4.9194
5652,8/23/2012 12:00,0.0,5.2947
5653,8/23/2012 13:00,0.0,5.481000000000001
5654,8/23/2012 14:00,0.0,6.0399
5655,8/23/2012 15:00,0.0,6.7959
5656,8/23/2012 16:00,0.0,7.546500000000001
5657,8/23/2012 17:00,0.0,7.155
5658,8/23/2012 18:00,0.0,6.2451
5659,8/23/2012 19:00,0.0,5.3109
5660,8/23/2012 20:00,0.0,0.24300000000000002
5661,8/23/2012 21:00,0.0,0.4023
5662,8/23/2012 22:00,0.0,0.6048
5663,8/23/2012 23:00,0.0,0.8883
5664,8/24/2012 0:00,0.0,1.2285
5665,8/24/2012 1:00,0.0,1.5119999999999998
5666,8/24/2012 2:00,0.0,1.5957
5667,8/24/2012 3:00,0.0,0.9558
5668,8/24/2012 4:00,0.0,0.5589
5669,8/24/2012 5:00,0.0,0.6696
5670,8/24/2012 6:00,0.0,0.8721000000000001
5671,8/24/2012 7:00,0.0,0.9423
5672,8/24/2012 8:00,0.0,1.0017
5673,8/24/2012 9:00,0.0,1.1556
5674,8/24/2012 10:00,0.0,1.3689
5675,8/24/2012 11:00,0.0,1.5147
5676,8/24/2012 12:00,0.2916,1.5740999999999998
5677,8/24/2012 13:00,0.4887,1.5740999999999998
5678,8/24/2012 14:00,0.6156,1.5174
5679,8/24/2012 15:00,0.6804,1.3527
5680,8/24/2012 16:00,0.6345,1.485
5681,8/24/2012 17:00,0.6021,1.6280999999999999
5682,8/24/2012 18:00,0.6291,1.6362
5683,8/24/2012 19:00,0.675,1.9737
5684,8/24/2012 20:00,0.7182,2.7459
5685,8/24/2012 21:00,1.2231,3.5181
5686,8/24/2012 22:00,2.1033,4.4738999999999995
5687,8/24/2012 23:00,3.1455,5.5701
5688,8/25/2012 0:00,5.2191,5.5188
5689,8/25/2012 1:00,6.758100000000001,5.6862
5690,8/25/2012 2:00,7.425000000000001,5.3271
5691,8/25/2012 3:00,7.454700000000001,5.1219
5692,8/25/2012 4:00,8.1702,5.100300000000001
5693,8/25/2012 5:00,10.146600000000001,5.4675
5694,8/25/2012 6:00,12.6549,5.5485
5695,8/25/2012 7:00,14.623199999999999,4.9869
5696,8/25/2012 8:00,16.502399999999998,4.158
5697,8/25/2012 9:00,18.3816,3.4614000000000003
5698,8/25/2012 10:00,20.0826,3.0806999999999998
5699,8/25/2012 11:00,21.2436,2.9619
5700,8/25/2012 12:00,21.5163,3.0996
5701,8/25/2012 13:00,22.064400000000003,3.3669000000000002
5702,8/25/2012 14:00,22.8258,3.5964000000000005
5703,8/25/2012 15:00,23.1741,3.456
5704,8/25/2012 16:00,23.4684,3.2535
5705,8/25/2012 17:00,23.7438,3.1319999999999997
5706,8/25/2012 18:00,23.3388,3.2751
5707,8/25/2012 19:00,21.7161,3.3318
5708,8/25/2012 20:00,18.732599999999998,3.3453
5709,8/25/2012 21:00,14.5422,3.8798999999999997
5710,8/25/2012 22:00,7.7814000000000005,4.6467
5711,8/25/2012 23:00,3.3156000000000003,5.1786
5712,8/26/2012 0:00,2.0844,5.8509
5713,8/26/2012 1:00,1.8683999999999998,6.7257
5714,8/26/2012 2:00,2.0304,7.4357999999999995
5715,8/26/2012 3:00,2.9754,8.8209
5716,8/26/2012 4:00,4.7223,10.9404
5717,8/26/2012 5:00,5.7834,12.282300000000001
5718,8/26/2012 6:00,6.2748,11.3562
5719,8/26/2012 7:00,6.7149,9.180000000000001
5720,8/26/2012 8:00,6.5097000000000005,7.1739
5721,8/26/2012 9:00,6.1722,5.6213999999999995
5722,8/26/2012 10:00,6.1182,4.7061
5723,8/26/2012 11:00,6.0588,4.0310999999999995
5724,8/26/2012 12:00,6.0371999999999995,3.3156000000000003
5725,8/26/2012 13:00,6.723,2.1114
5726,8/26/2012 14:00,7.4466,1.1772
5727,8/26/2012 15:00,8.5914,0.8505
5728,8/26/2012 16:00,9.234,0.6723
5729,8/26/2012 17:00,9.649799999999999,0.4968
5730,8/26/2012 18:00,9.814499999999999,0.3861
5731,8/26/2012 19:00,10.0467,0.3402
5732,8/26/2012 20:00,10.1952,0.2889
5733,8/26/2012 21:00,9.9171,0.21059999999999998
5734,8/26/2012 22:00,9.274500000000002,0.0
5735,8/26/2012 23:00,8.3079,0.0
5736,8/27/2012 0:00,7.568099999999999,0.0
5737,8/27/2012 1:00,7.5843,0.1998
5738,8/27/2012 2:00,7.2819,0.2619
5739,8/27/2012 3:00,8.3511,0.3132
5740,8/27/2012 4:00,8.434800000000001,0.35100000000000003
5741,8/27/2012 5:00,8.3052,0.42119999999999996
5742,8/27/2012 6:00,8.675099999999999,0.5427
5743,8/27/2012 7:00,9.0369,0.6831
5744,8/27/2012 8:00,8.3889,0.8532000000000001
5745,8/27/2012 9:00,6.9093,0.9584999999999999
5746,8/27/2012 10:00,6.021,0.8559
5747,8/27/2012 11:00,5.4,0.5724
5748,8/27/2012 12:00,4.7979,0.3375
5749,8/27/2012 13:00,4.3956,0.22679999999999997
5750,8/27/2012 14:00,4.1255999999999995,0.0
5751,8/27/2012 15:00,4.3659,0.0
5752,8/27/2012 16:00,4.7979,0.0
5753,8/27/2012 17:00,5.157,0.0
5754,8/27/2012 18:00,5.1219,0.0
5755,8/27/2012 19:00,4.7844,0.0
5756,8/27/2012 20:00,4.0473,0.0
5757,8/27/2012 21:00,3.0564,0.0
5758,8/27/2012 22:00,2.6919,0.0
5759,8/27/2012 23:00,2.7189,0.0
