,date,Wind_1,Wind_2
2880,4/30/2012 0:00,16.456500000000002,0.2349
2881,4/30/2012 1:00,15.200999999999999,0.20249999999999999
2882,4/30/2012 2:00,13.030199999999999,0.21869999999999998
2883,4/30/2012 3:00,15.6006,0.3078
2884,4/30/2012 4:00,16.416,0.4617
2885,4/30/2012 5:00,17.166600000000003,0.6615
2886,4/30/2012 6:00,16.9938,0.9450000000000001
2887,4/30/2012 7:00,15.2685,1.3689
2888,4/30/2012 8:00,13.4001,2.2167000000000003
2889,4/30/2012 9:00,11.909699999999999,3.5289
2890,4/30/2012 10:00,9.1206,5.076
2891,4/30/2012 11:00,4.8843000000000005,6.1587
2892,4/30/2012 12:00,3.1833,6.6987
2893,4/30/2012 13:00,2.0169,7.708499999999999
2894,4/30/2012 14:00,0.9639000000000001,9.6849
2895,4/30/2012 15:00,0.4887,11.8503
2896,4/30/2012 16:00,0.4023,13.635
2897,4/30/2012 17:00,0.4158,16.173
2898,4/30/2012 18:00,0.45089999999999997,18.3573
2899,4/30/2012 19:00,0.459,20.147399999999998
2900,4/30/2012 20:00,0.3807,21.7026
2901,4/30/2012 21:00,0.2538,22.709699999999998
2902,4/30/2012 22:00,0.1917,23.7546
2903,4/30/2012 23:00,0.2295,24.162300000000002
2904,5/1/2012 0:00,0.3969,24.165
2905,5/1/2012 1:00,0.7505999999999999,23.9625
2906,5/1/2012 2:00,0.7776,23.2038
2907,5/1/2012 3:00,1.3176,22.3182
2908,5/1/2012 4:00,2.4920999999999998,22.0212
2909,5/1/2012 5:00,3.6045000000000003,22.8231
2910,5/1/2012 6:00,2.9537999999999998,23.6277
2911,5/1/2012 7:00,2.3247,24.246000000000002
2912,5/1/2012 8:00,1.8251999999999997,24.807599999999997
2913,5/1/2012 9:00,1.4202000000000001,25.3098
2914,5/1/2012 10:00,1.3365,25.6986
2915,5/1/2012 11:00,1.2501,25.7715
2916,5/1/2012 12:00,1.1259000000000001,25.744500000000002
2917,5/1/2012 13:00,1.2636,25.706699999999998
2918,5/1/2012 14:00,1.4499,25.8066
2919,5/1/2012 15:00,1.6065,25.919999999999998
2920,5/1/2012 16:00,1.6443,26.000999999999998
2921,5/1/2012 17:00,1.6065,26.0415
2922,5/1/2012 18:00,1.35,26.0955
2923,5/1/2012 19:00,0.8316,26.189999999999998
2924,5/1/2012 20:00,0.6345,26.3439
2925,5/1/2012 21:00,0.8883,26.4708
2926,5/1/2012 22:00,1.3446,26.487
2927,5/1/2012 23:00,1.4904,26.5788
2928,5/2/2012 0:00,0.9558,26.6706
2929,5/2/2012 1:00,0.5373,26.6949
2930,5/2/2012 2:00,0.3159,26.684099999999997
2931,5/2/2012 3:00,0.2592,26.651699999999998
2932,5/2/2012 4:00,0.3267,26.6085
2933,5/2/2012 5:00,0.48600000000000004,26.5518
2934,5/2/2012 6:00,1.2528,26.524800000000003
2935,5/2/2012 7:00,2.2086,26.5545
2936,5/2/2012 8:00,2.7891,26.5869
2937,5/2/2012 9:00,2.8485,26.5842
2938,5/2/2012 10:00,3.105,26.5356
2939,5/2/2012 11:00,2.565,26.3709
2940,5/2/2012 12:00,3.1941,25.9875
2941,5/2/2012 13:00,3.9528,25.3449
2942,5/2/2012 14:00,4.3686,24.6105
2943,5/2/2012 15:00,4.0878000000000005,23.3064
2944,5/2/2012 16:00,4.4469,21.6432
2945,5/2/2012 17:00,5.292,19.2834
2946,5/2/2012 18:00,6.949800000000001,16.3593
2947,5/2/2012 19:00,8.6022,13.3704
2948,5/2/2012 20:00,9.4743,11.0187
2949,5/2/2012 21:00,10.3815,10.0845
2950,5/2/2012 22:00,11.1186,9.4311
2951,5/2/2012 23:00,10.740599999999999,7.1307
2952,5/3/2012 0:00,8.4645,4.7277000000000005
2953,5/3/2012 1:00,6.693300000000001,3.2399999999999998
2954,5/3/2012 2:00,7.4682,2.3544
2955,5/3/2012 3:00,7.5600000000000005,1.9359
2956,5/3/2012 4:00,9.0774,1.6578000000000002
2957,5/3/2012 5:00,10.8432,1.6632
2958,5/3/2012 6:00,12.7224,1.6794
2959,5/3/2012 7:00,14.8905,1.5957
2960,5/3/2012 8:00,15.9192,1.3716
2961,5/3/2012 9:00,17.020799999999998,1.1961
2962,5/3/2012 10:00,17.3421,1.0989
2963,5/3/2012 11:00,13.6944,0.9045000000000001
2964,5/3/2012 12:00,12.263399999999999,0.675
2965,5/3/2012 13:00,13.3407,0.5184
2966,5/3/2012 14:00,13.2921,0.4617
2967,5/3/2012 15:00,11.863800000000001,0.3807
2968,5/3/2012 16:00,10.6164,0.2295
2969,5/3/2012 17:00,10.0602,0.0
2970,5/3/2012 18:00,9.5148,0.0
2971,5/3/2012 19:00,8.361899999999999,0.0
2972,5/3/2012 20:00,7.5789,0.0
2973,5/3/2012 21:00,7.041599999999999,0.0
2974,5/3/2012 22:00,6.3558,0.0
2975,5/3/2012 23:00,5.7213,0.0
2976,5/4/2012 0:00,5.119199999999999,0.0
2977,5/4/2012 1:00,4.514399999999999,0.0
2978,5/4/2012 2:00,3.8286000000000002,0.0
2979,5/4/2012 3:00,4.8627,0.0
2980,5/4/2012 4:00,6.1182,0.2214
2981,5/4/2012 5:00,7.616700000000001,0.3267
2982,5/4/2012 6:00,9.0207,0.3834
2983,5/4/2012 7:00,10.2519,0.3942
2984,5/4/2012 8:00,11.925899999999999,0.37799999999999995
2985,5/4/2012 9:00,12.7278,0.3348
2986,5/4/2012 10:00,11.739600000000001,0.2781
2987,5/4/2012 11:00,8.0136,0.216
2988,5/4/2012 12:00,6.8607,0.0
2989,5/4/2012 13:00,6.4098,0.2241
2990,5/4/2012 14:00,5.5377,0.3105
2991,5/4/2012 15:00,4.4307,0.45089999999999997
2992,5/4/2012 16:00,3.6693,0.621
2993,5/4/2012 17:00,3.105,0.7290000000000001
2994,5/4/2012 18:00,2.7648,0.9341999999999999
2995,5/4/2012 19:00,2.3382,1.3851
2996,5/4/2012 20:00,2.0601000000000003,2.3651999999999997
2997,5/4/2012 21:00,2.0277,4.098599999999999
2998,5/4/2012 22:00,2.1275999999999997,6.5556
2999,5/4/2012 23:00,2.0979,11.3076
3000,5/5/2012 0:00,1.6092,16.2648
3001,5/5/2012 1:00,1.4687999999999999,19.250999999999998
3002,5/5/2012 2:00,1.4283000000000001,20.5335
3003,5/5/2012 3:00,1.6767,20.962799999999998
3004,5/5/2012 4:00,1.9143000000000001,21.224700000000002
3005,5/5/2012 5:00,2.0709,20.895300000000002
3006,5/5/2012 6:00,2.9997000000000003,21.1167
3007,5/5/2012 7:00,4.3956,22.0158
3008,5/5/2012 8:00,4.943700000000001,22.863599999999998
3009,5/5/2012 9:00,4.9815,23.0796
3010,5/5/2012 10:00,4.6926000000000005,22.9068
3011,5/5/2012 11:00,3.5586,23.017500000000002
3012,5/5/2012 12:00,2.8188,23.1363
3013,5/5/2012 13:00,3.0348,23.2389
3014,5/5/2012 14:00,3.4398000000000004,23.398200000000003
3015,5/5/2012 15:00,3.8798999999999997,23.5683
3016,5/5/2012 16:00,4.5171,24.421499999999998
3017,5/5/2012 17:00,4.7277000000000005,25.5933
3018,5/5/2012 18:00,3.5937,26.1522
3019,5/5/2012 19:00,3.0861,26.1981
3020,5/5/2012 20:00,3.1481999999999997,25.8876
3021,5/5/2012 21:00,3.1319999999999997,25.7769
3022,5/5/2012 22:00,2.835,25.6635
3023,5/5/2012 23:00,2.4354,25.4502
3024,5/6/2012 0:00,2.5542000000000002,25.1694
3025,5/6/2012 1:00,2.7243,25.1559
3026,5/6/2012 2:00,2.1195,24.945300000000003
3027,5/6/2012 3:00,2.4381,24.8184
3028,5/6/2012 4:00,2.8457999999999997,24.726599999999998
3029,5/6/2012 5:00,4.5927,24.7725
3030,5/6/2012 6:00,6.2613,24.8238
3031,5/6/2012 7:00,7.7004,24.9264
3032,5/6/2012 8:00,9.1152,25.0371
3033,5/6/2012 9:00,0.8936999999999999,25.085700000000003
3034,5/6/2012 10:00,0.6804,25.128899999999998
3035,5/6/2012 11:00,0.4941,25.0155
3036,5/6/2012 12:00,0.37799999999999995,24.5943
3037,5/6/2012 13:00,0.40499999999999997,24.0273
3038,5/6/2012 14:00,0.432,23.611500000000003
3039,5/6/2012 15:00,0.513,23.274
3040,5/6/2012 16:00,0.6507,23.230800000000002
3041,5/6/2012 17:00,0.6398999999999999,22.979699999999998
3042,5/6/2012 18:00,0.6831,23.1984
3043,5/6/2012 19:00,0.6318,23.2551
3044,5/6/2012 20:00,0.4995,23.430600000000002
3045,5/6/2012 21:00,0.3429,23.409
3046,5/6/2012 22:00,0.21869999999999998,23.3901
3047,5/6/2012 23:00,0.0,23.168699999999998
3048,5/7/2012 0:00,0.0,22.5342
3049,5/7/2012 1:00,0.0,22.3452
3050,5/7/2012 2:00,0.0,21.7971
3051,5/7/2012 3:00,0.0,20.6064
3052,5/7/2012 4:00,0.0,19.5291
3053,5/7/2012 5:00,0.1917,18.713700000000003
3054,5/7/2012 6:00,0.3051,18.0603
3055,5/7/2012 7:00,0.45359999999999995,17.4555
3056,5/7/2012 8:00,0.6507,16.313399999999998
3057,5/7/2012 9:00,0.9584999999999999,14.5314
3058,5/7/2012 10:00,1.3986,12.5874
3059,5/7/2012 11:00,1.5903,9.698400000000001
3060,5/7/2012 12:00,1.7361,6.075
3061,5/7/2012 13:00,2.1222000000000003,3.7584
3062,5/7/2012 14:00,2.5218,2.4920999999999998
3063,5/7/2012 15:00,3.8286000000000002,1.7793
3064,5/7/2012 16:00,4.4658,1.2231
3065,5/7/2012 17:00,5.7969,1.0746
3066,5/7/2012 18:00,7.3062000000000005,1.0476
3067,5/7/2012 19:00,7.5762,1.0854
3068,5/7/2012 20:00,9.180000000000001,1.1988
3069,5/7/2012 21:00,12.1338,1.2123000000000002
3070,5/7/2012 22:00,15.238800000000001,1.0287
3071,5/7/2012 23:00,16.9209,1.0044
3072,5/8/2012 0:00,18.0414,1.5957
3073,5/8/2012 1:00,18.6759,2.3058
3074,5/8/2012 2:00,18.954,3.2076000000000002
3075,5/8/2012 3:00,19.323900000000002,4.0634999999999994
3076,5/8/2012 4:00,19.548000000000002,4.5684
3077,5/8/2012 5:00,20.4876,3.8043
3078,5/8/2012 6:00,21.519000000000002,2.8863
3079,5/8/2012 7:00,22.3371,2.2220999999999997
3080,5/8/2012 8:00,22.9743,1.7469
3081,5/8/2012 9:00,23.4117,1.7090999999999998
3082,5/8/2012 10:00,23.7006,1.8143999999999998
3083,5/8/2012 11:00,23.076900000000002,1.7442000000000002
3084,5/8/2012 12:00,22.2804,1.3824
3085,5/8/2012 13:00,21.7728,1.323
3086,5/8/2012 14:00,22.3155,1.5498
3087,5/8/2012 15:00,22.5909,2.3625
3088,5/8/2012 16:00,21.980700000000002,4.1445
3089,5/8/2012 17:00,22.3263,5.7158999999999995
3090,5/8/2012 18:00,22.7988,6.6852
3091,5/8/2012 19:00,23.417099999999998,7.095599999999999
3092,5/8/2012 20:00,23.5413,6.0858
3093,5/8/2012 21:00,22.6422,4.4307
3094,5/8/2012 22:00,22.4019,3.1860000000000004
3095,5/8/2012 23:00,22.2831,2.3706
3096,5/9/2012 0:00,22.7853,2.1627
3097,5/9/2012 1:00,22.9905,1.5525
3098,5/9/2012 2:00,22.8582,0.6236999999999999
3099,5/9/2012 3:00,22.5774,0.0
3100,5/9/2012 4:00,22.221,0.0
3101,5/9/2012 5:00,21.6324,0.0
3102,5/9/2012 6:00,21.1005,0.45089999999999997
3103,5/9/2012 7:00,20.938499999999998,1.2015
3104,5/9/2012 8:00,20.898,2.5542000000000002
3105,5/9/2012 9:00,20.7792,4.5198
3106,5/9/2012 10:00,19.9638,4.4874
3107,5/9/2012 11:00,18.168300000000002,4.2525
3108,5/9/2012 12:00,15.063299999999998,4.1876999999999995
3109,5/9/2012 13:00,11.6478,3.7395000000000005
3110,5/9/2012 14:00,8.4672,3.6342
3111,5/9/2012 15:00,5.6268,4.0716
3112,5/9/2012 16:00,3.7449,4.5036000000000005
3113,5/9/2012 17:00,2.3085,4.8816
3114,5/9/2012 18:00,1.3824,4.7331
3115,5/9/2012 19:00,0.7884,3.9960000000000004
3116,5/9/2012 20:00,0.48329999999999995,3.0159
3117,5/9/2012 21:00,0.3591,2.2113
3118,5/9/2012 22:00,0.2889,1.4256
3119,5/9/2012 23:00,0.2214,0.6507
3120,5/10/2012 0:00,0.0,0.3996
3121,5/10/2012 1:00,0.0,0.4428
3122,5/10/2012 2:00,0.0,0.5670000000000001
3123,5/10/2012 3:00,0.0,0.6696
3124,5/10/2012 4:00,0.0,0.7398
3125,5/10/2012 5:00,0.0,0.9099
3126,5/10/2012 6:00,0.0,0.7641
3127,5/10/2012 7:00,0.0,0.3402
3128,5/10/2012 8:00,0.0,0.0
3129,5/10/2012 9:00,0.0,0.0
3130,5/10/2012 10:00,0.0,0.0
3131,5/10/2012 11:00,0.0,0.0
3132,5/10/2012 12:00,0.0,0.0
3133,5/10/2012 13:00,0.0,0.0
3134,5/10/2012 14:00,0.0,0.0
3135,5/10/2012 15:00,0.0,0.0
3136,5/10/2012 16:00,0.0,0.4023
3137,5/10/2012 17:00,0.0,0.7884
3138,5/10/2012 18:00,0.0,0.9909000000000001
3139,5/10/2012 19:00,0.0,1.3203
3140,5/10/2012 20:00,0.0,1.8063
3141,5/10/2012 21:00,0.2052,2.2167000000000003
3142,5/10/2012 22:00,0.0,1.9952999999999999
3143,5/10/2012 23:00,0.0,1.5282
3144,5/11/2012 0:00,0.0,1.0989
3145,5/11/2012 1:00,0.0,0.9288
3146,5/11/2012 2:00,0.0,0.7209000000000001
3147,5/11/2012 3:00,0.0,0.6183
3148,5/11/2012 4:00,0.0,0.5049
3149,5/11/2012 5:00,0.0,0.2997
3150,5/11/2012 6:00,0.0,0.0
3151,5/11/2012 7:00,0.1971,0.0
3152,5/11/2012 8:00,0.1998,0.0
3153,5/11/2012 9:00,0.0,0.0
3154,5/11/2012 10:00,0.0,0.0
3155,5/11/2012 11:00,0.0,0.0
3156,5/11/2012 12:00,0.0,0.0
3157,5/11/2012 13:00,0.0,0.0
3158,5/11/2012 14:00,0.0,0.0
3159,5/11/2012 15:00,0.0,0.0
3160,5/11/2012 16:00,0.0,0.0
3161,5/11/2012 17:00,0.21059999999999998,0.0
3162,5/11/2012 18:00,0.27,0.0
3163,5/11/2012 19:00,0.3861,0.0
3164,5/11/2012 20:00,0.5670000000000001,0.0
3165,5/11/2012 21:00,0.8721000000000001,0.2079
3166,5/11/2012 22:00,1.269,0.2376
3167,5/11/2012 23:00,1.8954,0.216
3168,5/12/2012 0:00,2.6919,0.21059999999999998
3169,5/12/2012 1:00,4.2066,0.2592
3170,5/12/2012 2:00,4.8357,0.3564
3171,5/12/2012 3:00,4.6979999999999995,0.4887
3172,5/12/2012 4:00,4.4172,0.6372
3173,5/12/2012 5:00,4.0959,0.8801999999999999
3174,5/12/2012 6:00,4.2255,1.1664
3175,5/12/2012 7:00,5.0841,1.5092999999999999
3176,5/12/2012 8:00,6.3531,1.8171
3177,5/12/2012 9:00,7.5384,2.079
3178,5/12/2012 10:00,8.4267,2.3544
3179,5/12/2012 11:00,8.5914,2.8754999999999997
3180,5/12/2012 12:00,8.478,3.0833999999999997
3181,5/12/2012 13:00,11.909699999999999,4.2417
3182,5/12/2012 14:00,14.428799999999999,4.1499
3183,5/12/2012 15:00,16.551,3.3102
3184,5/12/2012 16:00,19.6749,2.9835
3185,5/12/2012 17:00,21.7512,2.3139
3186,5/12/2012 18:00,22.7583,2.6676
3187,5/12/2012 19:00,22.877100000000002,2.1357
3188,5/12/2012 20:00,22.842,1.4931
3189,5/12/2012 21:00,22.7583,1.0989
3190,5/12/2012 22:00,22.113000000000003,0.7992
3191,5/12/2012 23:00,19.9962,0.5454
3192,5/13/2012 0:00,15.7788,0.5238
3193,5/13/2012 1:00,16.0326,0.6264
3194,5/13/2012 2:00,16.0434,0.6939
3195,5/13/2012 3:00,16.2459,0.6453
3196,5/13/2012 4:00,16.5888,0.7020000000000001
3197,5/13/2012 5:00,17.6796,0.7884
3198,5/13/2012 6:00,18.7002,0.7776
3199,5/13/2012 7:00,19.701900000000002,0.7992
3200,5/13/2012 8:00,20.287799999999997,0.9288
3201,5/13/2012 9:00,20.457900000000002,1.08
3202,5/13/2012 10:00,20.5767,1.1799000000000002
3203,5/13/2012 11:00,20.1123,1.3256999999999999
3204,5/13/2012 12:00,19.2618,1.4202000000000001
3205,5/13/2012 13:00,20.4849,1.3446
3206,5/13/2012 14:00,22.8447,1.0773
3207,5/13/2012 15:00,23.4387,0.8613
3208,5/13/2012 16:00,23.795099999999998,0.7101000000000001
3209,5/13/2012 17:00,23.921999999999997,0.4428
3210,5/13/2012 18:00,24.2001,0.2646
3211,5/13/2012 19:00,24.453899999999997,0.0
3212,5/13/2012 20:00,24.6321,0.0
3213,5/13/2012 21:00,24.7482,0.0
3214,5/13/2012 22:00,24.551099999999998,0.4077
3215,5/13/2012 23:00,23.0013,0.7047
3216,5/14/2012 0:00,19.8153,1.1394
3217,5/14/2012 1:00,19.3833,2.2896
3218,5/14/2012 2:00,18.1629,3.2076000000000002
3219,5/14/2012 3:00,16.5213,4.182300000000001
3220,5/14/2012 4:00,15.263100000000001,6.0992999999999995
3221,5/14/2012 5:00,14.877,9.1341
3222,5/14/2012 6:00,14.8365,10.5678
3223,5/14/2012 7:00,15.012,11.1348
3224,5/14/2012 8:00,14.744700000000002,12.104099999999999
3225,5/14/2012 9:00,13.861799999999999,11.2833
3226,5/14/2012 10:00,12.6819,10.2735
3227,5/14/2012 11:00,10.475999999999999,10.6974
3228,5/14/2012 12:00,11.7531,12.104099999999999
3229,5/14/2012 13:00,12.5307,11.9367
3230,5/14/2012 14:00,11.0133,10.1304
3231,5/14/2012 15:00,9.738900000000001,7.452000000000001
3232,5/14/2012 16:00,7.997400000000001,4.8465
3233,5/14/2012 17:00,5.8374,3.6585
3234,5/14/2012 18:00,3.7422,2.0277
3235,5/14/2012 19:00,2.6838,1.2582
3236,5/14/2012 20:00,1.8225000000000002,1.0152
3237,5/14/2012 21:00,1.1880000000000002,1.3419
3238,5/14/2012 22:00,0.6858,1.2042
3239,5/14/2012 23:00,0.2484,1.1421
3240,5/15/2012 0:00,0.0,1.4040000000000001
3241,5/15/2012 1:00,0.0,1.6632
3242,5/15/2012 2:00,0.0,1.3095
3243,5/15/2012 3:00,0.0,0.8505
3244,5/15/2012 4:00,0.0,0.432
3245,5/15/2012 5:00,0.0,0.0
3246,5/15/2012 6:00,0.0,0.0
3247,5/15/2012 7:00,0.0,0.0
3248,5/15/2012 8:00,0.2241,0.3159
3249,5/15/2012 9:00,0.2781,1.6767
3250,5/15/2012 10:00,0.3861,6.1236
3251,5/15/2012 11:00,0.3969,6.7068
3252,5/15/2012 12:00,0.3996,17.037
3253,5/15/2012 13:00,0.6426000000000001,19.693800000000003
3254,5/15/2012 14:00,0.8505,21.5271
3255,5/15/2012 15:00,1.1637,21.5676
3256,5/15/2012 16:00,1.6929,21.8322
3257,5/15/2012 17:00,2.0682,20.763
3258,5/15/2012 18:00,2.2113,18.6678
3259,5/15/2012 19:00,2.1681,18.5058
3260,5/15/2012 20:00,1.8386999999999998,15.552000000000001
3261,5/15/2012 21:00,1.1637,11.6694
3262,5/15/2012 22:00,0.5292,9.584999999999999
3263,5/15/2012 23:00,0.0,7.6788
3264,5/16/2012 0:00,0.0,6.4935
3265,5/16/2012 1:00,0.5832,6.785100000000001
3266,5/16/2012 2:00,1.3932,7.8651
3267,5/16/2012 3:00,1.6011,9.3717
3268,5/16/2012 4:00,1.0017,10.5327
3269,5/16/2012 5:00,0.5804999999999999,11.259
3270,5/16/2012 6:00,0.3294,11.242799999999999
3271,5/16/2012 7:00,0.2295,11.3589
3272,5/16/2012 8:00,0.0,11.1888
3273,5/16/2012 9:00,0.0,10.3842
3274,5/16/2012 10:00,0.2241,9.5607
3275,5/16/2012 11:00,0.0,9.5769
3276,5/16/2012 12:00,0.2079,9.8064
3277,5/16/2012 13:00,0.3051,9.639000000000001
3278,5/16/2012 14:00,0.324,8.6022
3279,5/16/2012 15:00,0.3591,7.473599999999999
3280,5/16/2012 16:00,0.4752,6.3423
3281,5/16/2012 17:00,0.7695000000000001,5.2164
3282,5/16/2012 18:00,1.2555,5.3027999999999995
3283,5/16/2012 19:00,1.6578000000000002,6.3423
3284,5/16/2012 20:00,1.7982000000000002,8.37
3285,5/16/2012 21:00,1.7847000000000002,9.2475
3286,5/16/2012 22:00,1.5606,9.177299999999999
3287,5/16/2012 23:00,0.9450000000000001,9.2043
3288,5/17/2012 0:00,0.48329999999999995,9.4176
3289,5/17/2012 1:00,0.27540000000000003,8.9937
3290,5/17/2012 2:00,0.2079,7.6032
3291,5/17/2012 3:00,0.1971,6.3828
3292,5/17/2012 4:00,0.21869999999999998,5.869800000000001
3293,5/17/2012 5:00,0.2997,4.9464
3294,5/17/2012 6:00,0.4023,5.3027999999999995
3295,5/17/2012 7:00,0.3726,5.9859
3296,5/17/2012 8:00,0.2349,5.6241
3297,5/17/2012 9:00,0.0,5.1894
3298,5/17/2012 10:00,0.0,4.833
3299,5/17/2012 11:00,0.0,4.1769
3300,5/17/2012 12:00,0.0,3.1374
3301,5/17/2012 13:00,0.0,2.1923999999999997
3302,5/17/2012 14:00,0.0,2.0277
3303,5/17/2012 15:00,0.0,3.2373000000000003
3304,5/17/2012 16:00,0.0,5.7375
3305,5/17/2012 17:00,0.27,8.3106
3306,5/17/2012 18:00,0.4644,12.6063
3307,5/17/2012 19:00,0.8505,16.856099999999998
3308,5/17/2012 20:00,1.2068999999999999,18.106199999999998
3309,5/17/2012 21:00,1.2663,19.143
3310,5/17/2012 22:00,0.8586,18.8514
3311,5/17/2012 23:00,0.6372,17.776799999999998
3312,5/18/2012 0:00,0.5589,17.3718
3313,5/18/2012 1:00,0.6021,18.0036
3314,5/18/2012 2:00,0.6048,18.4275
3315,5/18/2012 3:00,0.6156,19.0917
3316,5/18/2012 4:00,0.5804999999999999,19.1889
3317,5/18/2012 5:00,0.43739999999999996,19.086299999999998
3318,5/18/2012 6:00,0.27,17.9604
3319,5/18/2012 7:00,0.0,17.1774
3320,5/18/2012 8:00,0.0,15.7113
3321,5/18/2012 9:00,0.0,13.2948
3322,5/18/2012 10:00,0.0,12.5766
3323,5/18/2012 11:00,0.0,11.904300000000001
3324,5/18/2012 12:00,0.0,11.615400000000001
3325,5/18/2012 13:00,0.0,11.3994
3326,5/18/2012 14:00,0.0,10.1736
3327,5/18/2012 15:00,0.0,8.8371
3328,5/18/2012 16:00,0.0,8.0703
3329,5/18/2012 17:00,0.0,6.7527
3330,5/18/2012 18:00,0.0,5.8671
3331,5/18/2012 19:00,0.0,4.643999999999999
3332,5/18/2012 20:00,0.0,3.8826000000000005
3333,5/18/2012 21:00,0.0,3.4155
3334,5/18/2012 22:00,0.0,2.9808
3335,5/18/2012 23:00,0.0,2.7837
3336,5/19/2012 0:00,0.1917,27.0
3337,5/19/2012 1:00,0.1971,27.0
3338,5/19/2012 2:00,0.0,27.0
3339,5/19/2012 3:00,0.0,27.0
3340,5/19/2012 4:00,0.0,27.0
3341,5/19/2012 5:00,0.0,26.5302
3342,5/19/2012 6:00,0.0,26.0955
3343,5/19/2012 7:00,0.0,26.1738
3344,5/19/2012 8:00,0.0,26.514
3345,5/19/2012 9:00,0.1917,2.3625
3346,5/19/2012 10:00,0.1998,2.9214
3347,5/19/2012 11:00,0.2727,3.0861
3348,5/19/2012 12:00,0.4428,3.0402
3349,5/19/2012 13:00,0.5994,3.0402
3350,5/19/2012 14:00,0.8991000000000001,2.7216
3351,5/19/2012 15:00,1.3149,2.4786
3352,5/19/2012 16:00,2.1816,2.3544
3353,5/19/2012 17:00,2.754,2.1114
3354,5/19/2012 18:00,3.4614000000000003,2.0169
3355,5/19/2012 19:00,4.0959,2.0277
3356,5/19/2012 20:00,4.3929,2.2086
3357,5/19/2012 21:00,4.0824,2.8404000000000003
3358,5/19/2012 22:00,4.8303,3.7935000000000003
3359,5/19/2012 23:00,5.0382,4.3362
3360,5/20/2012 0:00,6.0561,4.1121
3361,5/20/2012 1:00,7.9731000000000005,3.5207999999999995
3362,5/20/2012 2:00,9.9009,2.7648
3363,5/20/2012 3:00,10.759500000000001,2.2599
3364,5/20/2012 4:00,10.8,2.079
3365,5/20/2012 5:00,10.0764,2.1411
3366,5/20/2012 6:00,8.1648,2.2734
3367,5/20/2012 7:00,6.5502,2.4489
3368,5/20/2012 8:00,4.970700000000001,2.4624
3369,5/20/2012 9:00,3.7043999999999997,2.4435
3370,5/20/2012 10:00,2.8431,2.5299
3371,5/20/2012 11:00,1.9413000000000002,2.6838
3372,5/20/2012 12:00,1.431,2.7405000000000004
3373,5/20/2012 13:00,1.1583,2.3760000000000003
3374,5/20/2012 14:00,0.9936,2.0385
3375,5/20/2012 15:00,0.9639000000000001,1.5822
3376,5/20/2012 16:00,1.0313999999999999,1.2609
3377,5/20/2012 17:00,1.1880000000000002,1.0827
3378,5/20/2012 18:00,1.323,1.0503
3379,5/20/2012 19:00,1.5309,1.053
3380,5/20/2012 20:00,1.9034999999999997,20.1204
3381,5/20/2012 21:00,2.3219999999999996,20.9898
3382,5/20/2012 22:00,2.7324,21.384
3383,5/20/2012 23:00,3.3102,21.3057
3384,5/21/2012 0:00,3.7206,21.0168
3385,5/21/2012 1:00,3.6422999999999996,21.151799999999998
3386,5/21/2012 2:00,3.0321,21.189600000000002
3387,5/21/2012 3:00,2.5353,21.0816
3388,5/21/2012 4:00,2.1140999999999996,20.730600000000003
3389,5/21/2012 5:00,1.6632,20.1933
3390,5/21/2012 6:00,1.2555,19.2024
3391,5/21/2012 7:00,1.0098,18.3141
3392,5/21/2012 8:00,0.8856,18.0549
3393,5/21/2012 9:00,0.8694,18.081899999999997
3394,5/21/2012 10:00,0.8964,17.917199999999998
3395,5/21/2012 11:00,0.675,17.3853
3396,5/21/2012 12:00,0.5535,16.6347
3397,5/21/2012 13:00,0.7479,14.8635
3398,5/21/2012 14:00,1.2825,13.764600000000002
3399,5/21/2012 15:00,1.5201,13.3407
3400,5/21/2012 16:00,1.2771000000000001,13.383899999999999
3401,5/21/2012 17:00,0.7505999999999999,11.8422
3402,5/21/2012 18:00,0.3969,9.2826
3403,5/21/2012 19:00,0.2295,6.5232
3404,5/21/2012 20:00,0.0,5.157
3405,5/21/2012 21:00,0.0,5.5431
3406,5/21/2012 22:00,0.0,5.7051
3407,5/21/2012 23:00,0.0,4.4361
3408,5/22/2012 0:00,0.0,2.5056
3409,5/22/2012 1:00,0.3078,1.9116
3410,5/22/2012 2:00,0.4995,1.8171
3411,5/22/2012 3:00,0.5184,1.1609999999999998
3412,5/22/2012 4:00,0.48059999999999997,0.918
3413,5/22/2012 5:00,0.41309999999999997,1.1285999999999998
3414,5/22/2012 6:00,0.3942,0.8208
3415,5/22/2012 7:00,0.4077,0.3834
3416,5/22/2012 8:00,0.35100000000000003,0.0
3417,5/22/2012 9:00,0.3132,0.0
3418,5/22/2012 10:00,0.29700000000000004,0.0
3419,5/22/2012 11:00,0.2646,0.0
3420,5/22/2012 12:00,0.28350000000000003,0.0
3421,5/22/2012 13:00,0.3348,0.2079
3422,5/22/2012 14:00,0.3537,0.2862
3423,5/22/2012 15:00,0.3132,0.621
3424,5/22/2012 16:00,0.24029999999999999,1.3932
3425,5/22/2012 17:00,0.0,2.9295
3426,5/22/2012 18:00,0.0,4.6872
3427,5/22/2012 19:00,0.0,6.2613
3428,5/22/2012 20:00,0.0,8.9046
3429,5/22/2012 21:00,0.0,11.7828
3430,5/22/2012 22:00,0.0,14.4261
3431,5/22/2012 23:00,0.0,16.7859
3432,5/23/2012 0:00,0.0,17.8794
3433,5/23/2012 1:00,0.0,19.5102
3434,5/23/2012 2:00,0.0,20.79
3435,5/23/2012 3:00,0.0,21.5676
3436,5/23/2012 4:00,0.0,22.6584
3437,5/23/2012 5:00,0.0,23.0904
3438,5/23/2012 6:00,0.0,22.6233
3439,5/23/2012 7:00,0.0,22.2453
3440,5/23/2012 8:00,0.0,22.4316
3441,5/23/2012 9:00,0.0,23.1363
3442,5/23/2012 10:00,0.0,23.9328
3443,5/23/2012 11:00,0.0,24.4458
3444,5/23/2012 12:00,0.0,24.2136
3445,5/23/2012 13:00,0.0,23.5386
3446,5/23/2012 14:00,0.21059999999999998,23.017500000000002
3447,5/23/2012 15:00,0.0,22.6206
3448,5/23/2012 16:00,0.0,22.3776
3449,5/23/2012 17:00,0.0,22.166999999999998
3450,5/23/2012 18:00,0.0,22.6611
3451,5/23/2012 19:00,0.0,23.2092
3452,5/23/2012 20:00,0.0,23.9571
3453,5/23/2012 21:00,0.27540000000000003,24.5889
3454,5/23/2012 22:00,0.7101000000000001,24.6834
3455,5/23/2012 23:00,1.0557,24.3891
3456,5/24/2012 0:00,0.8127,23.751900000000003
3457,5/24/2012 1:00,0.7992,23.2686
3458,5/24/2012 2:00,0.8261999999999999,22.6125
3459,5/24/2012 3:00,0.8856,22.9176
3460,5/24/2012 4:00,0.9854999999999999,23.976
3461,5/24/2012 5:00,1.2177,23.992199999999997
3462,5/24/2012 6:00,1.6308,23.3712
3463,5/24/2012 7:00,2.1762,22.3371
3464,5/24/2012 8:00,2.6163,21.2598
3465,5/24/2012 9:00,3.0185999999999997,20.3823
3466,5/24/2012 10:00,3.1616999999999997,19.4508
3467,5/24/2012 11:00,2.5029000000000003,18.09
3468,5/24/2012 12:00,2.3489999999999998,16.5807
3469,5/24/2012 13:00,3.8907000000000003,15.630299999999998
3470,5/24/2012 14:00,5.6754,14.952599999999999
3471,5/24/2012 15:00,7.6518,14.3721
3472,5/24/2012 16:00,8.5428,14.4747
3473,5/24/2012 17:00,8.7102,15.257700000000002
3474,5/24/2012 18:00,7.965,26.7759
3475,5/24/2012 19:00,7.2954,26.5464
3476,5/24/2012 20:00,7.6545,25.5285
3477,5/24/2012 21:00,7.3629,23.2983
3478,5/24/2012 22:00,5.8563,18.4275
3479,5/24/2012 23:00,5.372999999999999,13.813200000000002
3480,5/25/2012 0:00,6.7095,9.698400000000001
3481,5/25/2012 1:00,9.3528,6.1182
3482,5/25/2012 2:00,11.996099999999998,2.3219999999999996
3483,5/25/2012 3:00,14.607000000000001,0.918
3484,5/25/2012 4:00,16.3323,0.3132
3485,5/25/2012 5:00,16.210800000000003,0.0
3486,5/25/2012 6:00,15.8976,0.0
3487,5/25/2012 7:00,16.648200000000003,0.0
3488,5/25/2012 8:00,17.0235,0.2727
3489,5/25/2012 9:00,17.2854,1.5092999999999999
3490,5/25/2012 10:00,16.2432,6.1425
3491,5/25/2012 11:00,11.699100000000001,14.436899999999998
3492,5/25/2012 12:00,5.157,21.491999999999997
3493,5/25/2012 13:00,1.8225000000000002,24.8022
3494,5/25/2012 14:00,0.8397,26.2305
3495,5/25/2012 15:00,0.5292,26.7516
3496,5/25/2012 16:00,0.37529999999999997,27.0
3497,5/25/2012 17:00,0.27540000000000003,27.0
3498,5/25/2012 18:00,0.2052,27.0
3499,5/25/2012 19:00,0.0,27.0
3500,5/25/2012 20:00,0.0,26.792099999999998
3501,5/25/2012 21:00,0.0,26.5302
3502,5/25/2012 22:00,0.0,27.0
3503,5/25/2012 23:00,0.3456,27.0
3504,5/26/2012 0:00,1.1016000000000001,27.0
3505,5/26/2012 1:00,2.6163,27.0
3506,5/26/2012 2:00,3.2292,27.0
3507,5/26/2012 3:00,3.6908999999999996,27.0
3508,5/26/2012 4:00,5.2974000000000006,27.0
3509,5/26/2012 5:00,5.3244,27.0
3510,5/26/2012 6:00,4.8168,27.0
3511,5/26/2012 7:00,4.5549,27.0
3512,5/26/2012 8:00,4.0122,27.0
3513,5/26/2012 9:00,3.1401,27.0
3514,5/26/2012 10:00,2.0492999999999997,27.0
3515,5/26/2012 11:00,1.1043,27.0
3516,5/26/2012 12:00,0.6318,26.773200000000003
3517,5/26/2012 13:00,0.3915,26.689500000000002
3518,5/26/2012 14:00,0.2808,26.5842
3519,5/26/2012 15:00,0.0,26.4843
3520,5/26/2012 16:00,0.0,26.3061
3521,5/26/2012 17:00,0.0,26.3817
3522,5/26/2012 18:00,0.0,26.5329
3523,5/26/2012 19:00,0.0,26.541
3524,5/26/2012 20:00,0.0,26.3898
3525,5/26/2012 21:00,0.0,26.0685
3526,5/26/2012 22:00,0.0,25.2018
3527,5/26/2012 23:00,0.0,23.4576
3528,5/27/2012 0:00,0.2781,20.5011
3529,5/27/2012 1:00,0.5589,17.3259
3530,5/27/2012 2:00,0.7209000000000001,15.2658
3531,5/27/2012 3:00,0.8073,11.0268
3532,5/27/2012 4:00,0.7829999999999999,5.6241
3533,5/27/2012 5:00,0.6588,2.025
3534,5/27/2012 6:00,0.5670000000000001,0.918
3535,5/27/2012 7:00,0.4752,1.3959000000000001
3536,5/27/2012 8:00,0.324,4.514399999999999
3537,5/27/2012 9:00,0.21330000000000002,9.8793
3538,5/27/2012 10:00,0.20249999999999999,13.5108
3539,5/27/2012 11:00,0.21330000000000002,13.1058
3540,5/27/2012 12:00,0.2646,9.9252
3541,5/27/2012 13:00,0.5292,6.9255
3542,5/27/2012 14:00,0.6398999999999999,5.8563
3543,5/27/2012 15:00,0.4914,6.250500000000001
3544,5/27/2012 16:00,0.4293,6.6231
3545,5/27/2012 17:00,0.3861,6.0831
3546,5/27/2012 18:00,0.3078,7.300799999999999
3547,5/27/2012 19:00,0.216,9.2961
3548,5/27/2012 20:00,0.0,12.2283
3549,5/27/2012 21:00,0.0,16.1433
3550,5/27/2012 22:00,0.0,17.307
3551,5/27/2012 23:00,0.0,16.5375
3552,5/28/2012 0:00,0.0,14.8851
3553,5/28/2012 1:00,0.32130000000000003,13.9617
3554,5/28/2012 2:00,0.42119999999999996,13.851
3555,5/28/2012 3:00,0.3375,13.5864
3556,5/28/2012 4:00,0.21059999999999998,12.0069
3557,5/28/2012 5:00,0.0,8.9289
3558,5/28/2012 6:00,0.0,6.8633999999999995
3559,5/28/2012 7:00,0.0,5.5377
3560,5/28/2012 8:00,0.2511,4.8195
3561,5/28/2012 9:00,0.37529999999999997,3.2157
3562,5/28/2012 10:00,0.5049,1.8630000000000002
3563,5/28/2012 11:00,0.3051,1.0395
3564,5/28/2012 12:00,0.2592,0.5832
3565,5/28/2012 13:00,0.3591,0.3078
3566,5/28/2012 14:00,0.37529999999999997,0.3267
3567,5/28/2012 15:00,0.3699,0.7533000000000001
3568,5/28/2012 16:00,0.37799999999999995,2.1195
3569,5/28/2012 17:00,0.3726,4.2984
3570,5/28/2012 18:00,0.32130000000000003,8.7075
3571,5/28/2012 19:00,0.216,14.085900000000002
3572,5/28/2012 20:00,0.0,20.7765
3573,5/28/2012 21:00,0.0,24.410700000000002
3574,5/28/2012 22:00,0.0,25.488000000000003
3575,5/28/2012 23:00,0.0,25.436700000000002
3576,5/29/2012 0:00,0.2349,23.6412
3577,5/29/2012 1:00,0.4185,9.166500000000001
3578,5/29/2012 2:00,0.3996,0.6426000000000001
3579,5/29/2012 3:00,0.2619,0.0
3580,5/29/2012 4:00,0.0,0.0
3581,5/29/2012 5:00,0.0,0.4968
3582,5/29/2012 6:00,0.0,0.7128
3583,5/29/2012 7:00,0.0,0.7263000000000001
3584,5/29/2012 8:00,0.0,0.4617
3585,5/29/2012 9:00,0.0,0.2538
3586,5/29/2012 10:00,0.0,0.0
3587,5/29/2012 11:00,0.0,0.0
3588,5/29/2012 12:00,0.0,0.3051
3589,5/29/2012 13:00,0.0,0.9341999999999999
3590,5/29/2012 14:00,0.0,2.2734
3591,5/29/2012 15:00,0.0,4.6008
3592,5/29/2012 16:00,0.0,8.6373
3593,5/29/2012 17:00,0.0,15.635699999999998
3594,5/29/2012 18:00,0.0,22.4667
3595,5/29/2012 19:00,0.2322,24.894000000000002
3596,5/29/2012 20:00,0.3456,22.9932
3597,5/29/2012 21:00,0.4941,7.6977
3598,5/29/2012 22:00,0.6074999999999999,2.5893
3599,5/29/2012 23:00,0.5967,3.2832
