,date,Wind_1,Wind_2
1440,3/1/2012 0:00,0.5562,0.0
1441,3/1/2012 1:00,0.7101000000000001,0.0
1442,3/1/2012 2:00,0.8559,0.0
1443,3/1/2012 3:00,0.9260999999999999,0.21869999999999998
1444,3/1/2012 4:00,0.9611999999999999,0.3429
1445,3/1/2012 5:00,0.8775000000000001,0.42660000000000003
1446,3/1/2012 6:00,0.7290000000000001,0.6912
1447,3/1/2012 7:00,0.5427,2.9484000000000004
1448,3/1/2012 8:00,0.4698,7.233300000000001
1449,3/1/2012 9:00,0.5318999999999999,8.7048
1450,3/1/2012 10:00,0.6048,9.017999999999999
1451,3/1/2012 11:00,0.7965,12.1419
1452,3/1/2012 12:00,0.9828,21.6
1453,3/1/2012 13:00,1.2609,25.299000000000003
1454,3/1/2012 14:00,1.6929,26.4087
1455,3/1/2012 15:00,2.2842,26.757
1456,3/1/2012 16:00,2.9106,27.0
1457,3/1/2012 17:00,3.4911,27.0
1458,3/1/2012 18:00,3.9014999999999995,27.0
1459,3/1/2012 19:00,3.7314,27.0
1460,3/1/2012 20:00,3.4749000000000003,27.0
1461,3/1/2012 21:00,3.3534,27.0
1462,3/1/2012 22:00,3.6477,27.0
1463,3/1/2012 23:00,3.6018,27.0
1464,3/2/2012 0:00,4.0716,26.6976
1465,3/2/2012 1:00,5.610600000000001,26.4276
1466,3/2/2012 2:00,5.645700000000001,25.7391
1467,3/2/2012 3:00,5.9211,21.491999999999997
1468,3/2/2012 4:00,6.5043,18.330299999999998
1469,3/2/2012 5:00,7.954199999999999,16.8453
1470,3/2/2012 6:00,7.900200000000001,16.038
1471,3/2/2012 7:00,6.7365,12.7467
1472,3/2/2012 8:00,5.181299999999999,8.415899999999999
1473,3/2/2012 9:00,4.7412,4.209300000000001
1474,3/2/2012 10:00,5.1948,2.8512
1475,3/2/2012 11:00,6.0642,1.4337
1476,3/2/2012 12:00,6.6636,1.6389
1477,3/2/2012 13:00,6.1803,0.9450000000000001
1478,3/2/2012 14:00,5.4405,0.5940000000000001
1479,3/2/2012 15:00,4.7952,0.6993
1480,3/2/2012 16:00,4.158,1.0503
1481,3/2/2012 17:00,3.5342999999999996,1.3203
1482,3/2/2012 18:00,2.9565,2.3193
1483,3/2/2012 19:00,21.8376,3.3858
1484,3/2/2012 20:00,25.2828,5.3865
1485,3/2/2012 21:00,26.1171,8.802
1486,3/2/2012 22:00,26.1306,13.143600000000001
1487,3/2/2012 23:00,26.4843,17.3934
1488,3/3/2012 0:00,26.6301,18.9891
1489,3/3/2012 1:00,26.6436,19.9665
1490,3/3/2012 2:00,26.603099999999998,20.6145
1491,3/3/2012 3:00,26.487,21.432599999999997
1492,3/3/2012 4:00,26.2845,22.0131
1493,3/3/2012 5:00,26.0928,22.7151
1494,3/3/2012 6:00,25.7634,23.017500000000002
1495,3/3/2012 7:00,25.4259,23.1417
1496,3/3/2012 8:00,25.0398,22.9257
1497,3/3/2012 9:00,24.4566,21.705299999999998
1498,3/3/2012 10:00,23.727600000000002,19.3374
1499,3/3/2012 11:00,23.0202,18.0549
1500,3/3/2012 12:00,22.5369,16.4106
1501,3/3/2012 13:00,22.369500000000002,13.311
1502,3/3/2012 14:00,22.518,9.4824
1503,3/3/2012 15:00,24.6402,6.4206
1504,3/3/2012 16:00,25.7229,4.1472
1505,3/3/2012 17:00,25.9686,2.9268
1506,3/3/2012 18:00,25.7499,2.8215
1507,3/3/2012 19:00,24.939899999999998,3.4614000000000003
1508,3/3/2012 20:00,2.6865,5.3541
1509,3/3/2012 21:00,2.1708,9.053099999999999
1510,3/3/2012 22:00,2.0412,13.537799999999999
1511,3/3/2012 23:00,1.7469,16.939799999999998
1512,3/4/2012 0:00,1.5633,19.4913
1513,3/4/2012 1:00,1.5363,21.0546
1514,3/4/2012 2:00,1.3203,21.9105
1515,3/4/2012 3:00,1.0179,22.6476
1516,3/4/2012 4:00,0.7749,23.4063
1517,3/4/2012 5:00,0.6129,24.1191
1518,3/4/2012 6:00,0.5346000000000001,24.6321
1519,3/4/2012 7:00,0.48600000000000004,24.6753
1520,3/4/2012 8:00,0.4752,24.3027
1521,3/4/2012 9:00,0.4185,23.808600000000002
1522,3/4/2012 10:00,0.3591,22.8825
1523,3/4/2012 11:00,0.3132,21.8484
1524,3/4/2012 12:00,0.2322,20.7414
1525,3/4/2012 13:00,0.0,19.413000000000004
1526,3/4/2012 14:00,0.0,17.1747
1527,3/4/2012 15:00,0.0,14.0778
1528,3/4/2012 16:00,0.0,10.368
1529,3/4/2012 17:00,0.0,6.3504
1530,3/4/2012 18:00,0.2511,3.564
1531,3/4/2012 19:00,0.3375,1.5957
1532,3/4/2012 20:00,0.3618,0.6669
1533,3/4/2012 21:00,0.3267,0.3132
1534,3/4/2012 22:00,0.3537,0.0
1535,3/4/2012 23:00,0.3645,0.0
1536,3/5/2012 0:00,0.4104,0.0
1537,3/5/2012 1:00,0.4752,0.0
1538,3/5/2012 2:00,0.5454,0.0
1539,3/5/2012 3:00,0.5724,0.0
1540,3/5/2012 4:00,0.4887,0.0
1541,3/5/2012 5:00,0.3321,0.0
1542,3/5/2012 6:00,0.2646,0.0
1543,3/5/2012 7:00,0.21059999999999998,0.0
1544,3/5/2012 8:00,0.0,0.20249999999999999
1545,3/5/2012 9:00,0.0,0.2781
1546,3/5/2012 10:00,0.0,0.3861
1547,3/5/2012 11:00,0.0,0.5508000000000001
1548,3/5/2012 12:00,0.0,0.5562
1549,3/5/2012 13:00,0.0,0.3294
1550,3/5/2012 14:00,0.0,0.2619
1551,3/5/2012 15:00,0.0,0.7155
1552,3/5/2012 16:00,0.0,1.0287
1553,3/5/2012 17:00,0.0,1.2204
1554,3/5/2012 18:00,0.0,1.3419
1555,3/5/2012 19:00,0.0,1.836
1556,3/5/2012 20:00,0.0,2.8026
1557,3/5/2012 21:00,0.0,3.7853999999999997
1558,3/5/2012 22:00,0.0,4.6358999999999995
1559,3/5/2012 23:00,0.0,7.3467
1560,3/6/2012 0:00,0.216,11.8557
1561,3/6/2012 1:00,0.3186,14.3991
1562,3/6/2012 2:00,0.5697,14.820300000000001
1563,3/6/2012 3:00,1.0098,15.4791
1564,3/6/2012 4:00,1.8251999999999997,17.223300000000002
1565,3/6/2012 5:00,2.9187,18.746100000000002
1566,3/6/2012 6:00,3.7827,19.232100000000003
1567,3/6/2012 7:00,4.4253,19.1619
1568,3/6/2012 8:00,3.6612,18.038700000000002
1569,3/6/2012 9:00,2.6001,15.2847
1570,3/6/2012 10:00,1.6389,10.8405
1571,3/6/2012 11:00,0.9234,7.6491
1572,3/6/2012 12:00,0.6156,6.3558
1573,3/6/2012 13:00,0.4455,3.5586
1574,3/6/2012 14:00,0.43739999999999996,1.9602
1575,3/6/2012 15:00,0.5804999999999999,1.2177
1576,3/6/2012 16:00,0.7614,0.8801999999999999
1577,3/6/2012 17:00,0.9909000000000001,0.5994
1578,3/6/2012 18:00,1.2717,0.3591
1579,3/6/2012 19:00,1.3743,0.0
1580,3/6/2012 20:00,1.1799000000000002,0.0
1581,3/6/2012 21:00,0.7695000000000001,0.0
1582,3/6/2012 22:00,0.48329999999999995,0.0
1583,3/6/2012 23:00,0.3132,0.0
1584,3/7/2012 0:00,0.1944,0.3618
1585,3/7/2012 1:00,0.0,0.8964
1586,3/7/2012 2:00,0.0,1.2797999999999998
1587,3/7/2012 3:00,0.0,1.7495999999999998
1588,3/7/2012 4:00,0.0,2.592
1589,3/7/2012 5:00,0.0,3.6071999999999997
1590,3/7/2012 6:00,0.0,5.9724
1591,3/7/2012 7:00,0.0,8.2674
1592,3/7/2012 8:00,0.0,8.8398
1593,3/7/2012 9:00,0.2052,10.9134
1594,3/7/2012 10:00,0.2376,13.3272
1595,3/7/2012 11:00,0.32130000000000003,15.5412
1596,3/7/2012 12:00,0.4752,16.308
1597,3/7/2012 13:00,0.6588,14.874299999999998
1598,3/7/2012 14:00,0.8289000000000001,12.1311
1599,3/7/2012 15:00,0.9423,10.179
1600,3/7/2012 16:00,0.9611999999999999,11.1996
1601,3/7/2012 17:00,0.7290000000000001,12.7953
1602,3/7/2012 18:00,0.48329999999999995,14.5584
1603,3/7/2012 19:00,0.2889,16.5699
1604,3/7/2012 20:00,0.1917,18.5733
1605,3/7/2012 21:00,0.0,20.1393
1606,3/7/2012 22:00,0.0,21.4353
1607,3/7/2012 23:00,0.0,21.9645
1608,3/8/2012 0:00,0.0,22.3749
1609,3/8/2012 1:00,0.0,22.518
1610,3/8/2012 2:00,0.0,22.2588
1611,3/8/2012 3:00,0.0,21.7944
1612,3/8/2012 4:00,0.0,18.9864
1613,3/8/2012 5:00,0.0,15.203700000000001
1614,3/8/2012 6:00,0.0,12.1662
1615,3/8/2012 7:00,0.0,10.7433
1616,3/8/2012 8:00,0.0,10.5597
1617,3/8/2012 9:00,0.0,10.481399999999999
1618,3/8/2012 10:00,0.0,9.6201
1619,3/8/2012 11:00,0.1998,8.8857
1620,3/8/2012 12:00,0.2376,8.9316
1621,3/8/2012 13:00,0.2646,9.5364
1622,3/8/2012 14:00,0.28350000000000003,10.4922
1623,3/8/2012 15:00,0.2889,12.3147
1624,3/8/2012 16:00,0.2862,15.227999999999998
1625,3/8/2012 17:00,0.2889,17.3016
1626,3/8/2012 18:00,0.2862,18.8163
1627,3/8/2012 19:00,0.2457,19.8585
1628,3/8/2012 20:00,0.0,2.5191
1629,3/8/2012 21:00,0.0,2.1627
1630,3/8/2012 22:00,0.0,1.6119
1631,3/8/2012 23:00,0.0,1.0881
1632,3/9/2012 0:00,0.0,0.918
1633,3/9/2012 1:00,0.0,1.0854
1634,3/9/2012 2:00,0.0,1.0584
1635,3/9/2012 3:00,0.0,1.242
1636,3/9/2012 4:00,0.0,1.6389
1637,3/9/2012 5:00,0.0,2.8512
1638,3/9/2012 6:00,0.0,4.0689
1639,3/9/2012 7:00,0.0,6.2586
1640,3/9/2012 8:00,0.1971,8.046
1641,3/9/2012 9:00,0.3051,8.7561
1642,3/9/2012 10:00,0.43739999999999996,9.2313
1643,3/9/2012 11:00,0.6129,10.0413
1644,3/9/2012 12:00,0.8721000000000001,10.8378
1645,3/9/2012 13:00,1.2042,10.6785
1646,3/9/2012 14:00,1.6119,10.6137
1647,3/9/2012 15:00,1.9980000000000002,11.0754
1648,3/9/2012 16:00,2.4111000000000002,11.7315
1649,3/9/2012 17:00,2.6163,12.3849
1650,3/9/2012 18:00,2.7729,13.1463
1651,3/9/2012 19:00,2.7729,9.644400000000001
1652,3/9/2012 20:00,2.4894000000000003,10.2438
1653,3/9/2012 21:00,2.4786,9.2988
1654,3/9/2012 22:00,2.7918000000000003,6.8958
1655,3/9/2012 23:00,3.0321,3.5991
1656,3/10/2012 0:00,3.2399999999999998,1.5390000000000001
1657,3/10/2012 1:00,3.6261,1.5957
1658,3/10/2012 2:00,4.3821,3.8718
1659,3/10/2012 3:00,5.154299999999999,7.5950999999999995
1660,3/10/2012 4:00,5.6619,8.8587
1661,3/10/2012 5:00,5.9346,6.5529
1662,3/10/2012 6:00,6.1506,4.4874
1663,3/10/2012 7:00,6.4233,3.1860000000000004
1664,3/10/2012 8:00,6.7284,2.2950000000000004
1665,3/10/2012 9:00,7.0227,1.3473
1666,3/10/2012 10:00,7.4898,0.8208
1667,3/10/2012 11:00,8.0865,0.3699
1668,3/10/2012 12:00,8.5158,0.2511
1669,3/10/2012 13:00,8.5779,0.20249999999999999
1670,3/10/2012 14:00,7.875900000000001,0.3645
1671,3/10/2012 15:00,7.317,0.9315000000000001
1672,3/10/2012 16:00,7.141500000000001,2.1627
1673,3/10/2012 17:00,7.4466,3.9419999999999997
1674,3/10/2012 18:00,7.7976,6.4799999999999995
1675,3/10/2012 19:00,8.019,8.5644
1676,3/10/2012 20:00,7.408799999999999,9.7308
1677,3/10/2012 21:00,6.1695,11.1132
1678,3/10/2012 22:00,4.2579,12.366
1679,3/10/2012 23:00,2.6865,13.2543
1680,3/11/2012 0:00,1.836,14.593499999999999
1681,3/11/2012 1:00,1.5255,15.309000000000001
1682,3/11/2012 2:00,1.4040000000000001,16.011
1683,3/11/2012 3:00,1.2582,17.8524
1684,3/11/2012 4:00,1.0557,18.5895
1685,3/11/2012 5:00,0.8316,20.0448
1686,3/11/2012 6:00,0.6236999999999999,20.5011
1687,3/11/2012 7:00,0.432,20.2392
1688,3/11/2012 8:00,0.2511,20.0502
1689,3/11/2012 9:00,0.1917,18.6111
1690,3/11/2012 10:00,0.0,16.9587
1691,3/11/2012 11:00,0.0,15.0255
1692,3/11/2012 12:00,0.0,14.8689
1693,3/11/2012 13:00,0.216,16.124399999999998
1694,3/11/2012 14:00,0.2943,18.1926
1695,3/11/2012 15:00,0.2943,20.4498
1696,3/11/2012 16:00,0.45359999999999995,22.3587
1697,3/11/2012 17:00,0.6966,23.4495
1698,3/11/2012 18:00,1.0341,24.2001
1699,3/11/2012 19:00,1.4904,24.4647
1700,3/11/2012 20:00,2.0492999999999997,24.4296
1701,3/11/2012 21:00,3.1293,24.2838
1702,3/11/2012 22:00,5.5323,24.021900000000002
1703,3/11/2012 23:00,7.284599999999999,23.7411
1704,3/12/2012 0:00,11.069999999999999,23.1849
1705,3/12/2012 1:00,14.439600000000002,22.485599999999998
1706,3/12/2012 2:00,15.9138,21.9888
1707,3/12/2012 3:00,17.8713,20.4552
1708,3/12/2012 4:00,18.603,18.4896
1709,3/12/2012 5:00,19.0269,17.0154
1710,3/12/2012 6:00,19.1376,15.530400000000002
1711,3/12/2012 7:00,18.5787,14.2911
1712,3/12/2012 8:00,17.604,12.9141
1713,3/12/2012 9:00,16.416,11.6937
1714,3/12/2012 10:00,14.9175,10.570500000000001
1715,3/12/2012 11:00,14.220899999999999,8.7021
1716,3/12/2012 12:00,14.909400000000002,7.732799999999999
1717,3/12/2012 13:00,14.7177,7.8812999999999995
1718,3/12/2012 14:00,16.2837,8.4105
1719,3/12/2012 15:00,16.205399999999997,9.9873
1720,3/12/2012 16:00,17.0235,12.263399999999999
1721,3/12/2012 17:00,17.3124,13.7241
1722,3/12/2012 18:00,16.119,14.364
1723,3/12/2012 19:00,14.960700000000001,14.2857
1724,3/12/2012 20:00,11.8503,14.4504
1725,3/12/2012 21:00,7.0362,14.660999999999998
1726,3/12/2012 22:00,4.5873,14.056199999999999
1727,3/12/2012 23:00,3.4425,12.447000000000001
1728,3/13/2012 0:00,2.2383,11.7477
1729,3/13/2012 1:00,1.4742000000000002,10.8729
1730,3/13/2012 2:00,1.0611000000000002,10.3248
1731,3/13/2012 3:00,0.891,10.4841
1732,3/13/2012 4:00,0.8532000000000001,9.8901
1733,3/13/2012 5:00,0.837,8.9991
1734,3/13/2012 6:00,0.7884,8.4429
1735,3/13/2012 7:00,0.6723,8.1216
1736,3/13/2012 8:00,0.7047,8.1162
1737,3/13/2012 9:00,0.7209000000000001,7.7274
1738,3/13/2012 10:00,0.8261999999999999,7.1847
1739,3/13/2012 11:00,0.9099,5.7105
1740,3/13/2012 12:00,0.918,5.1327
1741,3/13/2012 13:00,0.7479,5.3649
1742,3/13/2012 14:00,0.5265,6.3666
1743,3/13/2012 15:00,0.3726,8.478
1744,3/13/2012 16:00,0.24029999999999999,11.2239
1745,3/13/2012 17:00,0.0,12.9438
1746,3/13/2012 18:00,0.0,14.628599999999999
1747,3/13/2012 19:00,0.0,16.040699999999998
1748,3/13/2012 20:00,0.0,16.8777
1749,3/13/2012 21:00,0.0,18.4464
1750,3/13/2012 22:00,0.0,19.0917
1751,3/13/2012 23:00,0.0,18.627299999999998
1752,3/14/2012 0:00,0.0,17.2152
1753,3/14/2012 1:00,0.0,14.812199999999999
1754,3/14/2012 2:00,0.0,12.193200000000001
1755,3/14/2012 3:00,0.0,9.6579
1756,3/14/2012 4:00,0.0,8.032499999999999
1757,3/14/2012 5:00,0.0,7.808400000000001
1758,3/14/2012 6:00,0.0,7.7949
1759,3/14/2012 7:00,0.0,7.427700000000001
1760,3/14/2012 8:00,0.0,7.6113
1761,3/14/2012 9:00,0.0,8.0973
1762,3/14/2012 10:00,0.0,7.859700000000001
1763,3/14/2012 11:00,0.0,5.5323
1764,3/14/2012 12:00,0.0,4.8141
1765,3/14/2012 13:00,0.0,6.952500000000001
1766,3/14/2012 14:00,0.0,10.854000000000001
1767,3/14/2012 15:00,0.0,12.7764
1768,3/14/2012 16:00,0.0,14.415300000000002
1769,3/14/2012 17:00,0.0,0.2646
1770,3/14/2012 18:00,0.0,0.3105
1771,3/14/2012 19:00,0.0,0.324
1772,3/14/2012 20:00,0.0,0.21869999999999998
1773,3/14/2012 21:00,0.0,0.2079
1774,3/14/2012 22:00,0.0,0.2727
1775,3/14/2012 23:00,0.0,0.4347
1776,3/15/2012 0:00,0.0,0.7911
1777,3/15/2012 1:00,0.0,0.8666999999999999
1778,3/15/2012 2:00,0.0,0.8936999999999999
1779,3/15/2012 3:00,0.0,1.0206
1780,3/15/2012 4:00,0.0,1.2473999999999998
1781,3/15/2012 5:00,0.0,1.5092999999999999
1782,3/15/2012 6:00,0.0,1.6146
1783,3/15/2012 7:00,0.0,1.5795000000000001
1784,3/15/2012 8:00,0.0,1.6011
1785,3/15/2012 9:00,0.0,1.7631
1786,3/15/2012 10:00,0.0,1.6173
1787,3/15/2012 11:00,0.0,1.5606
1788,3/15/2012 12:00,0.0,1.5659999999999998
1789,3/15/2012 13:00,0.0,1.296
1790,3/15/2012 14:00,0.0,1.2096
1791,3/15/2012 15:00,0.1971,1.4202000000000001
1792,3/15/2012 16:00,0.1944,1.6821
1793,3/15/2012 17:00,0.0,1.836
1794,3/15/2012 18:00,0.0,2.0223
1795,3/15/2012 19:00,0.0,1.8792
1796,3/15/2012 20:00,0.0,2.052
1797,3/15/2012 21:00,0.0,2.7216
1798,3/15/2012 22:00,0.0,3.6287999999999996
1799,3/15/2012 23:00,0.2214,4.914
1800,3/16/2012 0:00,0.20249999999999999,5.1489
1801,3/16/2012 1:00,0.216,5.2677
1802,3/16/2012 2:00,0.2376,6.0075
1803,3/16/2012 3:00,0.2619,6.5097000000000005
1804,3/16/2012 4:00,0.2646,6.7257
1805,3/16/2012 5:00,0.2565,6.658200000000001
1806,3/16/2012 6:00,0.2619,5.6889
1807,3/16/2012 7:00,0.3132,4.384799999999999
1808,3/16/2012 8:00,0.2565,4.1634
1809,3/16/2012 9:00,0.2943,4.859999999999999
1810,3/16/2012 10:00,0.3348,6.1884
1811,3/16/2012 11:00,0.3969,8.340300000000001
1812,3/16/2012 12:00,0.4779,11.0376
1813,3/16/2012 13:00,0.48600000000000004,13.2786
1814,3/16/2012 14:00,0.45089999999999997,15.1092
1815,3/16/2012 15:00,0.3888,15.6195
1816,3/16/2012 16:00,0.3186,14.8878
1817,3/16/2012 17:00,0.2727,13.680900000000001
1818,3/16/2012 18:00,0.26730000000000004,12.4605
1819,3/16/2012 19:00,0.2862,10.1115
1820,3/16/2012 20:00,0.27540000000000003,9.2448
1821,3/16/2012 21:00,0.2592,7.4844
1822,3/16/2012 22:00,0.2295,5.8023
1823,3/16/2012 23:00,0.2322,4.643999999999999
1824,3/17/2012 0:00,0.1971,3.4614000000000003
1825,3/17/2012 1:00,0.0,2.1923999999999997
1826,3/17/2012 2:00,0.0,1.9899
1827,3/17/2012 3:00,0.0,2.1735
1828,3/17/2012 4:00,0.0,2.2896
1829,3/17/2012 5:00,0.0,2.6757
1830,3/17/2012 6:00,0.0,3.2184
1831,3/17/2012 7:00,0.0,3.2454
1832,3/17/2012 8:00,0.0,3.051
1833,3/17/2012 9:00,0.0,2.8836000000000004
1834,3/17/2012 10:00,0.0,2.6703
1835,3/17/2012 11:00,0.0,2.3354999999999997
1836,3/17/2012 12:00,0.0,1.8117
1837,3/17/2012 13:00,0.0,1.35
1838,3/17/2012 14:00,0.0,0.8613
1839,3/17/2012 15:00,0.0,0.5994
1840,3/17/2012 16:00,0.0,0.4995
1841,3/17/2012 17:00,0.24300000000000002,0.5292
1842,3/17/2012 18:00,0.3726,0.7938
1843,3/17/2012 19:00,0.5049,1.2177
1844,3/17/2012 20:00,0.41309999999999997,1.6335
1845,3/17/2012 21:00,0.21330000000000002,1.7738999999999998
1846,3/17/2012 22:00,0.0,1.7603999999999997
1847,3/17/2012 23:00,0.0,1.6523999999999999
1848,3/18/2012 0:00,0.0,1.3554
1849,3/18/2012 1:00,0.0,0.9963000000000001
1850,3/18/2012 2:00,0.0,0.7343999999999999
1851,3/18/2012 3:00,0.0,0.6885
1852,3/18/2012 4:00,0.0,0.8208
1853,3/18/2012 5:00,0.0,0.8694
1854,3/18/2012 6:00,0.0,0.8477999999999999
1855,3/18/2012 7:00,0.0,0.7505999999999999
1856,3/18/2012 8:00,0.0,0.7505999999999999
1857,3/18/2012 9:00,0.0,0.7479
1858,3/18/2012 10:00,0.0,0.6669
1859,3/18/2012 11:00,0.0,0.42389999999999994
1860,3/18/2012 12:00,0.0,0.0
1861,3/18/2012 13:00,0.0,0.0
1862,3/18/2012 14:00,0.0,0.0
1863,3/18/2012 15:00,0.0,0.0
1864,3/18/2012 16:00,0.0,0.0
1865,3/18/2012 17:00,0.0,0.36719999999999997
1866,3/18/2012 18:00,0.0,0.864
1867,3/18/2012 19:00,0.20249999999999999,1.7037
1868,3/18/2012 20:00,0.2619,2.6595
1869,3/18/2012 21:00,0.3105,3.6018
1870,3/18/2012 22:00,0.3429,4.5171
1871,3/18/2012 23:00,0.3267,5.8995
1872,3/19/2012 0:00,0.3132,7.8273
1873,3/19/2012 1:00,0.28350000000000003,9.177299999999999
1874,3/19/2012 2:00,0.24029999999999999,12.198599999999999
1875,3/19/2012 3:00,0.1971,16.289099999999998
1876,3/19/2012 4:00,0.0,18.4815
1877,3/19/2012 5:00,0.0,19.1349
1878,3/19/2012 6:00,0.0,20.1312
1879,3/19/2012 7:00,0.0,21.221999999999998
1880,3/19/2012 8:00,0.0,21.5838
1881,3/19/2012 9:00,0.0,21.1464
1882,3/19/2012 10:00,0.0,19.5777
1883,3/19/2012 11:00,0.0,16.559099999999997
1884,3/19/2012 12:00,0.24029999999999999,11.8206
1885,3/19/2012 13:00,0.2889,6.0804
1886,3/19/2012 14:00,0.3375,1.5309
1887,3/19/2012 15:00,0.3564,0.2376
1888,3/19/2012 16:00,0.3564,0.0
1889,3/19/2012 17:00,0.3618,0.0
1890,3/19/2012 18:00,0.3915,0.6507
1891,3/19/2012 19:00,0.4428,1.5471
1892,3/19/2012 20:00,0.5076,2.6649
1893,3/19/2012 21:00,0.5832,4.4631
1894,3/19/2012 22:00,0.6615,4.4658
1895,3/19/2012 23:00,0.7263000000000001,2.9052000000000002
1896,3/20/2012 0:00,0.7776,1.7712
1897,3/20/2012 1:00,0.8208,1.2285
1898,3/20/2012 2:00,0.9477,0.6345
1899,3/20/2012 3:00,1.1421,0.2997
1900,3/20/2012 4:00,1.3311,0.22679999999999997
1901,3/20/2012 5:00,1.377,0.29700000000000004
1902,3/20/2012 6:00,1.3068,0.4158
1903,3/20/2012 7:00,1.2231,0.5751
1904,3/20/2012 8:00,1.2393,0.8586
1905,3/20/2012 9:00,1.3256999999999999,1.7442000000000002
1906,3/20/2012 10:00,1.3608,4.0608
1907,3/20/2012 11:00,1.2609,10.0224
1908,3/20/2012 12:00,1.1961,21.4407
1909,3/20/2012 13:00,1.2068999999999999,25.860599999999998
1910,3/20/2012 14:00,0.9665999999999999,26.622
1911,3/20/2012 15:00,0.6912,27.0
1912,3/20/2012 16:00,0.48600000000000004,27.0
1913,3/20/2012 17:00,0.3699,27.0
1914,3/20/2012 18:00,0.32130000000000003,27.0
1915,3/20/2012 19:00,0.324,27.0
1916,3/20/2012 20:00,0.3969,27.0
1917,3/20/2012 21:00,0.5508000000000001,27.0
1918,3/20/2012 22:00,0.7263000000000001,27.0
1919,3/20/2012 23:00,0.8046,27.0
1920,3/21/2012 0:00,0.8019000000000001,27.0
1921,3/21/2012 1:00,0.7614,27.0
1922,3/21/2012 2:00,0.7668,27.0
1923,3/21/2012 3:00,0.7533000000000001,27.0
1924,3/21/2012 4:00,0.7263000000000001,27.0
1925,3/21/2012 5:00,0.7317,26.5302
1926,3/21/2012 6:00,0.7452,24.1758
1927,3/21/2012 7:00,0.6831,18.416700000000002
1928,3/21/2012 8:00,0.4941,12.5577
1929,3/21/2012 9:00,0.3537,10.2762
1930,3/21/2012 10:00,0.2808,11.5074
1931,3/21/2012 11:00,0.24300000000000002,13.8294
1932,3/21/2012 12:00,0.22679999999999997,17.4528
1933,3/21/2012 13:00,0.21330000000000002,18.6489
1934,3/21/2012 14:00,0.20249999999999999,19.1592
1935,3/21/2012 15:00,0.2214,19.348200000000002
1936,3/21/2012 16:00,0.2511,19.334699999999998
1937,3/21/2012 17:00,0.2565,20.574
1938,3/21/2012 18:00,0.2619,20.7333
1939,3/21/2012 19:00,0.2889,21.2355
1940,3/21/2012 20:00,9.666,20.4174
1941,3/21/2012 21:00,10.4247,18.9189
1942,3/21/2012 22:00,10.8486,16.4619
1943,3/21/2012 23:00,13.9266,14.6772
1944,3/22/2012 0:00,15.3873,14.258700000000001
1945,3/22/2012 1:00,15.800400000000002,13.807799999999999
1946,3/22/2012 2:00,16.1703,12.8223
1947,3/22/2012 3:00,16.0866,11.367
1948,3/22/2012 4:00,1.1232,9.7227
1949,3/22/2012 5:00,1.2015,8.1513
1950,3/22/2012 6:00,1.2447000000000001,6.3369
1951,3/22/2012 7:00,1.0989,4.8114
1952,3/22/2012 8:00,0.8019000000000001,3.6989999999999994
1953,3/22/2012 9:00,0.5454,2.9835
1954,3/22/2012 10:00,0.3699,2.2167000000000003
1955,3/22/2012 11:00,0.2862,1.6443
1956,3/22/2012 12:00,0.27540000000000003,1.1178
1957,3/22/2012 13:00,0.48059999999999997,0.6885
1958,3/22/2012 14:00,0.5886,0.3375
1959,3/22/2012 15:00,0.5804999999999999,0.0
1960,3/22/2012 16:00,0.6048,0.0
1961,3/22/2012 17:00,0.6723,0.0
1962,3/22/2012 18:00,0.6912,0.0
1963,3/22/2012 19:00,0.6777,0.0
1964,3/22/2012 20:00,0.7695000000000001,0.0
1965,3/22/2012 21:00,0.7182,0.0
1966,3/22/2012 22:00,0.5373,0.2295
1967,3/22/2012 23:00,0.42660000000000003,0.21330000000000002
1968,3/23/2012 0:00,0.3591,0.0
1969,3/23/2012 1:00,0.3375,0.2484
1970,3/23/2012 2:00,0.2943,0.3861
1971,3/23/2012 3:00,0.24029999999999999,0.5589
1972,3/23/2012 4:00,0.0,0.9369000000000001
1973,3/23/2012 5:00,0.0,1.6551
1974,3/23/2012 6:00,0.0,3.1833
1975,3/23/2012 7:00,0.0,5.4783
1976,3/23/2012 8:00,0.0,8.469899999999999
1977,3/23/2012 9:00,0.0,12.582
1978,3/23/2012 10:00,0.0,18.1278
1979,3/23/2012 11:00,0.0,22.1616
1980,3/23/2012 12:00,0.0,23.8896
1981,3/23/2012 13:00,0.24029999999999999,25.3098
1982,3/23/2012 14:00,0.4617,25.866
1983,3/23/2012 15:00,0.7128,25.8093
1984,3/23/2012 16:00,0.8477999999999999,24.3702
1985,3/23/2012 17:00,0.8829,19.0134
1986,3/23/2012 18:00,0.8397,11.2644
1987,3/23/2012 19:00,0.7803,9.1854
1988,3/23/2012 20:00,0.6858,11.0133
1989,3/23/2012 21:00,0.6372,12.4713
1990,3/23/2012 22:00,0.6696,15.4926
1991,3/23/2012 23:00,0.6723,19.1133
1992,3/24/2012 0:00,0.6939,20.787300000000002
1993,3/24/2012 1:00,0.7587,21.7404
1994,3/24/2012 2:00,0.8289000000000001,21.7242
1995,3/24/2012 3:00,0.7776,21.5271
1996,3/24/2012 4:00,0.6264,21.578400000000002
1997,3/24/2012 5:00,0.5022,22.9932
1998,3/24/2012 6:00,0.3861,24.5565
1999,3/24/2012 7:00,0.29700000000000004,24.6294
2000,3/24/2012 8:00,0.26730000000000004,24.7941
2001,3/24/2012 9:00,0.26730000000000004,25.0965
2002,3/24/2012 10:00,0.3051,25.2882
2003,3/24/2012 11:00,0.37529999999999997,25.0668
2004,3/24/2012 12:00,0.4293,24.7698
2005,3/24/2012 13:00,0.5022,24.397199999999998
2006,3/24/2012 14:00,0.6291,25.055999999999997
2007,3/24/2012 15:00,0.6723,25.7364
2008,3/24/2012 16:00,0.7101000000000001,26.0523
2009,3/24/2012 17:00,0.7101000000000001,26.163000000000004
2010,3/24/2012 18:00,0.6858,26.141399999999997
2011,3/24/2012 19:00,0.6021,26.0523
2012,3/24/2012 20:00,0.3726,25.768800000000002
2013,3/24/2012 21:00,0.2484,25.1586
2014,3/24/2012 22:00,0.3186,23.940900000000003
2015,3/24/2012 23:00,0.3807,21.5919
2016,3/25/2012 0:00,0.3969,18.368100000000002
2017,3/25/2012 1:00,0.3915,15.6762
2018,3/25/2012 2:00,0.5535,13.8186
2019,3/25/2012 3:00,0.8666999999999999,12.582
2020,3/25/2012 4:00,0.9909000000000001,11.9151
2021,3/25/2012 5:00,1.0313999999999999,10.9161
2022,3/25/2012 6:00,1.1691,10.605599999999999
2023,3/25/2012 7:00,1.2879,10.7028
2024,3/25/2012 8:00,1.2987,10.716299999999999
2025,3/25/2012 9:00,1.2068999999999999,11.4291
2026,3/25/2012 10:00,1.2312,12.6603
2027,3/25/2012 11:00,0.9828,13.7214
2028,3/25/2012 12:00,0.7776,15.543899999999999
2029,3/25/2012 13:00,0.5480999999999999,17.1477
2030,3/25/2012 14:00,0.3915,18.7515
2031,3/25/2012 15:00,0.27540000000000003,19.934099999999997
2032,3/25/2012 16:00,0.2565,20.9817
2033,3/25/2012 17:00,0.2646,21.1248
2034,3/25/2012 18:00,0.2241,21.7593
2035,3/25/2012 19:00,0.0,22.0995
2036,3/25/2012 20:00,0.0,22.3452
2037,3/25/2012 21:00,0.0,22.331699999999998
2038,3/25/2012 22:00,0.0,21.3138
2039,3/25/2012 23:00,0.0,18.756899999999998
2040,3/26/2012 0:00,0.0,17.7822
2041,3/26/2012 1:00,0.0,16.810200000000002
2042,3/26/2012 2:00,0.0,15.4305
2043,3/26/2012 3:00,0.0,14.0292
2044,3/26/2012 4:00,0.0,13.3812
2045,3/26/2012 5:00,0.0,12.717
2046,3/26/2012 6:00,0.0,10.716299999999999
2047,3/26/2012 7:00,0.0,7.7193
2048,3/26/2012 8:00,0.0,5.6834999999999996
2049,3/26/2012 9:00,0.0,4.5279
2050,3/26/2012 10:00,0.0,4.2687
2051,3/26/2012 11:00,0.0,4.1445
2052,3/26/2012 12:00,0.0,3.6612
2053,3/26/2012 13:00,0.0,2.8647
2054,3/26/2012 14:00,0.0,2.6811
2055,3/26/2012 15:00,0.0,1.8468
2056,3/26/2012 16:00,0.0,1.2285
2057,3/26/2012 17:00,0.24300000000000002,1.026
2058,3/26/2012 18:00,0.3294,1.08
2059,3/26/2012 19:00,0.3888,1.2473999999999998
2060,3/26/2012 20:00,0.5427,1.4175
2061,3/26/2012 21:00,0.6912,1.6821
2062,3/26/2012 22:00,1.0070999999999999,1.7603999999999997
2063,3/26/2012 23:00,1.2771000000000001,1.5039
2064,3/27/2012 0:00,1.4067,1.3068
2065,3/27/2012 1:00,1.701,1.3904999999999998
2066,3/27/2012 2:00,1.9791,1.5876
2067,3/27/2012 3:00,2.2977,1.4067
2068,3/27/2012 4:00,2.6244,1.1961
2069,3/27/2012 5:00,2.9511,1.1151
2070,3/27/2012 6:00,3.4236,0.9611999999999999
2071,3/27/2012 7:00,3.5019000000000005,0.9774
2072,3/27/2012 8:00,3.0915,0.9315000000000001
2073,3/27/2012 9:00,3.1644,0.7722
2074,3/27/2012 10:00,3.6234,0.6183
2075,3/27/2012 11:00,4.3254,0.4482
2076,3/27/2012 12:00,4.4253,0.3159
2077,3/27/2012 13:00,4.779,0.2079
2078,3/27/2012 14:00,5.2082999999999995,0.0
2079,3/27/2012 15:00,5.5889999999999995,0.0
2080,3/27/2012 16:00,5.9724,0.0
2081,3/27/2012 17:00,5.2893,0.0
2082,3/27/2012 18:00,4.5062999999999995,0.1944
2083,3/27/2012 19:00,3.6693,0.3348
2084,3/27/2012 20:00,2.4786,0.5292
2085,3/27/2012 21:00,1.3580999999999999,0.7911
2086,3/27/2012 22:00,1.0557,1.3824
2087,3/27/2012 23:00,1.0637999999999999,3.5612999999999997
2088,3/28/2012 0:00,1.1825999999999999,4.185
2089,3/28/2012 1:00,1.4958,4.7061
2090,3/28/2012 2:00,1.4931,5.4972
2091,3/28/2012 3:00,1.4742000000000002,6.407100000000001
2092,3/28/2012 4:00,1.4958,7.2252
2093,3/28/2012 5:00,1.4364,17.8902
2094,3/28/2012 6:00,1.3068,20.4066
2095,3/28/2012 7:00,1.0233,22.1913
2096,3/28/2012 8:00,0.6669,22.285800000000002
2097,3/28/2012 9:00,0.675,21.270599999999998
2098,3/28/2012 10:00,0.8451000000000001,21.1059
2099,3/28/2012 11:00,0.8586,21.980700000000002
2100,3/28/2012 12:00,0.7614,23.5116
2101,3/28/2012 13:00,0.6615,24.6051
2102,3/28/2012 14:00,0.5238,24.9669
2103,3/28/2012 15:00,0.4077,25.110000000000003
2104,3/28/2012 16:00,0.3645,24.8913
2105,3/28/2012 17:00,0.3699,21.7188
2106,3/28/2012 18:00,0.3348,13.1166
2107,3/28/2012 19:00,0.2997,7.7274
2108,3/28/2012 20:00,0.3348,7.8111
2109,3/28/2012 21:00,0.3618,8.8506
2110,3/28/2012 22:00,0.5103,6.2883
2111,3/28/2012 23:00,0.6183,3.8421000000000003
2112,3/29/2012 0:00,0.7209000000000001,2.6109
2113,3/29/2012 1:00,0.7290000000000001,2.0196
2114,3/29/2012 2:00,0.648,2.3651999999999997
2115,3/29/2012 3:00,0.5967,3.4101
2116,3/29/2012 4:00,0.5751,4.7439
2117,3/29/2012 5:00,0.54,5.3325000000000005
2118,3/29/2012 6:00,0.432,5.724
2119,3/29/2012 7:00,0.3321,6.6042000000000005
2120,3/29/2012 8:00,0.3105,7.6572000000000005
2121,3/29/2012 9:00,0.3159,8.7858
2122,3/29/2012 10:00,0.3321,8.37
2123,3/29/2012 11:00,0.3429,7.7517000000000005
2124,3/29/2012 12:00,0.3645,6.882300000000001
2125,3/29/2012 13:00,0.4023,6.3018
2126,3/29/2012 14:00,0.4698,5.6808000000000005
2127,3/29/2012 15:00,0.5859,6.906600000000001
2128,3/29/2012 16:00,0.7290000000000001,8.9694
2129,3/29/2012 17:00,0.7884,11.4939
2130,3/29/2012 18:00,0.7263000000000001,15.573599999999999
2131,3/29/2012 19:00,0.6156,19.8099
2132,3/29/2012 20:00,0.6291,22.7394
2133,3/29/2012 21:00,0.5778,23.8005
2134,3/29/2012 22:00,0.5211,22.979699999999998
2135,3/29/2012 23:00,0.5103,21.8511
2136,3/30/2012 0:00,0.5103,20.5767
2137,3/30/2012 1:00,0.5373,17.482499999999998
2138,3/30/2012 2:00,0.5184,9.4662
2139,3/30/2012 3:00,0.432,3.969
2140,3/30/2012 4:00,0.3159,1.9980000000000002
2141,3/30/2012 5:00,0.1971,1.5984
2142,3/30/2012 6:00,0.0,1.1988
2143,3/30/2012 7:00,0.0,0.9774
2144,3/30/2012 8:00,0.0,1.4094
2145,3/30/2012 9:00,0.0,3.4181999999999997
2146,3/30/2012 10:00,0.0,5.9562
2147,3/30/2012 11:00,0.0,5.6295
2148,3/30/2012 12:00,0.3564,4.9194
2149,3/30/2012 13:00,0.5832,3.5100000000000002
2150,3/30/2012 14:00,0.891,4.8924
2151,3/30/2012 15:00,1.1367,11.988
2152,3/30/2012 16:00,1.2825,16.1757
2153,3/30/2012 17:00,1.1988,18.0306
2154,3/30/2012 18:00,1.0098,19.939500000000002
2155,3/30/2012 19:00,0.8694,21.381300000000003
2156,3/30/2012 20:00,0.7074,22.3371
2157,3/30/2012 21:00,0.47250000000000003,22.0455
2158,3/30/2012 22:00,0.3375,19.855800000000002
2159,3/30/2012 23:00,0.4698,16.291800000000002
