from,to,t00,t01,t02,t03,t04,t05,t06,t07,t08,t09,t10,t11,t12,t13,t14,t15,t16,t17,t18,t19,t20,t21,t22,t23
TS2 - Muskrat Falls,SLD - Soldiers Pond,818.156581999998,779.0609373489982,768.642118999998,732.7732823489981,728.4646799999983,722.2978519999983,725.8687239999983,732.5195098489983,746.1478919999981,768.1215299999983,789.4517949999984,794.2825268489981,814.073660999998,827.6381759999982,818.2798919999983,800.1721489999981,761.9433959999983,745.969799999998,757.9201874999983,754.5506689999983,805.468063999998,826.2043434999981,816.4382748489978,830.8402279999974
TS2 - Muskrat Falls,SLD - Soldiers Pond,818.156581999998,779.0609373489982,768.642118999998,732.7732823489981,728.4646799999983,722.2978519999983,725.8687239999983,732.5195098489983,746.1478919999981,768.1215299999983,789.4517949999984,794.2825268489981,814.073660999998,827.6381759999982,818.2798919999983,800.1721489999981,761.9433959999983,745.969799999998,757.9201874999983,754.5506689999983,805.468063999998,826.2043434999981,816.4382748489978,830.8402279999974
CFP - Churchill Falls,LBC - Labrador City,13.695000000000164,13.364999999999783,12.869999999999434,12.540000000000417,12.374999999999545,12.210000000000036,12.210000000000036,12.375,12.704999999999929,12.705000000000384,13.364999999999783,13.5300000000002,13.85999999999967,13.860000000000126,13.695000000000164,13.365000000000233,12.86999999999989,12.704999999999929,12.539999999999964,12.704999999999929,13.364999999999783,13.860000000000126,14.025000000000546,14.025000000000093
CFP - Churchill Falls,LBC - Labrador City,13.695000000000164,13.364999999999783,12.869999999999434,12.540000000000417,12.374999999999545,12.210000000000036,12.210000000000036,12.375,12.704999999999929,12.705000000000384,13.364999999999783,13.5300000000002,13.85999999999967,13.860000000000126,13.695000000000164,13.365000000000233,12.86999999999989,12.704999999999929,12.539999999999964,12.704999999999929,13.364999999999783,13.860000000000126,14.025000000000546,14.025000000000093
CFP - Churchill Falls,TS2 - Muskrat Falls,831.851581999998,792.4259373489981,369.5121189999977,333.3132823489982,740.8396799999983,734.5078519999979,326.07872399999815,332.8945098489985,758.8528919999982,780.826529999998,802.8167949999984,807.812526848998,827.9336609999983,841.4981759999984,831.9748919999979,813.5371489999981,362.81339599999865,346.674799999998,770.4601874999976,355.2556689999978,406.83306399999856,428.06434349999785,830.4632748489986,432.8652279999974
CFP - Churchill Falls,TS2 - Muskrat Falls,831.851581999998,792.4259373489981,369.5121189999977,333.3132823489982,740.8396799999983,734.5078519999979,326.07872399999815,332.8945098489985,758.8528919999982,780.826529999998,802.8167949999984,807.812526848998,827.9336609999983,841.4981759999984,831.9748919999979,813.5371489999981,362.81339599999865,346.674799999998,770.4601874999976,355.2556689999978,406.83306399999856,428.06434349999785,830.4632748489986,432.8652279999974
WAV - Western Avalon,HWD - Hardwoods,-203.11721974704503,-192.02259730001015,-191.63546756590907,-182.9343294103929,-179.3724805664161,-177.40414919684872,-180.68593363814344,-183.0480763467391,-183.86370482898758,-186.69996033822937,-190.41714752416172,-197.1031989086835,-200.18267745906846,-205.0878255555834,-201.40105713470015,-195.60360890605668,-184.157542524803,-179.92905545580737,-184.36741754019562,-181.7979302673681,-195.73048180527655,-199.23370643728725,-205.51303704714127,-206.6329347933506
BDE - Bay Despoir,SUN - Sunnyside,-100.08504518344749,-89.2190976920196,-94.18151917082433,-86.85244132501715,-86.15144216518883,-84.87271883792107,-88.42345668458712,-89.64306804718296,-88.35756287963427,-92.6210885527878,-90.19402879160192,-93.21616027534708,-94.94733813700027,-100.70437235309635,-99.2180166397355,-96.02166819626859,-86.23512773627986,-84.56906416120961,-91.3929155892392,-85.45602507677364,-97.03837819385755,-94.30650014663513,-97.713867434758,-101.59461669512329
SUN - Sunnyside,SLD - Soldiers Pond,-612.670090366894,-579.6881953840383,-577.3630383416477,-549.9548826500334,-542.3028843303769,-536.9954376758411,-544.3469133691735,-550.7861360943651,-555.7151257592675,-568.2421771055747,-580.6380575832029,-593.9323205506931,-605.1446762739993,-619.4087447061912,-609.9360332794699,-593.5433363925363,-560.4702554725586,-548.1381283224182,-561.0358311784775,-554.1620501535464,-595.5767563877141,-607.3630002932694,-615.4277348695149,-622.6892333902455
STY - Stony Brook,BDE - Bay Despoir,-198.22517753916358,-192.38422758250684,-186.515459006029,-179.88775240781743,-177.18872125824296,-175.66930543249657,-175.66930543249669,-177.9532675443842,-181.09518635146648,-183.3735401989467,-191.1767936388577,-195.0832587320813,-199.43261148281283,-200.08846234895702,-196.94654354187446,-192.38422758250687,-186.44425895238876,-181.09518635146648,-181.09518635146648,-183.37354019894642,-192.38422758250684,-200.8752189905116,-201.71096533029288,-201.71096533029254
BUC - Buchans,STY - Stony Brook,-105.2251775391644,-101.88422758250726,-99.01545900602946,-95.38775240781773,-93.68872125824328,-92.91930543249693,-92.91930543249714,-94.20326754438452,-95.84518635146696,-97.37354019894724,-101.42679363885806,-103.58325873208194,-105.68261148281341,-106.33846234895736,-104.69654354187492,-101.88422758250726,-98.94425895238943,-95.84518635146696,-95.84518635146696,-97.373540198947,-101.88422758250748,-106.62521899051194,-107.21096533029345,-107.21096533029322
BDE - Bay Despoir,SUN - Sunnyside,-100.08504518344749,-89.2190976920196,-94.18151917082433,-86.85244132501715,-86.15144216518883,-84.87271883792107,-88.42345668458712,-89.64306804718296,-88.35756287963427,-92.6210885527878,-90.19402879160192,-93.21616027534708,-94.94733813700027,-100.70437235309635,-99.2180166397355,-96.02166819626859,-86.23512773627986,-84.56906416120961,-91.3929155892392,-85.45602507677364,-97.03837819385755,-94.30650014663513,-97.713867434758,-101.59461669512329
SUN - Sunnyside,CBC - Comb by Chance,114.25000000000091,111.125,107.5,104.12499999999909,102.5,101.625,101.74999999999909,102.75,105.0,105.99999999999909,110.625,112.75,115.12499999999909,115.5,113.74999999999909,111.25,107.5,105.0,104.625,106.12500000000091,111.25,115.875,116.5,116.25
WAV - Western Avalon,LHB - Long Harbour,114.25,111.125,107.49999999999977,104.125,102.5,101.625,101.74999999999987,102.74999999999987,105.00000000000013,106.0,110.625,112.75000000000023,115.125,115.5,113.75,111.25,107.50000000000013,105.0,104.625,106.125,111.25,115.87499999999977,116.5,116.25
BBK - Bottom Brook,STV - Stephenville,45.53999999999907,44.21999999999935,42.89999999999964,41.579999999999025,40.919999999999156,40.259999999999316,40.259999999999316,40.91999999999962,41.579999999999025,42.23999999999978,44.21999999999935,44.87999999999965,45.53999999999907,46.19999999999936,45.53999999999907,44.21999999999935,42.89999999999964,41.579999999999025,41.57999999999947,42.23999999999933,44.21999999999935,46.19999999999936,46.19999999999936,46.19999999999936
MAS - Massey Drive,BBK - Bottom Brook,-86.6639901532101,-83.91617124603134,-81.55203712661523,-78.25260159291997,-76.9045543321572,-76.56364791019179,-76.56364791019155,-77.47628599753853,-78.87605764395494,-80.15226548019928,-83.29271519499662,-85.26421850679435,-87.28744620424506,-87.50478881603908,-86.10501716962334,-83.91617124603158,-81.61652019406257,-78.87605764395471,-78.87605764395471,-80.15226548019905,-83.91617124603134,-88.05640544255493,-88.56365404048915,-88.56365404048915
WAV - Western Avalon,SLD - Soldiers Pond,-384.138409886057,-363.8209993159481,-361.54245209243936,-344.44952993957014,-340.44052310320365,-337.1211651273068,-341.13209799267986,-344.86907555889235,-348.8292574117414,-357.30092255619263,-365.348384892632,-372.2940795406194,-380.0507602669285,-388.20034173822125,-382.684543585826,-373.0266787014035,-352.80787400263495,-345.14141622177095,-352.66950128132333,-348.9389245790823,-374.6288898070057,-382.3119802694397,-385.2565910833397,-390.3792978163992
HOL - Holyrood,OXP - Oxen Pond,123.68180128642652,118.54038930645784,115.58009843150316,109.94343218417255,111.0689392237028,110.40468741311257,109.37081662688557,109.86595438686868,113.67360019698714,118.87919849621288,123.01372812455324,119.97403650059809,124.28435892096675,125.31202349835644,124.85931654685943,123.06270088856786,118.48621683757696,116.26575575187498,117.1843170392544,117.73152196452313,124.71565904283794,128.7993460841078,121.38726108795437,125.35085341624172
MAS - Massey Drive,BUC - Buchans,-101.33600984679038,-98.0838287539691,-95.44796287338544,-91.7473984070806,-90.09544566784314,-89.43635208980879,-89.4363520898089,-90.52371400246159,-92.12394235604576,-93.84773451980128,-97.70728480500385,-99.7357814932063,-101.71255379575564,-102.49521118396149,-100.89498283037756,-98.0838287539691,-95.3834798059377,-92.12394235604576,-92.12394235604576,-93.8477345198014,-98.0838287539691,-102.94359455744518,-103.4363459595112,-103.4363459595113
STY - Stony Brook,BDE - Bay Despoir,-198.22517753916358,-192.38422758250684,-186.515459006029,-179.88775240781743,-177.18872125824296,-175.66930543249657,-175.66930543249669,-177.9532675443842,-181.09518635146648,-183.3735401989467,-191.1767936388577,-195.0832587320813,-199.43261148281283,-200.08846234895702,-196.94654354187446,-192.38422758250687,-186.44425895238876,-181.09518635146648,-181.09518635146648,-183.37354019894642,-192.38422758250684,-200.8752189905116,-201.71096533029288,-201.71096533029254
BUC - Buchans,STY - Stony Brook,-105.2251775391644,-101.88422758250726,-99.01545900602946,-95.38775240781773,-93.68872125824328,-92.91930543249693,-92.91930543249714,-94.20326754438452,-95.84518635146696,-97.37354019894724,-101.42679363885806,-103.58325873208194,-105.68261148281341,-106.33846234895736,-104.69654354187492,-101.88422758250726,-98.94425895238943,-95.84518635146696,-95.84518635146696,-97.373540198947,-101.88422758250748,-106.62521899051194,-107.21096533029345,-107.21096533029322
BBK - Bottom Brook,BUC - Buchans,-44.11434523153832,-42.68462641104578,-41.582955138673924,-40.02810640855557,-39.281996848643644,-38.902258775185494,-38.902258775185494,-39.382821086307786,-40.06643034688853,-40.89934587809307,-42.64630247271271,-43.43073597095736,-44.15266916987128,-44.68171351395336,-43.998104253372624,-42.68462641104578,-41.50503809884128,-40.0664303468884,-40.0664303468884,-40.89934587809307,-42.68462641104578,-44.80684342357938,-44.985584701075936,-44.985584701075936
BDE - Bay Despoir,USL - Upper Salmon,145.83964492167024,141.22154483498434,137.31908198793982,132.27449518436356,130.0225574835124,129.07138913500478,129.0713891350049,130.49346491122992,132.85962729706512,134.95291960210466,140.6364127222823,143.47348253583527,146.42477703437203,147.1030753020841,144.7369129162491,141.22154483498434,136.80148209522008,132.85962729706512,132.85962729706492,134.95291960210488,141.22154483498434,147.5295620189745,148.51806933941205,148.51806933941182
STY - Stony Brook,EXP - Exploits,60.5,58.99999999999909,57.00000000000091,55.0,54.50000000000091,53.99999999999909,54.0,54.5,55.49999999999909,56.0,58.5,59.5,61.00000000000091,61.0,60.0,58.99999999999909,57.00000000000091,55.49999999999909,55.5,56.0,58.99999999999909,61.49999999999909,61.5,61.5
OXP - Oxen Pond,HWD - Hardwoods,9.431801286426463,7.415389306457769,8.080098431503103,5.818432184172536,8.568939223702785,8.779687413112526,7.6208166268854995,7.115954386868622,8.673600196987053,12.879198496212867,12.388728124553294,7.224036500598032,9.159358920966724,9.812023498356352,11.109316546859391,11.812700888567916,10.986216837576904,11.265755751874904,12.559317039254351,11.606521964523067,13.465659042837927,12.924346084107812,4.8872610879543,9.100853416241675
CBC - Come by Chance,WAV - Western Avalon,0.0,0.0,0.0,0.0,0.0,0.0,0.0,0.0,0.0,0.0,0.0,0.0,0.0,0.0,0.0,0.0,0.0,0.0,0.0,0.0,0.0,0.0,0.0,0.0
STV - Stephenville,STX - Stephenville Crossing,22.770000000000444,22.110000000000586,21.450000000000728,20.790000000000877,20.45999999999913,20.1299999999992,20.130000000001022,20.45999999999913,20.790000000000877,21.1200000000008,22.110000000000586,22.439999999998694,22.770000000000444,23.100000000000364,22.770000000000444,22.110000000000586,21.450000000000728,20.78999999999905,20.78999999999905,21.1200000000008,22.110000000000586,23.100000000000364,23.100000000000364,23.100000000000364
HOL - Holyrood,HWD - Hardwoods,128.39770192963977,122.24808395968672,119.6201476472547,112.85264827625879,115.3534088355542,114.79453111966885,113.18122494032829,113.423931580303,118.01040029548064,125.31879774431931,129.2080921868299,123.58605475089708,128.86403838145011,130.21803524753463,130.41397482028913,128.96905133285185,123.97932525636541,121.89863362781244,123.46397555888159,123.53478294678465,131.4484885642569,135.26151912616172,123.83089163193152,129.90128012436256
DLK - Deer Lake,CAM - Cat Arm,52.99999999999989,51.0,49.99999999999989,48.0,47.00000000000011,47.0,47.0,47.00000000000011,48.0,49.0,51.0,52.0,53.0,53.0,53.0,51.0,50.0,48.0,47.99999999999989,49.0,51.0,54.0,54.0,54.00000000000011
DLK - Deer Lake,MAS - Massey Drive,-116.99999999999956,-112.99999999999956,-109.99999999999956,-105.49999999999977,-103.49999999999977,-102.99999999999977,-102.99999999999956,-103.99999999999956,-105.99999999999956,-107.99999999999956,-112.5,-114.99999999999956,-117.5,-117.99999999999956,-116.49999999999956,-112.99999999999956,-109.99999999999956,-105.99999999999977,-105.99999999999956,-107.99999999999932,-113.0,-118.99999999999956,-119.49999999999956,-119.5
USL - Upper Salmon,GRC - Granite Canal,128.34964492167072,124.3915448349842,120.81908198794008,116.4344951843634,114.5125574835124,113.56138913500513,113.5613891350049,114.98346491122992,117.0196272970652,118.78291960210504,123.80641272228287,126.31348253583542,128.93477703437247,129.6130753020841,127.57691291624883,124.39154483498442,120.63148209522045,117.0196272970652,117.0196272970652,118.7829196021048,124.39154483498442,130.03956201897472,130.69806933941229,130.69806933941163
SLD - Soldiers Pond,HOL - Holyrood,183.16475160803319,175.95673663307227,171.3501230393789,163.46054023021568,164.46117402962852,163.41210926639067,162.15102078360692,163.01994298358582,168.34200024623388,175.09899812026612,181.4234101556916,178.15504562574756,184.13669865120843,185.51502937294552,184.5116456835743,181.64087611070983,174.98277104697118,171.5821946898437,172.636646299068,173.69565245565389,183.70707380354747,189.96793260513482,180.8590763599429,185.7510667703021
SLD - Soldiers Pond,HWD - Hardwoods,158.92516053097862,151.57420673186544,148.17850148715118,140.09607164796142,142.76360450715896,142.02988266406732,140.20639507092946,140.5939220775673,146.06740033651963,154.501964097697,159.4453272127785,153.27856235518834,159.55348815665153,161.13720680969226,161.1659157675515,159.24253068463682,153.1431204308606,150.49566607611968,152.2367499420596,152.4840583560603,162.06633419818152,166.9228412270175,153.97407102525534,160.85979125274625
BDE - Bay Despoir,WAV - Western Avalon,-358.7556296331021,-333.5935966159582,-338.1779196583484,-319.133859349963,-314.81300366961983,-311.2753143241555,-318.31803163082327,-322.4171519056314,-322.69296224072895,-332.00088289442186,-334.5155324167937,-343.89727844930303,-349.98343772599685,-362.2881672938047,-356.58560072052626,-346.1302876074601,-321.9654165274378,-315.0704716775783,-327.78691882151895,-318.48685484645017,-347.85937161228213,-349.7956867067268,-357.769628130481,-364.5122326097497
SLD - Soldiers Pond,HOL - Holyrood,183.16475160803319,175.95673663307227,171.3501230393789,163.46054023021568,164.46117402962852,163.41210926639067,162.15102078360692,163.01994298358582,168.34200024623388,175.09899812026612,181.4234101556916,178.15504562574756,184.13669865120843,185.51502937294552,184.5116456835743,181.64087611070983,174.98277104697118,171.5821946898437,172.636646299068,173.69565245565389,183.70707380354747,189.96793260513482,180.8590763599429,185.7510667703021
BBK - Bottom Brook,GRC - Granite Canal,-110.85964492167092,-107.56154483498449,-104.31908198794031,-100.5944951843636,-99.00255748351242,-98.05138913500515,-98.05138913500515,-99.47346491123017,-101.17962729706528,-102.61291960210508,-106.97641272228282,-109.15348253583556,-111.44477703437245,-112.12307530208444,-110.41691291624944,-107.56154483498459,-104.46148209522042,-101.17962729706528,-101.17962729706528,-102.61291960210508,-107.56154483498459,-112.54956201897484,-112.87806933941226,-112.87806933941215
