,g0,g31,g37,g1,g5,g2,g3,g8,g24,g36,g39,g4,g6,g10,g41,g7,g22,g23,g9,g11,g27,g43,g12,g32,g38,g13,g14,g15,g16,g17,g18,g19,g29,g30,g42,g20,g21,g25,g33,g34,g26,g35,g28,g40,Total,dr
bus,HOL - Holyrood,EXP - Exploits,CAM - Cat Arm,CAM - Cat Arm,DLK - Deer Lake,EXP - Exploits,DLK - Deer Lake,WAV - Western Avalon,CAM - Cat Arm,BUC - Buchans,DLK - Deer Lake,BDE - Bay Despoir,CFP - Churchill Falls,GRC - Granite Canal,TS2 - Muskrat Falls,TS2 - Muskrat Falls,TS2 - Muskrat Falls,TS2 - Muskrat Falls,USL - Upper Salmon,HWD - Hardwoods,STV - Stephenville,STV - Stephenville,WAV - Western Avalon,WAV - Western Avalon,CAM - Cat Arm,STV - Stephenville,STY - Stony Brook,BDE - Bay Despoir,BBK - Bottom Brook,HWD - Hardwoods,HWD - Hardwoods,HOL - Holyrood,CFP - Churchill Falls,STV - Stephenville,STV - Stephenville,STY - Stony Brook,CAM - Cat Arm,HOL - Holyrood,CFP - Churchill Falls,CAM - Cat Arm,LHB - Long Harbour,DLK - Deer Lake,HWD - Hardwoods,BDE - Bay Despoir,,
cascade group name,,,,,,,,,,,,,,,,,,,,,,,,,,,,,,,,,,,,,,,,,,,,,,
cost curve equation,172P,6.4P,6.4P,6.4P,6.4P,6.4P,6.4P,6.4P,6.4P,6.4P,6.4P,6.4P,6.4P,6.4P,6.4P,6.4P,6.4P,6.4P,6.4P,6.4P,6.4P,6.4P,6.4P,6.4P,6.4P,6.4P,6.4P,6.4P,6.4P,82P,82P,82P,82P,82P,82P,82P,288P,288P,288P,288P,288P,40P,0P,0P,,
efficiency,,,,,,,,,,,,,,,,,,,,,,,,,,,,,,,,,,,,,,,,,,,,,,
h factor,,,,,,,,,,,,,,,,,,,,,,,,,,,,,,,,,,,,,,,,,,,,,,
kind,fuel oil,hydro_daily,hydro_daily,hydro_daily,hydro_daily,hydro_daily,hydro_daily,hydro_daily,hydro_daily,hydro_daily,hydro_daily,hydro_monthly,hydro_monthly,hydro_monthly,hydro_monthly,hydro_monthly,hydro_monthly,hydro_monthly,hydro_monthly,hydro_hourly,hydro_hourly,hydro_hourly,hydro_hourly,hydro_hourly,hydro_hourly,hydro_hourly,hydro_hourly,hydro_hourly,hydro_hourly,NG_CG,NG_CG,NG_CG,NG_CG,NG_CG,NG_CG,NG_CG,diesel,diesel,diesel,diesel,diesel,biomass,Wind,Wind,,
max storage,,,,,,,,,,,,,,,,,,,,,,,,,,,,,,,,,,,,,,,,,,,,,,
max water discharge,,,,,,,,,,,,,,,,,,,,,,,,,,,,,,,,,,,,,,,,,,,,,,
min down time,,,,,,,,,,,,,,,,,,,,,,,,,,,,,,,,,,,,,,,,,,8.0,,,,
min storage,,,,,,,,,,,,,,,,,,,,,,,,,,,,,,,,,,,,,,,,,,,,,,
min up time,,,,,,,,,,,,,,,,,,,,,,,,,,,,,,,,,,,,,,,,,,,,,,
min water discharge,,,,,,,,,,,,,,,,,,,,,,,,,,,,,,,,,,,,,,,,,,,,,,
mustrun,,,,,,,,,,,,,,,,,,,,,,,,,,,,,,,,,,,,,,,,,,,,,,
name,fuel oil_1,hydro_daily_1,hydro_daily_10,hydro_daily_11,hydro_daily_12,hydro_daily_21,hydro_daily_27,hydro_daily_28,hydro_daily_29,hydro_daily_30,hydro_daily_31,hydro_monthly_1,hydro_monthly_8,hydro_monthly_19,hydro_monthly_20,hydro_monthly_21,hydro_monthly_22,hydro_monthly_23,hydro_monthly_26,hydro_hourly_1,hydro_hourly_6,hydro_hourly_7,hydro_hourly_8,hydro_hourly_9,hydro_hourly_10,hydro_hourly_18,hydro_hourly_19,hydro_hourly_20,hydro_hourly_21,NG_CG_1,NG_CG_2,NG_CG_3,NG_CG_4,NG_CG_5,NG_CG_6,NG_CG_7,diesel_1,diesel_2,diesel_3,diesel_4,diesel_5,biomass_1,Wind_1,Wind_2,,
number,,,,,,,,,,,,,,,,,,,,,,,,,,,,,,,,,,,,,,,,,,,,,,
pmax,490.0,22.0,68.5,68.5,125.5,75.0,75.0,8.0,4.0,18.0,9.0,613.0,5429.0,40.0,206.0,206.0,206.0,206.0,84.0,21.0,5.8,10.5,1.1,4.3,32.0,6.0,6.3,3.6,11.0,20.0,50.0,123.5,27.0,6.5,50.0,8.0,5.0,12.0,11.7,9.7,11.0,17.6,27,27,,
pmin,0,0,0,0,0,0,0,0,0,0,0,0,0,0,0,0,0,0,0,0,0,0,0,0,0,0,0,0,0,10,25,62,14,3,25,4,0,0,0,0,0,7,0,0,,
pumprampmax,,,,,,,,,,,,,,,,,,,,,,,,,,,,,,,,,,,,,,,,,,,,,,
ramp rate max,,,,,,,,,,,,,,,,,,,,,,,,,,,,,,,,,,,,,,,,,,17.6,,,,
ramp rate min,,,,,,,,,,,,,,,,,,,,,,,,,,,,,,,,,,,,,,,,,,-17.6,,,,
schedule filename,,,,,,,,,,,,,,,,,,,,,,,,,,,,,,,,,,,,,,,,,,,vre_schedule_Wind_1_fc.csv,vre_schedule_Wind_2_fc.csv,,
shedding_allowed,,,,,,,,,,,,,,,,,,,,,,,,,,,,,,,,,,,,,,,,,,,1,1,,
shut down cost,,,,,,,,,,,,,,,,,,,,,,,,,,,,,,,,,,,,,,,,,,,,,,
shut down ramp limit,,,,,,,,,,,,,,,,,,,,,,,,,,,,,,,,,,,,,,,,,,0.0,,,,
start up cost,,,,,,,,,,,,,,,,,,,,,,,,,,,,,,520.0,1300.0,3211.0,702.0,169.0,1300.0,208.0,,,,,,950.4000000000001,0.0,0.0,,
start up ramp limit,,,,,,,,,,,,,,,,,,,,,,,,,,,,,,,,,,,,,,,,,,0.0,,,,
storagecapacitymax,,,,,,,,,,,,,,,,,,,,,,,,,,,,,,,,,,,,,,,,,,,,,,
tripenergy,,,,,,,,,,,,,,,,,,,,,,,,,,,,,,,,,,,,,,,,,,,,,,
unpluggedhours,,,,,,,,,,,,,,,,,,,,,,,,,,,,,,,,,,,,,,,,,,,,,,
2012-01-01 00:00:00,0.0,0.0,0.0,0.0,0.0,0.0,0.0,0.0,0.0,0.0,0.0,0.0,0.0,0.0,7.0,0.0,0.0,0.0,0.0,0.0,0.0,0.8542799999999998,1718.4831639999966,0.0,0.0,0.0,0.0,0.0,0.0,0.0,0.0,0.0,0.0,0.0,20.612556,0.0,0.0,0.0,0.0,0.0,0.0,0.0,0.0,0.0,,
2012-01-01 01:00:00,0.0,0.0,0.0,0.0,0.0,0.0,0.0,0.0,0.0,0.0,0.0,0.0,0.0,0.0,7.0,0.0,0.0,0.0,0.0,0.0,0.0,30.788208,1638.3118746979962,0.0,0.0,0.0,0.0,0.0,0.0,0.0,0.0,8.956505302,0.0,0.0,12.953412,0.0,0.0,0.0,0.0,0.0,0.0,0.0,0.0,0.0,,
2012-01-01 02:00:00,0.0,0.0,0.0,0.0,0.0,0.0,0.0,0.0,0.0,0.0,0.0,0.0,0.0,0.0,7.0,0.0,0.0,0.0,0.0,0.0,0.0,0.309042,790.5042379999941,0.0,0.0,0.0,206.0,206.0,206.0,206.0,0.0,0.0,0.0,0.0,23.25672,0.0,0.0,0.0,0.0,0.0,0.0,0.0,0.0,0.0,,
2012-01-01 03:00:00,0.0,0.0,0.0,0.0,0.0,0.0,0.0,0.0,0.0,0.0,0.0,0.0,0.0,0.0,7.0,0.0,0.0,0.0,0.0,0.0,0.0,15.051258000000002,716.7865646979963,0.0,0.0,0.0,206.0,206.0,206.0,206.0,0.0,8.956505302,0.0,0.0,19.335672,0.0,0.0,0.0,0.0,0.0,0.0,0.0,0.0,0.0,,
2012-01-01 04:00:00,0.0,0.0,0.0,0.0,0.0,0.0,0.0,0.0,0.0,0.0,0.0,0.0,0.0,0.0,7.0,0.0,0.0,0.0,0.0,0.0,0.0,12.794111999999998,1531.1793599999953,0.0,0.0,0.0,0.0,0.0,0.0,0.0,0.0,0.0,0.0,0.0,15.186528,0.0,0.0,0.0,0.0,0.0,0.0,0.0,0.0,0.0,,
2012-01-01 05:00:00,0.0,0.0,0.0,0.0,0.0,0.0,0.0,0.0,0.0,0.0,0.0,0.0,0.0,0.0,7.0,0.0,0.0,0.0,0.0,0.0,0.0,14.899247999999998,1517.855703999995,0.0,0.0,0.0,0.0,0.0,0.0,0.0,0.0,0.0,0.0,0.0,13.425048000000002,0.0,0.0,0.0,0.0,0.0,0.0,0.0,0.0,0.0,,
2012-01-01 06:00:00,0.0,0.0,0.0,0.0,0.0,0.0,0.0,0.0,0.0,0.0,0.0,0.0,0.0,0.0,7.0,0.0,0.0,0.0,0.0,0.0,0.0,0.7550549999999998,700.9974479999955,0.0,0.0,0.0,206.0,206.0,206.0,206.0,0.0,0.0,0.0,0.0,21.427497,0.0,0.0,0.0,0.0,0.0,0.0,0.0,0.0,0.0,,
2012-01-01 07:00:00,0.0,0.0,0.0,0.0,0.0,0.0,0.0,0.0,0.0,0.0,0.0,0.0,0.0,0.0,7.0,0.0,0.0,0.0,0.0,0.0,0.0,0.20671199999999998,715.289019697997,0.0,0.0,0.0,206.0,206.0,206.0,206.0,0.0,8.956505302,0.0,0.0,15.707763,0.0,0.0,0.0,0.0,0.0,0.0,0.0,0.0,0.0,,
2012-01-01 08:00:00,0.0,0.0,0.0,0.0,0.0,0.0,0.0,0.0,0.0,0.0,0.0,0.0,0.0,0.0,7.0,0.0,0.0,0.0,0.0,0.0,0.0,11.481912,1568.5257839999958,0.0,0.0,0.0,0.0,0.0,0.0,0.0,0.0,0.0,0.0,0.0,16.112304,0.0,0.0,0.0,0.0,0.0,0.0,0.0,0.0,0.0,,
2012-01-01 09:00:00,0.0,0.0,0.0,0.0,0.0,0.0,0.0,0.0,0.0,0.0,0.0,0.0,0.0,0.0,7.0,0.0,0.0,0.0,0.0,0.0,0.0,0.6269399999999999,1612.4730599999948,0.0,0.0,0.0,0.0,0.0,0.0,0.0,0.0,0.0,0.0,0.0,0.0,0.0,0.0,0.0,0.0,0.0,0.0,0.0,0.0,0.0,,
2012-01-01 10:00:00,0.0,0.0,0.0,0.0,0.0,0.0,0.0,0.0,0.0,0.0,0.0,0.0,0.0,0.0,7.0,0.0,0.0,0.0,0.0,0.0,0.0,24.91641,1659.0935899999965,0.0,0.0,0.0,0.0,0.0,0.0,0.0,0.0,0.0,0.0,0.0,0.0,0.0,0.0,0.0,0.0,0.0,0.0,0.0,0.0,0.0,,
2012-01-01 11:00:00,0.0,0.0,0.0,0.0,0.0,0.0,0.0,0.0,0.0,0.0,0.0,0.0,0.0,0.0,7.0,0.0,0.0,0.0,0.0,0.0,0.0,20.470401000000006,1669.7450536979968,0.0,0.0,0.0,0.0,0.0,0.0,0.0,0.0,8.956505302,0.0,0.0,16.80804,0.0,0.0,0.0,0.0,0.0,0.0,0.0,0.0,0.0,,
2012-01-01 12:00:00,0.0,0.0,0.0,0.0,0.0,0.0,0.0,0.0,0.0,0.0,0.0,0.0,0.0,0.0,7.0,0.0,0.0,0.0,0.0,0.0,0.0,22.901885999999998,1711.307321999996,0.0,0.0,0.0,0.0,0.0,0.0,0.0,0.0,0.0,0.0,0.0,17.730791999999994,0.0,0.0,0.0,0.0,0.0,0.0,0.0,0.0,0.0,,
2012-01-01 13:00:00,0.0,0.0,0.0,0.0,0.0,0.0,0.0,0.0,0.0,0.0,0.0,0.0,0.0,0.0,7.0,0.0,0.0,0.0,0.0,0.0,0.0,1.0730879999999998,1738.436351999996,0.0,0.0,0.0,0.0,0.0,0.0,0.0,0.0,0.0,0.0,0.0,19.420560000000002,0.0,0.0,0.0,0.0,0.0,0.0,0.0,0.0,0.0,,
2012-01-01 14:00:00,0.0,0.0,0.0,0.0,0.0,0.0,0.0,0.0,0.0,0.0,0.0,0.0,0.0,0.0,7.0,0.0,0.0,0.0,0.0,0.0,0.0,0.7683660000000001,1718.7297839999967,0.0,0.0,0.0,0.0,0.0,0.0,0.0,0.0,0.0,0.0,0.0,12.461850000000002,0.0,0.0,0.0,0.0,0.0,0.0,0.0,0.0,0.0,,
2012-01-01 15:00:00,0.0,0.0,0.0,0.0,0.0,0.0,0.0,0.0,0.0,0.0,0.0,0.0,0.0,0.0,7.0,0.0,0.0,0.0,0.0,0.0,0.0,4.646376,1680.534297999996,0.0,0.0,0.0,0.0,0.0,0.0,0.0,0.0,0.0,0.0,0.0,6.829325999999999,0.0,0.0,0.0,0.0,0.0,0.0,0.0,0.0,0.0,,
2012-01-01 16:00:00,0.0,0.0,0.0,0.0,0.0,0.0,0.0,0.0,0.0,0.0,0.0,0.0,0.0,0.0,7.0,0.0,0.0,0.0,0.0,0.0,0.0,31.424328000000006,777.1067919999961,0.0,0.0,0.0,206.0,206.0,206.0,206.0,0.0,0.0,0.0,0.0,3.5488800000000005,0.0,0.0,0.0,0.0,0.0,0.0,0.0,0.0,0.0,,
2012-01-01 17:00:00,0.0,0.0,0.0,0.0,0.0,0.0,0.0,0.0,0.0,0.0,0.0,0.0,0.0,0.0,7.0,0.0,0.0,0.0,0.0,0.0,0.0,26.6814,744.1695999999956,0.0,0.0,0.0,206.0,206.0,206.0,206.0,0.0,0.0,0.0,0.0,1.269,0.0,0.0,0.0,0.0,0.0,0.0,0.0,0.0,0.0,,
2012-01-01 18:00:00,0.0,0.0,0.0,0.0,0.0,0.0,0.0,0.0,0.0,0.0,0.0,0.0,0.0,0.0,7.0,0.0,0.0,0.0,0.0,0.0,0.0,0.31725000000000003,1591.0803749999952,0.0,0.0,0.0,0.0,0.0,0.0,0.0,0.0,0.0,0.0,0.0,0.732375,0.0,0.0,0.0,0.0,0.0,0.0,0.0,0.0,0.0,,
2012-01-01 19:00:00,0.0,0.0,0.0,0.0,0.0,0.0,0.0,0.0,0.0,0.0,0.0,0.0,0.0,0.0,7.0,0.0,0.0,0.0,0.0,0.0,0.0,28.471095000000002,761.3313379999954,0.0,0.0,0.0,206.0,206.0,206.0,206.0,0.0,0.0,0.0,0.0,0.297567,0.0,0.0,0.0,0.0,0.0,0.0,0.0,0.0,0.0,,
2012-01-01 20:00:00,0.0,0.0,0.0,0.0,0.0,0.0,0.0,0.0,0.0,0.0,0.0,0.0,0.0,0.0,7.0,0.0,0.0,0.0,0.0,0.0,0.0,0.8838719999999999,867.1261279999961,0.0,0.0,0.0,206.0,206.0,206.0,206.0,0.0,0.0,0.0,0.0,0.0,0.0,0.0,0.0,0.0,0.0,0.0,0.0,0.0,0.0,,
2012-01-01 21:00:00,0.0,0.0,0.0,0.0,0.0,0.0,0.0,0.0,0.0,0.0,0.0,0.0,0.0,0.0,7.0,0.0,0.0,0.0,0.0,0.0,0.0,28.36131300000001,911.5686869999963,0.0,0.0,0.0,206.0,206.0,206.0,206.0,0.0,0.0,0.0,0.0,0.0,0.0,0.0,0.0,0.0,0.0,0.0,0.0,0.0,0.0,,
2012-01-01 22:00:00,0.0,0.0,0.0,0.0,0.0,0.0,0.0,0.0,0.0,0.0,0.0,0.0,0.0,0.0,7.0,0.0,0.0,0.0,0.0,0.0,0.0,16.562637,1717.0265496979985,0.0,0.0,0.0,0.0,0.0,0.0,0.0,0.0,8.956505302,0.0,0.0,30.364308,0.0,0.0,0.0,0.0,0.0,0.0,0.0,0.0,0.0,,
2012-01-01 23:00:00,0.0,0.0,0.0,0.0,0.0,0.0,0.0,0.0,0.0,0.0,0.0,0.0,0.0,0.0,7.0,0.0,0.0,0.0,0.0,0.0,0.0,2.0585340000000003,921.830455999996,0.0,0.0,0.0,206.0,206.0,206.0,206.0,0.0,0.0,0.0,0.0,23.02101,0.0,0.0,0.0,0.0,0.0,0.0,0.0,0.0,0.0,,
"('kind',)",,,,,,,,,,,,,,,,,,,,,,,,,,,,,,,,,,,,,,,,,,,,,,
"('cost curve equation',)",,,,,,,,,,,,,,,,,,,,,,,,,,,,,,,,,,,,,,,,,,,,,,
"('pmax',)",,,,,,,,,,,,,,,,,,,,,,,,,,,,,,,,,,,,,,,,,,,,,,
"('pmin',)",,,,,,,,,,,,,,,,,,,,,,,,,,,,,,,,,,,,,,,,,,,,,,
"('storagecapacitymax',)",,,,,,,,,,,,,,,,,,,,,,,,,,,,,,,,,,,,,,,,,,,,,,
"('pumprampmax',)",,,,,,,,,,,,,,,,,,,,,,,,,,,,,,,,,,,,,,,,,,,,,,
"('unpluggedhours',)",,,,,,,,,,,,,,,,,,,,,,,,,,,,,,,,,,,,,,,,,,,,,,
"('tripenergy',)",,,,,,,,,,,,,,,,,,,,,,,,,,,,,,,,,,,,,,,,,,,,,,
"('schedule filename',)",,,,,,,,,,,,,,,,,,,,,,,,,,,,,,,,,,,,,,,,,,,,,,
"('shedding_allowed',)",,,,,,,,,,,,,,,,,,,,,,,,,,,,,,,,,,,,,,,,,,,,,,
"('start up cost',)",,,,,,,,,,,,,,,,,,,,,,,,,,,,,,,,,,,,,,,,,,,,,,
"('shut down cost',)",,,,,,,,,,,,,,,,,,,,,,,,,,,,,,,,,,,,,,,,,,,,,,
"('min up time',)",,,,,,,,,,,,,,,,,,,,,,,,,,,,,,,,,,,,,,,,,,,,,,
"('min down time',)",,,,,,,,,,,,,,,,,,,,,,,,,,,,,,,,,,,,,,,,,,,,,,
"('ramp rate max',)",,,,,,,,,,,,,,,,,,,,,,,,,,,,,,,,,,,,,,,,,,,,,,
"('ramp rate min',)",,,,,,,,,,,,,,,,,,,,,,,,,,,,,,,,,,,,,,,,,,,,,,
"('start up ramp limit',)",,,,,,,,,,,,,,,,,,,,,,,,,,,,,,,,,,,,,,,,,,,,,,
"('shut down ramp limit',)",,,,,,,,,,,,,,,,,,,,,,,,,,,,,,,,,,,,,,,,,,,,,,
"('mustrun',)",,,,,,,,,,,,,,,,,,,,,,,,,,,,,,,,,,,,,,,,,,,,,,
"('cascade group name',)",,,,,,,,,,,,,,,,,,,,,,,,,,,,,,,,,,,,,,,,,,,,,,
"('number',)",,,,,,,,,,,,,,,,,,,,,,,,,,,,,,,,,,,,,,,,,,,,,,
"('min storage',)",,,,,,,,,,,,,,,,,,,,,,,,,,,,,,,,,,,,,,,,,,,,,,
"('max storage',)",,,,,,,,,,,,,,,,,,,,,,,,,,,,,,,,,,,,,,,,,,,,,,
"('min water discharge',)",,,,,,,,,,,,,,,,,,,,,,,,,,,,,,,,,,,,,,,,,,,,,,
"('max water discharge',)",,,,,,,,,,,,,,,,,,,,,,,,,,,,,,,,,,,,,,,,,,,,,,
"('h factor',)",,,,,,,,,,,,,,,,,,,,,,,,,,,,,,,,,,,,,,,,,,,,,,
"('efficiency',)",,,,,,,,,,,,,,,,,,,,,,,,,,,,,,,,,,,,,,,,,,,,,,
"('name',)",,,,,,,,,,,,,,,,,,,,,,,,,,,,,,,,,,,,,,,,,,,,,,
"('bus',)",,,,,,,,,,,,,,,,,,,,,,,,,,,,,,,,,,,,,,,,,,,,,,
1325376000000000000,,,,,,,,,,,,,,,,,,,,,,,,,,,,,,,,,,,,,,,,,,,,,1743.13309,0.0
1325379600000000000,,,,,,,,,,,,,,,,,,,,,,,,,,,,,,,,,,,,,,,,,,,,,1701.088362,0.0
1325383200000000000,,,,,,,,,,,,,,,,,,,,,,,,,,,,,,,,,,,,,,,,,,,,,1645.258476,0.0
1325386800000000000,,,,,,,,,,,,,,,,,,,,,,,,,,,,,,,,,,,,,,,,,,,,,1592.185622,0.0
1325390400000000000,,,,,,,,,,,,,,,,,,,,,,,,,,,,,,,,,,,,,,,,,,,,,1565.993824,0.0
1325394000000000000,,,,,,,,,,,,,,,,,,,,,,,,,,,,,,,,,,,,,,,,,,,,,1557.033472,0.0
1325397600000000000,,,,,,,,,,,,,,,,,,,,,,,,,,,,,,,,,,,,,,,,,,,,,1559.790504,0.0
1325401200000000000,,,,,,,,,,,,,,,,,,,,,,,,,,,,,,,,,,,,,,,,,,,,,1564.615309,0.0
1325404800000000000,,,,,,,,,,,,,,,,,,,,,,,,,,,,,,,,,,,,,,,,,,,,,1597.699685,0.0
1325408400000000000,,,,,,,,,,,,,,,,,,,,,,,,,,,,,,,,,,,,,,,,,,,,,1633.541093,0.0
1325412000000000000,,,,,,,,,,,,,,,,,,,,,,,,,,,,,,,,,,,,,,,,,,,,,1685.924689,0.0
1325415600000000000,,,,,,,,,,,,,,,,,,,,,,,,,,,,,,,,,,,,,,,,,,,,,1736.240512,0.0
1325419200000000000,,,,,,,,,,,,,,,,,,,,,,,,,,,,,,,,,,,,,,,,,,,,,1769.324889,0.0
1325422800000000000,,,,,,,,,,,,,,,,,,,,,,,,,,,,,,,,,,,,,,,,,,,,,1772.08192,0.0
1325426400000000000,,,,,,,,,,,,,,,,,,,,,,,,,,,,,,,,,,,,,,,,,,,,,1735.551254,0.0
1325430000000000000,,,,,,,,,,,,,,,,,,,,,,,,,,,,,,,,,,,,,,,,,,,,,1696.952815,0.0
1325433600000000000,,,,,,,,,,,,,,,,,,,,,,,,,,,,,,,,,,,,,,,,,,,,,1650.083281,0.0
1325437200000000000,,,,,,,,,,,,,,,,,,,,,,,,,,,,,,,,,,,,,,,,,,,,,1610.106326,0.0
1325440800000000000,,,,,,,,,,,,,,,,,,,,,,,,,,,,,,,,,,,,,,,,,,,,,1599.767459,0.0
1325444400000000000,,,,,,,,,,,,,,,,,,,,,,,,,,,,,,,,,,,,,,,,,,,,,1630.784062,0.0
1325448000000000000,,,,,,,,,,,,,,,,,,,,,,,,,,,,,,,,,,,,,,,,,,,,,1713.495003,0.0
1325451600000000000,,,,,,,,,,,,,,,,,,,,,,,,,,,,,,,,,,,,,,,,,,,,,1779.663756,0.0
1325455200000000000,,,,,,,,,,,,,,,,,,,,,,,,,,,,,,,,,,,,,,,,,,,,,1774.149693,0.0
1325458800000000000,,,,,,,,,,,,,,,,,,,,,,,,,,,,,,,,,,,,,,,,,,,,,1775.528209,0.0
