,date,Wind_1,Wind_2,Wind_3,Wind_4,Wind_5,Wind_6,Wind_7,Wind_8,Solar_1,Solar_2,Solar_3,Solar_4
0,1/1/2012 0:00,11.0,170.9112,2.826,11.0,18.982599999999998,22.2088,126.66,144.84,0.0,0.0,0.0,0.0
1,1/1/2012 1:00,1.463,6.159599999999999,0.214,1.463,26.0,0.8004,10.26,5.22,0.0,0.0,0.0,0.0
2,1/1/2012 2:00,0.2145,5.770199999999999,4.09,0.2145,25.0484,0.7497999999999999,5.84,4.89,0.0,0.0,0.0,0.0
3,1/1/2012 3:00,1.6027,6.4605,0.5559999999999999,1.6027,5.1168000000000005,0.8394999999999999,51.080000000000005,5.475,0.0,0.0,0.0,0.0
4,1/1/2012 4:00,10.7437,13.239600000000001,3.452,10.7437,1.6666,1.7204000000000002,3.62,11.22,0.0,0.0,0.0,0.0
5,1/1/2012 5:00,10.5765,8.4429,0.308,10.5765,21.541,1.0971,82.69999999999999,7.155,0.0,0.0,0.0,0.0
6,1/1/2012 6:00,11.0,1.9824,5.884,11.0,20.9066,0.2576,22.34,1.68,0.0,0.0,0.0,0.0
7,1/1/2012 7:00,0.0,1.6284,0.0,0.0,25.4904,0.2116,20.06,1.38,0.0,0.0,0.0,0.0
8,1/1/2012 8:00,11.0,177.0,0.0,11.0,26.0,23.0,3.9800000000000004,150.0,0.0,0.0,0.0,0.0
9,1/1/2012 9:00,0.0,10.708499999999999,0.526,0.0,1.9109999999999998,1.3915,34.06,9.075,0.0,0.0,0.0,0.0
10,1/1/2012 10:00,11.0,7.788000000000001,19.439999999999998,11.0,21.5384,1.012,6.0,6.6000000000000005,1.9446735399999997,1.9446735399999997,1.9446735399999997,1.9446735399999997
11,1/1/2012 11:00,0.0,1.4337,0.0,0.0,11.258,0.1863,5.4,1.2149999999999999,2.08990892,2.08990892,2.08990892,2.08990892
12,1/1/2012 12:00,0.0847,173.17680000000001,3.0359999999999996,0.0847,0.0,22.5032,19.56,146.76000000000002,2.51150508,2.51150508,2.51150508,2.51150508
13,1/1/2012 13:00,0.4455,16.2486,2.164,0.4455,1.9604,2.1114,4.2,13.770000000000001,1.8451430300000002,1.8451430300000002,1.8451430300000002,1.8451430300000002
14,1/1/2012 14:00,8.576699999999999,53.808,6.6739999999999995,8.576699999999999,17.3472,6.992,7.28,45.6,2.28436673,2.28436673,2.28436673,2.28436673
15,1/1/2012 15:00,0.17049999999999998,24.6915,0.0,0.17049999999999998,14.3312,3.2085000000000004,10.92,20.925,0.6605773599999999,0.6605773599999999,0.6605773599999999,0.6605773599999999
16,1/1/2012 16:00,0.0,1.8408,0.0,0.0,6.6456,0.2392,89.36,1.5599999999999998,0.32029927999999996,0.32029927999999996,0.32029927999999996,0.32029927999999996
17,1/1/2012 17:00,0.0,84.4467,0.0,0.0,0.35359999999999997,10.9733,48.28,71.565,0.0,0.0,0.0,0.0
18,1/1/2012 18:00,10.783299999999999,89.4027,0.0,10.783299999999999,9.1598,11.6173,4.78,75.765,0.0,0.0,0.0,0.0
19,1/1/2012 19:00,11.0,165.10559999999998,2.792,11.0,0.0,21.4544,27.02,139.92,0.0,0.0,0.0,0.0
20,1/1/2012 20:00,0.25630000000000003,177.0,1.3339999999999999,0.25630000000000003,0.0,23.0,47.760000000000005,150.0,0.0,0.0,0.0,0.0
21,1/1/2012 21:00,1.1088,172.1856,2.284,1.1088,9.1988,22.3744,8.36,145.92,0.0,0.0,0.0,0.0
22,1/1/2012 22:00,1.3222,159.8664,1.842,1.3222,25.4852,20.773600000000002,119.88000000000001,135.48,0.0,0.0,0.0,0.0
23,1/1/2012 23:00,10.5468,76.94189999999999,0.0,10.5468,9.334,9.998099999999999,54.72,65.205,0.0,0.0,0.0,0.0
24,1/2/2012 0:00,10.5127,0.0,16.43,10.5127,7.6544,0.0,58.20000000000001,0.0,0.0,0.0,0.0,0.0
25,1/2/2012 1:00,0.7370000000000001,7.522500000000001,2.116,0.7370000000000001,0.0,0.9775,8.24,6.375000000000001,0.0,0.0,0.0,0.0
26,1/2/2012 2:00,0.8602000000000001,177.0,15.416,0.8602000000000001,0.35359999999999997,23.0,30.659999999999997,150.0,0.0,0.0,0.0,0.0
27,1/2/2012 3:00,11.0,16.6026,2.66,11.0,4.4876000000000005,2.1574,157.6,14.069999999999999,0.0,0.0,0.0,0.0
28,1/2/2012 4:00,0.31679999999999997,172.0086,9.21,0.31679999999999997,12.599599999999999,22.351399999999998,43.6,145.77,0.0,0.0,0.0,0.0
29,1/2/2012 5:00,0.0957,175.584,2.09,0.0957,21.866,22.816,164.3,148.8,0.0,0.0,0.0,0.0
30,1/2/2012 6:00,10.2135,110.094,0.0,10.2135,12.3578,14.306,44.940000000000005,93.3,0.0,0.0,0.0,0.0
31,1/2/2012 7:00,0.0836,0.0,0.6859999999999999,0.0836,16.6634,0.0,36.480000000000004,0.0,0.0,0.0,0.0,0.0
32,1/2/2012 8:00,0.0,0.0,1.1199999999999999,0.0,15.186599999999999,0.0,27.339999999999996,0.0,0.0,0.0,0.0,0.0
33,1/2/2012 9:00,8.063,169.5129,19.064,8.063,0.897,22.0271,141.01999999999998,143.655,0.0,0.0,0.0,0.0
34,1/2/2012 10:00,10.9219,177.0,0.44000000000000006,10.9219,2.9224,23.0,0.0,150.0,0.54461085,0.54461085,0.54461085,0.54461085
35,1/2/2012 11:00,0.4565,158.0964,0.9339999999999999,0.4565,13.1612,20.5436,5.42,133.98,0.9683191599999998,0.9683191599999998,0.9683191599999998,0.9683191599999998
36,1/2/2012 12:00,10.7371,30.621000000000002,0.0,10.7371,8.9362,3.9790000000000005,9.92,25.950000000000003,1.5513956800000002,1.5513956800000002,1.5513956800000002,1.5513956800000002
37,1/2/2012 13:00,10.9186,177.0,6.482,10.9186,4.069,23.0,5.46,150.0,2.93965745,2.93965745,2.93965745,2.93965745
38,1/2/2012 14:00,9.119000000000002,0.0,0.0,9.119000000000002,5.9072000000000005,0.0,2.6599999999999997,0.0,1.9038306600000001,1.9038306600000001,1.9038306600000001,1.9038306600000001
39,1/2/2012 15:00,10.7129,172.929,11.155999999999999,10.7129,0.0,22.471,57.04,146.54999999999998,2.1680982600000003,2.1680982600000003,2.1680982600000003,2.1680982600000003
40,1/2/2012 16:00,10.8416,104.076,0.692,10.8416,12.7816,13.524,102.98,88.19999999999999,1.41053827,1.41053827,1.41053827,1.41053827
41,1/2/2012 17:00,11.0,15.717600000000001,0.16,11.0,11.661,2.0424,16.02,13.32,0.0,0.0,0.0,0.0
42,1/2/2012 18:00,11.0,38.2497,10.972,11.0,12.5554,4.9703,28.12,32.415,0.0,0.0,0.0,0.0
43,1/2/2012 19:00,0.1925,1.4337,0.0,0.1925,17.9296,0.1863,4.36,1.2149999999999999,0.0,0.0,0.0,0.0
44,1/2/2012 20:00,0.7964000000000001,122.8026,0.0,0.7964000000000001,1.0426,15.9574,2.94,104.07,0.0,0.0,0.0,0.0
45,1/2/2012 21:00,4.5969,0.0,20.0,4.5969,25.3214,0.0,20.78,0.0,0.0,0.0,0.0,0.0
46,1/2/2012 22:00,0.3553,6.9738,0.474,0.3553,0.3874,0.9061999999999999,11.24,5.909999999999999,0.0,0.0,0.0,0.0
47,1/2/2012 23:00,0.3399,146.98080000000002,0.35200000000000004,0.3399,25.0198,19.0992,11.76,124.56,0.0,0.0,0.0,0.0
48,1/3/2012 0:00,10.0496,6.2481,0.0,10.0496,21.738599999999998,0.8119,130.38,5.295,0.0,0.0,0.0,0.0
49,1/3/2012 1:00,10.2234,73.49040000000001,17.696,10.2234,17.0898,9.5496,8.64,62.28,0.0,0.0,0.0,0.0
50,1/3/2012 2:00,1.0648,0.0,17.526,1.0648,1.5366,0.0,2.96,0.0,0.0,0.0,0.0,0.0
51,1/3/2012 3:00,0.6357999999999999,168.5394,0.0,0.6357999999999999,3.6894,21.9006,136.46,142.83,0.0,0.0,0.0,0.0
52,1/3/2012 4:00,1.2958,4.425,0.0,1.2958,0.0,0.5750000000000001,1.8599999999999999,3.75,0.0,0.0,0.0,0.0
53,1/3/2012 5:00,1.2650000000000001,87.96900000000001,0.256,1.2650000000000001,3.9052,11.431000000000001,4.12,74.55000000000001,0.0,0.0,0.0,0.0
54,1/3/2012 6:00,9.608500000000001,6.1773,8.994,9.608500000000001,0.0,0.8027,10.780000000000001,5.235,0.0,0.0,0.0,0.0
55,1/3/2012 7:00,0.0,168.71640000000002,19.826,0.0,1.3077999999999999,21.9236,139.28,142.98000000000002,0.0,0.0,0.0,0.0
56,1/3/2012 8:00,0.8107,171.3891,0.742,0.8107,13.722800000000001,22.2709,0.0,145.245,0.0,0.0,0.0,0.0
57,1/3/2012 9:00,7.7890999999999995,126.46650000000001,1.456,7.7890999999999995,19.123,16.433500000000002,134.42000000000002,107.175,0.0,0.0,0.0,0.0
58,1/3/2012 10:00,0.3278,25.5057,0.9520000000000001,0.3278,10.7328,3.3143000000000002,0.0,21.615000000000002,2.09762862,2.09762862,2.09762862,2.09762862
59,1/3/2012 11:00,10.8658,177.0,11.82,10.8658,15.977,23.0,40.86,150.0,2.32364805,2.32364805,2.32364805,2.32364805
60,1/3/2012 12:00,9.7548,27.859800000000003,0.228,9.7548,12.5216,3.6202,156.36,23.610000000000003,3.0691339600000003,3.0691339600000003,3.0691339600000003,3.0691339600000003
61,1/3/2012 13:00,7.4272,19.328400000000002,7.098,7.4272,0.8216000000000001,2.5116,3.1399999999999997,16.380000000000003,3.5611615299999997,3.5611615299999997,3.5611615299999997,3.5611615299999997
62,1/3/2012 14:00,2.2649,19.9833,1.302,2.2649,21.788,2.5967000000000002,3.38,16.935,3.6528707299999996,3.6528707299999996,3.6528707299999996,3.6528707299999996
63,1/3/2012 15:00,6.0093,21.3462,16.51,6.0093,1.17,2.7738,150.96,18.09,3.31059389,3.31059389,3.31059389,3.31059389
64,1/3/2012 16:00,10.8691,116.4483,16.838,10.8691,10.189400000000001,15.1317,5.140000000000001,98.685,1.96664555,1.96664555,1.96664555,1.96664555
65,1/3/2012 17:00,10.1717,21.7002,0.358,10.1717,25.0276,2.8198,48.66,18.39,0.0,0.0,0.0,0.0
66,1/3/2012 18:00,0.9031,26.019,4.532,0.9031,0.0,3.381,5.2,22.049999999999997,0.0,0.0,0.0,0.0
67,1/3/2012 19:00,1.0703,122.34240000000001,0.54,1.0703,0.0,15.8976,42.4,103.68,0.0,0.0,0.0,0.0
68,1/3/2012 20:00,11.0,143.29919999999998,0.47,11.0,7.085000000000001,18.6208,13.719999999999999,121.44,0.0,0.0,0.0,0.0
69,1/3/2012 21:00,2.3551,0.0,13.014,2.3551,1.0764,0.0,11.28,0.0,0.0,0.0,0.0,0.0
70,1/3/2012 22:00,10.3202,27.275699999999997,0.0,10.3202,0.0,3.5443,80.96,23.115,0.0,0.0,0.0,0.0
71,1/3/2012 23:00,11.0,3.7878,12.283999999999999,11.0,15.0332,0.49219999999999997,5.06,3.21,0.0,0.0,0.0,0.0
72,1/4/2012 0:00,0.0,14.9742,18.778,0.0,14.0764,1.9458,49.4,12.69,0.0,0.0,0.0,0.0
73,1/4/2012 1:00,10.7767,177.0,0.0,10.7767,23.517,23.0,3.52,150.0,0.0,0.0,0.0,0.0
74,1/4/2012 2:00,9.264199999999999,4.425,17.774,9.264199999999999,0.8684,0.5750000000000001,32.58,3.75,0.0,0.0,0.0,0.0
75,1/4/2012 3:00,9.3885,65.313,0.0,9.3885,24.3542,8.487,1.92,55.35,0.0,0.0,0.0,0.0
76,1/4/2012 4:00,0.0,0.0,17.296,0.0,25.22,0.0,0.0,0.0,0.0,0.0,0.0,0.0
77,1/4/2012 5:00,7.047700000000001,153.21120000000002,6.032,7.047700000000001,0.0,19.9088,4.06,129.84,0.0,0.0,0.0,0.0
78,1/4/2012 6:00,5.1007,6.0534,14.134,5.1007,1.8382,0.7866000000000001,131.9,5.13,0.0,0.0,0.0,0.0
79,1/4/2012 7:00,10.813,81.1368,3.0620000000000003,10.813,5.420999999999999,10.543199999999999,39.48,68.75999999999999,0.0,0.0,0.0,0.0
80,1/4/2012 8:00,10.618300000000001,87.0309,0.0,10.618300000000001,10.3948,11.3091,12.520000000000001,73.75500000000001,0.0,0.0,0.0,0.0
81,1/4/2012 9:00,10.3114,140.90970000000002,19.650000000000002,10.3114,0.2704,18.3103,101.82,119.415,0.0,0.0,0.0,0.0
82,1/4/2012 10:00,0.9064,3.0621,0.0,0.9064,0.3068,0.3979,16.06,2.5949999999999998,2.45938869,2.45938869,2.45938869,2.45938869
83,1/4/2012 11:00,1.6137,92.5887,8.378,1.6137,22.258599999999998,12.0313,13.38,78.465,2.42669286,2.42669286,2.42669286,2.42669286
84,1/4/2012 12:00,6.9058,6.796799999999999,0.264,6.9058,2.8704,0.8831999999999999,22.12,5.76,3.0824940400000003,3.0824940400000003,3.0824940400000003,3.0824940400000003
85,1/4/2012 13:00,10.9175,46.5687,0.0,10.9175,0.0,6.0513,14.580000000000002,39.465,3.46828275,3.46828275,3.46828275,3.46828275
86,1/4/2012 14:00,5.2074,10.7616,0.8140000000000001,5.2074,5.6004000000000005,1.3984,25.64,9.12,3.5424803299999996,3.5424803299999996,3.5424803299999996,3.5424803299999996
87,1/4/2012 15:00,10.2795,5.0622,12.488,10.2795,3.6633999999999998,0.6578,11.4,4.29,3.22371988,3.22371988,3.22371988,3.22371988
88,1/4/2012 16:00,0.8217,50.887499999999996,7.032,0.8217,2.5766,6.6125,165.28,43.125,2.09810035,2.09810035,2.09810035,2.09810035
89,1/4/2012 17:00,9.4116,57.9498,0.0,9.4116,0.4862,7.530200000000001,76.74,49.11000000000001,0.0,0.0,0.0,0.0
90,1/4/2012 18:00,10.758,5.3277,17.698,10.758,25.2954,0.6922999999999999,65.5,4.515,0.0,0.0,0.0,0.0
91,1/4/2012 19:00,10.2487,0.0,12.270000000000001,10.2487,0.0,0.0,180.8,0.0,0.0,0.0,0.0,0.0
92,1/4/2012 20:00,10.8944,3.9117,0.0,10.8944,5.109,0.5083000000000001,53.26,3.3150000000000004,0.0,0.0,0.0,0.0
93,1/4/2012 21:00,5.1678,40.9047,0.0,5.1678,3.4736,5.3153,182.04,34.665,0.0,0.0,0.0,0.0
94,1/4/2012 22:00,10.7129,0.0,1.158,10.7129,15.0436,0.0,55.2,0.0,0.0,0.0,0.0,0.0
95,1/4/2012 23:00,10.7998,13.8945,4.292,10.7998,2.2256,1.8055,35.18,11.775,0.0,0.0,0.0,0.0
96,1/5/2012 0:00,8.286299999999999,0.0,3.566,8.286299999999999,16.6296,0.0,127.2,0.0,0.0,0.0,0.0,0.0
97,1/5/2012 1:00,0.6886,57.2595,4.064,0.6886,1.1102,7.4405,9.64,48.525,0.0,0.0,0.0,0.0
98,1/5/2012 2:00,0.6655,175.7079,0.38399999999999995,0.6655,2.6546,22.8321,2.7,148.905,0.0,0.0,0.0,0.0
99,1/5/2012 3:00,8.6889,154.4502,0.0,8.6889,21.4604,20.0698,0.0,130.89000000000001,0.0,0.0,0.0,0.0
100,1/5/2012 4:00,7.275399999999999,32.3202,0.304,7.275399999999999,7.1370000000000005,4.199800000000001,18.759999999999998,27.39,0.0,0.0,0.0,0.0
101,1/5/2012 5:00,8.4194,1.6107,20.0,8.4194,2.7403999999999997,0.2093,7.24,1.365,0.0,0.0,0.0,0.0
102,1/5/2012 6:00,0.12100000000000001,7.434,6.0360000000000005,0.12100000000000001,1.8070000000000002,0.9660000000000001,87.83999999999999,6.300000000000001,0.0,0.0,0.0,0.0
103,1/5/2012 7:00,3.6256,3.7347,6.562,3.6256,0.5095999999999999,0.4853,0.0,3.165,0.0,0.0,0.0,0.0
104,1/5/2012 8:00,6.1918999999999995,162.4329,15.202,6.1918999999999995,1.5548,21.1071,54.1,137.655,0.0,0.0,0.0,0.0
105,1/5/2012 9:00,6.4437999999999995,172.4865,16.366,6.4437999999999995,9.796800000000001,22.4135,1.8800000000000001,146.175,0.0,0.0,0.0,0.0
106,1/5/2012 10:00,9.8043,171.8493,0.0,9.8043,0.0,22.3307,129.54000000000002,145.635,2.3551395600000005,2.3551395600000005,2.3551395600000005,2.3551395600000005
107,1/5/2012 11:00,11.0,159.1407,6.566,11.0,0.28600000000000003,20.6793,189.4,134.865,2.42679936,2.42679936,2.42679936,2.42679936
108,1/5/2012 12:00,1.3486,9.593399999999999,0.0,1.3486,2.3634,1.2466,28.02,8.129999999999999,3.0626935100000003,3.0626935100000003,3.0626935100000003,3.0626935100000003
109,1/5/2012 13:00,9.2103,4.8852,0.0,9.2103,0.0,0.6348,16.6,4.14,3.4462984600000004,3.4462984600000004,3.4462984600000004,3.4462984600000004
110,1/5/2012 14:00,11.0,2.9028,3.274,11.0,2.2984,0.37720000000000004,159.35999999999999,2.4600000000000004,3.52404602,3.52404602,3.52404602,3.52404602
111,1/5/2012 15:00,3.2197,56.073600000000006,0.342,3.2197,3.224,7.2864,36.64,47.52,3.2117723600000003,3.2117723600000003,3.2117723600000003,3.2117723600000003
112,1/5/2012 16:00,2.0339,133.6881,0.332,2.0339,1.1726,17.3719,154.76000000000002,113.295,2.1761796600000003,2.1761796600000003,2.1761796600000003,2.1761796600000003
113,1/5/2012 17:00,10.825099999999999,112.7667,0.0,10.825099999999999,26.0,14.6533,5.46,95.565,0.0,0.0,0.0,0.0
114,1/5/2012 18:00,7.8045,150.45,0.29000000000000004,7.8045,26.0,19.55,171.38,127.5,0.0,0.0,0.0,0.0
115,1/5/2012 19:00,10.7701,131.7057,1.066,10.7701,1.7134,17.1143,170.01999999999998,111.615,0.0,0.0,0.0,0.0
116,1/5/2012 20:00,11.0,45.8784,6.6979999999999995,11.0,0.5174000000000001,5.9616,73.58,38.879999999999995,0.0,0.0,0.0,0.0
117,1/5/2012 21:00,10.9076,28.8156,7.578,10.9076,22.7292,3.7444,75.2,24.42,0.0,0.0,0.0,0.0
118,1/5/2012 22:00,8.963899999999999,49.135200000000005,0.374,8.963899999999999,1.0712,6.3848,0.0,41.64,0.0,0.0,0.0,0.0
119,1/5/2012 23:00,1.3288,68.6052,0.0,1.3288,0.0,8.9148,29.020000000000003,58.14,0.0,0.0,0.0,0.0
120,1/6/2012 0:00,10.3939,14.1423,0.16,10.3939,19.1906,1.8377,34.660000000000004,11.985,0.0,0.0,0.0,0.0
121,1/6/2012 1:00,8.8363,10.6377,0.42200000000000004,8.8363,16.9806,1.3823,159.2,9.015,0.0,0.0,0.0,0.0
122,1/6/2012 2:00,10.3928,72.10979999999999,13.347999999999999,10.3928,5.6992,9.3702,137.62,61.11,0.0,0.0,0.0,0.0
123,1/6/2012 3:00,11.0,140.9274,4.212,11.0,0.6812,18.3126,71.1,119.43,0.0,0.0,0.0,0.0
124,1/6/2012 4:00,0.7116999999999999,140.8389,0.344,0.7116999999999999,0.5122,18.301099999999998,81.46,119.35499999999999,0.0,0.0,0.0,0.0
125,1/6/2012 5:00,1.7215,0.0,1.738,1.7215,0.3666,0.0,59.0,0.0,0.0,0.0,0.0,0.0
126,1/6/2012 6:00,2.6884,177.0,2.014,2.6884,9.586200000000002,23.0,35.32,150.0,0.0,0.0,0.0,0.0
127,1/6/2012 7:00,2.9128,126.78510000000001,8.424,2.9128,2.379,16.4749,0.0,107.44500000000001,0.0,0.0,0.0,0.0
128,1/6/2012 8:00,2.8688,3.1329000000000002,16.388,2.8688,2.0644,0.4071,20.06,2.6550000000000002,0.0,0.0,0.0,0.0
129,1/6/2012 9:00,11.0,152.5032,18.5,11.0,23.0308,19.8168,112.55999999999999,129.24,0.0,0.0,0.0,0.0
130,1/6/2012 10:00,11.0,52.5159,6.932,11.0,2.9172,6.8241000000000005,160.54,44.505,2.16937714,2.16937714,2.16937714,2.16937714
131,1/6/2012 11:00,11.0,9.5226,1.7600000000000002,11.0,22.032400000000003,1.2374,55.059999999999995,8.07,2.36039727,2.36039727,2.36039727,2.36039727
132,1/6/2012 12:00,10.551200000000001,2.5665,16.988,10.551200000000001,14.092,0.3335,42.86,2.1750000000000003,3.00023064,3.00023064,3.00023064,3.00023064
133,1/6/2012 13:00,10.740400000000001,47.931599999999996,17.076,10.740400000000001,24.2736,6.2284,188.02,40.62,3.36494458,3.36494458,3.36494458,3.36494458
134,1/6/2012 14:00,11.0,167.9553,2.5679999999999996,11.0,3.4164,21.8247,54.66,142.335,1.39729348,1.39729348,1.39729348,1.39729348
135,1/6/2012 15:00,10.363100000000001,84.34049999999999,0.516,10.363100000000001,3.8792,10.9595,8.959999999999999,71.475,0.9096079499999999,0.9096079499999999,0.9096079499999999,0.9096079499999999
136,1/6/2012 16:00,11.0,18.1779,0.214,11.0,13.7592,2.3621,119.39999999999999,15.405,0.3119361,0.3119361,0.3119361,0.3119361
137,1/6/2012 17:00,5.0116,165.495,0.618,5.0116,3.4138,21.505000000000003,3.46,140.25,0.0,0.0,0.0,0.0
138,1/6/2012 18:00,1.7027999999999999,165.495,0.45199999999999996,1.7027999999999999,6.3856,21.505000000000003,144.57999999999998,140.25,0.0,0.0,0.0,0.0
139,1/6/2012 19:00,10.9076,163.0878,18.55,10.9076,14.744600000000002,21.1922,38.96,138.21,0.0,0.0,0.0,0.0
140,1/6/2012 20:00,0.8844,2.0532,0.962,0.8844,1.443,0.2668,2.98,1.7399999999999998,0.0,0.0,0.0,0.0
141,1/6/2012 21:00,0.0,173.1414,5.454,0.0,0.2366,22.4986,81.86,146.73,0.0,0.0,0.0,0.0
142,1/6/2012 22:00,3.3560999999999996,13.806,18.762,3.3560999999999996,2.9614000000000003,1.794,6.22,11.7,0.0,0.0,0.0,0.0
143,1/6/2012 23:00,1.1374,177.0,5.284,1.1374,5.8915999999999995,23.0,2.82,150.0,0.0,0.0,0.0,0.0
144,1/7/2012 0:00,8.2126,18.0009,10.001999999999999,8.2126,9.4692,2.3391,81.92,15.254999999999999,0.0,0.0,0.0,0.0
145,1/7/2012 1:00,2.6763,33.276,4.57,2.6763,0.0,4.324,193.66,28.2,0.0,0.0,0.0,0.0
146,1/7/2012 2:00,1.8369999999999997,173.0706,0.42999999999999994,1.8369999999999997,0.3874,22.4894,0.0,146.67,0.0,0.0,0.0,0.0
147,1/7/2012 3:00,1.1957,170.68110000000001,0.6320000000000001,1.1957,0.3874,22.178900000000002,200.0,144.645,0.0,0.0,0.0,0.0
148,1/7/2012 4:00,2.0878,167.4066,19.380000000000003,2.0878,0.20020000000000002,21.7534,2.22,141.87,0.0,0.0,0.0,0.0
149,1/7/2012 5:00,10.8262,174.2742,0.416,10.8262,1.9578000000000002,22.6458,192.83999999999997,147.69,0.0,0.0,0.0,0.0
150,1/7/2012 6:00,1.0571000000000002,29.5413,1.474,1.0571000000000002,0.6552,3.8387,191.1,25.035,0.0,0.0,0.0,0.0
151,1/7/2012 7:00,10.8372,123.36900000000001,0.366,10.8372,3.9936,16.031000000000002,151.96,104.55000000000001,0.0,0.0,0.0,0.0
152,1/7/2012 8:00,4.0424999999999995,144.0426,1.996,4.0424999999999995,7.7012,18.717399999999998,0.0,122.07,0.0,0.0,0.0,0.0
153,1/7/2012 9:00,0.47409999999999997,173.0883,0.248,0.47409999999999997,11.453,22.4917,0.0,146.685,0.0,0.0,0.0,0.0
154,1/7/2012 10:00,11.0,138.5556,0.516,11.0,13.0312,18.0044,26.46,117.42,1.5733892900000002,1.5733892900000002,1.5733892900000002,1.5733892900000002
155,1/7/2012 11:00,11.0,170.5749,17.368,11.0,0.377,22.1651,30.56,144.555,1.74766092,1.74766092,1.74766092,1.74766092
156,1/7/2012 12:00,10.8042,163.8312,6.7940000000000005,10.8042,3.6452,21.2888,9.1,138.84,2.60629565,2.60629565,2.60629565,2.60629565
157,1/7/2012 13:00,10.8229,80.9421,2.212,10.8229,23.441599999999998,10.5179,0.0,68.595,3.3095181499999997,3.3095181499999997,3.3095181499999997,3.3095181499999997
158,1/7/2012 14:00,0.0,174.75209999999998,1.6680000000000001,0.0,2.834,22.7079,25.979999999999997,148.095,3.2560255500000004,3.2560255500000004,3.2560255500000004,3.2560255500000004
159,1/7/2012 15:00,7.4986999999999995,173.1414,7.606000000000001,7.4986999999999995,1.7368,22.4986,180.56,146.73,2.9311732499999996,2.9311732499999996,2.9311732499999996,2.9311732499999996
160,1/7/2012 16:00,8.4403,16.5672,18.198,8.4403,13.780000000000001,2.1528,5.24,14.040000000000001,1.98511668,1.98511668,1.98511668,1.98511668
161,1/7/2012 17:00,8.4678,84.3759,0.8240000000000001,8.4678,24.4608,10.9641,159.84,71.505,0.0,0.0,0.0,0.0
162,1/7/2012 18:00,9.807599999999999,167.5659,2.014,9.807599999999999,23.6236,21.7741,105.3,142.005,0.0,0.0,0.0,0.0
163,1/7/2012 19:00,10.2938,141.8124,12.762,10.2938,18.4496,18.4276,200.0,120.18,0.0,0.0,0.0,0.0
164,1/7/2012 20:00,10.7591,4.230300000000001,1.6420000000000001,10.7591,10.1946,0.5497000000000001,190.7,3.585,0.0,0.0,0.0,0.0
165,1/7/2012 21:00,10.886700000000001,126.46650000000001,1.056,10.886700000000001,7.976800000000001,16.433500000000002,35.02,107.175,0.0,0.0,0.0,0.0
166,1/7/2012 22:00,11.0,2.124,6.1739999999999995,11.0,18.317,0.276,170.5,1.8,0.0,0.0,0.0,0.0
167,1/7/2012 23:00,0.0,7.9296,0.32399999999999995,0.0,20.6024,1.0304,41.42,6.72,0.0,0.0,0.0,0.0
168,1/8/2012 0:00,1.2661,124.3071,0.0,1.2661,16.288999999999998,16.152900000000002,2.6,105.345,0.0,0.0,0.0,0.0
169,1/8/2012 1:00,11.0,177.0,18.774,11.0,7.3398,23.0,177.5,150.0,0.0,0.0,0.0,0.0
170,1/8/2012 2:00,11.0,14.9565,0.0,11.0,0.3068,1.9435000000000002,52.059999999999995,12.675,0.0,0.0,0.0,0.0
171,1/8/2012 3:00,0.1397,6.2127,0.0,0.1397,23.784799999999997,0.8073,50.8,5.265,0.0,0.0,0.0,0.0
172,1/8/2012 4:00,0.0847,1.9470000000000003,6.088,0.0847,15.0592,0.253,44.76,1.6500000000000001,0.0,0.0,0.0,0.0
173,1/8/2012 5:00,11.0,36.9576,0.0,11.0,21.2212,4.8024000000000004,52.64,31.32,0.0,0.0,0.0,0.0
174,1/8/2012 6:00,0.7678,11.204099999999999,18.922,0.7678,1.196,1.4559,36.4,9.495,0.0,0.0,0.0,0.0
175,1/8/2012 7:00,0.5258,167.2827,11.776,0.5258,16.741400000000002,21.7373,2.58,141.76500000000001,0.0,0.0,0.0,0.0
176,1/8/2012 8:00,10.3653,65.9502,19.668,10.3653,18.3326,8.569799999999999,40.86,55.89,0.0,0.0,0.0,0.0
177,1/8/2012 9:00,6.168799999999999,17.8593,0.0,6.168799999999999,4.3628,2.3207,200.0,15.135,0.029242120000000003,0.029242120000000003,0.029242120000000003,0.029242120000000003
178,1/8/2012 10:00,0.0,153.37050000000002,0.618,0.0,9.5212,19.9295,12.879999999999999,129.975,0.30591805,0.30591805,0.30591805,0.30591805
179,1/8/2012 11:00,0.0,1.6461,0.436,0.0,2.899,0.21389999999999998,0.0,1.3949999999999998,1.15034028,1.15034028,1.15034028,1.15034028
180,1/8/2012 12:00,10.9175,161.4771,20.0,10.9175,13.168999999999999,20.9829,0.0,136.845,1.8643074800000001,1.8643074800000001,1.8643074800000001,1.8643074800000001
181,1/8/2012 13:00,11.0,177.0,7.99,11.0,10.7848,23.0,168.64,150.0,2.8255356999999997,2.8255356999999997,2.8255356999999997,2.8255356999999997
182,1/8/2012 14:00,0.1485,62.1978,0.0,0.1485,0.5044,8.0822,0.0,52.71,2.05869721,2.05869721,2.05869721,2.05869721
183,1/8/2012 15:00,8.596499999999999,65.52539999999999,16.284,8.596499999999999,9.0298,8.5146,120.7,55.529999999999994,3.03219597,3.03219597,3.03219597,3.03219597
184,1/8/2012 16:00,11.0,38.4267,19.456,11.0,3.7232,4.9933,82.26,32.565,2.2204100899999997,2.2204100899999997,2.2204100899999997,2.2204100899999997
185,1/8/2012 17:00,0.7623,23.0454,20.0,0.7623,1.4508,2.9946,14.38,19.53,0.0,0.0,0.0,0.0
186,1/8/2012 18:00,0.946,3.5753999999999997,3.628,0.946,0.8762,0.46459999999999996,191.96,3.03,0.0,0.0,0.0,0.0
187,1/8/2012 19:00,5.2767,172.6989,19.57,5.2767,0.7046,22.4411,4.52,146.355,0.0,0.0,0.0,0.0
188,1/8/2012 20:00,8.0322,14.213099999999999,0.0,8.0322,0.5564,1.8469,200.0,12.045,0.0,0.0,0.0,0.0
189,1/8/2012 21:00,3.9644,0.0,0.256,3.9644,7.477600000000001,0.0,3.7800000000000002,0.0,0.0,0.0,0.0,0.0
190,1/8/2012 22:00,2.3529,173.6547,2.2159999999999997,2.3529,5.8968,22.5653,3.02,147.165,0.0,0.0,0.0,0.0
191,1/8/2012 23:00,11.0,174.09720000000002,3.514,11.0,11.6662,22.6228,198.56,147.54,0.0,0.0,0.0,0.0
192,1/9/2012 0:00,8.3072,174.6636,2.938,8.3072,17.1496,22.6964,153.54000000000002,148.02,0.0,0.0,0.0,0.0
193,1/9/2012 1:00,8.9375,175.6902,1.534,8.9375,20.787,22.829800000000002,87.02,148.89000000000001,0.0,0.0,0.0,0.0
194,1/9/2012 2:00,2.2396000000000003,177.0,0.16,2.2396000000000003,3.9702,23.0,20.68,150.0,0.0,0.0,0.0,0.0
195,1/9/2012 3:00,1.8876,177.0,17.05,1.8876,8.3746,23.0,3.9600000000000004,150.0,0.0,0.0,0.0,0.0
196,1/9/2012 4:00,11.0,145.1223,1.794,11.0,5.0362,18.857699999999998,43.120000000000005,122.985,0.0,0.0,0.0,0.0
197,1/9/2012 5:00,11.0,93.04889999999999,2.764,11.0,0.7462,12.091099999999999,170.01999999999998,78.85499999999999,0.0,0.0,0.0,0.0
198,1/9/2012 6:00,8.5635,133.4934,12.258,8.5635,23.7484,17.3466,189.28,113.13,0.0,0.0,0.0,0.0
199,1/9/2012 7:00,10.7074,124.96199999999999,15.556000000000001,10.7074,23.9876,16.238,196.54,105.89999999999999,0.0,0.0,0.0,0.0
200,1/9/2012 8:00,10.681,17.009700000000002,8.974,10.681,20.0226,2.2103,196.96,14.415000000000001,0.0,0.0,0.0,0.0
201,1/9/2012 9:00,10.6601,15.487499999999999,10.386,10.6601,3.1278,2.0124999999999997,0.0,13.125,0.42059155000000004,0.42059155000000004,0.42059155000000004,0.42059155000000004
202,1/9/2012 10:00,0.7348,6.7437000000000005,9.986,0.7348,25.641199999999998,0.8763000000000001,113.7,5.715,2.2301155,2.2301155,2.2301155,2.2301155
203,1/9/2012 11:00,9.3302,12.9741,2.098,9.3302,3.8064,1.6859000000000002,99.58,10.995000000000001,3.09874075,3.09874075,3.09874075,3.09874075
204,1/9/2012 12:00,3.3825,4.1595,15.374,3.3825,3.5073999999999996,0.5405,25.22,3.525,3.25127089,3.25127089,3.25127089,3.25127089
205,1/9/2012 13:00,9.581,55.047,0.862,9.581,10.828999999999999,7.153,167.96,46.65,3.67366862,3.67366862,3.67366862,3.67366862
206,1/9/2012 14:00,6.9124,0.0,0.634,6.9124,13.480999999999998,0.0,13.059999999999999,0.0,3.6138800200000003,3.6138800200000003,3.6138800200000003,3.6138800200000003
207,1/9/2012 15:00,2.6510000000000002,153.6714,1.4380000000000002,2.6510000000000002,2.522,19.9686,154.32,130.23,3.54980956,3.54980956,3.54980956,3.54980956
208,1/9/2012 16:00,5.5539000000000005,78.8358,2.1479999999999997,5.5539000000000005,17.1106,10.244200000000001,0.0,66.81,2.16344344,2.16344344,2.16344344,2.16344344
209,1/9/2012 17:00,11.0,160.3797,0.0,11.0,1.6276000000000002,20.8403,76.6,135.915,0.0,0.0,0.0,0.0
210,1/9/2012 18:00,8.6713,0.0,19.392,8.6713,12.9376,0.0,12.82,0.0,0.0,0.0,0.0,0.0
211,1/9/2012 19:00,9.459999999999999,148.55610000000001,19.254,9.459999999999999,5.3482,19.303900000000002,17.78,125.89500000000001,0.0,0.0,0.0,0.0
212,1/9/2012 20:00,9.951699999999999,0.0,19.680000000000003,9.951699999999999,11.387999999999998,0.0,47.86,0.0,0.0,0.0,0.0,0.0
213,1/9/2012 21:00,0.8844,85.8096,20.0,0.8844,1.9786000000000001,11.1504,50.5,72.72,0.0,0.0,0.0,0.0
214,1/9/2012 22:00,0.1067,0.0,0.18000000000000002,0.1067,3.8739999999999997,0.0,20.82,0.0,0.0,0.0,0.0,0.0
215,1/9/2012 23:00,0.6732,16.2132,0.0,0.6732,5.397600000000001,2.1068000000000002,7.180000000000001,13.74,0.0,0.0,0.0,0.0
216,1/10/2012 0:00,10.2993,0.0,19.838,10.2993,23.517,0.0,0.0,0.0,0.0,0.0,0.0,0.0
217,1/10/2012 1:00,0.8623999999999999,173.9202,20.0,0.8623999999999999,18.842200000000002,22.599800000000002,0.0,147.39000000000001,0.0,0.0,0.0,0.0
218,1/10/2012 2:00,11.0,65.5962,0.172,11.0,5.2988,8.5238,2.64,55.589999999999996,0.0,0.0,0.0,0.0
219,1/10/2012 3:00,8.6735,16.921200000000002,20.0,8.6735,3.9078,2.1988000000000003,15.36,14.34,0.0,0.0,0.0,0.0
220,1/10/2012 4:00,9.971499999999999,174.6636,4.75,9.971499999999999,2.5194,22.6964,5.76,148.02,0.0,0.0,0.0,0.0
221,1/10/2012 5:00,11.0,15.5229,20.0,11.0,3.2188,2.0171,81.82000000000001,13.155,0.0,0.0,0.0,0.0
222,1/10/2012 6:00,2.8754000000000004,13.7175,15.274000000000001,2.8754000000000004,5.1298,1.7825,135.06,11.625,0.0,0.0,0.0,0.0
223,1/10/2012 7:00,3.3230999999999997,0.0,15.584,3.3230999999999997,7.0122,0.0,197.18,0.0,0.0,0.0,0.0,0.0
224,1/10/2012 8:00,9.9341,0.0,15.549999999999999,9.9341,3.3592000000000004,0.0,200.0,0.0,0.0,0.0,0.0,0.0
225,1/10/2012 9:00,11.0,107.54520000000001,15.331999999999999,11.0,25.3058,13.9748,200.0,91.14,0.16732976,0.16732976,0.16732976,0.16732976
226,1/10/2012 10:00,11.0,85.845,14.858,11.0,1.0504,11.155,200.0,72.75,0.83853702,0.83853702,0.83853702,0.83853702
227,1/10/2012 11:00,11.0,35.081399999999995,3.09,11.0,0.6629999999999999,4.558599999999999,18.8,29.729999999999997,2.8171829500000003,2.8171829500000003,2.8171829500000003,2.8171829500000003
228,1/10/2012 12:00,11.0,0.0,4.772,11.0,8.84,0.0,5.04,0.0,3.60017462,3.60017462,3.60017462,3.60017462
229,1/10/2012 13:00,5.651800000000001,14.301599999999999,4.994,5.651800000000001,1.5781999999999998,1.8583999999999998,200.0,12.12,4.03524522,4.03524522,4.03524522,4.03524522
230,1/10/2012 14:00,4.6101,109.5453,0.482,4.6101,8.0132,14.2347,3.02,92.83500000000001,4.43710599,4.43710599,4.43710599,4.43710599
231,1/10/2012 15:00,9.8923,89.79209999999999,0.908,9.8923,13.376999999999999,11.6679,2.3800000000000003,76.095,3.84099594,3.84099594,3.84099594,3.84099594
232,1/10/2012 16:00,10.358699999999999,4.5135,1.87,10.358699999999999,1.1752,0.5864999999999999,197.82,3.8249999999999997,2.35598134,2.35598134,2.35598134,2.35598134
233,1/10/2012 17:00,6.6792,2.4957,19.456,6.6792,15.9588,0.3243,195.82,2.1149999999999998,0.0,0.0,0.0,0.0
234,1/10/2012 18:00,10.6744,124.48410000000001,1.024,10.6744,22.7838,16.175900000000002,12.36,105.495,0.0,0.0,0.0,0.0
235,1/10/2012 19:00,8.1609,3.9648,17.24,8.1609,23.5118,0.5152,198.5,3.36,0.0,0.0,0.0,0.0
236,1/10/2012 20:00,0.6138,109.06739999999999,18.004,0.6138,23.0542,14.1726,161.6,92.42999999999999,0.0,0.0,0.0,0.0
237,1/10/2012 21:00,10.9054,149.388,1.6480000000000001,10.9054,0.8735999999999999,19.412000000000003,6.4799999999999995,126.60000000000001,0.0,0.0,0.0,0.0
238,1/10/2012 22:00,0.0,177.0,0.9420000000000001,0.0,0.2808,23.0,30.86,150.0,0.0,0.0,0.0,0.0
239,1/10/2012 23:00,10.882299999999999,14.868,0.878,10.882299999999999,0.0,1.9320000000000002,91.25999999999999,12.600000000000001,0.0,0.0,0.0,0.0
240,1/11/2012 0:00,0.0,88.5354,13.019999999999998,0.0,1.1908,11.5046,157.29999999999998,75.03,0.0,0.0,0.0,0.0
241,1/11/2012 1:00,0.0,71.8443,1.298,0.0,0.0,9.3357,180.46,60.885,0.0,0.0,0.0,0.0
242,1/11/2012 2:00,0.0,17.0274,1.482,0.0,0.0,2.2125999999999997,185.08,14.43,0.0,0.0,0.0,0.0
243,1/11/2012 3:00,3.9468,58.0737,1.5759999999999998,3.9468,4.3056,7.5463000000000005,185.46,49.215,0.0,0.0,0.0,0.0
244,1/11/2012 4:00,5.0215000000000005,44.1969,10.426,5.0215000000000005,2.1814,5.7431,191.8,37.455,0.0,0.0,0.0,0.0
245,1/11/2012 5:00,1.8678000000000001,50.3919,15.158000000000001,1.8678000000000001,10.9954,6.5481,30.64,42.705,0.0,0.0,0.0,0.0
246,1/11/2012 6:00,6.1853,126.8559,1.702,6.1853,11.2528,16.4841,176.32000000000002,107.505,0.0,0.0,0.0,0.0
247,1/11/2012 7:00,4.5045,4.8675,10.018,4.5045,0.9386,0.6325,12.64,4.125,0.0,0.0,0.0,0.0
248,1/11/2012 8:00,0.0,8.7615,0.0,0.0,1.0504,1.1385,29.299999999999997,7.425000000000001,0.0,0.0,0.0,0.0
249,1/11/2012 9:00,7.657100000000001,8.6376,6.462,7.657100000000001,3.7648,1.1224,90.66,7.32,0.50407433,0.50407433,0.50407433,0.50407433
250,1/11/2012 10:00,11.0,12.991800000000001,0.22000000000000003,11.0,22.7058,1.6882000000000001,67.64,11.010000000000002,2.5369454399999998,2.5369454399999998,2.5369454399999998,2.5369454399999998
251,1/11/2012 11:00,0.8667999999999999,109.5984,20.0,0.8667999999999999,11.1462,14.2416,73.04,92.88,3.47416751,3.47416751,3.47416751,3.47416751
252,1/11/2012 12:00,3.1383,24.6915,20.0,3.1383,8.6242,3.2085000000000004,42.5,20.925,3.2806962499999996,3.2806962499999996,3.2806962499999996,3.2806962499999996
253,1/11/2012 13:00,3.6729,25.2756,19.856,3.6729,5.0778,3.2844,47.58,21.42,4.59184087,4.59184087,4.59184087,4.59184087
254,1/11/2012 14:00,0.29919999999999997,174.5751,0.246,0.29919999999999997,15.548,22.6849,32.519999999999996,147.945,4.17351077,4.17351077,4.17351077,4.17351077
255,1/11/2012 15:00,11.0,18.1248,0.386,11.0,25.4176,2.3552,7.32,15.360000000000001,4.03344534,4.03344534,4.03344534,4.03344534
256,1/11/2012 16:00,10.9043,16.992,0.302,10.9043,12.1706,2.208,195.78,14.4,2.30484917,2.30484917,2.30484917,2.30484917
257,1/11/2012 17:00,10.006699999999999,10.5138,19.804,10.006699999999999,8.5696,1.3662,36.720000000000006,8.91,0.0,0.0,0.0,0.0
258,1/11/2012 18:00,10.0826,0.0,20.0,10.0826,11.681799999999999,0.0,20.72,0.0,0.0,0.0,0.0,0.0
259,1/11/2012 19:00,7.5823,174.8937,18.432,7.5823,20.8572,22.7263,3.82,148.215,0.0,0.0,0.0,0.0
260,1/11/2012 20:00,1.1120999999999999,177.0,0.828,1.1120999999999999,0.3042,23.0,188.32,150.0,0.0,0.0,0.0,0.0
261,1/11/2012 21:00,5.5638000000000005,39.3825,15.322,5.5638000000000005,0.0,5.1175,185.26,33.375,0.0,0.0,0.0,0.0
262,1/11/2012 22:00,11.0,58.587,19.402,11.0,0.0,7.613,11.0,49.650000000000006,0.0,0.0,0.0,0.0
263,1/11/2012 23:00,7.0917,72.3753,7.2219999999999995,7.0917,0.0,9.4047,186.6,61.335,0.0,0.0,0.0,0.0
264,1/12/2012 0:00,0.792,78.12780000000001,16.798,0.792,5.860399999999999,10.1522,176.16,66.21000000000001,0.0,0.0,0.0,0.0
265,1/12/2012 1:00,7.9926,168.50400000000002,5.760000000000001,7.9926,1.3884,21.896,147.34,142.8,0.0,0.0,0.0,0.0
266,1/12/2012 2:00,11.0,16.8327,2.372,11.0,24.759800000000002,2.1873,4.88,14.265,0.0,0.0,0.0,0.0
267,1/12/2012 3:00,11.0,70.0566,0.932,11.0,0.0,9.103399999999999,142.26000000000002,59.37,0.0,0.0,0.0,0.0
268,1/12/2012 4:00,9.7042,0.0,0.962,9.7042,1.9240000000000004,0.0,16.7,0.0,0.0,0.0,0.0,0.0
269,1/12/2012 5:00,6.7287,0.0,18.652,6.7287,0.0,0.0,66.56,0.0,0.0,0.0,0.0,0.0
270,1/12/2012 6:00,7.600999999999999,72.16290000000001,4.562,7.600999999999999,3.2422,9.3771,20.979999999999997,61.155,0.0,0.0,0.0,0.0
271,1/12/2012 7:00,10.6898,1.3629,1.862,10.6898,0.6474,0.1771,31.740000000000002,1.155,0.0,0.0,0.0,0.0
272,1/12/2012 8:00,9.5007,64.9767,1.552,9.5007,0.2236,8.443299999999999,190.24,55.065,0.0,0.0,0.0,0.0
273,1/12/2012 9:00,10.8119,67.7202,1.7800000000000002,10.8119,0.65,8.7998,6.02,57.39,0.25054942,0.25054942,0.25054942,0.25054942
274,1/12/2012 10:00,0.1892,177.0,19.221999999999998,0.1892,12.5684,23.0,0.0,150.0,0.8828821,0.8828821,0.8828821,0.8828821
275,1/12/2012 11:00,0.17049999999999998,107.9523,0.708,0.17049999999999998,0.5772,14.0277,0.0,91.485,0.7768966700000001,0.7768966700000001,0.7768966700000001,0.7768966700000001
276,1/12/2012 12:00,11.0,174.1149,5.726,11.0,0.5174000000000001,22.6251,158.18,147.555,3.0548648899999997,3.0548648899999997,3.0548648899999997,3.0548648899999997
277,1/12/2012 13:00,8.47,121.8468,1.9120000000000001,8.47,2.2698,15.8332,171.98,103.26,2.75837191,2.75837191,2.75837191,2.75837191
278,1/12/2012 14:00,8.5745,177.0,7.3660000000000005,8.5745,0.8163999999999999,23.0,0.0,150.0,3.62159393,3.62159393,3.62159393,3.62159393
279,1/12/2012 15:00,0.0781,146.2374,0.0,0.0781,3.419,19.0026,191.74,123.93,3.25527659,3.25527659,3.25527659,3.25527659
280,1/12/2012 16:00,0.0814,132.7323,0.742,0.0814,5.1896,17.247700000000002,169.46,112.485,2.27355754,2.27355754,2.27355754,2.27355754
281,1/12/2012 17:00,0.1276,175.23,0.188,0.1276,25.6958,22.77,5.319999999999999,148.5,0.0,0.0,0.0,0.0
282,1/12/2012 18:00,0.17049999999999998,3.4692,4.046,0.17049999999999998,4.4928,0.4508,5.92,2.94,0.0,0.0,0.0,0.0
283,1/12/2012 19:00,3.7983,37.3647,3.99,3.7983,0.0,4.855300000000001,200.0,31.665000000000003,0.0,0.0,0.0,0.0
284,1/12/2012 20:00,0.0,82.3935,2.32,0.0,10.082799999999999,10.7065,196.98,69.825,0.0,0.0,0.0,0.0
285,1/12/2012 21:00,0.0,8.7969,5.0,0.0,15.537600000000001,1.1431,2.34,7.455,0.0,0.0,0.0,0.0
286,1/12/2012 22:00,0.10559999999999999,4.8144,7.3340000000000005,0.10559999999999999,19.5546,0.6255999999999999,9.08,4.08,0.0,0.0,0.0,0.0
287,1/12/2012 23:00,4.2636,54.4983,6.816,4.2636,0.0,7.0817000000000005,140.74,46.185,0.0,0.0,0.0,0.0
288,1/13/2012 0:00,0.0,146.0427,18.346,0.0,4.601999999999999,18.9773,79.54,123.76499999999999,0.0,0.0,0.0,0.0
289,1/13/2012 1:00,6.6198,135.49349999999998,18.994,6.6198,25.0042,17.6065,75.52,114.82499999999999,0.0,0.0,0.0,0.0
290,1/13/2012 2:00,0.4477,177.0,0.0,0.4477,17.329,23.0,191.9,150.0,0.0,0.0,0.0,0.0
291,1/13/2012 3:00,0.9394,154.7511,19.15,0.9394,23.6756,20.1089,189.72,131.14499999999998,0.0,0.0,0.0,0.0
292,1/13/2012 4:00,1.6324,165.2118,4.57,1.6324,4.4121999999999995,21.4682,44.06,140.01,0.0,0.0,0.0,0.0
293,1/13/2012 5:00,9.119000000000002,14.1069,20.0,9.119000000000002,5.395,1.8331,23.3,11.954999999999998,0.0,0.0,0.0,0.0
294,1/13/2012 6:00,11.0,31.7892,11.828000000000001,11.0,6.019,4.1308,26.419999999999998,26.94,0.0,0.0,0.0,0.0
295,1/13/2012 7:00,10.1684,0.0,0.466,10.1684,16.7388,0.0,197.66,0.0,0.0,0.0,0.0,0.0
296,1/13/2012 8:00,3.355,57.9498,0.5820000000000001,3.355,17.596799999999998,7.530200000000001,116.28,49.11000000000001,0.0,0.0,0.0,0.0
297,1/13/2012 9:00,10.8691,174.5928,0.328,10.8691,11.866399999999999,22.6872,0.0,147.96,0.42160988,0.42160988,0.42160988,0.42160988
298,1/13/2012 10:00,0.7942,174.6813,0.73,0.7942,20.1942,22.6987,23.56,148.035,1.9773112899999998,1.9773112899999998,1.9773112899999998,1.9773112899999998
299,1/13/2012 11:00,9.339,172.3803,0.66,9.339,1.7056000000000002,22.3997,27.639999999999997,146.085,2.36338053,2.36338053,2.36338053,2.36338053
300,1/13/2012 12:00,8.261,165.2118,16.426000000000002,8.261,2.4128,21.4682,29.42,140.01,2.33829558,2.33829558,2.33829558,2.33829558
301,1/13/2012 13:00,10.2828,136.4847,8.156,10.2828,4.7892,17.7353,14.06,115.665,1.95944832,1.95944832,1.95944832,1.95944832
302,1/13/2012 14:00,4.686,169.389,15.08,4.686,1.6146,22.011000000000003,191.44,143.55,1.82708239,1.82708239,1.82708239,1.82708239
303,1/13/2012 15:00,3.4331,20.0895,16.076,3.4331,0.7852,2.6105,17.82,17.025000000000002,1.0215169100000001,1.0215169100000001,1.0215169100000001,1.0215169100000001
304,1/13/2012 16:00,6.200699999999999,68.0034,0.0,6.200699999999999,6.968,8.836599999999999,16.5,57.629999999999995,0.27977786,0.27977786,0.27977786,0.27977786
305,1/13/2012 17:00,0.40149999999999997,57.8967,6.513999999999999,0.40149999999999997,3.367,7.5233,16.86,49.065,0.0,0.0,0.0,0.0
306,1/13/2012 18:00,8.3501,31.116600000000002,6.074000000000001,8.3501,0.0,4.0434,17.4,26.37,0.0,0.0,0.0,0.0
307,1/13/2012 19:00,0.5609999999999999,19.8417,20.0,0.5609999999999999,10.7458,2.5783,96.44,16.815,0.0,0.0,0.0,0.0
308,1/13/2012 20:00,6.2634,169.6191,20.0,6.2634,0.0,22.0409,190.22,143.745,0.0,0.0,0.0,0.0
309,1/13/2012 21:00,0.4829,14.513999999999998,19.680000000000003,0.4829,2.0436,1.8859999999999997,187.48,12.299999999999999,0.0,0.0,0.0,0.0
310,1/13/2012 22:00,1.0186,175.3185,0.0,1.0186,3.3098,22.7815,146.56,148.57500000000002,0.0,0.0,0.0,0.0
311,1/13/2012 23:00,5.3768,1.3098,0.178,5.3768,6.7158,0.17020000000000002,0.0,1.11,0.0,0.0,0.0,0.0
312,1/14/2012 0:00,10.2575,2.301,0.268,10.2575,1.1518,0.29900000000000004,17.02,1.9500000000000002,0.0,0.0,0.0,0.0
313,1/14/2012 1:00,7.7022,3.9471000000000003,19.6,7.7022,1.2272,0.5129,0.0,3.345,0.0,0.0,0.0,0.0
314,1/14/2012 2:00,3.5376,7.9827,3.612,3.5376,1.053,1.0373,1.8800000000000001,6.765000000000001,0.0,0.0,0.0,0.0
315,1/14/2012 3:00,8.6174,8.8677,18.732,8.6174,20.5686,1.1522999999999999,58.84,7.515,0.0,0.0,0.0,0.0
316,1/14/2012 4:00,8.5525,177.0,2.284,8.5525,0.8398000000000001,23.0,170.62,150.0,0.0,0.0,0.0,0.0
317,1/14/2012 5:00,1.3101,134.57309999999998,6.677999999999999,1.3101,2.938,17.4869,86.32,114.045,0.0,0.0,0.0,0.0
318,1/14/2012 6:00,0.12100000000000001,127.2453,19.468,0.12100000000000001,2.9406000000000003,16.5347,38.279999999999994,107.835,0.0,0.0,0.0,0.0
319,1/14/2012 7:00,8.5833,148.9455,1.6179999999999999,8.5833,2.3868,19.3545,134.94,126.22500000000001,0.0,0.0,0.0,0.0
320,1/14/2012 8:00,8.0806,26.196000000000005,0.0,8.0806,1.7524,3.4040000000000004,193.23999999999998,22.200000000000003,0.0,0.0,0.0,0.0
321,1/14/2012 9:00,5.3669,46.9227,8.01,5.3669,1.1258,6.0973,1.46,39.765,0.52739124,0.52739124,0.52739124,0.52739124
322,1/14/2012 10:00,0.1793,32.037000000000006,0.47600000000000003,0.1793,0.6916,4.163,8.98,27.150000000000002,2.22008061,2.22008061,2.22008061,2.22008061
323,1/14/2012 11:00,0.46309999999999996,177.0,1.076,0.46309999999999996,0.4316,23.0,196.36,150.0,2.46740632,2.46740632,2.46740632,2.46740632
324,1/14/2012 12:00,1.0152999999999999,57.2949,2.838,1.0152999999999999,6.9758,7.4451,116.3,48.555,3.24703334,3.24703334,3.24703334,3.24703334
325,1/14/2012 13:00,0.11109999999999999,154.6803,4.938000000000001,0.11109999999999999,5.1012,20.0997,1.78,131.085,3.9334596399999997,3.9334596399999997,3.9334596399999997,3.9334596399999997
326,1/14/2012 14:00,0.0,54.2682,4.208,0.0,3.2682,7.0518,2.2,45.989999999999995,3.95091751,3.95091751,3.95091751,3.95091751
327,1/14/2012 15:00,2.9766,144.7329,0.5439999999999999,2.9766,0.4472,18.8071,5.76,122.655,3.43976648,3.43976648,3.43976648,3.43976648
328,1/14/2012 16:00,8.9694,36.3204,2.028,8.9694,15.862599999999999,4.7196,5.6,30.779999999999998,1.95729574,1.95729574,1.95729574,1.95729574
329,1/14/2012 17:00,0.1639,108.1293,2.8560000000000003,0.1639,3.4943999999999997,14.050699999999999,193.92000000000002,91.635,0.0,0.0,0.0,0.0
330,1/14/2012 18:00,10.0342,4.230300000000001,19.25,10.0342,20.8156,0.5497000000000001,142.74,3.585,0.0,0.0,0.0,0.0
331,1/14/2012 19:00,2.3782,8.85,10.192,2.3782,22.0246,1.1500000000000001,119.26,7.5,0.0,0.0,0.0,0.0
332,1/14/2012 20:00,5.638599999999999,0.0,1.8659999999999999,5.638599999999999,24.037,0.0,9.78,0.0,0.0,0.0,0.0,0.0
333,1/14/2012 21:00,0.1507,155.8485,1.3339999999999999,0.1507,0.6136,20.2515,200.0,132.075,0.0,0.0,0.0,0.0
334,1/14/2012 22:00,0.2464,170.6988,0.75,0.2464,9.9268,22.1812,198.54,144.66,0.0,0.0,0.0,0.0
335,1/14/2012 23:00,10.8735,8.5137,0.0,10.8735,25.5788,1.1062999999999998,0.0,7.215,0.0,0.0,0.0,0.0
336,1/15/2012 0:00,11.0,17.1336,17.826,11.0,19.7938,2.2264,0.0,14.52,0.0,0.0,0.0,0.0
337,1/15/2012 1:00,0.0891,1.4337,19.372,0.0891,19.557199999999998,0.1863,4.24,1.2149999999999999,0.0,0.0,0.0,0.0
338,1/15/2012 2:00,0.1232,0.0,0.8240000000000001,0.1232,26.0,0.0,2.92,0.0,0.0,0.0,0.0,0.0
339,1/15/2012 3:00,0.0,14.9565,17.330000000000002,0.0,20.9586,1.9435000000000002,4.04,12.675,0.0,0.0,0.0,0.0
340,1/15/2012 4:00,8.283,22.585199999999997,1.008,8.283,0.0,2.9347999999999996,4.44,19.139999999999997,0.0,0.0,0.0,0.0
341,1/15/2012 5:00,6.3283000000000005,62.9235,9.98,6.3283000000000005,0.0,8.176499999999999,195.56,53.324999999999996,0.0,0.0,0.0,0.0
342,1/15/2012 6:00,10.559999999999999,29.9307,1.0,10.559999999999999,0.0,3.8893,17.62,25.365,0.0,0.0,0.0,0.0
343,1/15/2012 7:00,9.7592,48.0024,0.702,9.7592,0.0,6.2376,200.0,40.68,0.0,0.0,0.0,0.0
344,1/15/2012 8:00,11.0,72.7824,0.604,11.0,0.3354,9.4576,0.0,61.68,0.0,0.0,0.0,0.0
345,1/15/2012 9:00,6.4053,112.572,0.564,6.4053,0.0,14.628,16.24,95.4,0.14349906,0.14349906,0.14349906,0.14349906
346,1/15/2012 10:00,0.6479,144.09570000000002,0.744,0.6479,1.0659999999999998,18.7243,133.34,122.11500000000001,1.49220627,1.49220627,1.49220627,1.49220627
347,1/15/2012 11:00,0.3366,158.769,0.0,0.3366,0.819,20.631,9.2,134.55,2.6341283300000002,2.6341283300000002,2.6341283300000002,2.6341283300000002
348,1/15/2012 12:00,5.676,172.5927,0.0,5.676,9.867,22.4273,6.04,146.265,1.3731252,1.3731252,1.3731252,1.3731252
349,1/15/2012 13:00,8.576699999999999,168.84029999999998,0.516,8.576699999999999,2.3842,21.9397,93.8,143.085,2.61907057,2.61907057,2.61907057,2.61907057
350,1/15/2012 14:00,0.0,55.4895,0.532,0.0,0.4472,7.2105,54.0,47.025,3.39291402,3.39291402,3.39291402,3.39291402
351,1/15/2012 15:00,0.1166,169.54829999999998,0.5720000000000001,0.1166,0.3952,22.0317,137.78,143.685,3.05148089,3.05148089,3.05148089,3.05148089
352,1/15/2012 16:00,0.18589999999999998,2.8850999999999996,3.6620000000000004,0.18589999999999998,1.131,0.37489999999999996,7.739999999999999,2.445,1.48178309,1.48178309,1.48178309,1.48178309
353,1/15/2012 17:00,0.2893,7.1861999999999995,2.7139999999999995,0.2893,0.7618,0.9338,162.22,6.09,0.0,0.0,0.0,0.0
354,1/15/2012 18:00,0.4642,22.992299999999997,5.542,0.4642,1.9448,2.9877,54.1,19.485,0.0,0.0,0.0,0.0
355,1/15/2012 19:00,0.3399,72.4107,1.436,0.3399,5.3508000000000004,9.4093,52.580000000000005,61.365,0.0,0.0,0.0,0.0
356,1/15/2012 20:00,10.886700000000001,133.9182,5.81,10.886700000000001,1.8174000000000001,17.4018,71.04,113.49000000000001,0.0,0.0,0.0,0.0
357,1/15/2012 21:00,6.0984,2.1063,3.632,6.0984,5.7382,0.2737,48.52,1.7850000000000001,0.0,0.0,0.0,0.0
358,1/15/2012 22:00,0.4235,102.7839,2.346,0.4235,0.5642,13.3561,196.06,87.105,0.0,0.0,0.0,0.0
359,1/15/2012 23:00,9.0442,11.363399999999999,1.204,9.0442,0.52,1.4766,2.2399999999999998,9.629999999999999,0.0,0.0,0.0,0.0
360,1/16/2012 0:00,0.1639,130.3251,1.484,0.1639,0.0,16.9349,157.44,110.445,0.0,0.0,0.0,0.0
361,1/16/2012 1:00,0.0,177.0,4.366,0.0,10.582,23.0,198.3,150.0,0.0,0.0,0.0,0.0
362,1/16/2012 2:00,5.9499,177.0,0.586,5.9499,1.014,23.0,200.0,150.0,0.0,0.0,0.0,0.0
363,1/16/2012 3:00,0.6061000000000001,52.1088,2.958,0.6061000000000001,16.608800000000002,6.7712,200.0,44.16,0.0,0.0,0.0,0.0
364,1/16/2012 4:00,2.2253000000000003,54.710699999999996,3.9779999999999998,2.2253000000000003,1.4378,7.109299999999999,200.0,46.364999999999995,0.0,0.0,0.0,0.0
365,1/16/2012 5:00,0.3036,101.95200000000001,16.721999999999998,0.3036,15.3998,13.248000000000001,38.86,86.4,0.0,0.0,0.0,0.0
366,1/16/2012 6:00,0.0,116.4483,4.334,0.0,3.6400000000000006,15.1317,6.58,98.685,0.0,0.0,0.0,0.0
367,1/16/2012 7:00,0.0,118.85549999999999,4.008,0.0,0.8345999999999999,15.4445,2.86,100.725,0.0,0.0,0.0,0.0
368,1/16/2012 8:00,0.0,54.9585,0.0,0.0,23.2206,7.1415,10.74,46.575,0.0,0.0,0.0,0.0
369,1/16/2012 9:00,0.5159,124.1478,0.0,0.5159,0.0,16.1322,18.2,105.21000000000001,0.52016644,0.52016644,0.52016644,0.52016644
370,1/16/2012 10:00,11.0,128.2011,0.0,11.0,1.1102,16.658900000000003,2.98,108.64500000000001,2.1094619,2.1094619,2.1094619,2.1094619
371,1/16/2012 11:00,9.6624,0.0,19.654,9.6624,1.1882,0.0,10.32,0.0,2.55972886,2.55972886,2.55972886,2.55972886
372,1/16/2012 12:00,9.2554,134.9271,0.166,9.2554,18.6264,17.532899999999998,55.2,114.345,3.25223249,3.25223249,3.25223249,3.25223249
373,1/16/2012 13:00,0.11109999999999999,167.1234,0.20400000000000001,0.11109999999999999,18.8656,21.7166,17.78,141.63,3.63890516,3.63890516,3.63890516,3.63890516
374,1/16/2012 14:00,3.0382,59.6844,1.044,3.0382,1.417,7.7556,40.0,50.58,3.60334049,3.60334049,3.60334049,3.60334049
375,1/16/2012 15:00,2.9062,0.0,20.0,2.9062,24.9132,0.0,10.52,0.0,3.4191898999999997,3.4191898999999997,3.4191898999999997,3.4191898999999997
376,1/16/2012 16:00,0.8547,169.8846,1.014,0.8547,4.3576,22.0754,64.52,143.97,2.3078909600000004,2.3078909600000004,2.3078909600000004,2.3078909600000004
377,1/16/2012 17:00,3.6025,101.2617,1.21,3.6025,25.636,13.1583,4.2,85.81500000000001,0.0,0.0,0.0,0.0
378,1/16/2012 18:00,7.7803,144.48510000000002,20.0,7.7803,25.199199999999998,18.774900000000002,41.22,122.44500000000001,0.0,0.0,0.0,0.0
379,1/16/2012 19:00,11.0,13.098000000000003,18.864,11.0,5.1844,1.7020000000000002,104.66,11.100000000000001,0.0,0.0,0.0,0.0
380,1/16/2012 20:00,6.787,58.569300000000005,0.58,6.787,25.5944,7.6107000000000005,96.61999999999999,49.635000000000005,0.0,0.0,0.0,0.0
381,1/16/2012 21:00,10.7569,24.195899999999998,16.119999999999997,10.7569,25.7712,3.1441,4.06,20.505,0.0,0.0,0.0,0.0
382,1/16/2012 22:00,1.4322000000000001,40.1259,0.804,1.4322000000000001,2.0696000000000003,5.2141,3.18,34.005,0.0,0.0,0.0,0.0
383,1/16/2012 23:00,3.9699,70.78229999999999,7.776,3.9699,2.6988000000000003,9.1977,2.76,59.985,0.0,0.0,0.0,0.0
384,1/17/2012 0:00,10.1167,101.6157,15.174000000000001,10.1167,0.0,13.204300000000002,2.44,86.11500000000001,0.0,0.0,0.0,0.0
385,1/17/2012 1:00,2.4585,117.89970000000001,6.574,2.4585,4.7398,15.320300000000001,109.94,99.915,0.0,0.0,0.0,0.0
386,1/17/2012 2:00,5.1579,70.9593,2.572,5.1579,2.6728,9.220699999999999,21.22,60.135,0.0,0.0,0.0,0.0
387,1/17/2012 3:00,5.0446,169.92,0.604,5.0446,1.0634,22.08,67.6,144.0,0.0,0.0,0.0,0.0
388,1/17/2012 4:00,4.7146,24.3021,0.73,4.7146,0.0,3.1579,72.56,20.595000000000002,0.0,0.0,0.0,0.0
389,1/17/2012 5:00,0.8371,177.0,1.188,0.8371,1.1544,23.0,72.18,150.0,0.0,0.0,0.0,0.0
390,1/17/2012 6:00,1.6313,0.0,17.503999999999998,1.6313,1.391,0.0,81.12,0.0,0.0,0.0,0.0,0.0
391,1/17/2012 7:00,2.6961,0.0,19.099999999999998,2.6961,0.0,0.0,12.76,0.0,0.0,0.0,0.0,0.0
392,1/17/2012 8:00,2.2098999999999998,84.8892,19.52,2.2098999999999998,2.7768,11.030800000000001,19.580000000000002,71.94,0.0,0.0,0.0,0.0
393,1/17/2012 9:00,1.1737,96.60659999999999,0.0,1.1737,3.6738000000000004,12.553399999999998,28.139999999999997,81.86999999999999,0.44860612,0.44860612,0.44860612,0.44860612
394,1/17/2012 10:00,0.6512,27.3996,1.442,0.6512,26.0,3.5604,172.14000000000001,23.22,2.01565276,2.01565276,2.01565276,2.01565276
395,1/17/2012 11:00,0.363,55.08239999999999,5.295999999999999,0.363,0.7852,7.1575999999999995,83.06,46.68,2.7192672499999997,2.7192672499999997,2.7192672499999997,2.7192672499999997
396,1/17/2012 12:00,9.977,96.0225,1.49,9.977,1.0191999999999999,12.4775,170.74,81.375,3.1594042899999994,3.1594042899999994,3.1594042899999994,3.1594042899999994
397,1/17/2012 13:00,0.0,49.2414,2.48,0.0,0.351,6.3986,198.10000000000002,41.730000000000004,3.9081135500000004,3.9081135500000004,3.9081135500000004,3.9081135500000004
398,1/17/2012 14:00,0.1254,175.407,0.0,0.1254,12.974,22.793,111.38,148.65,3.79648311,3.79648311,3.79648311,3.79648311
399,1/17/2012 15:00,7.202800000000001,177.0,0.0,7.202800000000001,0.3146,23.0,138.2,150.0,3.29804131,3.29804131,3.29804131,3.29804131
400,1/17/2012 16:00,0.0781,177.0,4.208,0.0781,13.9152,23.0,191.9,150.0,2.17719582,2.17719582,2.17719582,2.17719582
401,1/17/2012 17:00,0.0,91.1727,4.866,0.0,3.5542,11.8473,0.0,77.265,0.0,0.0,0.0,0.0
402,1/17/2012 18:00,0.6853,14.460899999999999,6.252,0.6853,1.2324,1.8790999999999998,0.0,12.254999999999999,0.0,0.0,0.0,0.0
403,1/17/2012 19:00,7.2534,21.4524,7.38,7.2534,0.728,2.7876,35.480000000000004,18.18,0.0,0.0,0.0,0.0
404,1/17/2012 20:00,0.5720000000000001,75.8445,9.816,0.5720000000000001,0.5304,9.8555,35.42,64.275,0.0,0.0,0.0,0.0
405,1/17/2012 21:00,0.0,12.195300000000001,12.972,0.0,18.699199999999998,1.5847,154.62,10.335,0.0,0.0,0.0,0.0
406,1/17/2012 22:00,0.0,19.2576,1.704,0.0,0.0,2.5023999999999997,177.04,16.32,0.0,0.0,0.0,0.0
407,1/17/2012 23:00,0.1221,0.0,2.354,0.1221,0.0,0.0,184.6,0.0,0.0,0.0,0.0,0.0
408,1/18/2012 0:00,3.8566000000000003,121.5282,11.815999999999999,3.8566000000000003,0.8216000000000001,15.7918,186.92,102.99,0.0,0.0,0.0,0.0
409,1/18/2012 1:00,0.3971,6.619800000000001,11.102,0.3971,0.897,0.8602000000000001,148.52,5.61,0.0,0.0,0.0,0.0
410,1/18/2012 2:00,5.506600000000001,121.5813,13.355999999999998,5.506600000000001,0.975,15.798699999999998,113.14,103.035,0.0,0.0,0.0,0.0
411,1/18/2012 3:00,0.088,21.8418,0.31,0.088,2.6598,2.8382,107.62,18.509999999999998,0.0,0.0,0.0,0.0
412,1/18/2012 4:00,7.099399999999999,19.7178,0.15,7.099399999999999,18.746,2.5622,189.92,16.71,0.0,0.0,0.0,0.0
413,1/18/2012 5:00,11.0,48.8697,0.0,11.0,20.189,6.350300000000001,187.66,41.415,0.0,0.0,0.0,0.0
414,1/18/2012 6:00,8.5173,0.0,0.20600000000000002,8.5173,23.4182,0.0,14.099999999999998,0.0,0.0,0.0,0.0,0.0
415,1/18/2012 7:00,9.6063,43.6305,0.786,9.6063,20.9742,5.6695,109.92,36.975,0.0,0.0,0.0,0.0
416,1/18/2012 8:00,3.531,44.462399999999995,15.876,3.531,22.3808,5.7776,118.28,37.68,0.0,0.0,0.0,0.0
417,1/18/2012 9:00,2.9128,100.6245,18.334,2.9128,25.199199999999998,13.0755,0.0,85.275,0.4444796099999999,0.4444796099999999,0.4444796099999999,0.4444796099999999
418,1/18/2012 10:00,11.0,8.9916,1.5379999999999998,11.0,4.4486,1.1683999999999999,0.0,7.62,2.1905015,2.1905015,2.1905015,2.1905015
419,1/18/2012 11:00,0.9064,4.407299999999999,0.37,0.9064,5.6238,0.5727,0.0,3.735,2.6665723000000003,2.6665723000000003,2.6665723000000003,2.6665723000000003
420,1/18/2012 12:00,10.6579,160.185,10.814,10.6579,0.0,20.815,157.9,135.75,3.1973315399999995,3.1973315399999995,3.1973315399999995,3.1973315399999995
421,1/18/2012 13:00,1.1407,0.0,7.724,1.1407,25.5242,0.0,8.04,0.0,3.59669866,3.59669866,3.59669866,3.59669866
422,1/18/2012 14:00,0.6556,167.44199999999998,0.0,0.6556,25.3474,21.758,46.14,141.9,3.69068825,3.69068825,3.69068825,3.69068825
423,1/18/2012 15:00,0.7710999999999999,41.1525,0.0,0.7710999999999999,25.103,5.3475,200.0,34.875,3.51813425,3.51813425,3.51813425,3.51813425
424,1/18/2012 16:00,11.0,6.0003,0.0,11.0,5.3794,0.7797,1.76,5.085,2.66086671,2.66086671,2.66086671,2.66086671
425,1/18/2012 17:00,7.1654,5.0976,19.264,7.1654,7.462,0.6624,10.18,4.32,0.0,0.0,0.0,0.0
426,1/18/2012 18:00,11.0,4.5312,19.317999999999998,11.0,0.273,0.5888,13.700000000000001,3.8400000000000003,0.0,0.0,0.0,0.0
427,1/18/2012 19:00,3.5541,89.5974,15.888,3.5541,0.5616,11.6426,97.8,75.92999999999999,0.0,0.0,0.0,0.0
428,1/18/2012 20:00,6.0192000000000005,63.18900000000001,0.0,6.0192000000000005,8.078199999999999,8.211,100.1,53.550000000000004,0.0,0.0,0.0,0.0
429,1/18/2012 21:00,0.7545999999999999,1.5930000000000002,6.066000000000001,0.7545999999999999,0.7202,0.20700000000000002,6.5,1.35,0.0,0.0,0.0,0.0
430,1/18/2012 22:00,1.034,0.0,20.0,1.034,3.4112000000000005,0.0,28.860000000000003,0.0,0.0,0.0,0.0,0.0
431,1/18/2012 23:00,1.1033,0.0,19.612000000000002,1.1033,1.8902,0.0,18.66,0.0,0.0,0.0,0.0,0.0
432,1/19/2012 0:00,0.5159,126.2895,19.304,0.5159,2.1892,16.4105,38.06,107.025,0.0,0.0,0.0,0.0
433,1/19/2012 1:00,2.7104,83.1015,18.28,2.7104,9.1416,10.798499999999999,55.7,70.425,0.0,0.0,0.0,0.0
434,1/19/2012 2:00,3.3132,80.26950000000001,19.692,3.3132,1.638,10.4305,7.02,68.025,0.0,0.0,0.0,0.0
435,1/19/2012 3:00,4.0073,7.7172,1.878,4.0073,1.5158,1.0028,195.9,6.54,0.0,0.0,0.0,0.0
436,1/19/2012 4:00,4.5793,169.035,1.582,4.5793,18.7876,21.965,195.14000000000001,143.25,0.0,0.0,0.0,0.0
437,1/19/2012 5:00,0.8745,113.3331,0.0,0.8745,25.0354,14.726899999999999,80.38,96.045,0.0,0.0,0.0,0.0
438,1/19/2012 6:00,1.1120999999999999,140.538,1.6280000000000001,1.1120999999999999,24.9158,18.262,53.28000000000001,119.10000000000001,0.0,0.0,0.0,0.0
439,1/19/2012 7:00,0.9603,3.6108000000000002,0.0,0.9603,24.544,0.46920000000000006,2.26,3.06,0.0,0.0,0.0,0.0
440,1/19/2012 8:00,2.3782,177.0,19.53,2.3782,23.829,23.0,4.5600000000000005,150.0,0.0,0.0,0.0,0.0
441,1/19/2012 9:00,1.2309,109.1559,2.8120000000000003,1.2309,22.976200000000002,14.1841,2.0,92.50500000000001,0.7056328099999999,0.7056328099999999,0.7056328099999999,0.7056328099999999
442,1/19/2012 10:00,0.1012,69.1008,6.652,0.1012,22.178,8.9792,6.08,58.56,2.28789365,2.28789365,2.28789365,2.28789365
443,1/19/2012 11:00,0.7205,85.50869999999999,7.61,0.7205,23.9798,11.1113,188.44,72.46499999999999,2.64849884,2.64849884,2.64849884,2.64849884
444,1/19/2012 12:00,0.22440000000000002,42.1083,6.14,0.22440000000000002,23.8368,5.4717,2.26,35.685,3.33807272,3.33807272,3.33807272,3.33807272
445,1/19/2012 13:00,0.506,155.7777,5.622,0.506,23.407799999999998,20.2423,191.78,132.015,3.7126864200000003,3.7126864200000003,3.7126864200000003,3.7126864200000003
446,1/19/2012 14:00,0.5291,168.3801,3.932,0.5291,22.7942,21.8799,0.0,142.695,3.8132417600000004,3.8132417600000004,3.8132417600000004,3.8132417600000004
447,1/19/2012 15:00,0.2651,57.9498,0.0,0.2651,8.6606,7.530200000000001,0.0,49.11000000000001,3.5805486799999997,3.5805486799999997,3.5805486799999997,3.5805486799999997
448,1/19/2012 16:00,3.0635000000000003,50.7282,0.0,3.0635000000000003,24.362000000000002,6.5918,190.04000000000002,42.99,2.81450467,2.81450467,2.81450467,2.81450467
449,1/19/2012 17:00,4.3021,133.74120000000002,14.174,4.3021,24.3438,17.378800000000002,198.42,113.34,0.0,0.0,0.0,0.0
450,1/19/2012 18:00,8.5261,69.34859999999999,1.0739999999999998,8.5261,2.8834,9.0114,200.0,58.769999999999996,0.0,0.0,0.0,0.0
451,1/19/2012 19:00,11.0,14.1069,2.258,11.0,20.441200000000002,1.8331,182.46,11.954999999999998,0.0,0.0,0.0,0.0
452,1/19/2012 20:00,6.1853,6.2658000000000005,0.0,6.1853,2.21,0.8142,7.180000000000001,5.3100000000000005,0.0,0.0,0.0,0.0
453,1/19/2012 21:00,0.0847,27.7182,0.0,0.0847,2.0462000000000002,3.6018,96.86,23.49,0.0,0.0,0.0,0.0
454,1/19/2012 22:00,0.1573,34.373400000000004,0.0,0.1573,1.8512,4.466600000000001,18.94,29.130000000000003,0.0,0.0,0.0,0.0
455,1/19/2012 23:00,10.884500000000001,0.0,0.0,10.884500000000001,24.128,0.0,0.0,0.0,0.0,0.0,0.0,0.0
456,1/20/2012 0:00,4.543,16.230900000000002,16.488,4.543,20.3658,2.1091,0.0,13.755,0.0,0.0,0.0,0.0
457,1/20/2012 1:00,0.1815,31.2228,19.714,0.1815,0.2418,4.0572,77.84,26.46,0.0,0.0,0.0,0.0
458,1/20/2012 2:00,0.1562,38.9754,20.0,0.1562,6.3934,5.0646,77.18,33.03,0.0,0.0,0.0,0.0
459,1/20/2012 3:00,5.423,4.602,0.0,5.423,9.6304,0.5980000000000001,80.4,3.9000000000000004,0.0,0.0,0.0,0.0
460,1/20/2012 4:00,10.874600000000001,15.487499999999999,0.62,10.874600000000001,7.7376,2.0124999999999997,79.6,13.125,0.0,0.0,0.0,0.0
461,1/20/2012 5:00,0.7799,7.3455,0.144,0.7799,25.6854,0.9545,80.88,6.2250000000000005,0.0,0.0,0.0,0.0
462,1/20/2012 6:00,2.2726,1.5930000000000002,0.528,2.2726,25.225199999999997,0.20700000000000002,87.83999999999999,1.35,0.0,0.0,0.0,0.0
463,1/20/2012 7:00,11.0,23.7888,5.682,11.0,26.0,3.0911999999999997,2.82,20.16,0.0,0.0,0.0,0.0
464,1/20/2012 8:00,10.3367,67.6317,0.75,10.3367,24.7156,8.7883,0.0,57.315,0.0,0.0,0.0,0.0
465,1/20/2012 9:00,0.8426,58.852500000000006,0.516,0.8426,7.594600000000001,7.647500000000001,166.72,49.875,0.69280413,0.69280413,0.69280413,0.69280413
466,1/20/2012 10:00,9.1564,50.073299999999996,0.454,9.1564,26.0,6.5066999999999995,152.74,42.434999999999995,2.30486566,2.30486566,2.30486566,2.30486566
467,1/20/2012 11:00,0.4961,39.063900000000004,0.518,0.4961,26.0,5.0761,0.0,33.105000000000004,3.86050964,3.86050964,3.86050964,3.86050964
468,1/20/2012 12:00,0.5851999999999999,27.541199999999996,0.598,0.5851999999999999,26.0,3.5787999999999998,0.0,23.34,3.5336832799999995,3.5336832799999995,3.5336832799999995,3.5336832799999995
469,1/20/2012 13:00,9.6305,15.2043,0.5720000000000001,9.6305,0.8345999999999999,1.9757,0.0,12.885,4.651693170000001,4.651693170000001,4.651693170000001,4.651693170000001
470,1/20/2012 14:00,0.0,8.6553,0.344,0.0,3.133,1.1247,0.0,7.335,3.7781916,3.7781916,3.7781916,3.7781916
471,1/20/2012 15:00,0.5566,4.8144,0.526,0.5566,3.0549999999999997,0.6255999999999999,73.44000000000001,4.08,3.5539881100000006,3.5539881100000006,3.5539881100000006,3.5539881100000006
472,1/20/2012 16:00,7.0301,5.8056,1.018,7.0301,0.8944,0.7544000000000001,191.8,4.920000000000001,2.48634673,2.48634673,2.48634673,2.48634673
473,1/20/2012 17:00,0.0902,171.4953,0.0,0.0902,1.495,22.2847,194.36,145.335,0.0,0.0,0.0,0.0
474,1/20/2012 18:00,0.1034,76.3932,0.8899999999999999,0.1034,12.2538,9.9268,32.84,64.74,0.0,0.0,0.0,0.0
475,1/20/2012 19:00,4.0755,71.1186,0.0,4.0755,1.547,9.2414,11.2,60.269999999999996,0.0,0.0,0.0,0.0
476,1/20/2012 20:00,5.0588999999999995,6.195,0.0,5.0588999999999995,0.0,0.805,40.46,5.250000000000001,0.0,0.0,0.0,0.0
477,1/20/2012 21:00,0.1375,1.2744,16.236,0.1375,4.9218,0.1656,35.46,1.08,0.0,0.0,0.0,0.0
478,1/20/2012 22:00,0.1661,24.8862,1.484,0.1661,4.9738,3.2338,60.58,21.09,0.0,0.0,0.0,0.0
479,1/20/2012 23:00,2.6169000000000002,3.363,0.0,2.6169000000000002,0.0,0.437,4.4,2.85,0.0,0.0,0.0,0.0
480,1/21/2012 0:00,2.1978,5.4162,1.382,2.1978,0.0,0.7038,197.9,4.59,0.0,0.0,0.0,0.0
481,1/21/2012 1:00,1.6258,177.0,0.0,1.6258,1.001,23.0,198.04,150.0,0.0,0.0,0.0,0.0
482,1/21/2012 2:00,0.22769999999999999,10.089,0.438,0.22769999999999999,6.4714,1.311,195.14000000000001,8.55,0.0,0.0,0.0,0.0
483,1/21/2012 3:00,0.0803,19.151400000000002,7.87,0.0803,2.015,2.4886,115.82,16.23,0.0,0.0,0.0,0.0
484,1/21/2012 4:00,0.0,149.7243,10.776,0.0,1.2895999999999999,19.4557,128.72,126.88499999999999,0.0,0.0,0.0,0.0
485,1/21/2012 5:00,0.6952,0.0,3.8779999999999997,0.6952,13.9412,0.0,196.32,0.0,0.0,0.0,0.0,0.0
486,1/21/2012 6:00,0.5643,0.0,7.934,0.5643,0.25479999999999997,0.0,194.72,0.0,0.0,0.0,0.0,0.0
487,1/21/2012 7:00,0.2409,0.0,17.582,0.2409,0.21839999999999998,0.0,191.66,0.0,0.0,0.0,0.0,0.0
488,1/21/2012 8:00,0.14300000000000002,7.9827,18.314,0.14300000000000002,0.0,1.0373,108.4,6.765000000000001,0.0,0.0,0.0,0.0
489,1/21/2012 9:00,0.2409,5.770199999999999,0.0,0.2409,3.5646,0.7497999999999999,20.580000000000002,4.89,0.45707197000000005,0.45707197000000005,0.45707197000000005,0.45707197000000005
490,1/21/2012 10:00,11.0,10.2129,19.666,11.0,0.2236,1.3271,19.24,8.655,0.6963719,0.6963719,0.6963719,0.6963719
491,1/21/2012 11:00,0.2233,98.87219999999999,0.0,0.2233,12.3942,12.8478,13.020000000000001,83.78999999999999,1.46337116,1.46337116,1.46337116,1.46337116
492,1/21/2012 12:00,11.0,114.1473,1.7000000000000002,11.0,1.2038,14.8327,8.9,96.735,2.11408078,2.11408078,2.11408078,2.11408078
493,1/21/2012 13:00,10.8416,13.1334,19.712,10.8416,1.3884,1.7066000000000001,4.2,11.13,1.3946351199999998,1.3946351199999998,1.3946351199999998,1.3946351199999998
494,1/21/2012 14:00,0.2387,101.9166,19.75,0.2387,1.6743999999999999,13.2434,4.24,86.36999999999999,1.67273169,1.67273169,1.67273169,1.67273169
495,1/21/2012 15:00,0.2266,100.9431,19.706,0.2266,20.0486,13.116900000000001,2.54,85.545,2.25356881,2.25356881,2.25356881,2.25356881
496,1/21/2012 16:00,0.2189,63.6138,19.57,0.2189,19.266,8.2662,1.5,53.91,1.51105181,1.51105181,1.51105181,1.51105181
497,1/21/2012 17:00,0.8403999999999999,53.241600000000005,0.0,0.8403999999999999,13.5564,6.9184,7.8,45.120000000000005,0.0,0.0,0.0,0.0
498,1/21/2012 18:00,0.7414000000000001,67.1361,0.16199999999999998,0.7414000000000001,0.38480000000000003,8.7239,35.72,56.895,0.0,0.0,0.0,0.0
499,1/21/2012 19:00,0.6599999999999999,10.053600000000001,2.278,0.6599999999999999,0.31980000000000003,1.3064,16.14,8.520000000000001,0.0,0.0,0.0,0.0
500,1/21/2012 20:00,0.8403999999999999,50.62200000000001,19.658,0.8403999999999999,0.7046,6.578000000000001,43.059999999999995,42.900000000000006,0.0,0.0,0.0,0.0
501,1/21/2012 21:00,0.5093,20.1249,18.63,0.5093,23.0308,2.6151,11.72,17.055,0.0,0.0,0.0,0.0
502,1/21/2012 22:00,8.834100000000001,18.1071,1.7800000000000002,8.834100000000001,17.2562,2.3529,15.7,15.345,0.0,0.0,0.0,0.0
503,1/21/2012 23:00,8.7021,35.3469,8.484,8.7021,12.6438,4.5931,3.84,29.955,0.0,0.0,0.0,0.0
504,1/22/2012 0:00,0.0,65.2776,15.304,0.0,2.691,8.4824,13.76,55.32,0.0,0.0,0.0,0.0
505,1/22/2012 1:00,0.7359,84.1281,20.0,0.7359,26.0,10.9319,0.0,71.295,0.0,0.0,0.0,0.0
506,1/22/2012 2:00,11.0,86.69460000000001,2.214,11.0,10.1608,11.2654,21.8,73.47,0.0,0.0,0.0,0.0
507,1/22/2012 3:00,0.0,89.2434,0.62,0.0,12.4566,11.596599999999999,7.26,75.63,0.0,0.0,0.0,0.0
508,1/22/2012 4:00,0.3102,102.16440000000001,8.538,0.3102,13.7592,13.2756,127.1,86.58000000000001,0.0,0.0,0.0,0.0
509,1/22/2012 5:00,9.7812,19.859399999999997,4.666,9.7812,8.3642,2.5806,184.16,16.83,0.0,0.0,0.0,0.0
510,1/22/2012 6:00,9.4589,29.7537,2.692,9.4589,1.2635999999999998,3.8663,72.88,25.215,0.0,0.0,0.0,0.0
511,1/22/2012 7:00,7.701099999999999,34.2672,0.0,7.701099999999999,24.8482,4.4528,2.82,29.04,0.0,0.0,0.0,0.0
512,1/22/2012 8:00,6.6979,177.0,1.802,6.6979,1.5756000000000001,23.0,6.74,150.0,0.0,0.0,0.0,0.0
513,1/22/2012 9:00,6.0885,177.0,15.831999999999999,6.0885,5.9046,23.0,27.060000000000002,150.0,0.11756691999999999,0.11756691999999999,0.11756691999999999,0.11756691999999999
514,1/22/2012 10:00,10.6326,172.84050000000002,2.658,10.6326,25.5112,22.459500000000002,183.58,146.475,0.75540233,0.75540233,0.75540233,0.75540233
515,1/22/2012 11:00,10.4445,177.0,1.582,10.4445,0.8787999999999999,23.0,178.24,150.0,0.70800711,0.70800711,0.70800711,0.70800711
516,1/22/2012 12:00,10.1222,0.0,0.828,10.1222,0.41340000000000005,0.0,188.84,0.0,2.61581327,2.61581327,2.61581327,2.61581327
517,1/22/2012 13:00,9.8263,63.366,0.5720000000000001,9.8263,0.9958,8.234,6.800000000000001,53.699999999999996,2.60522356,2.60522356,2.60522356,2.60522356
518,1/22/2012 14:00,0.1551,21.1515,0.822,0.1551,10.751,2.7485,200.0,17.925,1.32604689,1.32604689,1.32604689,1.32604689
519,1/22/2012 15:00,0.1375,32.4264,1.422,0.1375,2.0202,4.2136000000000005,59.34,27.48,0.92677251,0.92677251,0.92677251,0.92677251
520,1/22/2012 16:00,0.0,177.0,2.612,0.0,0.2418,23.0,197.92000000000002,150.0,0.36019033,0.36019033,0.36019033,0.36019033
521,1/22/2012 17:00,0.0,177.0,2.6719999999999997,0.0,1.5262,23.0,0.0,150.0,0.03861196,0.03861196,0.03861196,0.03861196
522,1/22/2012 18:00,0.10890000000000001,52.427400000000006,5.7940000000000005,0.10890000000000001,1.703,6.812600000000001,0.0,44.43,0.0,0.0,0.0,0.0
523,1/22/2012 19:00,0.3443,0.0,9.982,0.3443,0.5564,0.0,0.0,0.0,0.0,0.0,0.0,0.0
524,1/22/2012 20:00,0.5709,6.8676,1.022,0.5709,2.5896,0.8924000000000001,35.46,5.82,0.0,0.0,0.0,0.0
525,1/22/2012 21:00,0.7435999999999999,8.7084,0.31399999999999995,0.7435999999999999,4.601999999999999,1.1316,10.58,7.38,0.0,0.0,0.0,0.0
526,1/22/2012 22:00,0.3267,60.6048,0.24400000000000002,0.3267,0.0,7.8751999999999995,14.800000000000002,51.36,0.0,0.0,0.0,0.0
527,1/22/2012 23:00,0.37070000000000003,177.0,0.212,0.37070000000000003,7.3372,23.0,24.38,150.0,0.0,0.0,0.0,0.0
528,1/23/2012 0:00,1.2133,22.125,0.152,1.2133,0.45239999999999997,2.875,25.759999999999998,18.75,0.0,0.0,0.0,0.0
529,1/23/2012 1:00,0.7029,97.88099999999999,0.0,0.7029,16.034200000000002,12.718999999999998,23.119999999999997,82.94999999999999,0.0,0.0,0.0,0.0
530,1/23/2012 2:00,0.8008000000000001,45.1173,0.0,0.8008000000000001,18.135,5.8627,23.16,38.235,0.0,0.0,0.0,0.0
531,1/23/2012 3:00,2.3034,101.8989,3.206,2.3034,17.9738,13.2411,31.180000000000003,86.355,0.0,0.0,0.0,0.0
532,1/23/2012 4:00,1.1847,87.50880000000001,3.984,1.1847,22.0506,11.3712,188.66,74.16,0.0,0.0,0.0,0.0
533,1/23/2012 5:00,0.24530000000000002,16.7796,7.1499999999999995,0.24530000000000002,22.8878,2.1803999999999997,172.23999999999998,14.219999999999999,0.0,0.0,0.0,0.0
534,1/23/2012 6:00,2.6994000000000002,27.045599999999997,11.382000000000001,2.6994000000000002,18.875999999999998,3.5143999999999997,192.14,22.919999999999998,0.0,0.0,0.0,0.0
535,1/23/2012 7:00,0.2299,9.929699999999999,13.754,0.2299,20.5426,1.2903,14.06,8.415,0.0,0.0,0.0,0.0
536,1/23/2012 8:00,2.9589999999999996,11.682,2.548,2.9589999999999996,20.508799999999997,1.518,7.64,9.9,0.0,0.0,0.0,0.0
537,1/23/2012 9:00,1.3398,0.0,18.568,1.3398,1.2246000000000001,0.0,166.88,0.0,0.4863631400000001,0.4863631400000001,0.4863631400000001,0.4863631400000001
538,1/23/2012 10:00,3.8929,11.2749,16.044,3.8929,22.7136,1.4651,168.88,9.555000000000001,2.07436226,2.07436226,2.07436226,2.07436226
539,1/23/2012 11:00,4.0095,8.7792,14.122,4.0095,22.9554,1.1408,25.380000000000003,7.4399999999999995,2.59126701,2.59126701,2.59126701,2.59126701
540,1/23/2012 12:00,0.5918,0.0,11.878,0.5918,22.8098,0.0,52.839999999999996,0.0,3.5169977799999996,3.5169977799999996,3.5169977799999996,3.5169977799999996
541,1/23/2012 13:00,8.776900000000001,173.6547,19.722,8.776900000000001,20.2124,22.5653,158.26,147.165,3.8057772400000003,3.8057772400000003,3.8057772400000003,3.8057772400000003
542,1/23/2012 14:00,11.0,175.30079999999998,3.908,11.0,0.325,22.7792,184.94,148.56,3.6564084700000006,3.6564084700000006,3.6564084700000006,3.6564084700000006
543,1/23/2012 15:00,11.0,177.0,0.0,11.0,0.31720000000000004,23.0,191.12,150.0,3.32687935,3.32687935,3.32687935,3.32687935
544,1/23/2012 16:00,3.9292000000000002,60.5694,0.0,3.9292000000000002,0.0,7.8706000000000005,60.540000000000006,51.33,1.9181872600000003,1.9181872600000003,1.9181872600000003,1.9181872600000003
545,1/23/2012 17:00,2.9017999999999997,58.0029,0.0,2.9017999999999997,0.0,7.5371,173.10000000000002,49.155,0.19505687,0.19505687,0.19505687,0.19505687
546,1/23/2012 18:00,0.5709,149.6712,0.344,0.5709,0.0,19.448800000000002,0.0,126.84,0.0,0.0,0.0,0.0
547,1/23/2012 19:00,9.8901,139.5822,15.53,9.8901,26.0,18.1378,91.32000000000001,118.28999999999999,0.0,0.0,0.0,0.0
548,1/23/2012 20:00,0.0,142.839,14.554,0.0,26.0,18.561,25.96,121.05000000000001,0.0,0.0,0.0,0.0
549,1/23/2012 21:00,2.8501,152.9988,15.24,2.8501,26.0,19.8812,16.38,129.66,0.0,0.0,0.0,0.0
550,1/23/2012 22:00,2.0690999999999997,17.8062,14.426000000000002,2.0690999999999997,26.0,2.3138,10.56,15.09,0.0,0.0,0.0,0.0
551,1/23/2012 23:00,2.4463999999999997,13.7883,15.178,2.4463999999999997,26.0,1.7916999999999998,192.08,11.684999999999999,0.0,0.0,0.0,0.0
552,1/24/2012 0:00,3.4495999999999998,9.4341,19.846,3.4495999999999998,26.0,1.2259,67.6,7.995,0.0,0.0,0.0,0.0
553,1/24/2012 1:00,8.211500000000001,177.0,19.52,8.211500000000001,26.0,23.0,14.62,150.0,0.0,0.0,0.0,0.0
554,1/24/2012 2:00,4.0183,177.0,0.242,4.0183,0.6526000000000001,23.0,195.57999999999998,150.0,0.0,0.0,0.0,0.0
555,1/24/2012 3:00,3.8368,173.9733,0.0,3.8368,25.467000000000002,22.6067,99.72,147.435,0.0,0.0,0.0,0.0
556,1/24/2012 4:00,11.0,171.2652,11.996,11.0,1.0088,22.2548,194.96,145.14000000000001,0.0,0.0,0.0,0.0
557,1/24/2012 5:00,11.0,80.7828,0.246,11.0,1.196,10.4972,11.8,68.46,0.0,0.0,0.0,0.0
558,1/24/2012 6:00,11.0,175.5309,1.244,11.0,25.5268,22.8091,5.220000000000001,148.755,0.0,0.0,0.0,0.0
559,1/24/2012 7:00,11.0,177.0,19.338,11.0,0.8268000000000001,23.0,200.0,150.0,0.0,0.0,0.0,0.0
560,1/24/2012 8:00,11.0,140.6796,18.584,11.0,0.9932,18.2804,6.4799999999999995,119.22,0.0,0.0,0.0,0.0
561,1/24/2012 9:00,11.0,175.584,0.14800000000000002,11.0,1.0608,22.816,3.1399999999999997,148.8,1.2865521599999998,1.2865521599999998,1.2865521599999998,1.2865521599999998
562,1/24/2012 10:00,11.0,175.05300000000003,0.21600000000000003,11.0,0.4628,22.747000000000003,1.8399999999999999,148.35000000000002,2.38715764,2.38715764,2.38715764,2.38715764
563,1/24/2012 11:00,4.5649999999999995,103.0848,1.762,4.5649999999999995,0.8320000000000001,13.3952,97.44,87.36,2.9460593299999998,2.9460593299999998,2.9460593299999998,2.9460593299999998
564,1/24/2012 12:00,1.4893999999999998,177.0,7.877999999999999,1.4893999999999998,1.5392000000000001,23.0,118.17999999999999,150.0,3.46482763,3.46482763,3.46482763,3.46482763
565,1/24/2012 13:00,0.43889999999999996,101.2617,1.396,0.43889999999999996,2.392,13.1583,0.0,85.81500000000001,4.06547946,4.06547946,4.06547946,4.06547946
566,1/24/2012 14:00,0.0,135.4758,7.024,0.0,1.2792000000000001,17.6042,0.0,114.81,4.20491655,4.20491655,4.20491655,4.20491655
567,1/24/2012 15:00,0.1397,173.7963,6.492,0.1397,25.805,22.5837,75.18,147.285,3.9586591200000005,3.9586591200000005,3.9586591200000005,3.9586591200000005
568,1/24/2012 16:00,0.6093999999999999,12.903300000000002,6.12,0.6093999999999999,26.0,1.6767,3.1199999999999997,10.935,2.9595283,2.9595283,2.9595283,2.9595283
569,1/24/2012 17:00,0.1012,90.0753,5.904,0.1012,2.8937999999999997,11.7047,6.419999999999999,76.33500000000001,0.39550775000000005,0.39550775000000005,0.39550775000000005,0.39550775000000005
570,1/24/2012 18:00,3.5111999999999997,4.4958,6.078,3.5111999999999997,2.7742,0.5841999999999999,8.36,3.81,0.0,0.0,0.0,0.0
571,1/24/2012 19:00,10.199200000000001,121.6875,12.66,10.199200000000001,17.9244,15.8125,6.959999999999999,103.125,0.0,0.0,0.0,0.0
572,1/24/2012 20:00,0.2409,0.0,1.366,0.2409,18.707,0.0,4.2,0.0,0.0,0.0,0.0,0.0
573,1/24/2012 21:00,5.4989,7.398599999999999,3.668,5.4989,21.208199999999998,0.9613999999999999,1.94,6.27,0.0,0.0,0.0,0.0
574,1/24/2012 22:00,10.758,4.1241,6.26,10.758,23.634,0.5359,0.0,3.495,0.0,0.0,0.0,0.0
575,1/24/2012 23:00,0.18810000000000002,49.1883,3.218,0.18810000000000002,17.9348,6.391699999999999,0.0,41.684999999999995,0.0,0.0,0.0,0.0
576,1/25/2012 0:00,5.83,47.48909999999999,14.946,5.83,1.69,6.1709,160.51999999999998,40.245,0.0,0.0,0.0,0.0
577,1/25/2012 1:00,8.0234,8.000399999999999,15.431999999999999,8.0234,1.2895999999999999,1.0395999999999999,0.0,6.779999999999999,0.0,0.0,0.0,0.0
578,1/25/2012 2:00,10.7668,2.5311,20.0,10.7668,3.3332,0.3289,0.0,2.145,0.0,0.0,0.0,0.0
579,1/25/2012 3:00,0.0,0.0,0.0,0.0,14.1908,0.0,0.0,0.0,0.0,0.0,0.0,0.0
580,1/25/2012 4:00,0.0,32.8866,0.174,0.0,15.7092,4.2734,0.0,27.869999999999997,0.0,0.0,0.0,0.0
581,1/25/2012 5:00,0.2838,152.751,0.0,0.2838,16.6842,19.849,0.0,129.45,0.0,0.0,0.0,0.0
582,1/25/2012 6:00,5.324,0.0,16.764,5.324,11.1852,0.0,0.0,0.0,0.0,0.0,0.0,0.0
583,1/25/2012 7:00,9.216899999999999,115.33319999999999,0.154,9.216899999999999,13.486200000000002,14.986799999999999,0.0,97.74,0.0,0.0,0.0,0.0
584,1/25/2012 8:00,5.2139999999999995,3.8409,0.184,5.2139999999999995,23.7666,0.4991,0.0,3.255,0.0,0.0,0.0,0.0
585,1/25/2012 9:00,0.6666,87.6327,0.53,0.6666,20.3476,11.3873,2.6,74.265,0.14957085,0.14957085,0.14957085,0.14957085
586,1/25/2012 10:00,3.0195000000000003,73.5612,1.638,3.0195000000000003,16.0186,9.5588,11.44,62.34,1.17428391,1.17428391,1.17428391,1.17428391
587,1/25/2012 11:00,2.9656000000000002,19.4346,2.974,2.9656000000000002,14.6978,2.5254,26.840000000000003,16.47,2.22532887,2.22532887,2.22532887,2.22532887
588,1/25/2012 12:00,2.8621999999999996,22.125,18.834,2.8621999999999996,11.9054,2.875,57.06,18.75,2.72578793,2.72578793,2.72578793,2.72578793
589,1/25/2012 13:00,3.4848000000000003,25.877399999999998,18.972,3.4848000000000003,3.3852,3.3626,70.16,21.93,2.6614163499999997,2.6614163499999997,2.6614163499999997,2.6614163499999997
590,1/25/2012 14:00,7.135700000000001,56.9763,0.256,7.135700000000001,0.0,7.403700000000001,78.9,48.285000000000004,2.48762042,2.48762042,2.48762042,2.48762042
591,1/25/2012 15:00,0.8766999999999999,33.9486,0.28400000000000003,0.8766999999999999,0.0,4.4113999999999995,84.22,28.77,3.01591983,3.01591983,3.01591983,3.01591983
592,1/25/2012 16:00,1.8777,149.2287,2.732,1.8777,0.0,19.391299999999998,104.71999999999998,126.46499999999999,0.6304546,0.6304546,0.6304546,0.6304546
593,1/25/2012 17:00,1.5972,150.3084,8.088,1.5972,1.9682000000000002,19.531599999999997,0.0,127.38,0.06622869,0.06622869,0.06622869,0.06622869
594,1/25/2012 18:00,1.9283000000000001,0.0,5.056000000000001,1.9283000000000001,2.3608000000000002,0.0,26.68,0.0,0.0,0.0,0.0,0.0
595,1/25/2012 19:00,3.5981,0.0,3.194,3.5981,0.7618,0.0,155.48,0.0,0.0,0.0,0.0,0.0
596,1/25/2012 20:00,4.4429,4.7259,1.8600000000000003,4.4429,1.6094,0.6141000000000001,172.54,4.005,0.0,0.0,0.0,0.0
597,1/25/2012 21:00,5.6594999999999995,56.2683,2.0380000000000003,5.6594999999999995,0.5642,7.3117,5.220000000000001,47.685,0.0,0.0,0.0,0.0
598,1/25/2012 22:00,0.0,75.43740000000001,4.142,0.0,0.0,9.8026,34.44,63.93000000000001,0.0,0.0,0.0,0.0
599,1/25/2012 23:00,0.0,173.1945,0.16199999999999998,0.0,4.4824,22.5055,11.88,146.775,0.0,0.0,0.0,0.0
600,1/26/2012 0:00,0.1969,126.201,0.0,0.1969,4.6462,16.399,4.54,106.94999999999999,0.0,0.0,0.0,0.0
601,1/26/2012 1:00,0.7381000000000001,148.5384,0.0,0.7381000000000001,0.8475999999999999,19.3016,4.46,125.88,0.0,0.0,0.0,0.0
602,1/26/2012 2:00,0.6281,7.3632,14.11,0.6281,9.391200000000001,0.9568,195.22,6.239999999999999,0.0,0.0,0.0,0.0
603,1/26/2012 3:00,0.5291,22.744500000000002,14.392,0.5291,1.7706,2.9555000000000002,10.0,19.275000000000002,0.0,0.0,0.0,0.0
604,1/26/2012 4:00,0.1672,10.797,1.6520000000000001,0.1672,0.0,1.403,9.0,9.15,0.0,0.0,0.0,0.0
605,1/26/2012 5:00,0.0,27.0279,0.0,0.0,0.0,3.5121,6.72,22.905,0.0,0.0,0.0,0.0
606,1/26/2012 6:00,1.4267,123.6345,13.132,1.4267,0.0,16.0655,4.36,104.775,0.0,0.0,0.0,0.0
607,1/26/2012 7:00,1.3684,24.78,5.114,1.3684,6.9706,3.22,184.48,21.000000000000004,0.0,0.0,0.0,0.0
608,1/26/2012 8:00,1.3563,18.5496,0.0,1.3563,9.0792,2.4104,173.76,15.72,0.0,0.0,0.0,0.0
609,1/26/2012 9:00,1.6962000000000002,11.2749,0.0,1.6962000000000002,3.1304,1.4651,173.01999999999998,9.555000000000001,0.14655497,0.14655497,0.14655497,0.14655497
610,1/26/2012 10:00,0.1804,4.9737,0.0,0.1804,3.6582,0.6463,97.18,4.215,1.00936189,1.00936189,1.00936189,1.00936189
611,1/26/2012 11:00,0.20459999999999998,1.5045000000000002,0.0,0.20459999999999998,3.8011999999999997,0.1955,178.48,1.2750000000000001,1.66775743,1.66775743,1.66775743,1.66775743
612,1/26/2012 12:00,3.4188,0.0,19.474,3.4188,3.9156000000000004,0.0,175.22,0.0,2.0460562199999996,2.0460562199999996,2.0460562199999996,2.0460562199999996
613,1/26/2012 13:00,6.0874,61.330499999999994,19.486,6.0874,3.484,7.969499999999999,6.4799999999999995,51.974999999999994,3.7706992599999998,3.7706992599999998,3.7706992599999998,3.7706992599999998
614,1/26/2012 14:00,7.6175,65.68469999999999,1.1800000000000002,7.6175,0.0,8.5353,149.88,55.665,4.41475135,4.41475135,4.41475135,4.41475135
615,1/26/2012 15:00,7.4624,157.45919999999998,1.056,7.4624,0.0,20.4608,2.54,133.44,4.13625621,4.13625621,4.13625621,4.13625621
616,1/26/2012 16:00,6.857399999999999,172.7874,1.042,6.857399999999999,1.6951999999999998,22.4526,0.0,146.43,3.0337006699999995,3.0337006699999995,3.0337006699999995,3.0337006699999995
617,1/26/2012 17:00,6.1567,0.0,19.62,6.1567,4.2146,0.0,88.94,0.0,0.39635544,0.39635544,0.39635544,0.39635544
618,1/26/2012 18:00,5.401,10.1598,5.494,5.401,0.3614,1.3202,96.78,8.61,0.0,0.0,0.0,0.0
619,1/26/2012 19:00,4.5694,14.372399999999999,18.977999999999998,4.5694,1.1336,1.8676,23.46,12.18,0.0,0.0,0.0,0.0
620,1/26/2012 20:00,3.8720000000000003,173.7255,19.058,3.8720000000000003,0.6864,22.5745,36.9,147.225,0.0,0.0,0.0,0.0
621,1/26/2012 21:00,8.2522,16.7442,18.902,8.2522,0.3952,2.1758,6.5600000000000005,14.190000000000001,0.0,0.0,0.0,0.0
622,1/26/2012 22:00,6.639600000000001,107.98769999999999,0.0,6.639600000000001,24.653200000000002,14.0323,14.299999999999999,91.515,0.0,0.0,0.0,0.0
623,1/26/2012 23:00,8.2632,109.33290000000001,0.246,8.2632,24.778,14.2071,179.94,92.655,0.0,0.0,0.0,0.0
624,1/27/2012 0:00,8.1598,91.7214,7.396000000000001,8.1598,1.5548,11.9186,118.54,77.73,0.0,0.0,0.0,0.0
625,1/27/2012 1:00,7.1698,64.71119999999999,8.740000000000002,7.1698,1.7680000000000002,8.4088,140.35999999999999,54.839999999999996,0.0,0.0,0.0,0.0
626,1/27/2012 2:00,5.241499999999999,83.22540000000001,8.298,5.241499999999999,11.6064,10.8146,7.42,70.53,0.0,0.0,0.0,0.0
627,1/27/2012 3:00,10.9109,108.0408,12.432,10.9109,13.6526,14.039200000000001,1.9800000000000002,91.56,0.0,0.0,0.0,0.0
628,1/27/2012 4:00,3.9478999999999997,121.82910000000001,11.22,3.9478999999999997,1.8668,15.8309,0.0,103.245,0.0,0.0,0.0,0.0
629,1/27/2012 5:00,9.8582,120.71400000000001,0.258,9.8582,1.0764,15.686000000000002,5.96,102.30000000000001,0.0,0.0,0.0,0.0
630,1/27/2012 6:00,9.6129,169.7961,0.19,9.6129,0.7826,22.0639,93.76,143.895,0.0,0.0,0.0,0.0
631,1/27/2012 7:00,9.3049,170.1147,0.0,9.3049,0.9932,22.1053,7.359999999999999,144.165,0.0,0.0,0.0,0.0
632,1/27/2012 8:00,8.525,169.8846,0.0,8.525,0.0,22.0754,75.68,143.97,0.0,0.0,0.0,0.0
633,1/27/2012 9:00,7.6824,33.63,3.086,7.6824,24.8716,4.37,137.86,28.5,0.07422488000000001,0.07422488000000001,0.07422488000000001,0.07422488000000001
634,1/27/2012 10:00,6.9146,145.671,3.37,6.9146,25.558,18.929,12.02,123.44999999999999,2.1250127,2.1250127,2.1250127,2.1250127
635,1/27/2012 11:00,8.283,1.4514,4.478,8.283,25.6646,0.18860000000000002,106.33999999999999,1.2300000000000002,3.4634280499999996,3.4634280499999996,3.4634280499999996,3.4634280499999996
636,1/27/2012 12:00,9.2004,45.2412,5.478,9.2004,26.0,5.8788,159.22,38.339999999999996,3.4760096899999997,3.4760096899999997,3.4760096899999997,3.4760096899999997
637,1/27/2012 13:00,9.459999999999999,177.0,6.798,9.459999999999999,6.9368,23.0,157.82,150.0,3.3471642800000003,3.3471642800000003,3.3471642800000003,3.3471642800000003
638,1/27/2012 14:00,9.444600000000001,6.619800000000001,7.246,9.444600000000001,2.314,0.8602000000000001,200.0,5.61,4.6790312400000005,4.6790312400000005,4.6790312400000005,4.6790312400000005
639,1/27/2012 15:00,7.4327,22.992299999999997,6.644,7.4327,26.0,2.9877,200.0,19.485,4.059662220000001,4.059662220000001,4.059662220000001,4.059662220000001
640,1/27/2012 16:00,5.7893,30.6387,5.869999999999999,5.7893,1.7550000000000001,3.9813,200.0,25.965,2.9439233399999996,2.9439233399999996,2.9439233399999996,2.9439233399999996
641,1/27/2012 17:00,3.7125000000000004,46.3032,0.24,3.7125000000000004,1.8616,6.0168,200.0,39.24,0.48496894000000007,0.48496894000000007,0.48496894000000007,0.48496894000000007
642,1/27/2012 18:00,2.7203,40.3029,0.818,2.7203,3.0654000000000003,5.2371,17.36,34.155,0.0,0.0,0.0,0.0
643,1/27/2012 19:00,0.41910000000000003,177.0,2.452,0.41910000000000003,2.041,23.0,20.54,150.0,0.0,0.0,0.0,0.0
644,1/27/2012 20:00,0.13090000000000002,9.8058,5.26,0.13090000000000002,0.0,1.2742,184.92,8.31,0.0,0.0,0.0,0.0
645,1/27/2012 21:00,0.0,9.8589,7.542,0.0,0.0,1.2811,157.66,8.355,0.0,0.0,0.0,0.0
646,1/27/2012 22:00,0.7458,55.047,7.401999999999999,0.7458,0.0,7.153,172.44,46.65,0.0,0.0,0.0,0.0
647,1/27/2012 23:00,0.473,102.2706,5.102,0.473,25.6802,13.289399999999999,3.36,86.67,0.0,0.0,0.0,0.0
648,1/28/2012 0:00,0.2431,21.8595,2.752,0.2431,25.4384,2.8405,23.9,18.525,0.0,0.0,0.0,0.0
649,1/28/2012 1:00,0.1221,0.0,1.8840000000000001,0.1221,20.5946,0.0,197.54,0.0,0.0,0.0,0.0,0.0
650,1/28/2012 2:00,0.7975,3.0621,2.166,0.7975,0.8735999999999999,0.3979,196.82,2.5949999999999998,0.0,0.0,0.0,0.0
651,1/28/2012 3:00,1.0813,135.405,1.96,1.0813,0.7176,17.595,48.64,114.75,0.0,0.0,0.0,0.0
652,1/28/2012 4:00,2.4277,9.7527,1.4779999999999998,2.4277,0.4680000000000001,1.2673,41.02,8.265,0.0,0.0,0.0,0.0
653,1/28/2012 5:00,1.0593,0.0,1.07,1.0593,9.0662,0.0,3.62,0.0,0.0,0.0,0.0,0.0
654,1/28/2012 6:00,2.7555,0.0,0.618,2.7555,8.5904,0.0,2.6,0.0,0.0,0.0,0.0,0.0
655,1/28/2012 7:00,2.5795,68.7114,2.804,2.5795,6.6196,8.9286,154.9,58.23,0.0,0.0,0.0,0.0
656,1/28/2012 8:00,2.145,55.755,0.0,2.145,8.6008,7.245,179.76000000000002,47.25,0.0,0.0,0.0,0.0
657,1/28/2012 9:00,1.1913,0.0,1.0979999999999999,1.1913,1.3155999999999999,0.0,171.16,0.0,0.6671047099999999,0.6671047099999999,0.6671047099999999,0.6671047099999999
658,1/28/2012 10:00,0.8756,31.9485,1.1199999999999999,0.8756,22.8202,4.1514999999999995,151.84,27.075,1.8492781999999999,1.8492781999999999,1.8492781999999999,1.8492781999999999
659,1/28/2012 11:00,1.8194,156.2025,3.58,1.8194,18.0986,20.2975,151.34,132.375,1.49413775,1.49413775,1.49413775,1.49413775
660,1/28/2012 12:00,2.0526,122.48400000000001,5.484,2.0526,15.3764,15.916000000000002,166.26000000000002,103.80000000000001,1.92185147,1.92185147,1.92185147,1.92185147
661,1/28/2012 13:00,3.9160000000000004,177.0,0.0,3.9160000000000004,11.0968,23.0,163.84,150.0,1.6409131300000002,1.6409131300000002,1.6409131300000002,1.6409131300000002
662,1/28/2012 14:00,6.635199999999999,177.0,18.026,6.635199999999999,8.551400000000001,23.0,114.17999999999999,150.0,1.09158826,1.09158826,1.09158826,1.09158826
663,1/28/2012 15:00,3.3055,177.0,0.0,3.3055,7.2046,23.0,165.48000000000002,150.0,1.3987418699999998,1.3987418699999998,1.3987418699999998,1.3987418699999998
664,1/28/2012 16:00,5.1326,2.7081,0.0,5.1326,6.4272,0.3519,147.04,2.295,0.73895271,0.73895271,0.73895271,0.73895271
665,1/28/2012 17:00,4.864199999999999,48.8343,0.0,4.864199999999999,5.7174000000000005,6.3457,191.57999999999998,41.385,0.22289179999999997,0.22289179999999997,0.22289179999999997,0.22289179999999997
666,1/28/2012 18:00,11.0,76.7826,9.118,11.0,4.6904,9.977400000000001,8.9,65.07000000000001,0.0,0.0,0.0,0.0
667,1/28/2012 19:00,10.8955,159.0168,8.421999999999999,10.8955,2.47,20.6632,196.66,134.76,0.0,0.0,0.0,0.0
668,1/28/2012 20:00,9.2268,30.974999999999998,7.852,9.2268,1.1466,4.0249999999999995,12.520000000000001,26.25,0.0,0.0,0.0,0.0
669,1/28/2012 21:00,10.8009,26.8332,7.5360000000000005,10.8009,0.8423999999999999,3.4868,5.46,22.740000000000002,0.0,0.0,0.0,0.0
670,1/28/2012 22:00,0.1342,144.5205,7.058,0.1342,0.6344000000000001,18.7795,196.1,122.475,0.0,0.0,0.0,0.0
671,1/28/2012 23:00,0.0,162.4152,19.402,0.0,0.9542,21.1048,2.54,137.64,0.0,0.0,0.0,0.0
672,1/29/2012 0:00,10.8955,171.867,0.0,10.8955,1.2766,22.333,194.14000000000001,145.65,0.0,0.0,0.0,0.0
673,1/29/2012 1:00,0.2486,174.876,12.458,0.2486,1.5288,22.724,27.22,148.2,0.0,0.0,0.0,0.0
674,1/29/2012 2:00,5.3768,1.8585,19.79,5.3768,1.5106,0.24150000000000002,16.14,1.5750000000000002,0.0,0.0,0.0,0.0
675,1/29/2012 3:00,2.1461,138.2724,19.748,2.1461,1.1648,17.9676,7.22,117.18,0.0,0.0,0.0,0.0
676,1/29/2012 4:00,4.4363,177.0,0.302,4.4363,1.0322,23.0,36.1,150.0,0.0,0.0,0.0,0.0
677,1/29/2012 5:00,2.343,174.2919,0.624,2.343,26.0,22.6481,47.18,147.705,0.0,0.0,0.0,0.0
678,1/29/2012 6:00,3.3286,175.01760000000002,19.646,3.3286,0.7176,22.7424,65.86,148.32,0.0,0.0,0.0,0.0
679,1/29/2012 7:00,4.4495000000000005,7.8057,16.634,4.4495000000000005,25.3786,1.0143,81.86,6.615,0.0,0.0,0.0,0.0
680,1/29/2012 8:00,2.5289,177.0,0.8160000000000001,2.5289,22.4458,23.0,95.84,150.0,0.0,0.0,0.0,0.0
681,1/29/2012 9:00,9.7691,177.0,6.263999999999999,9.7691,19.616999999999997,23.0,10.280000000000001,150.0,0.20083196,0.20083196,0.20083196,0.20083196
682,1/29/2012 10:00,10.549000000000001,177.0,18.828,10.549000000000001,15.8158,23.0,5.64,150.0,0.60265654,0.60265654,0.60265654,0.60265654
683,1/29/2012 11:00,10.627099999999999,175.6371,18.854,10.627099999999999,12.0146,22.8229,2.5,148.845,1.0574462800000002,1.0574462800000002,1.0574462800000002,1.0574462800000002
684,1/29/2012 12:00,0.3861,177.0,18.852,0.3861,8.7776,23.0,4.18,150.0,1.36338544,1.36338544,1.36338544,1.36338544
685,1/29/2012 13:00,1.287,2.6196,16.156,1.287,6.5286,0.34040000000000004,119.74000000000001,2.22,2.15710149,2.15710149,2.15710149,2.15710149
686,1/29/2012 14:00,0.1518,3.0444,6.101999999999999,0.1518,5.1844,0.3956,2.98,2.58,1.9815179100000002,1.9815179100000002,1.9815179100000002,1.9815179100000002
687,1/29/2012 15:00,0.0,175.6371,4.894,0.0,4.498,22.8229,83.32000000000001,148.845,0.6486196499999999,0.6486196499999999,0.6486196499999999,0.6486196499999999
688,1/29/2012 16:00,0.0,28.019099999999998,6.458,0.0,0.2964,3.6409,4.14,23.745,0.5259916200000001,0.5259916200000001,0.5259916200000001,0.5259916200000001
689,1/29/2012 17:00,0.0,31.258200000000002,15.084,0.0,0.2782,4.0618,2.86,26.490000000000002,0.08229074,0.08229074,0.08229074,0.08229074
690,1/29/2012 18:00,1.6885,72.9417,0.33599999999999997,1.6885,0.2886,9.4783,2.3,61.815000000000005,0.0,0.0,0.0,0.0
691,1/29/2012 19:00,3.2449999999999997,113.38619999999999,0.222,3.2449999999999997,1.7056000000000002,14.733799999999999,2.2800000000000002,96.08999999999999,0.0,0.0,0.0,0.0
692,1/29/2012 20:00,1.1363,1.4514,9.370000000000001,1.1363,23.831599999999998,0.18860000000000002,2.4,1.2300000000000002,0.0,0.0,0.0,0.0
693,1/29/2012 21:00,7.5977,148.9809,1.326,7.5977,19.37,19.3591,2.42,126.255,0.0,0.0,0.0,0.0
694,1/29/2012 22:00,6.7397,131.63490000000002,1.792,6.7397,19.8822,17.1051,2.42,111.555,0.0,0.0,0.0,0.0
695,1/29/2012 23:00,0.187,13.239600000000001,3.1319999999999997,0.187,21.008,1.7204000000000002,4.6,11.22,0.0,0.0,0.0,0.0
696,1/30/2012 0:00,0.0,170.0793,5.404,0.0,24.8326,22.1007,14.26,144.135,0.0,0.0,0.0,0.0
697,1/30/2012 1:00,6.0082,13.5051,2.958,6.0082,22.765600000000003,1.7549000000000001,20.24,11.445,0.0,0.0,0.0,0.0
698,1/30/2012 2:00,8.0773,36.231899999999996,0.24,8.0773,13.584999999999999,4.7081,17.24,30.705,0.0,0.0,0.0,0.0
699,1/30/2012 3:00,0.0,0.0,1.134,0.0,3.6894,0.0,13.459999999999999,0.0,0.0,0.0,0.0,0.0
700,1/30/2012 4:00,7.8683000000000005,13.593599999999999,0.502,7.8683000000000005,4.0872,1.7663999999999997,8.540000000000001,11.52,0.0,0.0,0.0,0.0
701,1/30/2012 5:00,8.462299999999999,2.6727000000000003,0.31,8.462299999999999,2.4752,0.3473,6.819999999999999,2.265,0.0,0.0,0.0,0.0
702,1/30/2012 6:00,9.351099999999999,23.4525,19.332,9.351099999999999,2.8548,3.0475000000000003,47.06,19.875,0.0,0.0,0.0,0.0
703,1/30/2012 7:00,1.0835000000000001,140.6619,0.454,1.0835000000000001,17.050800000000002,18.2781,36.7,119.205,0.0,0.0,0.0,0.0
704,1/30/2012 8:00,0.5654,134.8386,0.75,0.5654,15.8522,17.5214,32.64,114.27000000000001,0.0,0.0,0.0,0.0
705,1/30/2012 9:00,0.0,84.0573,0.73,0.0,10.0048,10.922699999999999,45.94,71.235,0.15623441999999998,0.15623441999999998,0.15623441999999998,0.15623441999999998
706,1/30/2012 10:00,8.6416,76.0392,0.974,8.6416,8.0132,9.880799999999999,76.53999999999999,64.44,0.50177772,0.50177772,0.50177772,0.50177772
707,1/30/2012 11:00,4.7553,4.1241,0.58,4.7553,26.0,0.5359,110.72,3.495,0.8710775400000002,0.8710775400000002,0.8710775400000002,0.8710775400000002
708,1/30/2012 12:00,10.8669,10.3368,0.322,10.8669,5.7408,1.3432,133.82,8.76,1.3312153800000002,1.3312153800000002,1.3312153800000002,1.3312153800000002
709,1/30/2012 13:00,4.1459,18.231,0.318,4.1459,4.687799999999999,2.369,143.0,15.450000000000001,3.21903924,3.21903924,3.21903924,3.21903924
710,1/30/2012 14:00,11.0,24.2136,0.522,11.0,3.5984,3.1464000000000003,143.84,20.52,4.38000208,4.38000208,4.38000208,4.38000208
711,1/30/2012 15:00,10.2333,11.9121,2.504,10.2333,2.184,1.5479,133.04,10.095,4.33696466,4.33696466,4.33696466,4.33696466
712,1/30/2012 16:00,0.0,10.5492,17.356,0.0,1.4976,1.3708,112.5,8.94,3.2954937600000003,3.2954937600000003,3.2954937600000003,3.2954937600000003
713,1/30/2012 17:00,5.893800000000001,0.0,0.0,5.893800000000001,0.9438,0.0,193.06,0.0,0.9034781800000001,0.9034781800000001,0.9034781800000001,0.9034781800000001
714,1/30/2012 18:00,4.6387,0.0,0.0,4.6387,3.3930000000000002,0.0,193.70000000000002,0.0,0.0,0.0,0.0,0.0
715,1/30/2012 19:00,3.3065999999999995,177.0,0.15,3.3065999999999995,1.6432000000000002,23.0,200.0,150.0,0.0,0.0,0.0,0.0
716,1/30/2012 20:00,2.2209,177.0,0.764,2.2209,2.1554,23.0,67.08,150.0,0.0,0.0,0.0,0.0
717,1/30/2012 21:00,2.3133,95.0313,1.0,2.3133,3.8064,12.348700000000001,69.1,80.53500000000001,0.0,0.0,0.0,0.0
718,1/30/2012 22:00,3.2175,116.1474,0.75,3.2175,0.2314,15.092600000000001,72.16,98.43,0.0,0.0,0.0,0.0
719,1/30/2012 23:00,0.6171,108.5187,0.39,0.6171,0.2886,14.1013,7.28,91.965,0.0,0.0,0.0,0.0
