,date,Wind_1,Wind_2,Wind_3,Wind_4,Wind_5,Wind_6,Wind_7,Wind_8,Solar_1,Solar_2,Solar_3,Solar_4
7200,10/27/2012 0:00,0.30799999999999994,56.5692,0.196,0.30799999999999994,18.4808,7.3508,24.26,47.94,0.0,0.0,0.0,0.0
7201,10/27/2012 1:00,0.21230000000000002,94.2525,0.16799999999999998,0.21230000000000002,17.0118,12.247499999999999,78.66,79.875,0.0,0.0,0.0,0.0
7202,10/27/2012 2:00,6.1666,4.9383,0.154,6.1666,8.333,0.6417,84.74000000000001,4.1850000000000005,0.0,0.0,0.0,0.0
7203,10/27/2012 3:00,4.5331,5.5047,0.712,4.5331,6.1932,0.7152999999999999,79.16,4.665,0.0,0.0,0.0,0.0
7204,10/27/2012 4:00,3.2218999999999998,7.770300000000001,0.5439999999999999,3.2218999999999998,20.0668,1.0097,55.46,6.585,0.0,0.0,0.0,0.0
7205,10/27/2012 5:00,3.1393999999999997,149.8482,0.344,3.1393999999999997,7.1266,19.4718,6.52,126.99000000000001,0.0,0.0,0.0,0.0
7206,10/27/2012 6:00,2.2374,138.5556,0.22000000000000003,2.2374,10.4988,18.0044,9.06,117.42,0.0,0.0,0.0,0.0
7207,10/27/2012 7:00,1.2848,131.1924,0.19,1.2848,16.8766,17.0476,29.580000000000002,111.17999999999999,0.0,0.0,0.0,0.0
7208,10/27/2012 8:00,0.4466,15.2574,0.20199999999999999,0.4466,21.2836,1.9826,63.46000000000001,12.93,1.6176965599999997,1.6176965599999997,1.6176965599999997,1.6176965599999997
7209,10/27/2012 9:00,0.0,15.93,0.23800000000000002,0.0,1.3754,2.07,183.02,13.5,1.73224178,1.73224178,1.73224178,1.73224178
7210,10/27/2012 10:00,0.0,3.2391,0.32599999999999996,0.0,25.545,0.4209,151.44,2.745,0.29178339,0.29178339,0.29178339,0.29178339
7211,10/27/2012 11:00,0.0,16.4433,0.474,0.0,25.2798,2.1367,30.520000000000003,13.934999999999999,0.85404614,0.85404614,0.85404614,0.85404614
7212,10/27/2012 12:00,0.1386,25.1163,8.562,0.1386,24.6246,3.2637,33.92,21.285,1.3340238599999998,1.3340238599999998,1.3340238599999998,1.3340238599999998
7213,10/27/2012 13:00,0.49169999999999997,106.07610000000001,11.246,0.49169999999999997,23.2284,13.783900000000001,42.96,89.89500000000001,1.71204146,1.71204146,1.71204146,1.71204146
7214,10/27/2012 14:00,5.7035,106.25309999999999,2.768,5.7035,20.5218,13.806899999999999,96.32,90.04499999999999,1.87302627,1.87302627,1.87302627,1.87302627
7215,10/27/2012 15:00,10.1761,97.5447,2.158,10.1761,16.7388,12.6753,92.32000000000001,82.665,1.8570784100000002,1.8570784100000002,1.8570784100000002,1.8570784100000002
7216,10/27/2012 16:00,10.2168,12.7086,1.7879999999999998,10.2168,1.0373999999999999,1.6514,0.0,10.77,1.36527948,1.36527948,1.36527948,1.36527948
7217,10/27/2012 17:00,10.054,33.9663,1.6900000000000002,10.054,0.7904,4.4136999999999995,0.0,28.784999999999997,0.37523812,0.37523812,0.37523812,0.37523812
7218,10/27/2012 18:00,8.564599999999999,29.2227,0.9460000000000001,8.564599999999999,0.6786000000000001,3.7973,0.0,24.765,0.0,0.0,0.0,0.0
7219,10/27/2012 19:00,3.1284,27.6828,18.438000000000002,3.1284,0.6396000000000001,3.5972000000000004,91.84,23.46,0.0,0.0,0.0,0.0
7220,10/27/2012 20:00,3.3693,18.7089,20.0,3.3693,0.741,2.4311000000000003,123.78,15.855,0.0,0.0,0.0,0.0
7221,10/27/2012 21:00,3.421,9.9651,20.0,3.421,2.0644,1.2949000000000002,62.160000000000004,8.445,0.0,0.0,0.0,0.0
7222,10/27/2012 22:00,2.6642,9.3987,12.21,2.6642,1.7056000000000002,1.2213,60.480000000000004,7.965,0.0,0.0,0.0,0.0
7223,10/27/2012 23:00,0.6159999999999999,4.071,13.422,0.6159999999999999,0.9386,0.529,18.22,3.4499999999999997,0.0,0.0,0.0,0.0
7224,10/28/2012 0:00,0.7556999999999999,3.1329000000000002,14.622,0.7556999999999999,0.5044,0.4071,20.32,2.6550000000000002,0.0,0.0,0.0,0.0
7225,10/28/2012 1:00,0.704,46.5864,15.511999999999999,0.704,9.562800000000001,6.053599999999999,30.48,39.48,0.0,0.0,0.0,0.0
7226,10/28/2012 2:00,6.9575,0.0,16.184,6.9575,13.9178,0.0,41.04,0.0,0.0,0.0,0.0,0.0
7227,10/28/2012 3:00,9.9209,1.5398999999999998,16.728,9.9209,11.0838,0.2001,15.459999999999999,1.305,0.0,0.0,0.0,0.0
7228,10/28/2012 4:00,10.7074,7.9296,17.137999999999998,10.7074,14.2012,1.0304,15.76,6.72,0.0,0.0,0.0,0.0
7229,10/28/2012 5:00,10.8427,38.1612,17.03,10.8427,19.5988,4.9588,12.24,32.34,0.0,0.0,0.0,0.0
7230,10/28/2012 6:00,10.8383,12.213000000000001,16.79,10.8383,21.668400000000002,1.5870000000000002,106.62,10.350000000000001,0.0,0.0,0.0,0.0
7231,10/28/2012 7:00,10.783299999999999,17.3991,16.706,10.783299999999999,22.375600000000002,2.2609,0.0,14.745,0.0,0.0,0.0,0.0
7232,10/28/2012 8:00,10.3048,25.5765,16.71,10.3048,22.802,3.3234999999999997,0.0,21.674999999999997,1.47397259,1.47397259,1.47397259,1.47397259
7233,10/28/2012 9:00,9.408299999999999,31.86,17.652,9.408299999999999,22.807199999999998,4.14,0.0,27.0,1.681695,1.681695,1.681695,1.681695
7234,10/28/2012 10:00,0.6941,37.1169,14.818,0.6941,4.5396,4.8231,4.22,31.455,0.40324227999999995,0.40324227999999995,0.40324227999999995,0.40324227999999995
7235,10/28/2012 11:00,0.2442,36.3558,7.927999999999999,0.2442,22.0142,4.7242,2.08,30.81,0.9834249699999998,0.9834249699999998,0.9834249699999998,0.9834249699999998
7236,10/28/2012 12:00,0.18810000000000002,26.302200000000003,5.976,0.18810000000000002,9.9398,3.4178,43.86,22.290000000000003,1.38117689,1.38117689,1.38117689,1.38117689
7237,10/28/2012 13:00,0.0,134.874,14.786,0.0,6.0554,17.526,36.5,114.3,1.7022608799999999,1.7022608799999999,1.7022608799999999,1.7022608799999999
7238,10/28/2012 14:00,6.7529,147.5472,14.288,6.7529,4.5214,19.1728,0.0,125.04,1.6989790300000003,1.6989790300000003,1.6989790300000003,1.6989790300000003
7239,10/28/2012 15:00,0.7106,154.0254,13.122,0.7106,3.5854,20.014599999999998,47.6,130.53,1.60477071,1.60477071,1.60477071,1.60477071
7240,10/28/2012 16:00,0.3641,158.75130000000001,9.946,0.3641,11.3854,20.628700000000002,0.0,134.535,1.4053307000000002,1.4053307000000002,1.4053307000000002,1.4053307000000002
7241,10/28/2012 17:00,0.2739,161.8134,7.556000000000001,0.2739,10.2466,21.026600000000002,193.46,137.13,0.40785182000000003,0.40785182000000003,0.40785182000000003,0.40785182000000003
7242,10/28/2012 18:00,0.22219999999999998,165.1587,6.086,0.22219999999999998,11.4504,21.4613,196.3,139.965,0.0,0.0,0.0,0.0
7243,10/28/2012 19:00,0.1243,168.4509,6.066000000000001,0.1243,12.1966,21.8891,28.74,142.755,0.0,0.0,0.0,0.0
7244,10/28/2012 20:00,0.1254,171.5307,7.62,0.1254,0.9542,22.2893,24.060000000000002,145.36499999999998,0.0,0.0,0.0,0.0
7245,10/28/2012 21:00,0.1507,173.46,8.316,0.1507,0.42640000000000006,22.54,20.080000000000002,147.0,0.0,0.0,0.0,0.0
7246,10/28/2012 22:00,0.1947,0.0,0.596,0.1947,0.18460000000000001,0.0,16.28,0.0,0.0,0.0,0.0,0.0
7247,10/28/2012 23:00,7.0653,145.7064,0.612,7.0653,0.0,18.933600000000002,83.89999999999999,123.48,0.0,0.0,0.0,0.0
7248,10/29/2012 0:00,6.8596,140.3787,0.51,6.8596,13.704600000000001,18.2413,65.06,118.965,0.0,0.0,0.0,0.0
7249,10/29/2012 1:00,0.0924,137.70600000000002,0.32399999999999995,0.0924,13.1274,17.894000000000002,75.32,116.7,0.0,0.0,0.0,0.0
7250,10/29/2012 2:00,0.1485,134.1483,0.228,0.1485,11.5778,17.4317,121.8,113.685,0.0,0.0,0.0,0.0
7251,10/29/2012 3:00,7.1478,173.1945,0.856,7.1478,9.6382,22.5055,160.73999999999998,146.775,0.0,0.0,0.0,0.0
7252,10/29/2012 4:00,7.37,169.5306,1.308,7.37,8.2056,22.0294,152.58,143.67,0.0,0.0,0.0,0.0
7253,10/29/2012 5:00,6.9575,149.4942,0.444,6.9575,1.9552,19.4258,154.85999999999999,126.69,0.0,0.0,0.0,0.0
7254,10/29/2012 6:00,6.1204,111.75779999999999,0.588,6.1204,2.4362000000000004,14.5222,176.72,94.71,0.0,0.0,0.0,0.0
7255,10/29/2012 7:00,4.7575,0.0,0.9139999999999999,4.7575,0.0,0.0,190.88,0.0,0.0,0.0,0.0,0.0
7256,10/29/2012 8:00,10.6843,0.0,1.476,10.6843,0.0,0.0,184.56,0.0,1.4007581,1.4007581,1.4007581,1.4007581
7257,10/29/2012 9:00,2.4827000000000004,173.17680000000001,2.174,2.4827000000000004,11.1488,22.5032,9.379999999999999,146.76000000000002,1.69599907,1.69599907,1.69599907,1.69599907
7258,10/29/2012 10:00,2.7588000000000004,0.0,2.114,2.7588000000000004,12.3864,0.0,6.36,0.0,0.19566335,0.19566335,0.19566335,0.19566335
7259,10/29/2012 11:00,6.3162,2.8674,1.9320000000000002,6.3162,12.6438,0.3726,6.34,2.4299999999999997,0.7582576000000001,0.7582576000000001,0.7582576000000001,0.7582576000000001
7260,10/29/2012 12:00,2.9722,177.0,2.692,2.9722,10.738,23.0,11.04,150.0,1.24257001,1.24257001,1.24257001,1.24257001
7261,10/29/2012 13:00,3.4386,177.0,17.102,3.4386,12.599599999999999,23.0,21.759999999999998,150.0,1.6278019400000001,1.6278019400000001,1.6278019400000001,1.6278019400000001
7262,10/29/2012 14:00,4.9511,43.294200000000004,1.862,4.9511,18.9072,5.6258,38.36,36.690000000000005,1.7878934899999999,1.7878934899999999,1.7878934899999999,1.7878934899999999
7263,10/29/2012 15:00,5.381200000000001,133.6704,7.016,5.381200000000001,20.2852,17.3696,86.16,113.28,1.73134175,1.73134175,1.73134175,1.73134175
7264,10/29/2012 16:00,4.8774,137.49360000000001,0.25,4.8774,25.316200000000002,17.866400000000002,108.67999999999999,116.52000000000001,1.30619797,1.30619797,1.30619797,1.30619797
7265,10/29/2012 17:00,3.7191,129.21,18.022,3.7191,7.6648000000000005,16.79,112.92,109.5,0.30546517,0.30546517,0.30546517,0.30546517
7266,10/29/2012 18:00,2.0107999999999997,112.5189,17.364,2.0107999999999997,20.8156,14.6211,115.01999999999998,95.355,0.0,0.0,0.0,0.0
7267,10/29/2012 19:00,0.0,4.7259,0.268,0.0,26.0,0.6141000000000001,117.19999999999999,4.005,0.0,0.0,0.0,0.0
7268,10/29/2012 20:00,1.8194,5.026800000000001,0.166,1.8194,26.0,0.6532,104.2,4.260000000000001,0.0,0.0,0.0,0.0
7269,10/29/2012 21:00,1.5169,27.7359,0.0,1.5169,26.0,3.6041000000000003,70.4,23.505000000000003,0.0,0.0,0.0,0.0
7270,10/29/2012 22:00,2.9986,33.8778,0.718,2.9986,26.0,4.4022,82.2,28.709999999999997,0.0,0.0,0.0,0.0
7271,10/29/2012 23:00,5.291,1.6284,12.780000000000001,5.291,23.0308,0.2116,7.400000000000001,1.38,0.0,0.0,0.0,0.0
7272,10/30/2012 0:00,7.2435,9.2217,0.596,7.2435,22.9346,1.1983,4.760000000000001,7.815,0.0,0.0,0.0,0.0
7273,10/30/2012 1:00,8.722999999999999,62.0031,0.0,8.722999999999999,22.7032,8.0569,160.82,52.545,0.0,0.0,0.0,0.0
7274,10/30/2012 2:00,9.515,57.7197,0.796,9.515,22.113,7.5003,184.82,48.915,0.0,0.0,0.0,0.0
7275,10/30/2012 3:00,8.9958,66.2157,2.04,8.9958,26.0,8.6043,193.46,56.114999999999995,0.0,0.0,0.0,0.0
7276,10/30/2012 4:00,8.375399999999999,21.505499999999998,3.748,8.375399999999999,6.6404000000000005,2.7944999999999998,197.06,18.224999999999998,0.0,0.0,0.0,0.0
7277,10/30/2012 5:00,8.002500000000001,60.711,6.256,8.002500000000001,5.3898,7.888999999999999,3.46,51.449999999999996,0.0,0.0,0.0,0.0
7278,10/30/2012 6:00,6.6044,13.2927,8.212,6.6044,0.273,1.7273,200.0,11.265,0.0,0.0,0.0,0.0
7279,10/30/2012 7:00,5.093,23.3463,8.338,5.093,0.8398000000000001,3.0336999999999996,200.0,19.785,0.0,0.0,0.0,0.0
7280,10/30/2012 8:00,0.2332,30.585600000000003,2.384,0.2332,1.7394,3.9744,200.0,25.92,1.11118954,1.11118954,1.11118954,1.11118954
7281,10/30/2012 9:00,0.4576,35.2053,19.056,0.4576,24.7208,4.5747,200.0,29.834999999999997,1.5030682400000002,1.5030682400000002,1.5030682400000002,1.5030682400000002
7282,10/30/2012 10:00,4.5859,35.3292,2.68,4.5859,25.0276,4.5908,200.0,29.94,0.4938278099999999,0.4938278099999999,0.4938278099999999,0.4938278099999999
7283,10/30/2012 11:00,0.2332,20.9391,2.596,0.2332,25.181,2.7209,200.0,17.745,1.04547074,1.04547074,1.04547074,1.04547074
7284,10/30/2012 12:00,0.1804,14.5317,1.872,0.1804,25.1706,1.8883,5.34,12.315000000000001,1.3024925699999998,1.3024925699999998,1.3024925699999998,1.3024925699999998
7285,10/30/2012 13:00,5.4417,13.682099999999998,3.812,5.4417,25.0224,1.7778999999999998,3.08,11.594999999999999,1.9003704,1.9003704,1.9003704,1.9003704
7286,10/30/2012 14:00,5.907,13.0449,4.21,5.907,24.749399999999998,1.6951,4.12,11.055,1.99989396,1.99989396,1.99989396,1.99989396
7287,10/30/2012 15:00,5.7079,9.2217,5.332,5.7079,20.043400000000002,1.1983,197.98,7.815,1.6640201599999997,1.6640201599999997,1.6640201599999997,1.6640201599999997
7288,10/30/2012 16:00,5.1942,6.9384,6.234,5.1942,21.2628,0.9016,194.84,5.88,1.09759842,1.09759842,1.09759842,1.09759842
7289,10/30/2012 17:00,4.345000000000001,28.620900000000002,6.654,4.345000000000001,25.4592,3.7191,14.180000000000001,24.255000000000003,0.17709479,0.17709479,0.17709479,0.17709479
7290,10/30/2012 18:00,2.3001,31.665300000000002,8.618,2.3001,25.415,4.1147,20.32,26.835,0.0,0.0,0.0,0.0
7291,10/30/2012 19:00,5.548399999999999,29.771399999999996,9.724,5.548399999999999,25.2564,3.8686,25.119999999999997,25.229999999999997,0.0,0.0,0.0,0.0
7292,10/30/2012 20:00,6.3305,24.4083,10.229999999999999,6.3305,25.7608,3.1717,29.98,20.685,0.0,0.0,0.0,0.0
7293,10/30/2012 21:00,1.2474,17.346,13.680000000000001,1.2474,23.53,2.254,37.04,14.700000000000001,0.0,0.0,0.0,0.0
7294,10/30/2012 22:00,0.9009,14.1069,16.266000000000002,0.9009,26.0,1.8331,51.580000000000005,11.954999999999998,0.0,0.0,0.0,0.0
7295,10/30/2012 23:00,0.5808,1.2567000000000002,16.796,0.5808,0.3276,0.1633,70.1,1.0650000000000002,0.0,0.0,0.0,0.0
7296,10/31/2012 0:00,0.40370000000000006,0.0,4.87,0.40370000000000006,9.4926,0.0,91.78,0.0,0.0,0.0,0.0,0.0
7297,10/31/2012 1:00,0.3784,0.0,3.84,0.3784,6.2114,0.0,113.04,0.0,0.0,0.0,0.0,0.0
7298,10/31/2012 2:00,0.4972,7.1685,14.754000000000001,0.4972,4.3472,0.9315,83.1,6.075,0.0,0.0,0.0,0.0
7299,10/31/2012 3:00,0.5246999999999999,2.655,14.044,0.5246999999999999,5.0466,0.345,58.8,2.25,0.0,0.0,0.0,0.0
7300,10/31/2012 4:00,0.39049999999999996,2.5134000000000003,12.93,0.39049999999999996,26.0,0.3266,28.52,2.1300000000000003,0.0,0.0,0.0,0.0
7301,10/31/2012 5:00,0.4532,2.3187,15.276,0.4532,20.6856,0.3013,165.26000000000002,1.965,0.0,0.0,0.0,0.0
7302,10/31/2012 6:00,0.5159,2.4426,13.722000000000001,0.5159,20.5036,0.3174,169.34,2.07,0.0,0.0,0.0,0.0
7303,10/31/2012 7:00,0.6391,2.9205,13.928,0.6391,18.0882,0.3795,168.38,2.475,0.0,0.0,0.0,0.0
7304,10/31/2012 8:00,2.2484,3.6108000000000002,13.271999999999998,2.2484,3.3124000000000002,0.46920000000000006,200.0,3.06,0.9592687099999999,0.9592687099999999,0.9592687099999999,0.9592687099999999
7305,10/31/2012 9:00,8.3831,3.7878,0.0,8.3831,5.3222,0.49219999999999997,200.0,3.21,1.4935979099999999,1.4935979099999999,1.4935979099999999,1.4935979099999999
7306,10/31/2012 10:00,0.9328,3.9471000000000003,0.0,0.9328,7.043399999999999,0.5129,200.0,3.345,1.00059731,1.00059731,1.00059731,1.00059731
7307,10/31/2012 11:00,2.4992,174.8229,0.0,2.4992,8.1068,22.717100000000002,102.67999999999999,148.155,1.5832382,1.5832382,1.5832382,1.5832382
7308,10/31/2012 12:00,1.1308,175.1415,0.0,1.1308,1.0348000000000002,22.7585,54.72,148.425,1.8148858300000001,1.8148858300000001,1.8148858300000001,1.8148858300000001
7309,10/31/2012 13:00,2.3386,175.6017,0.44200000000000006,2.3386,10.9304,22.8183,5.46,148.815,1.9510594899999998,1.9510594899999998,1.9510594899999998,1.9510594899999998
7310,10/31/2012 14:00,1.7215,177.0,1.548,1.7215,26.0,23.0,7.5,150.0,1.9659258800000001,1.9659258800000001,1.9659258800000001,1.9659258800000001
7311,10/31/2012 15:00,1.7204000000000002,177.0,11.120000000000001,1.7204000000000002,8.4604,23.0,190.76,150.0,1.59895286,1.59895286,1.59895286,1.59895286
7312,10/31/2012 16:00,2.4035,177.0,8.488,2.4035,8.853000000000002,23.0,192.66,150.0,1.03664551,1.03664551,1.03664551,1.03664551
7313,10/31/2012 17:00,1.8293,4.3719,4.372,1.8293,10.2232,0.5681,200.0,3.705,0.1552831,0.1552831,0.1552831,0.1552831
7314,10/31/2012 18:00,0.6072,112.4127,19.434,0.6072,11.3308,14.6073,198.26,95.265,0.0,0.0,0.0,0.0
7315,10/31/2012 19:00,0.1958,101.98740000000001,14.554,0.1958,11.5856,13.252600000000001,196.94,86.43,0.0,0.0,0.0,0.0
7316,10/31/2012 20:00,2.6125,108.97890000000001,17.026,2.6125,10.465,14.161100000000001,195.56,92.355,0.0,0.0,0.0,0.0
7317,10/31/2012 21:00,1.7985,1.6991999999999998,0.27,1.7985,0.2886,0.22079999999999997,195.85999999999999,1.44,0.0,0.0,0.0,0.0
7318,10/31/2012 22:00,1.3518999999999999,1.3452,0.178,1.3518999999999999,16.3956,0.1748,191.26000000000002,1.14,0.0,0.0,0.0,0.0
7319,10/31/2012 23:00,9.8912,0.0,0.0,9.8912,10.124400000000001,0.0,183.56,0.0,0.0,0.0,0.0,0.0
7320,11/1/2012 0:00,5.8816999999999995,0.0,0.0,5.8816999999999995,3.5463999999999998,0.0,179.82,0.0,0.0,0.0,0.0,0.0
7321,11/1/2012 1:00,8.0531,6.3543,0.0,8.0531,26.0,0.8257,169.14000000000001,5.385,0.0,0.0,0.0,0.0
7322,11/1/2012 2:00,8.4557,17.3637,0.0,8.4557,25.6568,2.2563,5.72,14.715000000000002,0.0,0.0,0.0,0.0
7323,11/1/2012 3:00,3.9974,0.0,17.468,3.9974,12.8804,0.0,134.8,0.0,0.0,0.0,0.0,0.0
7324,11/1/2012 4:00,3.2021,41.4357,15.936,3.2021,11.9574,5.3843,179.58,35.115,0.0,0.0,0.0,0.0
7325,11/1/2012 5:00,3.4463000000000004,33.4884,13.292,3.4463000000000004,11.297,4.3516,194.76,28.380000000000003,0.0,0.0,0.0,0.0
7326,11/1/2012 6:00,4.0051,33.63,11.394,4.0051,17.2406,4.37,196.23999999999998,28.5,0.0,0.0,0.0,0.0
7327,11/1/2012 7:00,3.0580000000000003,61.2243,10.59,3.0580000000000003,13.3978,7.955699999999999,190.98,51.885,0.0,0.0,0.0,0.0
7328,11/1/2012 8:00,10.8735,50.6574,10.144,10.8735,9.8332,6.5826,53.839999999999996,42.93,0.64526583,0.64526583,0.64526583,0.64526583
7329,11/1/2012 9:00,10.793199999999999,54.9762,8.836,10.793199999999999,3.0290000000000004,7.1438,169.68,46.589999999999996,0.99063385,0.99063385,0.99063385,0.99063385
7330,11/1/2012 10:00,10.8438,61.8084,8.488,10.8438,1.9656,8.031600000000001,50.12,52.38,0.88689904,0.88689904,0.88689904,0.88689904
7331,11/1/2012 11:00,10.884500000000001,66.6759,10.096,10.884500000000001,1.1778,8.6641,57.76,56.504999999999995,1.32116065,1.32116065,1.32116065,1.32116065
7332,11/1/2012 12:00,10.787700000000001,7.8765,10.893999999999998,10.787700000000001,0.7488,1.0234999999999999,61.28,6.675,1.70769626,1.70769626,1.70769626,1.70769626
7333,11/1/2012 13:00,10.7888,34.4619,1.844,10.7888,0.4680000000000001,4.4781,62.519999999999996,29.205000000000002,1.8732020000000003,1.8732020000000003,1.8732020000000003,1.8732020000000003
7334,11/1/2012 14:00,10.584200000000001,30.4617,0.78,10.584200000000001,0.2938,3.9583,18.360000000000003,25.815,1.3562520000000002,1.3562520000000002,1.3562520000000002,1.3562520000000002
7335,11/1/2012 15:00,10.1288,16.6203,0.24400000000000002,10.1288,0.0,2.1597,19.1,14.084999999999999,1.1739240599999998,1.1739240599999998,1.1739240599999998,1.1739240599999998
7336,11/1/2012 16:00,9.5348,6.5844,0.0,9.5348,0.0,0.8555999999999999,33.54,5.579999999999999,0.82768625,0.82768625,0.82768625,0.82768625
7337,11/1/2012 17:00,9.197099999999999,2.1417,8.128,9.197099999999999,0.0,0.2783,22.58,1.815,0.15964365000000003,0.15964365000000003,0.15964365000000003,0.15964365000000003
7338,11/1/2012 18:00,8.6306,1.9824,1.3159999999999998,8.6306,0.0,0.2576,99.5,1.68,0.0,0.0,0.0,0.0
7339,11/1/2012 19:00,7.4998,11.876700000000001,3.85,7.4998,0.0,1.5433000000000001,61.96,10.065000000000001,0.0,0.0,0.0,0.0
7340,11/1/2012 20:00,11.0,2.1594,2.0380000000000003,11.0,0.0,0.2806,51.82,1.83,0.0,0.0,0.0,0.0
7341,11/1/2012 21:00,11.0,0.0,1.914,11.0,0.0,0.0,200.0,0.0,0.0,0.0,0.0,0.0
7342,11/1/2012 22:00,2.6444,0.0,5.654,2.6444,0.0,0.0,200.0,0.0,0.0,0.0,0.0,0.0
7343,11/1/2012 23:00,1.2661,1.4514,2.8100000000000005,1.2661,0.0,0.18860000000000002,200.0,1.2300000000000002,0.0,0.0,0.0,0.0
7344,11/2/2012 0:00,1.5202,3.6992999999999996,5.962,1.5202,0.0,0.48069999999999996,200.0,3.135,0.0,0.0,0.0,0.0
7345,11/2/2012 1:00,11.0,3.4692,6.126,11.0,0.0,0.4508,200.0,2.94,0.0,0.0,0.0,0.0
7346,11/2/2012 2:00,10.6876,0.0,6.486,10.6876,23.3298,0.0,197.72,0.0,0.0,0.0,0.0,0.0
7347,11/2/2012 3:00,7.5427,31.3821,6.09,7.5427,24.128,4.0779000000000005,196.3,26.595000000000002,0.0,0.0,0.0,0.0
7348,11/2/2012 4:00,6.1215,21.8064,8.264,6.1215,19.7132,2.8336,195.74,18.48,0.0,0.0,0.0,0.0
7349,11/2/2012 5:00,5.6144,44.83410000000001,9.478,5.6144,0.20279999999999998,5.825900000000001,0.0,37.995000000000005,0.0,0.0,0.0,0.0
7350,11/2/2012 6:00,1.8083999999999998,62.870400000000004,9.568,1.8083999999999998,0.2496,8.1696,0.0,53.28,0.0,0.0,0.0,0.0
7351,11/2/2012 7:00,1.6148000000000002,0.0,6.0040000000000004,1.6148000000000002,0.3094,0.0,0.0,0.0,0.0,0.0,0.0,0.0
7352,11/2/2012 8:00,1.848,95.58000000000001,4.822,1.848,7.6648000000000005,12.420000000000002,73.98,81.0,0.7194839399999999,0.7194839399999999,0.7194839399999999,0.7194839399999999
7353,11/2/2012 9:00,10.4687,87.0663,5.474,10.4687,6.526,11.3137,23.98,73.785,1.62384992,1.62384992,1.62384992,1.62384992
7354,11/2/2012 10:00,0.6831,69.80879999999999,7.688000000000001,0.6831,5.577,9.0712,15.24,59.16,0.023500499999999997,0.023500499999999997,0.023500499999999997,0.023500499999999997
7355,11/2/2012 11:00,1.4927,51.1353,7.603999999999999,1.4927,24.4088,6.644699999999999,0.0,43.335,0.55272773,0.55272773,0.55272773,0.55272773
7356,11/2/2012 12:00,0.45430000000000004,37.3647,4.992,0.45430000000000004,22.8592,4.855300000000001,3.44,31.665000000000003,1.01727327,1.01727327,1.01727327,1.01727327
7357,11/2/2012 13:00,0.0,27.3288,1.954,0.0,23.9226,3.5512,22.54,23.16,1.36375106,1.36375106,1.36375106,1.36375106
7358,11/2/2012 14:00,0.1804,18.5673,0.48800000000000004,0.1804,24.4374,2.4127,77.4,15.735,1.5374079900000002,1.5374079900000002,1.5374079900000002,1.5374079900000002
7359,11/2/2012 15:00,0.1804,13.682099999999998,0.0,0.1804,1.3442,1.7778999999999998,38.22,11.594999999999999,1.5372939399999999,1.5372939399999999,1.5372939399999999,1.5372939399999999
7360,11/2/2012 16:00,0.1815,0.0,0.99,0.1815,3.965,0.0,72.78,0.0,1.18557585,1.18557585,1.18557585,1.18557585
7361,11/2/2012 17:00,0.1694,0.0,0.482,0.1694,5.2286,0.0,51.72,0.0,0.16516466000000002,0.16516466000000002,0.16516466000000002,0.16516466000000002
7362,11/2/2012 18:00,0.2585,168.6279,0.45999999999999996,0.2585,2.2386,21.9121,138.3,142.905,0.0,0.0,0.0,0.0
7363,11/2/2012 19:00,0.9394,166.0083,4.934,0.9394,16.1798,21.5717,162.46,140.685,0.0,0.0,0.0,0.0
7364,11/2/2012 20:00,2.5058,50.5689,7.4639999999999995,2.5058,19.7366,6.5711,195.32,42.855000000000004,0.0,0.0,0.0,0.0
7365,11/2/2012 21:00,1.5421999999999998,45.966899999999995,8.712,1.5421999999999998,20.0954,5.9731,187.76,38.955,0.0,0.0,0.0,0.0
7366,11/2/2012 22:00,3.4089,35.5416,10.622,3.4089,20.0226,4.6184,182.26,30.12,0.0,0.0,0.0,0.0
7367,11/2/2012 23:00,5.0963,154.46790000000001,13.582,5.0963,11.0266,20.0721,182.18,130.905,0.0,0.0,0.0,0.0
7368,11/3/2012 0:00,2.4508,27.2226,13.794,2.4508,9.913799999999998,3.5374,186.92,23.07,0.0,0.0,0.0,0.0
7369,11/3/2012 1:00,1.4784,20.7621,0.0,1.4784,8.2602,2.6979,59.08,17.595,0.0,0.0,0.0,0.0
7370,11/3/2012 2:00,0.9856,174.5043,0.0,0.9856,5.493799999999999,22.6757,175.64,147.885,0.0,0.0,0.0,0.0
7371,11/3/2012 3:00,0.6732,174.3273,0.366,0.6732,3.484,22.6527,184.54,147.735,0.0,0.0,0.0,0.0
7372,11/3/2012 4:00,0.4895,119.7582,0.248,0.4895,4.329000000000001,15.5618,187.17999999999998,101.49,0.0,0.0,0.0,0.0
7373,11/3/2012 5:00,0.4323,173.2122,0.0,0.4323,7.4074,22.5078,190.38,146.79,0.0,0.0,0.0,0.0
7374,11/3/2012 6:00,0.4818,172.1502,0.0,0.4818,10.2466,22.3698,56.2,145.89000000000001,0.0,0.0,0.0,0.0
7375,11/3/2012 7:00,6.16,169.97310000000002,0.0,6.16,25.1108,22.0869,3.62,144.04500000000002,0.0,0.0,0.0,0.0
7376,11/3/2012 8:00,5.3372,167.3358,18.868000000000002,5.3372,25.6204,21.7442,8.7,141.81,0.62627671,0.62627671,0.62627671,0.62627671
7377,11/3/2012 9:00,0.5609999999999999,174.41580000000002,18.514,0.5609999999999999,25.7946,22.6642,14.7,147.81,1.53190736,1.53190736,1.53190736,1.53190736
7378,11/3/2012 10:00,10.0056,57.7197,18.092,10.0056,26.0,7.5003,5.54,48.915,0.43072571,0.43072571,0.43072571,0.43072571
7379,11/3/2012 11:00,9.6591,172.8582,17.444,9.6591,7.657,22.4618,2.02,146.49,0.9676969099999999,0.9676969099999999,0.9676969099999999,0.9676969099999999
7380,11/3/2012 12:00,0.21780000000000002,173.4423,16.616,0.21780000000000002,6.6742,22.5377,6.34,146.98499999999999,1.19129977,1.19129977,1.19129977,1.19129977
7381,11/3/2012 13:00,7.3634,12.124500000000001,1.358,7.3634,5.0492,1.5755000000000001,0.0,10.275,1.51328245,1.51328245,1.51328245,1.51328245
7382,11/3/2012 14:00,7.8419,45.843,2.25,7.8419,2.47,5.957,0.0,38.85,1.6061629499999999,1.6061629499999999,1.6061629499999999,1.6061629499999999
7383,11/3/2012 15:00,7.1181,84.9423,2.598,7.1181,1.3,11.0377,3.88,71.985,1.50424324,1.50424324,1.50424324,1.50424324
7384,11/3/2012 16:00,5.5935,50.1795,20.0,5.5935,0.8398000000000001,6.520499999999999,9.24,42.525,1.1314886,1.1314886,1.1314886,1.1314886
7385,11/3/2012 17:00,4.5991,51.684,20.0,4.5991,0.6734,6.715999999999999,12.86,43.8,0.14713557,0.14713557,0.14713557,0.14713557
7386,11/3/2012 18:00,4.6585,49.0467,20.0,4.6585,0.7046,6.3733,197.0,41.565000000000005,0.0,0.0,0.0,0.0
7387,11/3/2012 19:00,0.0,41.3295,0.242,0.0,0.9464,5.370500000000001,196.84,35.025,0.0,0.0,0.0,0.0
7388,11/3/2012 20:00,0.0,33.0105,0.386,0.0,1.1648,4.2895,195.74,27.975,0.0,0.0,0.0,0.0
7389,11/3/2012 21:00,0.0,28.851000000000003,0.0,0.0,1.4404,3.749,0.0,24.45,0.0,0.0,0.0,0.0
7390,11/3/2012 22:00,2.1658999999999997,26.426099999999998,0.916,2.1658999999999997,1.6458,3.4338999999999995,0.0,22.395,0.0,0.0,0.0,0.0
7391,11/3/2012 23:00,2.7236,14.761800000000001,1.328,2.7236,1.6796000000000002,1.9182000000000001,0.0,12.51,0.0,0.0,0.0,0.0
7392,11/4/2012 0:00,10.6502,175.6548,1.4779999999999998,10.6502,1.5158,22.8252,0.0,148.85999999999999,0.0,0.0,0.0,0.0
7393,11/4/2012 1:00,10.286100000000001,174.8583,6.554,10.286100000000001,11.7858,22.7217,175.7,148.185,0.0,0.0,0.0,0.0
7394,11/4/2012 2:00,4.1085,30.3732,3.444,4.1085,13.912600000000001,3.9468,85.98,25.740000000000002,0.0,0.0,0.0,0.0
7395,11/4/2012 3:00,4.0546,50.9406,2.798,4.0546,15.353000000000002,6.6194,141.78,43.17,0.0,0.0,0.0,0.0
7396,11/4/2012 4:00,4.176699999999999,12.5493,2.5180000000000002,4.176699999999999,16.042,1.6307,108.2,10.635000000000002,0.0,0.0,0.0,0.0
7397,11/4/2012 5:00,4.5694,79.4907,2.218,4.5694,0.8684,10.3293,58.81999999999999,67.365,0.0,0.0,0.0,0.0
7398,11/4/2012 6:00,4.697000000000001,96.5004,1.3559999999999999,4.697000000000001,3.2578,12.5396,22.32,81.78,0.0,0.0,0.0,0.0
7399,11/4/2012 7:00,0.07919999999999999,116.289,0.726,0.07919999999999999,0.0,15.111,11.959999999999999,98.55000000000001,0.0,0.0,0.0,0.0
7400,11/4/2012 8:00,2.8467999999999996,134.2368,2.094,2.8467999999999996,17.7762,17.443199999999997,18.18,113.75999999999999,0.44663805,0.44663805,0.44663805,0.44663805
7401,11/4/2012 9:00,0.9966,144.9807,1.8840000000000001,0.9966,18.9852,18.8393,2.34,122.86500000000001,1.2834450099999999,1.2834450099999999,1.2834450099999999,1.2834450099999999
7402,11/4/2012 10:00,0.7095,150.2553,2.242,0.7095,0.624,19.5247,170.72,127.335,0.6081681200000001,0.6081681200000001,0.6081681200000001,0.6081681200000001
7403,11/4/2012 11:00,9.8285,152.9103,3.2840000000000003,9.8285,25.2928,19.8697,6.6000000000000005,129.585,1.13959794,1.13959794,1.13959794,1.13959794
7404,11/4/2012 12:00,10.1211,154.4502,4.835999999999999,10.1211,25.3032,20.0698,5.12,130.89000000000001,1.4217933300000003,1.4217933300000003,1.4217933300000003,1.4217933300000003
7405,11/4/2012 13:00,10.2201,152.7156,5.778,10.2201,25.22,19.8444,5.4399999999999995,129.42000000000002,1.67012146,1.67012146,1.67012146,1.67012146
7406,11/4/2012 14:00,0.2035,147.81269999999998,5.590000000000001,0.2035,0.0,19.2073,18.6,125.26499999999999,1.41125701,1.41125701,1.41125701,1.41125701
7407,11/4/2012 15:00,0.2783,84.2343,5.586,0.2783,0.0,10.9457,84.76,71.385,1.4468511400000001,1.4468511400000001,1.4468511400000001,1.4468511400000001
7408,11/4/2012 16:00,0.385,146.2551,5.586,0.385,23.322,19.0049,24.8,123.94500000000001,1.0053326,1.0053326,1.0053326,1.0053326
7409,11/4/2012 17:00,4.0469,139.7061,0.37,4.0469,22.802,18.1539,33.4,118.395,0.11756333999999999,0.11756333999999999,0.11756333999999999,0.11756333999999999
7410,11/4/2012 18:00,4.7784,151.05180000000001,0.34,4.7784,22.2092,19.6282,42.82,128.01000000000002,0.0,0.0,0.0,0.0
7411,11/4/2012 19:00,0.36850000000000005,156.8397,10.938,0.36850000000000005,7.7168,20.3803,45.9,132.915,0.0,0.0,0.0,0.0
7412,11/4/2012 20:00,0.2464,157.8132,10.764,0.2464,1.6562000000000001,20.5068,198.5,133.73999999999998,0.0,0.0,0.0,0.0
7413,11/4/2012 21:00,0.176,158.20260000000002,8.902,0.176,10.1348,20.5574,195.66,134.07,0.0,0.0,0.0,0.0
7414,11/4/2012 22:00,0.08249999999999999,175.4247,6.303999999999999,0.08249999999999999,5.3404,22.7953,185.2,148.665,0.0,0.0,0.0,0.0
7415,11/4/2012 23:00,0.0,177.0,13.008,0.0,3.5828,23.0,0.0,150.0,0.0,0.0,0.0,0.0
7416,11/5/2012 0:00,0.0,177.0,15.919999999999998,0.0,2.4257999999999997,23.0,0.0,150.0,0.0,0.0,0.0,0.0
7417,11/5/2012 1:00,0.0,177.0,15.405999999999999,0.0,7.747999999999999,23.0,0.0,150.0,0.0,0.0,0.0,0.0
7418,11/5/2012 2:00,0.1155,68.0742,14.081999999999999,0.1155,8.171800000000001,8.8458,41.28,57.69,0.0,0.0,0.0,0.0
7419,11/5/2012 3:00,2.5519999999999996,43.896,0.32399999999999995,2.5519999999999996,8.8608,5.704,35.64,37.2,0.0,0.0,0.0,0.0
7420,11/5/2012 4:00,0.3509,174.6282,0.646,0.3509,8.3018,22.6918,29.12,147.99,0.0,0.0,0.0,0.0
7421,11/5/2012 5:00,0.3916,174.1326,8.204,0.3916,9.0012,22.6274,21.68,147.57,0.0,0.0,0.0,0.0
7422,11/5/2012 6:00,0.3146,173.637,10.594,0.3146,6.312799999999999,22.563,17.48,147.15,0.0,0.0,0.0,0.0
7423,11/5/2012 7:00,0.1595,172.20329999999998,12.938,0.1595,3.8532,22.3767,20.18,145.935,0.0,0.0,0.0,0.0
7424,11/5/2012 8:00,0.0,168.84029999999998,10.004,0.0,1.6536000000000002,21.9397,23.72,143.085,0.4777893,0.4777893,0.4777893,0.4777893
7425,11/5/2012 9:00,0.1672,165.5481,8.136,0.1672,2.7118,21.5119,33.739999999999995,140.29500000000002,1.36904049,1.36904049,1.36904049,1.36904049
7426,11/5/2012 10:00,7.6032,0.0,9.744,7.6032,3.3930000000000002,0.0,15.959999999999999,0.0,0.67528156,0.67528156,0.67528156,0.67528156
7427,11/5/2012 11:00,2.9854,0.0,0.0,2.9854,3.25,0.0,6.76,0.0,1.56217496,1.56217496,1.56217496,1.56217496
7428,11/5/2012 12:00,3.2010000000000005,0.0,0.0,3.2010000000000005,3.4008,0.0,2.94,0.0,1.7825652399999998,1.7825652399999998,1.7825652399999998,1.7825652399999998
7429,11/5/2012 13:00,1.1132,0.0,5.4159999999999995,1.1132,3.5438,0.0,0.0,0.0,1.30739469,1.30739469,1.30739469,1.30739469
7430,11/5/2012 14:00,5.2238999999999995,137.4228,15.166,5.2238999999999995,3.2994000000000003,17.8572,0.0,116.46,0.97234683,0.97234683,0.97234683,0.97234683
7431,11/5/2012 15:00,2.8512,8.2482,13.006,2.8512,2.8652,1.0718,0.0,6.99,0.47473692000000006,0.47473692000000006,0.47473692000000006,0.47473692000000006
7432,11/5/2012 16:00,1.2419,6.3897,0.20400000000000001,1.2419,2.4596,0.8303,0.0,5.415,0.48676355,0.48676355,0.48676355,0.48676355
7433,11/5/2012 17:00,8.9958,1.5045000000000002,7.592,8.9958,2.2412,0.1955,0.0,1.2750000000000001,0.0,0.0,0.0,0.0
7434,11/5/2012 18:00,6.650600000000001,13.646700000000001,7.888,6.650600000000001,2.028,1.7733,0.0,11.565,0.0,0.0,0.0,0.0
7435,11/5/2012 19:00,5.0655,9.8589,7.986,5.0655,3.1069999999999998,1.2811,1.54,8.355,0.0,0.0,0.0,0.0
7436,11/5/2012 20:00,4.356,5.5755,19.128,4.356,5.2156,0.7245,3.64,4.725,0.0,0.0,0.0,0.0
7437,11/5/2012 21:00,3.9248000000000003,9.381,7.99,3.9248000000000003,0.41340000000000005,1.2189999999999999,72.46000000000001,7.95,0.0,0.0,0.0,0.0
7438,11/5/2012 22:00,4.5727,52.7283,7.512,4.5727,14.222000000000001,6.8517,51.480000000000004,44.685,0.0,0.0,0.0,0.0
7439,11/5/2012 23:00,5.6551,79.6146,7.553999999999999,5.6551,3.3175999999999997,10.3454,9.120000000000001,67.47,0.0,0.0,0.0,0.0
7440,11/6/2012 0:00,6.237000000000001,99.22619999999999,16.278,6.237000000000001,23.673,12.893799999999999,2.8400000000000003,84.09,0.0,0.0,0.0,0.0
7441,11/6/2012 1:00,6.3426,105.49199999999999,16.786,6.3426,23.077599999999997,13.708,6.0,89.39999999999999,0.0,0.0,0.0,0.0
7442,11/6/2012 2:00,6.1248,91.84530000000001,9.892,6.1248,1.6562000000000001,11.934700000000001,3.0,77.83500000000001,0.0,0.0,0.0,0.0
7443,11/6/2012 3:00,5.7178,88.4646,8.902,5.7178,21.1458,11.4954,5.3,74.97,0.0,0.0,0.0,0.0
7444,11/6/2012 4:00,0.0,90.4647,8.574,0.0,25.6334,11.7553,133.78,76.665,0.0,0.0,0.0,0.0
7445,11/6/2012 5:00,0.0,0.0,6.488,0.0,25.519000000000002,0.0,126.27999999999999,0.0,0.0,0.0,0.0,0.0
7446,11/6/2012 6:00,0.0,0.0,17.328,0.0,25.6438,0.0,11.12,0.0,0.0,0.0,0.0,0.0
7447,11/6/2012 7:00,0.1045,0.0,13.206,0.1045,11.8534,0.0,200.0,0.0,0.0,0.0,0.0,0.0
7448,11/6/2012 8:00,0.1485,0.0,9.032,0.1485,13.2002,0.0,200.0,0.0,0.035482520000000004,0.035482520000000004,0.035482520000000004,0.035482520000000004
7449,11/6/2012 9:00,0.2024,0.0,5.302,0.2024,14.6692,0.0,200.0,0.0,0.25457936000000003,0.25457936000000003,0.25457936000000003,0.25457936000000003
7450,11/6/2012 10:00,0.22769999999999999,0.0,17.740000000000002,0.22769999999999999,0.0,0.0,200.0,0.0,0.42245747,0.42245747,0.42245747,0.42245747
7451,11/6/2012 11:00,0.17049999999999998,2.4426,19.36,0.17049999999999998,7.464600000000001,0.3174,132.32,2.07,0.61689156,0.61689156,0.61689156,0.61689156
7452,11/6/2012 12:00,0.1386,1.3983,19.73,0.1386,2.9224,0.18170000000000003,61.980000000000004,1.185,0.71049498,0.71049498,0.71049498,0.71049498
7453,11/6/2012 13:00,0.1243,5.646299999999999,19.830000000000002,0.1243,2.0202,0.7336999999999999,193.01999999999998,4.784999999999999,0.59315925,0.59315925,0.59315925,0.59315925
7454,11/6/2012 14:00,0.1331,19.4523,20.0,0.1331,19.0294,2.5277,7.62,16.485,0.60965298,0.60965298,0.60965298,0.60965298
7455,11/6/2012 15:00,0.1914,7.3632,10.082,0.1914,4.0612,0.9568,196.01999999999998,6.239999999999999,0.78632379,0.78632379,0.78632379,0.78632379
7456,11/6/2012 16:00,8.5822,4.9383,20.0,8.5822,3.8766000000000003,0.6417,197.23999999999998,4.1850000000000005,0.72288563,0.72288563,0.72288563,0.72288563
7457,11/6/2012 17:00,8.9452,3.3983999999999996,20.0,8.9452,3.575,0.44159999999999994,198.10000000000002,2.88,0.0,0.0,0.0,0.0
7458,11/6/2012 18:00,9.3445,17.788500000000003,14.058,9.3445,4.9685999999999995,2.3115,198.5,15.075000000000001,0.0,0.0,0.0,0.0
7459,11/6/2012 19:00,1.0956,10.5846,10.809999999999999,1.0956,4.0092,1.3754,197.9,8.97,0.0,0.0,0.0,0.0
7460,11/6/2012 20:00,9.6393,7.5048,20.0,9.6393,25.123800000000003,0.9752,195.76,6.36,0.0,0.0,0.0,0.0
7461,11/6/2012 21:00,9.6382,126.39569999999999,5.362,9.6382,24.468600000000002,16.4243,193.14,107.115,0.0,0.0,0.0,0.0
7462,11/6/2012 22:00,9.9121,105.1203,19.064,9.9121,23.3012,13.659699999999999,0.0,89.085,0.0,0.0,0.0,0.0
7463,11/6/2012 23:00,10.3521,120.0591,17.689999999999998,10.3521,0.728,15.600900000000001,7.960000000000001,101.745,0.0,0.0,0.0,0.0
7464,11/7/2012 0:00,10.0166,121.8114,11.032,10.0166,0.6577999999999999,15.828600000000002,153.7,103.23,0.0,0.0,0.0,0.0
7465,11/7/2012 1:00,9.5777,19.0098,10.564,9.5777,0.6968,2.4701999999999997,168.76,16.11,0.0,0.0,0.0,0.0
7466,11/7/2012 2:00,8.987,98.19959999999999,16.701999999999998,8.987,0.7644,12.760399999999999,173.9,83.22,0.0,0.0,0.0,0.0
7467,11/7/2012 3:00,8.008,29.1342,2.3499999999999996,8.008,0.5876,3.7858,166.01999999999998,24.689999999999998,0.0,0.0,0.0,0.0
7468,11/7/2012 4:00,0.5214,4.8498,2.396,0.5214,24.200799999999997,0.6302,146.38,4.11,0.0,0.0,0.0,0.0
7469,11/7/2012 5:00,0.3377,91.1727,16.31,0.3377,24.4764,11.8473,119.74000000000001,77.265,0.0,0.0,0.0,0.0
7470,11/7/2012 6:00,7.714300000000001,0.0,16.57,7.714300000000001,24.6194,0.0,110.97999999999999,0.0,0.0,0.0,0.0,0.0
7471,11/7/2012 7:00,0.3069,28.3908,15.636000000000001,0.3069,24.6194,3.6891999999999996,89.18,24.06,0.0,0.0,0.0,0.0
7472,11/7/2012 8:00,0.0,21.7002,1.396,0.0,24.5804,2.8198,39.98,18.39,0.0486713,0.0486713,0.0486713,0.0486713
7473,11/7/2012 9:00,0.19360000000000002,14.053799999999999,1.34,0.19360000000000002,24.5336,1.8262,0.0,11.91,0.5181752900000001,0.5181752900000001,0.5181752900000001,0.5181752900000001
7474,11/7/2012 10:00,0.7898000000000001,10.3899,1.124,0.7898000000000001,24.453,1.3501,0.0,8.805,0.56720309,0.56720309,0.56720309,0.56720309
7475,11/7/2012 11:00,0.5478,11.2749,0.9339999999999999,0.5478,24.3256,1.4651,0.0,9.555000000000001,0.62744539,0.62744539,0.62744539,0.62744539
7476,11/7/2012 12:00,0.16169999999999998,15.1866,0.742,0.16169999999999998,8.034,1.9734,22.74,12.870000000000001,0.94593027,0.94593027,0.94593027,0.94593027
7477,11/7/2012 13:00,0.0891,2.1417,0.918,0.0891,24.5414,0.2783,175.62,1.815,1.1907526,1.1907526,1.1907526,1.1907526
7478,11/7/2012 14:00,1.4014000000000002,1.7346,1.1640000000000001,1.4014000000000002,24.5856,0.2254,200.0,1.47,1.08813655,1.08813655,1.08813655,1.08813655
7479,11/7/2012 15:00,0.5621,0.0,0.9339999999999999,0.5621,24.5336,0.0,133.5,0.0,0.85948084,0.85948084,0.85948084,0.85948084
7480,11/7/2012 16:00,7.9354000000000005,0.0,0.698,7.9354000000000005,24.3568,0.0,0.0,0.0,0.46983663,0.46983663,0.46983663,0.46983663
7481,11/7/2012 17:00,0.0,0.0,0.61,0.0,23.4234,0.0,2.68,0.0,0.0,0.0,0.0,0.0
7482,11/7/2012 18:00,0.0,0.0,1.33,0.0,20.267,0.0,70.67999999999999,0.0,0.0,0.0,0.0,0.0
7483,11/7/2012 19:00,0.0,0.0,0.98,0.0,17.0872,0.0,60.84,0.0,0.0,0.0,0.0,0.0
7484,11/7/2012 20:00,0.0,2.4957,11.454,0.0,15.2282,0.3243,0.0,2.1149999999999998,0.0,0.0,0.0,0.0
7485,11/7/2012 21:00,0.1947,166.3092,9.9,0.1947,12.5502,21.6108,145.4,140.94,0.0,0.0,0.0,0.0
7486,11/7/2012 22:00,0.4213,163.1055,8.658,0.4213,0.6864,21.194499999999998,110.24000000000001,138.225,0.0,0.0,0.0,0.0
7487,11/7/2012 23:00,0.6754,160.6098,8.35,0.6754,1.9552,20.8702,106.06,136.10999999999999,0.0,0.0,0.0,0.0
7488,11/8/2012 0:00,1.2826,3.0090000000000003,8.406,1.2826,17.1054,0.391,56.32,2.5500000000000003,0.0,0.0,0.0,0.0
7489,11/8/2012 1:00,1.8843,46.197,9.184,1.8843,24.2346,6.003,85.74000000000001,39.15,0.0,0.0,0.0,0.0
7490,11/8/2012 2:00,0.6325000000000001,44.5509,10.044,0.6325000000000001,22.0636,5.7890999999999995,198.07999999999998,37.754999999999995,0.0,0.0,0.0,0.0
7491,11/8/2012 3:00,0.0,43.0287,9.286,0.0,22.471799999999998,5.5913,122.50000000000001,36.465,0.0,0.0,0.0,0.0
7492,11/8/2012 4:00,0.0,43.4004,7.752,0.0,9.1442,5.6396,194.04,36.78,0.0,0.0,0.0,0.0
7493,11/8/2012 5:00,0.0,29.4882,6.408,0.0,7.8104,3.8318,196.23999999999998,24.99,0.0,0.0,0.0,0.0
7494,11/8/2012 6:00,0.0,108.3417,12.392000000000001,0.0,0.0,14.078299999999999,50.46000000000001,91.815,0.0,0.0,0.0,0.0
7495,11/8/2012 7:00,0.0,103.35029999999999,13.828,0.0,0.0,13.429699999999999,32.019999999999996,87.585,0.0,0.0,0.0,0.0
7496,11/8/2012 8:00,0.0,174.69899999999998,16.488,0.0,0.0,22.701,53.74,148.05,0.017939010000000002,0.017939010000000002,0.017939010000000002,0.017939010000000002
7497,11/8/2012 9:00,0.1694,173.2653,18.259999999999998,0.1694,0.0,22.5147,2.74,146.835,0.22233707999999996,0.22233707999999996,0.22233707999999996,0.22233707999999996
7498,11/8/2012 10:00,0.9218,38.4267,19.194,0.9218,0.0,4.9933,1.68,32.565,0.43572962,0.43572962,0.43572962,0.43572962
7499,11/8/2012 11:00,0.5082,16.815,19.552,0.5082,0.0,2.185,186.7,14.25,0.57981677,0.57981677,0.57981677,0.57981677
7500,11/8/2012 12:00,0.3674,53.418600000000005,19.764,0.3674,0.0,6.941400000000001,54.54,45.27,0.65410001,0.65410001,0.65410001,0.65410001
7501,11/8/2012 13:00,0.1958,44.5863,20.0,0.1958,0.0,5.7937,48.22,37.785000000000004,0.6490750099999999,0.6490750099999999,0.6490750099999999,0.6490750099999999
7502,11/8/2012 14:00,0.2255,173.0529,0.0,0.2255,0.4706,22.4871,186.3,146.655,0.56469077,0.56469077,0.56469077,0.56469077
7503,11/8/2012 15:00,0.22,172.1502,3.14,0.22,0.0,22.3698,0.0,145.89000000000001,0.4146267,0.4146267,0.4146267,0.4146267
7504,11/8/2012 16:00,2.5597,170.6634,8.228,2.5597,0.0,22.1766,6.419999999999999,144.63,0.19684959,0.19684959,0.19684959,0.19684959
7505,11/8/2012 17:00,3.6036,36.108,9.222,3.6036,0.0,4.691999999999999,61.24000000000001,30.599999999999998,0.0,0.0,0.0,0.0
7506,11/8/2012 18:00,1.2848,127.10369999999999,12.638,1.2848,0.0,16.516299999999998,37.0,107.71499999999999,0.0,0.0,0.0,0.0
7507,11/8/2012 19:00,0.3003,145.4055,14.398,0.3003,0.0,18.8945,35.82,123.225,0.0,0.0,0.0,0.0
7508,11/8/2012 20:00,0.1815,154.1139,15.648,0.1815,0.1976,20.0261,53.66,130.60500000000002,0.0,0.0,0.0,0.0
7509,11/8/2012 21:00,0.10559999999999999,155.3706,0.43200000000000005,0.10559999999999999,1.0764,20.1894,51.12,131.67000000000002,0.0,0.0,0.0,0.0
7510,11/8/2012 22:00,0.0,101.6865,0.21600000000000003,0.0,4.2406,13.2135,107.44,86.175,0.0,0.0,0.0,0.0
7511,11/8/2012 23:00,0.0,79.43759999999999,0.0,0.0,10.828999999999999,10.3224,114.75999999999999,67.32,0.0,0.0,0.0,0.0
7512,11/9/2012 0:00,0.0,177.0,0.23199999999999998,0.0,15.9926,23.0,114.17999999999999,150.0,0.0,0.0,0.0,0.0
7513,11/9/2012 1:00,6.1963,2.4249,0.684,6.1963,18.1038,0.3151,119.46000000000001,2.055,0.0,0.0,0.0,0.0
7514,11/9/2012 2:00,6.3008,1.6815,0.182,6.3008,18.857799999999997,0.2185,90.72,1.425,0.0,0.0,0.0,0.0
7515,11/9/2012 3:00,2.0603,30.5325,0.0,2.0603,18.1558,3.9675,0.0,25.874999999999996,0.0,0.0,0.0,0.0
7516,11/9/2012 4:00,0.6028,95.4561,1.1640000000000001,0.6028,17.2068,12.4039,82.32000000000001,80.895,0.0,0.0,0.0,0.0
7517,11/9/2012 5:00,0.6545,0.0,1.568,0.6545,16.9052,0.0,81.8,0.0,0.0,0.0,0.0,0.0
7518,11/9/2012 6:00,3.5805000000000002,5.770199999999999,13.766,3.5805000000000002,15.327,0.7497999999999999,77.42,4.89,0.0,0.0,0.0,0.0
7519,11/9/2012 7:00,0.2035,174.7875,4.188,0.2035,21.2576,22.712500000000002,64.18,148.125,0.0,0.0,0.0,0.0
7520,11/9/2012 8:00,0.32339999999999997,157.77779999999998,3.372,0.32339999999999997,18.3768,20.5022,109.89999999999999,133.71,0.0,0.0,0.0,0.0
7521,11/9/2012 9:00,0.6446,160.3974,2.544,0.6446,15.495999999999999,20.8426,69.02000000000001,135.93,0.21899013999999997,0.21899013999999997,0.21899013999999997,0.21899013999999997
7522,11/9/2012 10:00,0.18810000000000002,162.8223,1.8840000000000001,0.18810000000000002,1.0373999999999999,21.157700000000002,197.52,137.985,0.4391107,0.4391107,0.4391107,0.4391107
7523,11/9/2012 11:00,0.11109999999999999,0.0,1.464,0.11109999999999999,6.559800000000001,0.0,195.98,0.0,0.35360891,0.35360891,0.35360891,0.35360891
7524,11/9/2012 12:00,0.15289999999999998,115.5102,0.42999999999999994,0.15289999999999998,15.680599999999998,15.009799999999998,194.06,97.89,0.79868933,0.79868933,0.79868933,0.79868933
7525,11/9/2012 13:00,1.0098,103.50959999999999,2.974,1.0098,17.8724,13.4504,192.28,87.72,1.0712665099999998,1.0712665099999998,1.0712665099999998,1.0712665099999998
7526,11/9/2012 14:00,0.4697,3.6816,2.264,0.4697,2.3218,0.4784,190.42,3.1199999999999997,1.50911495,1.50911495,1.50911495,1.50911495
7527,11/9/2012 15:00,10.0661,2.7081,19.186,10.0661,15.501199999999999,0.3519,186.6,2.295,1.11955216,1.11955216,1.11955216,1.11955216
7528,11/9/2012 16:00,9.6866,168.2739,1.134,9.6866,10.8368,21.8661,182.54,142.605,0.84332556,0.84332556,0.84332556,0.84332556
7529,11/9/2012 17:00,9.2389,170.2209,0.516,9.2389,0.8814,22.1191,177.0,144.255,0.0,0.0,0.0,0.0
7530,11/9/2012 18:00,9.5491,94.81889999999999,0.31399999999999995,9.5491,0.8814,12.3211,166.78,80.35499999999999,0.0,0.0,0.0,0.0
7531,11/9/2012 19:00,9.5678,108.76650000000001,0.98,9.5678,0.8423999999999999,14.133500000000002,151.98000000000002,92.17500000000001,0.0,0.0,0.0,0.0
7532,11/9/2012 20:00,7.9794,7.7349000000000006,2.18,7.9794,8.5878,1.0051,65.94,6.555000000000001,0.0,0.0,0.0,0.0
7533,11/9/2012 21:00,5.972999999999999,171.1236,11.614,5.972999999999999,11.128,22.2364,3.92,145.02,0.0,0.0,0.0,0.0
7534,11/9/2012 22:00,10.8031,169.10580000000002,9.475999999999999,10.8031,11.1488,21.9742,2.06,143.31,0.0,0.0,0.0,0.0
7535,11/9/2012 23:00,10.8438,35.6478,0.16799999999999998,10.8438,1.0842,4.6322,169.04,30.21,0.0,0.0,0.0,0.0
7536,11/10/2012 0:00,6.437200000000001,48.94050000000001,7.33,6.437200000000001,0.5095999999999999,6.359500000000001,169.68,41.475,0.0,0.0,0.0,0.0
7537,11/10/2012 1:00,1.0868,67.9503,16.848,1.0868,0.20540000000000003,8.8297,160.54,57.585,0.0,0.0,0.0,0.0
7538,11/10/2012 2:00,1.5730000000000002,1.2744,7.864,1.5730000000000002,26.0,0.1656,88.92,1.08,0.0,0.0,0.0,0.0
7539,11/10/2012 3:00,5.5022,12.938699999999999,15.484,5.5022,26.0,1.6813,81.66,10.965,0.0,0.0,0.0,0.0
7540,11/10/2012 4:00,7.1291,173.67239999999998,5.758,7.1291,26.0,22.5676,71.02000000000001,147.18,0.0,0.0,0.0,0.0
7541,11/10/2012 5:00,0.2893,146.98080000000002,0.0,0.2893,25.2902,19.0992,59.84,124.56,0.0,0.0,0.0,0.0
7542,11/10/2012 6:00,0.3729,100.8192,0.552,0.3729,24.416600000000003,13.1008,52.839999999999996,85.44,0.0,0.0,0.0,0.0
7543,11/10/2012 7:00,0.6061000000000001,72.0921,1.896,0.6061000000000001,23.244,9.3679,100.1,61.095,0.0,0.0,0.0,0.0
7544,11/10/2012 8:00,0.8503,54.6399,12.28,0.8503,21.749000000000002,7.100099999999999,96.41999999999999,46.30499999999999,0.0,0.0,0.0,0.0
7545,11/10/2012 9:00,1.034,43.0818,13.33,1.034,20.319,5.5982,77.96,36.51,1.4852837399999999,1.4852837399999999,1.4852837399999999,1.4852837399999999
7546,11/10/2012 10:00,0.8965000000000001,172.6989,13.658,0.8965000000000001,11.6766,22.4411,50.63999999999999,146.355,0.0578687,0.0578687,0.0578687,0.0578687
7547,11/10/2012 11:00,0.6093999999999999,45.6837,5.42,0.6093999999999999,12.1992,5.9363,11.34,38.714999999999996,0.5735895200000001,0.5735895200000001,0.5735895200000001,0.5735895200000001
7548,11/10/2012 12:00,7.032299999999999,52.6398,2.596,7.032299999999999,19.1958,6.8402,29.580000000000002,44.61,0.64469549,0.64469549,0.64469549,0.64469549
7549,11/10/2012 13:00,7.5085999999999995,61.2951,4.856,7.5085999999999995,20.5374,7.9649,4.62,51.945,0.68107479,0.68107479,0.68107479,0.68107479
7550,11/10/2012 14:00,7.8683000000000005,67.1184,4.51,7.8683000000000005,22.869600000000002,8.721599999999999,5.58,56.879999999999995,0.5621050200000001,0.5621050200000001,0.5621050200000001,0.5621050200000001
7551,11/10/2012 15:00,9.3313,86.19900000000001,4.062,9.3313,24.037,11.201,24.84,73.05000000000001,0.27136506,0.27136506,0.27136506,0.27136506
7552,11/10/2012 16:00,9.405,113.5986,3.516,9.405,24.622,14.7614,41.760000000000005,96.27000000000001,0.14389823999999998,0.14389823999999998,0.14389823999999998,0.14389823999999998
7553,11/10/2012 17:00,8.824200000000001,119.0325,1.694,8.824200000000001,25.233,15.4675,50.42,100.875,0.0,0.0,0.0,0.0
7554,11/10/2012 18:00,7.5427,115.40400000000001,8.184000000000001,7.5427,10.686,14.996,3.7600000000000002,97.8,0.0,0.0,0.0,0.0
7555,11/10/2012 19:00,6.0126,107.0496,3.97,6.0126,18.1246,13.9104,18.32,90.72,0.0,0.0,0.0,0.0
7556,11/10/2012 20:00,5.4329,100.0404,18.080000000000002,5.4329,17.074199999999998,12.999600000000001,15.5,84.78,0.0,0.0,0.0,0.0
7557,11/10/2012 21:00,2.9292999999999996,92.9073,1.784,2.9292999999999996,13.9724,12.072700000000001,11.44,78.735,0.0,0.0,0.0,0.0
7558,11/10/2012 22:00,2.8259000000000003,94.30560000000001,13.548,2.8259000000000003,16.458,12.2544,7.9,79.92,0.0,0.0,0.0,0.0
7559,11/10/2012 23:00,3.5551999999999997,145.671,0.39,3.5551999999999997,0.0,18.929,37.36,123.44999999999999,0.0,0.0,0.0,0.0
7560,11/11/2012 0:00,4.1789000000000005,148.2198,17.074,4.1789000000000005,23.7666,19.2602,30.880000000000003,125.61,0.0,0.0,0.0,0.0
7561,11/11/2012 1:00,0.0,140.9982,0.5920000000000001,0.0,5.265000000000001,18.3218,194.4,119.49,0.0,0.0,0.0,0.0
7562,11/11/2012 2:00,0.12100000000000001,129.74099999999999,0.396,0.12100000000000001,4.914,16.858999999999998,194.9,109.95,0.0,0.0,0.0,0.0
7563,11/11/2012 3:00,6.1413,26.4969,0.242,6.1413,0.0,3.4431,195.4,22.455,0.0,0.0,0.0,0.0
7564,11/11/2012 4:00,5.313,21.3462,0.722,5.313,0.0,2.7738,196.18,18.09,0.0,0.0,0.0,0.0
7565,11/11/2012 5:00,3.2912000000000003,14.4078,0.9299999999999999,3.2912000000000003,22.269000000000002,1.8722,131.29999999999998,12.21,0.0,0.0,0.0,0.0
7566,11/11/2012 6:00,0.4048,8.319,0.886,0.4048,23.3792,1.081,104.16000000000001,7.05,0.0,0.0,0.0,0.0
7567,11/11/2012 7:00,0.3498,5.2569,18.966,0.3498,0.20540000000000003,0.6831,77.86,4.455,0.0,0.0,0.0,0.0
7568,11/11/2012 8:00,9.1344,0.0,19.094,9.1344,25.721799999999998,0.0,195.28,0.0,0.0,0.0,0.0,0.0
7569,11/11/2012 9:00,7.2017,0.0,19.580000000000002,7.2017,25.7946,0.0,188.8,0.0,0.30276308999999996,0.30276308999999996,0.30276308999999996,0.30276308999999996
7570,11/11/2012 10:00,2.5762,135.6351,0.38,2.5762,11.5778,17.6249,45.34,114.945,0.67970558,0.67970558,0.67970558,0.67970558
7571,11/11/2012 11:00,0.5268999999999999,99.2085,4.04,0.5268999999999999,4.9296,12.8915,5.04,84.075,0.9897763599999999,0.9897763599999999,0.9897763599999999,0.9897763599999999
7572,11/11/2012 12:00,0.1892,55.89660000000001,3.17,0.1892,20.527,7.263400000000001,59.019999999999996,47.370000000000005,1.15109194,1.15109194,1.15109194,1.15109194
7573,11/11/2012 13:00,6.4658,20.2311,6.492,6.4658,1.612,2.6289,193.12,17.145,1.14081528,1.14081528,1.14081528,1.14081528
7574,11/11/2012 14:00,0.8811,7.0268999999999995,4.215999999999999,0.8811,1.7758,0.9131,53.480000000000004,5.955,0.8644507,0.8644507,0.8644507,0.8644507
7575,11/11/2012 15:00,0.539,4.0356000000000005,3.046,0.539,26.0,0.5244,1.44,3.42,0.68095616,0.68095616,0.68095616,0.68095616
7576,11/11/2012 16:00,0.3641,5.0091,0.6779999999999999,0.3641,26.0,0.6508999999999999,62.88,4.245,0.44015413,0.44015413,0.44015413,0.44015413
7577,11/11/2012 17:00,0.31899999999999995,10.053600000000001,0.846,0.31899999999999995,26.0,1.3064,40.02,8.520000000000001,0.0,0.0,0.0,0.0
7578,11/11/2012 18:00,0.4719,16.0362,13.116000000000001,0.4719,26.0,2.0838,32.940000000000005,13.59,0.0,0.0,0.0,0.0
7579,11/11/2012 19:00,2.7720000000000002,174.0441,20.0,2.7720000000000002,26.0,22.6159,22.58,147.495,0.0,0.0,0.0,0.0
7580,11/11/2012 20:00,2.4233,160.7514,20.0,2.4233,26.0,20.8886,88.42,136.23,0.0,0.0,0.0,0.0
7581,11/11/2012 21:00,2.3342,158.3973,20.0,2.3342,5.8552,20.5827,64.24,134.235,0.0,0.0,0.0,0.0
7582,11/11/2012 22:00,1.9777999999999998,154.344,17.048000000000002,1.9777999999999998,4.6982,20.056,38.96,130.8,0.0,0.0,0.0,0.0
7583,11/11/2012 23:00,1.2144,117.4218,17.934,1.2144,2.1111999999999997,15.2582,139.38,99.51,0.0,0.0,0.0,0.0
7584,11/12/2012 0:00,0.5687,82.55279999999999,0.0,0.5687,1.7575999999999998,10.7272,48.84,69.96,0.0,0.0,0.0,0.0
7585,11/12/2012 1:00,0.1837,41.028600000000004,0.0,0.1837,1.4664,5.3314,14.84,34.77,0.0,0.0,0.0,0.0
7586,11/12/2012 2:00,0.7601,25.6473,20.0,0.7601,0.3978,3.3327,6.72,21.735,0.0,0.0,0.0,0.0
7587,11/12/2012 3:00,0.2772,17.505300000000002,20.0,0.2772,1.6068,2.2747,59.48,14.835,0.0,0.0,0.0,0.0
7588,11/12/2012 4:00,0.0957,12.2484,19.826,0.0957,1.7056000000000002,1.5916,93.08,10.379999999999999,0.0,0.0,0.0,0.0
7589,11/12/2012 5:00,6.4658,31.328999999999997,19.56,6.4658,24.1644,4.071,73.72,26.549999999999997,0.0,0.0,0.0,0.0
7590,11/12/2012 6:00,0.5819000000000001,6.8499,19.208000000000002,0.5819000000000001,23.4572,0.8901,120.96000000000001,5.805,0.0,0.0,0.0,0.0
7591,11/12/2012 7:00,0.3201,92.8365,18.476,0.3201,23.7276,12.0635,125.6,78.675,0.0,0.0,0.0,0.0
7592,11/12/2012 8:00,0.1683,98.74829999999999,17.509999999999998,0.1683,18.0414,12.8317,117.56,83.68499999999999,0.0,0.0,0.0,0.0
7593,11/12/2012 9:00,0.2486,12.5139,19.264,0.2486,16.38,1.6260999999999999,85.86,10.605,0.23805177,0.23805177,0.23805177,0.23805177
7594,11/12/2012 10:00,0.5104,97.11989999999999,19.240000000000002,0.5104,21.325200000000002,12.620099999999999,68.89999999999999,82.30499999999999,0.58456105,0.58456105,0.58456105,0.58456105
7595,11/12/2012 11:00,0.7095,165.0171,19.044,0.7095,19.6118,21.4429,92.75999999999999,139.845,1.4717308699999998,1.4717308699999998,1.4717308699999998,1.4717308699999998
7596,11/12/2012 12:00,0.7359,1.3629,18.498,0.7359,15.6754,0.1771,107.98,1.155,1.6523539500000002,1.6523539500000002,1.6523539500000002,1.6523539500000002
7597,11/12/2012 13:00,0.1925,0.0,0.0,0.1925,8.1276,0.0,1.58,0.0,1.6528383999999998,1.6528383999999998,1.6528383999999998,1.6528383999999998
7598,11/12/2012 14:00,2.1835,0.0,19.794,2.1835,1.8070000000000002,0.0,31.34,0.0,1.72172971,1.72172971,1.72172971,1.72172971
7599,11/12/2012 15:00,0.6962999999999999,1.3275,1.286,0.6962999999999999,0.0,0.1725,46.8,1.125,1.43242884,1.43242884,1.43242884,1.43242884
7600,11/12/2012 16:00,1.5466,2.0709,1.548,1.5466,21.473399999999998,0.2691,51.04,1.7550000000000001,0.6040837099999999,0.6040837099999999,0.6040837099999999,0.6040837099999999
7601,11/12/2012 17:00,0.0,3.2922,4.462,0.0,20.659599999999998,0.42779999999999996,28.6,2.7899999999999996,0.0,0.0,0.0,0.0
7602,11/12/2012 18:00,0.45209999999999995,6.726,3.664,0.45209999999999995,19.8198,0.874,16.12,5.7,0.0,0.0,0.0,0.0
7603,11/12/2012 19:00,0.0,3.2214,2.84,0.0,19.619600000000002,0.4186,9.42,2.73,0.0,0.0,0.0,0.0
7604,11/12/2012 20:00,5.8332999999999995,14.266200000000001,1.8399999999999999,5.8332999999999995,15.8418,1.8538000000000001,7.140000000000001,12.09,0.0,0.0,0.0,0.0
7605,11/12/2012 21:00,5.580299999999999,7.5048,1.11,5.580299999999999,13.584999999999999,0.9752,14.04,6.36,0.0,0.0,0.0,0.0
7606,11/12/2012 22:00,5.584700000000001,5.6109,0.6679999999999999,5.584700000000001,11.4582,0.7291,0.0,4.755,0.0,0.0,0.0,0.0
7607,11/12/2012 23:00,0.3322,4.7082,7.304,0.3322,5.777200000000001,0.6118,103.34,3.9899999999999998,0.0,0.0,0.0,0.0
7608,11/13/2012 0:00,2.0669,3.7524,7.014,2.0669,11.9574,0.4876,55.92,3.18,0.0,0.0,0.0,0.0
7609,11/13/2012 1:00,3.9545,11.9652,9.098,3.9545,11.380199999999999,1.5547999999999997,28.42,10.139999999999999,0.0,0.0,0.0,0.0
7610,11/13/2012 2:00,4.8543,55.2063,11.6,4.8543,11.2372,7.1737,16.939999999999998,46.785000000000004,0.0,0.0,0.0,0.0
7611,11/13/2012 3:00,3.443,54.409800000000004,12.32,3.443,11.5986,7.0702,5.64,46.11,0.0,0.0,0.0,0.0
7612,11/13/2012 4:00,0.6457,0.0,11.94,0.6457,12.2174,0.0,16.14,0.0,0.0,0.0,0.0,0.0
7613,11/13/2012 5:00,0.6402,15.788400000000001,11.299999999999999,0.6402,13.376999999999999,2.0516,20.46,13.38,0.0,0.0,0.0,0.0
7614,11/13/2012 6:00,0.5786,9.593399999999999,13.52,0.5786,15.158,1.2466,31.52,8.129999999999999,0.0,0.0,0.0,0.0
7615,11/13/2012 7:00,6.9014,167.4243,9.984,6.9014,16.406,21.755699999999997,0.0,141.885,0.0,0.0,0.0,0.0
7616,11/13/2012 8:00,6.5549,159.2469,9.838000000000001,6.5549,16.211000000000002,20.6931,1.6199999999999999,134.955,0.0,0.0,0.0,0.0
7617,11/13/2012 9:00,6.7782,0.0,2.072,6.7782,26.0,0.0,2.2,0.0,0.49400186,0.49400186,0.49400186,0.49400186
7618,11/13/2012 10:00,10.89,0.0,2.8560000000000003,10.89,26.0,0.0,190.26000000000002,0.0,0.8642325599999999,0.8642325599999999,0.8642325599999999,0.8642325599999999
7619,11/13/2012 11:00,0.0,20.3904,3.2960000000000003,0.0,25.7166,2.6496,171.3,17.28,1.26045139,1.26045139,1.26045139,1.26045139
7620,11/13/2012 12:00,7.404100000000001,126.8382,13.472,7.404100000000001,25.6048,16.4818,0.0,107.49000000000001,0.87326471,0.87326471,0.87326471,0.87326471
7621,11/13/2012 13:00,7.0774,17.8947,11.164000000000001,7.0774,0.0,2.3253,0.0,15.165,1.51798784,1.51798784,1.51798784,1.51798784
7622,11/13/2012 14:00,6.1633000000000004,20.2488,9.846,6.1633000000000004,0.0,2.6312,0.0,17.16,0.7849655,0.7849655,0.7849655,0.7849655
7623,11/13/2012 15:00,0.2068,38.1081,10.052000000000001,0.2068,0.0,4.9519,0.0,32.295,0.94166456,0.94166456,0.94166456,0.94166456
7624,11/13/2012 16:00,0.1793,26.3199,9.196,0.1793,0.28600000000000003,3.4201,8.1,22.305,0.37174432,0.37174432,0.37174432,0.37174432
7625,11/13/2012 17:00,0.19360000000000002,14.2308,7.744,0.19360000000000002,0.637,1.8492,18.14,12.06,0.0,0.0,0.0,0.0
7626,11/13/2012 18:00,0.21119999999999997,167.76059999999998,16.317999999999998,0.21119999999999997,1.898,21.7994,20.72,142.17,0.0,0.0,0.0,0.0
7627,11/13/2012 19:00,4.4132,4.7966999999999995,17.196,4.4132,6.279,0.6233,23.48,4.0649999999999995,0.0,0.0,0.0,0.0
7628,11/13/2012 20:00,2.2098999999999998,5.345400000000001,18.122,2.2098999999999998,4.9842,0.6946,20.96,4.53,0.0,0.0,0.0,0.0
7629,11/13/2012 21:00,0.16169999999999998,136.1838,1.482,0.16169999999999998,6.3804,17.6962,200.0,115.41,0.0,0.0,0.0,0.0
7630,11/13/2012 22:00,0.2409,5.026800000000001,8.32,0.2409,6.5832,0.6532,200.0,4.260000000000001,0.0,0.0,0.0,0.0
7631,11/13/2012 23:00,0.0,9.4872,0.154,0.0,22.560200000000002,1.2328000000000001,200.0,8.040000000000001,0.0,0.0,0.0,0.0
7632,11/14/2012 0:00,0.0,13.8768,0.0,0.0,23.685999999999996,1.8032,200.0,11.76,0.0,0.0,0.0,0.0
7633,11/14/2012 1:00,0.0,20.355,0.0,0.0,24.2788,2.645,200.0,17.25,0.0,0.0,0.0,0.0
7634,11/14/2012 2:00,0.08249999999999999,150.68009999999998,0.0,0.08249999999999999,24.6064,19.5799,200.0,127.695,0.0,0.0,0.0,0.0
7635,11/14/2012 3:00,4.356,177.0,16.744,4.356,24.895,23.0,200.0,150.0,0.0,0.0,0.0,0.0
7636,11/14/2012 4:00,6.2557,0.0,1.5060000000000002,6.2557,15.8314,0.0,163.0,0.0,0.0,0.0,0.0,0.0
7637,11/14/2012 5:00,6.449300000000001,0.0,1.6500000000000001,6.449300000000001,16.0108,0.0,200.0,0.0,0.0,0.0,0.0,0.0
7638,11/14/2012 6:00,6.903600000000001,66.4812,18.11,6.903600000000001,15.0488,8.6388,200.0,56.339999999999996,0.0,0.0,0.0,0.0
7639,11/14/2012 7:00,7.5966,0.0,1.1640000000000001,7.5966,13.3666,0.0,200.0,0.0,0.0,0.0,0.0,0.0
7640,11/14/2012 8:00,7.8858999999999995,0.0,14.980000000000002,7.8858999999999995,25.8128,0.0,200.0,0.0,0.0,0.0,0.0,0.0
7641,11/14/2012 9:00,7.0763,17.8416,14.280000000000001,7.0763,25.792,2.3184,41.28,15.120000000000001,0.60608473,0.60608473,0.60608473,0.60608473
7642,11/14/2012 10:00,7.379900000000001,0.0,15.628,7.379900000000001,25.721799999999998,0.0,93.67999999999999,0.0,0.43060452,0.43060452,0.43060452,0.43060452
7643,11/14/2012 11:00,0.0924,3.0267,18.382,0.0924,25.4332,0.39330000000000004,153.68,2.565,0.76512861,0.76512861,0.76512861,0.76512861
7644,11/14/2012 12:00,8.677900000000001,1.3983,19.201999999999998,8.677900000000001,23.857599999999998,0.18170000000000003,166.35999999999999,1.185,0.87131165,0.87131165,0.87131165,0.87131165
7645,11/14/2012 13:00,9.3071,0.0,0.0,9.3071,3.523,0.0,167.48000000000002,0.0,1.00437456,1.00437456,1.00437456,1.00437456
7646,11/14/2012 14:00,7.2379999999999995,0.0,0.18000000000000002,7.2379999999999995,0.0,0.0,159.16,0.0,1.0269766599999999,1.0269766599999999,1.0269766599999999,1.0269766599999999
7647,11/14/2012 15:00,8.4986,0.0,0.79,8.4986,0.0,0.0,0.0,0.0,0.72432915,0.72432915,0.72432915,0.72432915
7648,11/14/2012 16:00,1.287,5.31,0.0,1.287,0.0,0.69,1.8800000000000001,4.5,0.1438966,0.1438966,0.1438966,0.1438966
7649,11/14/2012 17:00,1.7985,76.3932,0.268,1.7985,0.0,9.9268,3.9,64.74,0.0,0.0,0.0,0.0
7650,11/14/2012 18:00,2.5322,23.2932,5.379999999999999,2.5322,0.0,3.0267999999999997,5.62,19.74,0.0,0.0,0.0,0.0
7651,11/14/2012 19:00,8.9232,143.016,12.290000000000001,8.9232,24.1514,18.584,2.5,121.19999999999999,0.0,0.0,0.0,0.0
7652,11/14/2012 20:00,8.2797,51.099900000000005,10.576,8.2797,1.4612,6.6401,0.0,43.305,0.0,0.0,0.0,0.0
7653,11/14/2012 21:00,0.3619,127.33380000000001,2.29,0.3619,0.325,16.546200000000002,0.0,107.91000000000001,0.0,0.0,0.0,0.0
7654,11/14/2012 22:00,0.4697,12.6732,1.972,0.4697,0.1976,1.6467999999999998,194.23999999999998,10.74,0.0,0.0,0.0,0.0
7655,11/14/2012 23:00,0.31129999999999997,23.9127,3.704,0.31129999999999997,0.1976,3.1073,193.92000000000002,20.265,0.0,0.0,0.0,0.0
7656,11/15/2012 0:00,0.6589,142.9098,18.318,0.6589,22.497799999999998,18.5702,5.220000000000001,121.11,0.0,0.0,0.0,0.0
7657,11/15/2012 1:00,10.224499999999999,136.2192,17.442,10.224499999999999,25.805,17.700799999999997,27.04,115.44,0.0,0.0,0.0,0.0
7658,11/15/2012 2:00,10.0452,85.0131,0.42999999999999994,10.0452,0.0,11.0469,18.22,72.045,0.0,0.0,0.0,0.0
7659,11/15/2012 3:00,10.902099999999999,83.54400000000001,15.786,10.902099999999999,2.106,10.856,16.12,70.80000000000001,0.0,0.0,0.0,0.0
7660,11/15/2012 4:00,1.8975,6.885299999999999,0.298,1.8975,25.805,0.8946999999999999,13.059999999999999,5.835,0.0,0.0,0.0,0.0
7661,11/15/2012 5:00,2.1428,5.7879,0.196,2.1428,2.6364,0.7521,9.6,4.905,0.0,0.0,0.0,0.0
7662,11/15/2012 6:00,2.5509,4.6197,0.0,2.5509,4.8984000000000005,0.6003000000000001,7.140000000000001,3.915,0.0,0.0,0.0,0.0
7663,11/15/2012 7:00,2.7863,3.1329000000000002,0.0,2.7863,8.502,0.4071,6.78,2.6550000000000002,0.0,0.0,0.0,0.0
7664,11/15/2012 8:00,3.5860000000000003,34.6389,20.0,3.5860000000000003,7.2904,4.5011,197.2,29.355,0.0,0.0,0.0,0.0
7665,11/15/2012 9:00,4.5661000000000005,29.8599,4.064,4.5661000000000005,26.0,3.8800999999999997,200.0,25.305,1.25675796,1.25675796,1.25675796,1.25675796
7666,11/15/2012 10:00,0.1364,27.045599999999997,5.8340000000000005,0.1364,26.0,3.5143999999999997,200.0,22.919999999999998,0.11632683000000002,0.11632683000000002,0.11632683000000002,0.11632683000000002
7667,11/15/2012 11:00,0.2981,22.744500000000002,19.314,0.2981,26.0,2.9555000000000002,200.0,19.275000000000002,0.67034934,0.67034934,0.67034934,0.67034934
7668,11/15/2012 12:00,1.0636999999999999,15.912299999999998,5.08,1.0636999999999999,21.0002,2.0677,200.0,13.485,1.06869403,1.06869403,1.06869403,1.06869403
7669,11/15/2012 13:00,1.0208,10.1421,9.572000000000001,1.0208,22.971,1.3178999999999998,93.08,8.594999999999999,0.6214248,0.6214248,0.6214248,0.6214248
7670,11/15/2012 14:00,1.5554,13.9122,1.384,1.5554,24.414,1.8078,142.22,11.790000000000001,0.51033718,0.51033718,0.51033718,0.51033718
7671,11/15/2012 15:00,3.1636,6.407400000000001,1.234,3.1636,25.0484,0.8326000000000001,154.96,5.430000000000001,0.3076702,0.3076702,0.3076702,0.3076702
7672,11/15/2012 16:00,0.1474,5.0622,2.694,0.1474,8.8192,0.6578,12.58,4.29,0.11544633,0.11544633,0.11544633,0.11544633
7673,11/15/2012 17:00,9.8824,8.9208,5.45,9.8824,8.171800000000001,1.1592,14.6,7.5600000000000005,0.0,0.0,0.0,0.0
7674,11/15/2012 18:00,9.6833,9.6996,4.934,9.6833,6.1958,1.2604,186.42000000000002,8.22,0.0,0.0,0.0,0.0
7675,11/15/2012 19:00,9.5337,9.575700000000001,0.33,9.5337,26.0,1.2443,200.0,8.115,0.0,0.0,0.0,0.0
7676,11/15/2012 20:00,9.4721,138.06,1.872,9.4721,0.0,17.94,200.0,117.0,0.0,0.0,0.0,0.0
7677,11/15/2012 21:00,0.2354,131.7411,2.0,0.2354,0.0,17.1189,192.74,111.645,0.0,0.0,0.0,0.0
7678,11/15/2012 22:00,0.1969,7.3278,19.268,0.1969,0.0,0.9521999999999999,193.16,6.21,0.0,0.0,0.0,0.0
7679,11/15/2012 23:00,0.14629999999999999,2.9736,8.124,0.14629999999999999,0.0,0.38639999999999997,192.1,2.52,0.0,0.0,0.0,0.0
7680,11/16/2012 0:00,0.0803,4.602,14.884,0.0803,11.739,0.5980000000000001,174.82,3.9000000000000004,0.0,0.0,0.0,0.0
7681,11/16/2012 1:00,0.0,111.7401,0.0,0.0,2.7742,14.5199,0.0,94.695,0.0,0.0,0.0,0.0
7682,11/16/2012 2:00,0.0,114.80219999999998,17.974,0.0,2.1008,14.9178,139.08,97.28999999999999,0.0,0.0,0.0,0.0
7683,11/16/2012 3:00,0.0,118.3068,18.436,0.0,1.469,15.3732,139.28,100.26,0.0,0.0,0.0,0.0
7684,11/16/2012 4:00,0.0,114.48360000000001,18.778,0.0,3.6530000000000005,14.8764,137.6,97.02000000000001,0.0,0.0,0.0,0.0
7685,11/16/2012 5:00,0.22219999999999998,103.03169999999999,18.874,0.22219999999999998,2.6311999999999998,13.3883,41.02,87.315,0.0,0.0,0.0,0.0
7686,11/16/2012 6:00,6.0082,84.8892,18.362000000000002,6.0082,0.2626,11.030800000000001,151.28,71.94,0.0,0.0,0.0,0.0
7687,11/16/2012 7:00,0.0,30.5148,19.156,0.0,0.2652,3.9652,6.78,25.86,0.0,0.0,0.0,0.0
7688,11/16/2012 8:00,0.0,33.0459,11.132,0.0,0.1872,4.2941,2.54,28.005,0.0,0.0,0.0,0.0
7689,11/16/2012 9:00,0.0,32.1609,6.078,0.0,0.2158,4.1791,0.0,27.255,1.3307960099999998,1.3307960099999998,1.3307960099999998,1.3307960099999998
7690,11/16/2012 10:00,0.5742,7.2393,5.135999999999999,0.5742,0.0,0.9407,0.0,6.135,0.04895996,0.04895996,0.04895996,0.04895996
7691,11/16/2012 11:00,0.5841000000000001,7.3278,3.932,0.5841000000000001,25.7296,0.9521999999999999,91.02,6.21,0.0,0.0,0.0,0.0
7692,11/16/2012 12:00,3.1581,2.4072,3.142,3.1581,25.753,0.31279999999999997,191.8,2.04,0.5047980200000001,0.5047980200000001,0.5047980200000001,0.5047980200000001
7693,11/16/2012 13:00,6.2799,4.1949,2.452,6.2799,25.747799999999998,0.5450999999999999,42.059999999999995,3.5549999999999997,0.9777962,0.9777962,0.9777962,0.9777962
7694,11/16/2012 14:00,8.0498,9.3279,1.7100000000000002,8.0498,26.0,1.2121,7.539999999999999,7.904999999999999,0.5824191799999999,0.5824191799999999,0.5824191799999999,0.5824191799999999
7695,11/16/2012 15:00,8.6669,10.230599999999999,3.58,8.6669,26.0,1.3294,100.03999999999999,8.67,0.56856971,0.56856971,0.56856971,0.56856971
7696,11/16/2012 16:00,3.4122,70.3044,9.464,3.4122,1.9188,9.1356,200.0,59.58,0.2130784,0.2130784,0.2130784,0.2130784
7697,11/16/2012 17:00,2.7401,54.09119999999999,3.1879999999999997,2.7401,2.7144000000000004,7.0287999999999995,6.1,45.839999999999996,0.0,0.0,0.0,0.0
7698,11/16/2012 18:00,2.6444,0.0,2.862,2.6444,25.766,0.0,61.9,0.0,0.0,0.0,0.0,0.0
7699,11/16/2012 19:00,2.7335,168.4686,1.85,2.7335,25.5736,21.8914,200.0,142.77,0.0,0.0,0.0,0.0
7700,11/16/2012 20:00,2.5454,161.6718,1.152,2.5454,25.157600000000002,21.0082,200.0,137.01,0.0,0.0,0.0,0.0
7701,11/16/2012 21:00,10.9208,175.5486,0.53,10.9208,24.2086,22.8114,200.0,148.77,0.0,0.0,0.0,0.0
7702,11/16/2012 22:00,11.0,177.0,0.7779999999999999,11.0,26.0,23.0,105.2,150.0,0.0,0.0,0.0,0.0
7703,11/16/2012 23:00,11.0,3.2922,1.3880000000000001,11.0,25.8024,0.42779999999999996,126.24,2.7899999999999996,0.0,0.0,0.0,0.0
7704,11/17/2012 0:00,3.1933,111.4569,2.07,3.1933,25.4696,14.4831,7.12,94.45500000000001,0.0,0.0,0.0,0.0
7705,11/17/2012 1:00,2.4838,126.1302,2.308,2.4838,25.2902,16.3898,43.86,106.89,0.0,0.0,0.0,0.0
7706,11/17/2012 2:00,0.5203,141.5292,5.568,0.5203,25.014599999999998,18.3908,43.519999999999996,119.94,0.0,0.0,0.0,0.0
7707,11/17/2012 3:00,0.3344,152.6802,7.556000000000001,0.3344,24.681800000000003,19.8398,24.58,129.39000000000001,0.0,0.0,0.0,0.0
7708,11/17/2012 4:00,0.2343,161.6541,10.262,0.2343,24.2138,21.0059,46.14,136.995,0.0,0.0,0.0,0.0
7709,11/17/2012 5:00,1.4816999999999998,0.0,13.36,1.4816999999999998,23.732799999999997,0.0,99.32,0.0,0.0,0.0,0.0,0.0
7710,11/17/2012 6:00,0.9196,4.0533,14.956,0.9196,0.6526000000000001,0.5267000000000001,115.41999999999999,3.435,0.0,0.0,0.0,0.0
7711,11/17/2012 7:00,0.45209999999999995,167.0349,15.893999999999998,0.45209999999999995,0.3796,21.705099999999998,114.6,141.555,0.0,0.0,0.0,0.0
7712,11/17/2012 8:00,4.2031,169.3713,17.084,4.2031,25.2226,22.0087,103.36000000000001,143.535,0.0,0.0,0.0,0.0
7713,11/17/2012 9:00,2.5707,169.76069999999999,17.906,2.5707,25.246,22.0593,166.88,143.86499999999998,0.40715812999999995,0.40715812999999995,0.40715812999999995,0.40715812999999995
7714,11/17/2012 10:00,0.0,112.2003,18.272,0.0,25.2876,14.5797,86.7,95.08500000000001,0.80980183,0.80980183,0.80980183,0.80980183
7715,11/17/2012 11:00,11.0,121.8822,14.09,11.0,25.201800000000002,15.8378,65.74,103.28999999999999,0.92232424,0.92232424,0.92232424,0.92232424
7716,11/17/2012 12:00,11.0,119.65199999999999,14.94,11.0,2.5922,15.547999999999998,39.54,101.39999999999999,1.0758980900000001,1.0758980900000001,1.0758980900000001,1.0758980900000001
7717,11/17/2012 13:00,2.3749000000000002,3.717,15.451999999999998,2.3749000000000002,5.3508000000000004,0.48300000000000004,21.44,3.1500000000000004,0.9778688099999999,0.9778688099999999,0.9778688099999999,0.9778688099999999
7718,11/17/2012 14:00,9.8857,3.6462,0.166,9.8857,23.9538,0.4738,16.580000000000002,3.09,1.27984243,1.27984243,1.27984243,1.27984243
7719,11/17/2012 15:00,8.2566,3.0267,0.838,8.2566,3.5828,0.39330000000000004,0.0,2.565,0.75158565,0.75158565,0.75158565,0.75158565
7720,11/17/2012 16:00,3.7631,122.7318,1.736,3.7631,2.3608000000000002,15.9482,0.0,104.01,0.45777462999999996,0.45777462999999996,0.45777462999999996,0.45777462999999996
7721,11/17/2012 17:00,0.6292,112.3773,3.226,0.6292,0.0,14.6027,0.0,95.235,0.0,0.0,0.0,0.0
7722,11/17/2012 18:00,0.9218,96.3057,5.252,0.9218,0.2678,12.5143,133.48,81.61500000000001,0.0,0.0,0.0,0.0
7723,11/17/2012 19:00,0.0,70.9062,3.126,0.0,2.3114000000000003,9.2138,1.8399999999999999,60.09,0.0,0.0,0.0,0.0
7724,11/17/2012 20:00,0.3256,58.994099999999996,9.208,0.3256,2.4076,7.6659,3.38,49.995,0.0,0.0,0.0,0.0
7725,11/17/2012 21:00,0.0869,0.0,15.118,0.0869,2.6754000000000002,0.0,6.260000000000001,0.0,0.0,0.0,0.0,0.0
7726,11/17/2012 22:00,0.20570000000000002,0.0,17.858,0.20570000000000002,17.6696,0.0,9.6,0.0,0.0,0.0,0.0,0.0
7727,11/17/2012 23:00,0.5478,1.5576,18.53,0.5478,5.7745999999999995,0.20240000000000002,34.14,1.32,0.0,0.0,0.0,0.0
7728,11/18/2012 0:00,1.2386000000000001,3.4161,18.064,1.2386000000000001,0.21059999999999998,0.4439,0.0,2.895,0.0,0.0,0.0,0.0
7729,11/18/2012 1:00,0.4972,5.487,14.878,0.4972,0.22619999999999998,0.713,0.0,4.65,0.0,0.0,0.0,0.0
7730,11/18/2012 2:00,0.4675,45.9492,3.01,0.4675,0.3016,5.9708,0.0,38.94,0.0,0.0,0.0,0.0
7731,11/18/2012 3:00,0.4939,9.5049,0.0,0.4939,20.67,1.2350999999999999,0.0,8.055,0.0,0.0,0.0,0.0
7732,11/18/2012 4:00,0.5456,30.444,0.0,0.5456,22.243000000000002,3.9559999999999995,0.0,25.799999999999997,0.0,0.0,0.0,0.0
7733,11/18/2012 5:00,3.1955,54.8346,0.8340000000000001,3.1955,0.9204,7.125400000000001,124.16,46.470000000000006,0.0,0.0,0.0,0.0
7734,11/18/2012 6:00,2.9942,88.2876,0.5439999999999999,2.9942,26.0,11.4724,158.8,74.82000000000001,0.0,0.0,0.0,0.0
7735,11/18/2012 7:00,2.9535,28.32,12.178,2.9535,2.4934,3.68,2.08,24.0,0.0,0.0,0.0,0.0
7736,11/18/2012 8:00,2.7291,22.125,15.142,2.7291,9.690199999999999,2.875,6.279999999999999,18.75,0.0,0.0,0.0,0.0
7737,11/18/2012 9:00,2.4046,32.7804,20.0,2.4046,11.076,4.2596,14.34,27.78,0.41459153,0.41459153,0.41459153,0.41459153
7738,11/18/2012 10:00,1.3706,145.671,20.0,1.3706,13.064999999999998,18.929,121.30000000000001,123.44999999999999,1.00048334,1.00048334,1.00048334,1.00048334
7739,11/18/2012 11:00,0.5445,177.0,19.6,0.5445,16.8324,23.0,128.85999999999999,150.0,1.4116609800000002,1.4116609800000002,1.4116609800000002,1.4116609800000002
7740,11/18/2012 12:00,9.7196,122.4132,0.15800000000000003,9.7196,16.0914,15.9068,129.7,103.74,1.3466178800000002,1.3466178800000002,1.3466178800000002,1.3466178800000002
7741,11/18/2012 13:00,2.5795,16.9035,0.174,2.5795,13.478399999999999,2.1965,191.32,14.325000000000001,1.12290221,1.12290221,1.12290221,1.12290221
7742,11/18/2012 14:00,3.0415,123.0327,0.262,3.0415,9.7682,15.987300000000001,15.28,104.26500000000001,0.97117624,0.97117624,0.97117624,0.97117624
7743,11/18/2012 15:00,2.8676999999999997,145.7772,0.0,2.8676999999999997,5.2468,18.9428,12.78,123.54,0.68902419,0.68902419,0.68902419,0.68902419
7744,11/18/2012 16:00,9.6129,22.6914,0.626,9.6129,2.7872,2.9486000000000003,11.76,19.23,0.25174425,0.25174425,0.25174425,0.25174425
7745,11/18/2012 17:00,9.8483,26.426099999999998,15.376000000000001,9.8483,1.9812,3.4338999999999995,127.06,22.395,0.0,0.0,0.0,0.0
7746,11/18/2012 18:00,10.0034,71.9682,13.046,10.0034,2.106,9.3518,116.21999999999998,60.99,0.0,0.0,0.0,0.0
7747,11/18/2012 19:00,0.2189,16.5318,16.978,0.2189,26.0,2.1482,99.74,14.01,0.0,0.0,0.0,0.0
7748,11/18/2012 20:00,0.3102,161.424,3.0980000000000003,0.3102,26.0,20.976,7.720000000000001,136.8,0.0,0.0,0.0,0.0
7749,11/18/2012 21:00,0.21230000000000002,148.2729,4.062,0.21230000000000002,6.531199999999999,19.2671,5.5,125.655,0.0,0.0,0.0,0.0
7750,11/18/2012 22:00,0.5291,1.6638000000000002,5.061999999999999,0.5291,7.643999999999999,0.2162,4.36,1.4100000000000001,0.0,0.0,0.0,0.0
7751,11/18/2012 23:00,10.110100000000001,1.5222,20.0,10.110100000000001,5.8578,0.1978,3.18,1.29,0.0,0.0,0.0,0.0
7752,11/19/2012 0:00,0.0946,1.8054000000000001,12.1,0.0946,4.7996,0.23460000000000003,4.4799999999999995,1.53,0.0,0.0,0.0,0.0
7753,11/19/2012 1:00,0.0,1.9470000000000003,19.13,0.0,2.314,0.253,11.360000000000001,1.6500000000000001,0.0,0.0,0.0,0.0
7754,11/19/2012 2:00,0.0,2.1771,18.578,0.0,1.8252,0.2829,27.66,1.845,0.0,0.0,0.0,0.0
7755,11/19/2012 3:00,0.0,1.4337,12.668,0.0,8.450000000000001,0.1863,49.559999999999995,1.2149999999999999,0.0,0.0,0.0,0.0
7756,11/19/2012 4:00,0.0,0.0,0.402,0.0,7.490600000000001,0.0,68.5,0.0,0.0,0.0,0.0,0.0
7757,11/19/2012 5:00,2.5663,177.0,0.0,2.5663,26.0,23.0,119.86000000000001,150.0,0.0,0.0,0.0,0.0
7758,11/19/2012 6:00,2.5949,177.0,3.024,2.5949,26.0,23.0,189.0,150.0,0.0,0.0,0.0,0.0
7759,11/19/2012 7:00,0.3608,0.0,2.042,0.3608,2.08,0.0,196.78,0.0,0.0,0.0,0.0,0.0
7760,11/19/2012 8:00,0.0836,24.0189,17.912,0.0836,1.0868,3.1210999999999998,200.0,20.354999999999997,0.0,0.0,0.0,0.0
7761,11/19/2012 9:00,0.0814,107.82839999999999,0.576,0.0814,1.079,14.0116,2.04,91.38,3.4358504400000003,3.4358504400000003,3.4358504400000003,3.4358504400000003
7762,11/19/2012 10:00,8.6515,0.0,0.346,8.6515,0.7852,0.0,0.0,0.0,2.84460926,2.84460926,2.84460926,2.84460926
7763,11/19/2012 11:00,5.7706,0.0,1.704,5.7706,0.6447999999999999,0.0,200.0,0.0,3.0455059899999997,3.0455059899999997,3.0455059899999997,3.0455059899999997
7764,11/19/2012 12:00,7.8870000000000005,0.0,1.462,7.8870000000000005,21.905,0.0,200.0,0.0,3.69727935,3.69727935,3.69727935,3.69727935
7765,11/19/2012 13:00,5.4505,0.0,0.0,5.4505,1.3624,0.0,0.0,0.0,3.9323873600000003,3.9323873600000003,3.9323873600000003,3.9323873600000003
7766,11/19/2012 14:00,8.932,139.2636,0.0,8.932,0.6474,18.096400000000003,35.88,118.02000000000001,3.89897801,3.89897801,3.89897801,3.89897801
7767,11/19/2012 15:00,9.0497,127.84710000000001,19.6,9.0497,0.5616,16.6129,162.57999999999998,108.34500000000001,3.5336101200000005,3.5336101200000005,3.5336101200000005,3.5336101200000005
7768,11/19/2012 16:00,4.5595,3.363,0.0,4.5595,0.4342,0.437,157.68,2.85,2.5400881199999996,2.5400881199999996,2.5400881199999996,2.5400881199999996
7769,11/19/2012 17:00,9.770199999999999,3.9648,1.582,9.770199999999999,0.23400000000000004,0.5152,66.96,3.36,0.0,0.0,0.0,0.0
7770,11/19/2012 18:00,10.2729,4.6374,1.8279999999999998,10.2729,0.5798,0.6026,0.0,3.93,0.0,0.0,0.0,0.0
7771,11/19/2012 19:00,10.2179,1.3098,2.4600000000000004,10.2179,0.0,0.17020000000000002,0.0,1.11,0.0,0.0,0.0,0.0
7772,11/19/2012 20:00,3.2010000000000005,77.91539999999999,10.362,3.2010000000000005,0.0,10.1246,200.0,66.03,0.0,0.0,0.0,0.0
7773,11/19/2012 21:00,3.6531000000000002,0.0,19.18,3.6531000000000002,25.3682,0.0,200.0,0.0,0.0,0.0,0.0,0.0
7774,11/19/2012 22:00,10.695300000000001,89.5797,0.254,10.695300000000001,0.0,11.6403,200.0,75.91499999999999,0.0,0.0,0.0,0.0
7775,11/19/2012 23:00,10.7712,138.85649999999998,0.332,10.7712,1.3104,18.043499999999998,200.0,117.675,0.0,0.0,0.0,0.0
7776,11/20/2012 0:00,10.7811,140.32559999999998,0.418,10.7811,1.3364,18.234399999999997,60.760000000000005,118.91999999999999,0.0,0.0,0.0,0.0
7777,11/20/2012 1:00,8.1235,59.011799999999994,0.524,8.1235,2.0878,7.6682,48.699999999999996,50.01,0.0,0.0,0.0,0.0
7778,11/20/2012 2:00,7.909000000000001,56.870099999999994,0.512,7.909000000000001,0.38480000000000003,7.389899999999999,37.12,48.19499999999999,0.0,0.0,0.0,0.0
7779,11/20/2012 3:00,11.0,48.5157,7.308,11.0,0.6188,6.3043000000000005,28.46,41.115,0.0,0.0,0.0,0.0
7780,11/20/2012 4:00,10.3279,135.36960000000002,0.39,10.3279,0.338,17.590400000000002,20.28,114.72,0.0,0.0,0.0,0.0
7781,11/20/2012 5:00,10.824000000000002,91.5975,6.694,10.824000000000002,2.015,11.9025,18.86,77.625,0.0,0.0,0.0,0.0
7782,11/20/2012 6:00,10.6128,14.691,17.752,10.6128,1.703,1.909,0.0,12.450000000000001,0.0,0.0,0.0,0.0
7783,11/20/2012 7:00,0.2398,7.6640999999999995,17.994,0.2398,1.3572000000000002,0.9959,0.0,6.495,0.0,0.0,0.0,0.0
7784,11/20/2012 8:00,8.602,19.239900000000002,7.114000000000001,8.602,1.469,2.5001,0.0,16.305,0.0,0.0,0.0,0.0
7785,11/20/2012 9:00,8.9452,15.328199999999999,5.666,8.9452,1.3988,1.9918,30.240000000000002,12.99,0.43139545999999995,0.43139545999999995,0.43139545999999995,0.43139545999999995
7786,11/20/2012 10:00,0.2838,11.151,20.0,0.2838,13.3692,1.449,14.42,9.45,1.0577227,1.0577227,1.0577227,1.0577227
7787,11/20/2012 11:00,8.7274,3.0797999999999996,20.0,8.7274,16.325400000000002,0.4002,10.32,2.61,1.8404804100000003,1.8404804100000003,1.8404804100000003,1.8404804100000003
7788,11/20/2012 12:00,8.3512,4.1949,2.782,8.3512,16.3306,0.5450999999999999,9.82,3.5549999999999997,2.03128625,2.03128625,2.03128625,2.03128625
7789,11/20/2012 13:00,7.9761,4.230300000000001,19.474,7.9761,15.3348,0.5497000000000001,7.140000000000001,3.585,1.8938237199999999,1.8938237199999999,1.8938237199999999,1.8938237199999999
7790,11/20/2012 14:00,0.0924,5.3808,19.566,0.0924,14.2506,0.6992,6.08,4.56,1.6015465400000002,1.6015465400000002,1.6015465400000002,1.6015465400000002
7791,11/20/2012 15:00,0.0,40.975500000000004,8.686,0.0,13.299,5.3245000000000005,5.06,34.725,1.06692688,1.06692688,1.06692688,1.06692688
7792,11/20/2012 16:00,8.6075,44.8872,7.7459999999999996,8.6075,12.8388,5.8328,31.56,38.04,1.43985327,1.43985327,1.43985327,1.43985327
7793,11/20/2012 17:00,9.4468,20.2665,6.848,9.4468,12.667200000000001,2.6335,16.48,17.175,0.0,0.0,0.0,0.0
7794,11/20/2012 18:00,6.9464999999999995,11.2218,5.712000000000001,6.9464999999999995,13.6058,1.4582,8.24,9.51,0.0,0.0,0.0,0.0
7795,11/20/2012 19:00,6.814500000000001,17.4699,0.46399999999999997,6.814500000000001,4.8957999999999995,2.2701,2.7199999999999998,14.805,0.0,0.0,0.0,0.0
7796,11/20/2012 20:00,6.417400000000001,125.6523,0.0,6.417400000000001,23.3844,16.3277,1.9800000000000002,106.485,0.0,0.0,0.0,0.0
7797,11/20/2012 21:00,1.1022,99.63329999999999,5.288,1.1022,24.2528,12.9467,0.0,84.43499999999999,0.0,0.0,0.0,0.0
7798,11/20/2012 22:00,1.1165,2.2656,12.096,1.1165,24.8014,0.2944,0.0,1.9200000000000002,0.0,0.0,0.0,0.0
7799,11/20/2012 23:00,0.9053,3.8586,17.276,0.9053,25.1186,0.5014,5.5,3.27,0.0,0.0,0.0,0.0
7800,11/21/2012 0:00,5.4845999999999995,25.3464,0.254,5.4845999999999995,13.5226,3.2935999999999996,5.220000000000001,21.48,0.0,0.0,0.0,0.0
7801,11/21/2012 1:00,2.9777,6.035699999999999,8.038,2.9777,12.9766,0.7843,0.0,5.114999999999999,0.0,0.0,0.0,0.0
7802,11/21/2012 2:00,1.7027999999999999,13.275,0.0,1.7027999999999999,3.042,1.7249999999999999,72.5,11.25,0.0,0.0,0.0,0.0
7803,11/21/2012 3:00,1.1219999999999999,10.2129,7.236000000000001,1.1219999999999999,1.573,1.3271,4.6,8.655,0.0,0.0,0.0,0.0
7804,11/21/2012 4:00,0.8525,49.028999999999996,4.602,0.8525,0.7878000000000001,6.3709999999999996,68.6,41.55,0.0,0.0,0.0,0.0
7805,11/21/2012 5:00,0.8074000000000001,52.0203,2.5580000000000003,0.8074000000000001,0.0,6.7597,2.6599999999999997,44.085,0.0,0.0,0.0,0.0
7806,11/21/2012 6:00,0.7150000000000001,53.2947,3.046,0.7150000000000001,6.2581999999999995,6.925299999999999,3.6000000000000005,45.165,0.0,0.0,0.0,0.0
7807,11/21/2012 7:00,0.6754,57.40109999999999,4.264,0.6754,1.2142,7.4589,61.14000000000001,48.644999999999996,0.0,0.0,0.0,0.0
7808,11/21/2012 8:00,4.4868999999999994,4.3719,5.869999999999999,4.4868999999999994,0.3614,0.5681,81.46,3.705,0.0,0.0,0.0,0.0
7809,11/21/2012 9:00,2.7731,6.9561,4.108,2.7731,0.0,0.9039,29.439999999999998,5.8950000000000005,1.83298187,1.83298187,1.83298187,1.83298187
7810,11/21/2012 10:00,3.2813,8.3898,5.604,3.2813,0.0,1.0901999999999998,30.459999999999997,7.109999999999999,2.5231496399999997,2.5231496399999997,2.5231496399999997,2.5231496399999997
7811,11/21/2012 11:00,0.07919999999999999,9.3987,5.904,0.07919999999999999,0.0,1.2213,30.259999999999998,7.965,2.9102409600000003,2.9102409600000003,2.9102409600000003,2.9102409600000003
7812,11/21/2012 12:00,0.0,52.8345,5.792000000000001,0.0,0.0,6.8655,24.12,44.775,3.64541529,3.64541529,3.64541529,3.64541529
7813,11/21/2012 13:00,0.0814,77.2605,4.63,0.0814,0.0,10.0395,25.040000000000003,65.475,4.39020625,4.39020625,4.39020625,4.39020625
7814,11/21/2012 14:00,8.5283,93.43830000000001,2.3600000000000003,8.5283,0.0,12.1417,180.5,79.185,4.19075568,4.19075568,4.19075568,4.19075568
7815,11/21/2012 15:00,9.1234,10.071299999999999,1.554,9.1234,0.0,1.3087,188.02,8.535,3.47054575,3.47054575,3.47054575,3.47054575
7816,11/21/2012 16:00,9.8219,11.363399999999999,2.342,9.8219,0.0,1.4766,0.0,9.629999999999999,2.25579182,2.25579182,2.25579182,2.25579182
7817,11/21/2012 17:00,10.1541,122.69640000000001,1.766,10.1541,1.508,15.9436,197.22,103.98,0.0,0.0,0.0,0.0
7818,11/21/2012 18:00,10.060599999999999,12.1599,13.65,10.060599999999999,0.3302,1.5800999999999998,2.46,10.305,0.0,0.0,0.0,0.0
7819,11/21/2012 19:00,0.5665,162.8931,16.13,0.5665,0.3926,21.166900000000002,13.08,138.045,0.0,0.0,0.0,0.0
7820,11/21/2012 20:00,0.5423,161.7249,17.57,0.5423,0.338,21.0151,26.82,137.055,0.0,0.0,0.0,0.0
7821,11/21/2012 21:00,1.6918,6.0710999999999995,18.400000000000002,1.6918,0.1976,0.7888999999999999,150.4,5.145,0.0,0.0,0.0,0.0
7822,11/21/2012 22:00,1.8832,161.7072,20.0,1.8832,0.0,21.0128,54.459999999999994,137.04,0.0,0.0,0.0,0.0
7823,11/21/2012 23:00,1.6972999999999998,0.0,20.0,1.6972999999999998,21.9102,0.0,14.219999999999999,0.0,0.0,0.0,0.0,0.0
7824,11/22/2012 0:00,1.3431,0.0,15.64,1.3431,17.2458,0.0,8.58,0.0,0.0,0.0,0.0,0.0
7825,11/22/2012 1:00,1.0879,4.6197,0.0,1.0879,13.4914,0.6003000000000001,11.540000000000001,3.915,0.0,0.0,0.0,0.0
7826,11/22/2012 2:00,0.8195,106.4301,0.0,0.8195,15.483,13.829899999999999,134.18,90.195,0.0,0.0,0.0,0.0
7827,11/22/2012 3:00,3.3726,83.9511,0.0,3.3726,19.557199999999998,10.9089,64.03999999999999,71.145,0.0,0.0,0.0,0.0
7828,11/22/2012 4:00,3.5321,12.1776,4.026,3.5321,22.373,1.5824,65.36,10.32,0.0,0.0,0.0,0.0
7829,11/22/2012 5:00,0.0,0.0,19.354,0.0,0.507,0.0,64.48,0.0,0.0,0.0,0.0,0.0
7830,11/22/2012 6:00,0.1837,24.0366,1.916,0.1837,0.5589999999999999,3.1234,21.4,20.37,0.0,0.0,0.0,0.0
7831,11/22/2012 7:00,0.1562,20.0718,17.034,0.1562,2.1554,2.6082,173.12,17.01,0.0,0.0,0.0,0.0
7832,11/22/2012 8:00,0.0,4.3011,14.838000000000001,0.0,24.0812,0.5589,154.22,3.645,0.0,0.0,0.0,0.0
7833,11/22/2012 9:00,0.0,2.9028,11.806000000000001,0.0,24.148799999999998,0.37720000000000004,136.2,2.4600000000000004,2.7813229899999996,2.7813229899999996,2.7813229899999996,2.7813229899999996
7834,11/22/2012 10:00,0.0,3.1329000000000002,19.014,0.0,21.4656,0.4071,114.12,2.6550000000000002,2.83042171,2.83042171,2.83042171,2.83042171
7835,11/22/2012 11:00,0.0,1.8585,18.704,0.0,23.909599999999998,0.24150000000000002,196.3,1.5750000000000002,3.15488722,3.15488722,3.15488722,3.15488722
7836,11/22/2012 12:00,1.0604,0.0,18.514,1.0604,23.8888,0.0,108.16,0.0,3.5623391900000003,3.5623391900000003,3.5623391900000003,3.5623391900000003
7837,11/22/2012 13:00,0.5654,165.9729,18.572,0.5654,24.0656,21.5671,125.32000000000001,140.655,3.84738256,3.84738256,3.84738256,3.84738256
7838,11/22/2012 14:00,0.3003,74.7825,18.222,0.3003,24.1514,9.7175,138.57999999999998,63.375,4.0055827299999995,4.0055827299999995,4.0055827299999995,4.0055827299999995
7839,11/22/2012 15:00,0.6127,48.0378,18.122,0.6127,2.9536000000000002,6.2421999999999995,9.34,40.709999999999994,2.88395285,2.88395285,2.88395285,2.88395285
7840,11/22/2012 16:00,0.8052,26.3376,0.936,0.8052,23.3142,3.4223999999999997,12.7,22.319999999999997,1.45290319,1.45290319,1.45290319,1.45290319
7841,11/22/2012 17:00,1.9536,4.7613,1.784,1.9536,22.3236,0.6187,66.28,4.035,0.0,0.0,0.0,0.0
7842,11/22/2012 18:00,1.1484,7.611,3.026,1.1484,1.7575999999999998,0.9889999999999999,164.0,6.449999999999999,0.0,0.0,0.0,0.0
7843,11/22/2012 19:00,0.6335999999999999,9.3633,3.99,0.6335999999999999,2.3504,1.2167000000000001,120.56,7.9350000000000005,0.0,0.0,0.0,0.0
7844,11/22/2012 20:00,0.3267,10.9917,5.33,0.3267,2.7508,1.4283000000000001,122.54,9.315,0.0,0.0,0.0,0.0
7845,11/22/2012 21:00,0.0,11.4873,6.3180000000000005,0.0,4.7008,1.4927,0.0,9.735,0.0,0.0,0.0,0.0
7846,11/22/2012 22:00,3.6014000000000004,61.9146,7.032,3.6014000000000004,25.5944,8.0454,0.0,52.47,0.0,0.0,0.0,0.0
7847,11/22/2012 23:00,2.0162999999999998,82.7475,4.5,2.0162999999999998,0.5434,10.752500000000001,0.0,70.125,0.0,0.0,0.0,0.0
7848,11/23/2012 0:00,6.945399999999999,91.2435,3.0719999999999996,6.945399999999999,0.4784,11.856499999999999,117.16,77.32499999999999,0.0,0.0,0.0,0.0
7849,11/23/2012 1:00,8.1026,5.2569,2.362,8.1026,1.0842,0.6831,66.08000000000001,4.455,0.0,0.0,0.0,0.0
7850,11/23/2012 2:00,5.0512,7.522500000000001,1.6900000000000002,5.0512,0.6474,0.9775,114.16,6.375000000000001,0.0,0.0,0.0,0.0
7851,11/23/2012 3:00,6.965199999999999,60.551700000000004,1.192,6.965199999999999,0.533,7.8683000000000005,152.24,51.315000000000005,0.0,0.0,0.0,0.0
7852,11/23/2012 4:00,3.7554,23.2047,0.882,3.7554,0.3042,3.0153,94.52000000000001,19.665,0.0,0.0,0.0,0.0
7853,11/23/2012 5:00,5.2316,18.0186,0.6619999999999999,5.2316,4.5291999999999994,2.3414,83.44,15.27,0.0,0.0,0.0,0.0
7854,11/23/2012 6:00,9.7834,16.0362,0.378,9.7834,24.174799999999998,2.0838,109.86,13.59,0.0,0.0,0.0,0.0
7855,11/23/2012 7:00,0.6875,17.045099999999998,0.146,0.6875,0.0,2.2149,127.16000000000001,14.445,0.0,0.0,0.0,0.0
7856,11/23/2012 8:00,0.6225999999999999,3.7524,0.0,0.6225999999999999,0.20540000000000003,0.4876,165.3,3.18,0.0,0.0,0.0,0.0
7857,11/23/2012 9:00,0.649,173.4069,0.0,0.649,0.41859999999999997,22.5331,2.6599999999999997,146.955,2.6227557100000003,2.6227557100000003,2.6227557100000003,2.6227557100000003
7858,11/23/2012 10:00,0.7051000000000001,32.1078,18.77,0.7051000000000001,1.4143999999999999,4.1722,2.48,27.21,2.47850889,2.47850889,2.47850889,2.47850889
7859,11/23/2012 11:00,0.7579,57.489599999999996,19.05,0.7579,1.4742,7.4704,1.5,48.72,2.70444707,2.70444707,2.70444707,2.70444707
7860,11/23/2012 12:00,0.8415,48.7635,18.972,0.8415,1.6874,6.336500000000001,1.72,41.325,3.2533795600000004,3.2533795600000004,3.2533795600000004,3.2533795600000004
7861,11/23/2012 13:00,6.0698,33.258300000000006,18.286,6.0698,1.5834000000000001,4.3217,93.92,28.185000000000002,3.4457870799999997,3.4457870799999997,3.4457870799999997,3.4457870799999997
7862,11/23/2012 14:00,10.9098,77.526,17.394000000000002,10.9098,1.3208,10.073999999999998,127.46,65.69999999999999,3.54448873,3.54448873,3.54448873,3.54448873
7863,11/23/2012 15:00,10.8482,125.28059999999999,17.074,10.8482,1.0452,16.2794,115.12,106.17,2.6636817100000005,2.6636817100000005,2.6636817100000005,2.6636817100000005
7864,11/23/2012 16:00,0.8513999999999999,111.63390000000001,15.716000000000001,0.8513999999999999,0.9334,14.5061,88.4,94.605,1.39176441,1.39176441,1.39176441,1.39176441
7865,11/23/2012 17:00,2.4695,136.2192,16.062,2.4695,0.8423999999999999,17.700799999999997,187.46,115.44,0.0,0.0,0.0,0.0
7866,11/23/2012 18:00,2.0745999999999998,142.6266,0.15800000000000003,2.0745999999999998,22.2014,18.5334,195.98,120.86999999999999,0.0,0.0,0.0,0.0
7867,11/23/2012 19:00,1.7446,145.5471,0.0,1.7446,23.6678,18.9129,0.0,123.345,0.0,0.0,0.0,0.0
7868,11/23/2012 20:00,1.4553,10.7439,1.08,1.4553,24.9028,1.3961,15.78,9.105,0.0,0.0,0.0,0.0
7869,11/23/2012 21:00,0.2255,136.9626,0.888,0.2255,11.557,17.7974,194.76,116.07000000000001,0.0,0.0,0.0,0.0
7870,11/23/2012 22:00,0.2321,133.26330000000002,0.372,0.2321,10.834200000000001,17.3167,194.28,112.935,0.0,0.0,0.0,0.0
7871,11/23/2012 23:00,10.1607,129.1215,17.552,10.1607,10.9174,16.7785,200.0,109.42500000000001,0.0,0.0,0.0,0.0
7872,11/24/2012 0:00,0.957,123.8646,17.336,0.957,11.3178,16.095399999999998,195.68,104.97,0.0,0.0,0.0,0.0
7873,11/24/2012 1:00,9.7295,115.8996,1.492,9.7295,12.0718,15.060400000000001,195.84,98.22000000000001,0.0,0.0,0.0,0.0
7874,11/24/2012 2:00,0.0,177.0,0.7340000000000001,0.0,12.7712,23.0,196.45999999999998,150.0,0.0,0.0,0.0,0.0
7875,11/24/2012 3:00,0.2849,177.0,0.932,0.2849,13.299,23.0,0.0,150.0,0.0,0.0,0.0,0.0
7876,11/24/2012 4:00,0.3553,153.5121,0.922,0.3553,11.1306,19.9479,0.0,130.095,0.0,0.0,0.0,0.0
7877,11/24/2012 5:00,0.3883,132.9093,0.0,0.3883,13.923,17.2707,137.44,112.635,0.0,0.0,0.0,0.0
7878,11/24/2012 6:00,0.0,0.0,0.0,0.0,18.7044,0.0,11.98,0.0,0.0,0.0,0.0,0.0
7879,11/24/2012 7:00,0.4818,0.0,0.0,0.4818,19.9342,0.0,200.0,0.0,0.0,0.0,0.0,0.0
7880,11/24/2012 8:00,2.7565999999999997,113.22690000000001,11.521999999999998,2.7565999999999997,19.9394,14.7131,86.26,95.95500000000001,0.0,0.0,0.0,0.0
7881,11/24/2012 9:00,3.0877,0.0,10.128,3.0877,19.149,0.0,87.12,0.0,0.8108510000000001,0.8108510000000001,0.8108510000000001,0.8108510000000001
7882,11/24/2012 10:00,2.816,0.0,0.6579999999999999,2.816,18.3768,0.0,91.32000000000001,0.0,1.48689769,1.48689769,1.48689769,1.48689769
7883,11/24/2012 11:00,0.1947,2.4072,0.706,0.1947,1.5886,0.31279999999999997,2.08,2.04,2.07902357,2.07902357,2.07902357,2.07902357
7884,11/24/2012 12:00,7.2105,31.913099999999996,1.1139999999999999,7.2105,1.1596,4.1469,174.26,27.044999999999998,2.02016163,2.02016163,2.02016163,2.02016163
7885,11/24/2012 13:00,1.6654,21.1338,0.0,1.6654,1.1154,2.7462,107.04,17.91,2.0773531100000002,2.0773531100000002,2.0773531100000002,2.0773531100000002
7886,11/24/2012 14:00,2.8930000000000002,14.5317,0.0,2.8930000000000002,4.1262,1.8883,84.64,12.315000000000001,2.4890006000000002,2.4890006000000002,2.4890006000000002,2.4890006000000002
7887,11/24/2012 15:00,4.205299999999999,11.4342,1.672,4.205299999999999,4.16,1.4858,152.29999999999998,9.690000000000001,2.7665385999999996,2.7665385999999996,2.7665385999999996,2.7665385999999996
7888,11/24/2012 16:00,5.83,7.6818,1.028,5.83,0.9282,0.9982,57.84,6.51,1.44761936,1.44761936,1.44761936,1.44761936
7889,11/24/2012 17:00,0.1518,4.1241,1.242,0.1518,1.2948,0.5359,36.08,3.495,0.0,0.0,0.0,0.0
7890,11/24/2012 18:00,2.3507,3.4515,0.0,2.3507,17.4486,0.4485,21.84,2.925,0.0,0.0,0.0,0.0
7891,11/24/2012 19:00,0.8173,3.9471000000000003,0.47800000000000004,0.8173,1.7862,0.5129,14.32,3.345,0.0,0.0,0.0,0.0
7892,11/24/2012 20:00,1.9943,9.841199999999999,7.645999999999999,1.9943,9.139,1.2788,10.84,8.34,0.0,0.0,0.0,0.0
7893,11/24/2012 21:00,10.3235,0.0,17.43,10.3235,12.155000000000001,0.0,10.82,0.0,0.0,0.0,0.0,0.0
7894,11/24/2012 22:00,10.6029,0.0,17.854,10.6029,1.7965999999999998,0.0,13.86,0.0,0.0,0.0,0.0,0.0
7895,11/24/2012 23:00,1.2243,149.742,18.432,1.2243,0.0,19.458,27.339999999999996,126.89999999999999,0.0,0.0,0.0,0.0
7896,11/25/2012 0:00,0.6754,120.3777,18.698,0.6754,0.0,15.6423,161.9,102.015,0.0,0.0,0.0,0.0
7897,11/25/2012 1:00,0.253,53.0469,18.652,0.253,0.676,6.8931000000000004,98.14,44.955000000000005,0.0,0.0,0.0,0.0
7898,11/25/2012 2:00,0.21669999999999998,154.1847,3.7640000000000002,0.21669999999999998,1.5704,20.0353,107.75999999999999,130.665,0.0,0.0,0.0,0.0
7899,11/25/2012 3:00,0.2629,138.7857,0.258,0.2629,25.810200000000002,18.0343,2.3,117.61500000000001,0.0,0.0,0.0,0.0
7900,11/25/2012 4:00,0.39490000000000003,118.76699999999998,20.0,0.39490000000000003,0.0,15.432999999999998,4.08,100.64999999999999,0.0,0.0,0.0,0.0
7901,11/25/2012 5:00,7.279800000000001,157.5477,8.238,7.279800000000001,0.4342,20.4723,179.9,133.515,0.0,0.0,0.0,0.0
7902,11/25/2012 6:00,0.8338000000000001,72.3576,0.796,0.8338000000000001,0.3666,9.4024,39.06,61.32,0.0,0.0,0.0,0.0
7903,11/25/2012 7:00,0.0,13.7352,3.088,0.0,0.3562,1.7848000000000002,21.04,11.64,0.0,0.0,0.0,0.0
7904,11/25/2012 8:00,10.4181,0.0,5.684,10.4181,0.3068,0.0,18.18,0.0,0.0,0.0,0.0,0.0
7905,11/25/2012 9:00,9.785599999999999,32.7804,10.952,9.785599999999999,0.42119999999999996,4.2596,37.2,27.78,0.23369504,0.23369504,0.23369504,0.23369504
7906,11/25/2012 10:00,8.555800000000001,27.771300000000004,16.176,8.555800000000001,1.0452,3.6087000000000002,79.28,23.535,0.80460748,0.80460748,0.80460748,0.80460748
7907,11/25/2012 11:00,8.9342,23.364,4.84,8.9342,1.8668,3.036,34.98,19.8,1.97996182,1.97996182,1.97996182,1.97996182
7908,11/25/2012 12:00,0.1749,32.4441,4.215999999999999,0.1749,1.5314,4.2158999999999995,29.86,27.494999999999997,2.4074961200000002,2.4074961200000002,2.4074961200000002,2.4074961200000002
7909,11/25/2012 13:00,0.9624999999999999,12.478499999999999,3.75,0.9624999999999999,1.2428000000000001,1.6215,23.1,10.575,2.43903044,2.43903044,2.43903044,2.43903044
7910,11/25/2012 14:00,0.8107,0.0,3.4499999999999997,0.8107,1.2922,0.0,14.42,0.0,2.07933243,2.07933243,2.07933243,2.07933243
7911,11/25/2012 15:00,7.4591,39.541799999999995,4.37,7.4591,1.7992,5.138199999999999,36.18,33.51,1.37504485,1.37504485,1.37504485,1.37504485
7912,11/25/2012 16:00,7.023499999999999,170.3802,19.408,7.023499999999999,0.0,22.1398,5.76,144.39000000000001,0.49693571,0.49693571,0.49693571,0.49693571
7913,11/25/2012 17:00,4.4868999999999994,164.1852,19.622,4.4868999999999994,0.0,21.3348,38.22,139.14,0.0,0.0,0.0,0.0
7914,11/25/2012 18:00,8.983699999999999,159.4593,0.564,8.983699999999999,2.6780000000000004,20.7207,3.58,135.135,0.0,0.0,0.0,0.0
7915,11/25/2012 19:00,5.2514,153.1404,0.558,5.2514,3.8636000000000004,19.8996,15.36,129.78,0.0,0.0,0.0,0.0
7916,11/25/2012 20:00,0.0,143.2107,1.692,0.0,6.0216,18.6093,4.54,121.36500000000001,0.0,0.0,0.0,0.0
7917,11/25/2012 21:00,0.0,0.0,6.266,0.0,8.4812,0.0,15.340000000000002,0.0,0.0,0.0,0.0,0.0
7918,11/25/2012 22:00,0.10559999999999999,0.0,19.846,0.10559999999999999,1.1232,0.0,184.2,0.0,0.0,0.0,0.0,0.0
7919,11/25/2012 23:00,0.13090000000000002,70.8354,1.678,0.13090000000000002,2.1684,9.2046,11.34,60.03,0.0,0.0,0.0,0.0
