,date,Wind_1,Wind_2,Wind_3,Wind_4,Wind_5,Wind_6,Wind_7,Wind_8,Solar_1,Solar_2,Solar_3,Solar_4
2160,3/31/2012 0:00,0.9261999999999999,156.14939999999999,10.938,0.9261999999999999,16.3358,20.2906,4.5600000000000005,132.32999999999998,0.0,0.0,0.0,0.0
2161,3/31/2012 1:00,1.089,126.1833,7.972,1.089,19.778200000000002,16.3967,6.12,106.935,0.0,0.0,0.0,0.0
2162,3/31/2012 2:00,2.7291,66.0918,4.312,2.7291,20.4256,8.5882,7.200000000000001,56.01,0.0,0.0,0.0,0.0
2163,3/31/2012 3:00,1.0197,28.833299999999998,1.874,1.0197,0.5876,3.7466999999999997,9.06,24.435,0.0,0.0,0.0,0.0
2164,3/31/2012 4:00,6.3998,14.868,16.98,6.3998,0.8502,1.9320000000000002,11.58,12.600000000000001,0.0,0.0,0.0,0.0
2165,3/31/2012 5:00,6.5252,148.7331,17.814,6.5252,25.1342,19.326900000000002,14.34,126.045,0.0,0.0,0.0,0.0
2166,3/31/2012 6:00,6.8552,4.071,17.788,6.8552,18.1324,0.529,16.2,3.4499999999999997,0.0,0.0,0.0,0.0
2167,3/31/2012 7:00,7.7616,2.1948,17.206,7.7616,22.9684,0.2852,16.82,1.8599999999999999,2.42239958,2.42239958,2.42239958,2.42239958
2168,3/31/2012 8:00,4.5562000000000005,0.0,0.0,4.5562000000000005,23.7016,0.0,15.1,0.0,2.5309825399999997,2.5309825399999997,2.5309825399999997,2.5309825399999997
2169,3/31/2012 9:00,2.7159,0.0,3.564,2.7159,23.8706,0.0,12.82,0.0,2.72057185,2.72057185,2.72057185,2.72057185
2170,3/31/2012 10:00,7.2633,0.0,4.264,7.2633,24.3126,0.0,11.72,0.0,2.75920172,2.75920172,2.75920172,2.75920172
2171,3/31/2012 11:00,6.4526,0.0,17.114,6.4526,23.2908,0.0,12.68,0.0,4.97616777,4.97616777,4.97616777,4.97616777
2172,3/31/2012 12:00,5.4989,0.0,0.0,5.4989,1.6016000000000001,0.0,16.619999999999997,0.0,5.83093238,5.83093238,5.83093238,5.83093238
2173,3/31/2012 13:00,3.7961,1.6815,0.0,3.7961,1.2974,0.2185,15.620000000000001,1.425,5.07273861,5.07273861,5.07273861,5.07273861
2174,3/31/2012 14:00,2.7521999999999998,2.1063,15.718,2.7521999999999998,2.912,0.2737,8.7,1.7850000000000001,4.366408460000001,4.366408460000001,4.366408460000001,4.366408460000001
2175,3/31/2012 15:00,3.5717,1.6107,16.637999999999998,3.5717,13.4654,0.2093,6.18,1.365,6.37122572,6.37122572,6.37122572,6.37122572
2176,3/31/2012 16:00,5.1216,0.0,16.28,5.1216,12.077,0.0,5.16,0.0,4.9603978600000005,4.9603978600000005,4.9603978600000005,4.9603978600000005
2177,3/31/2012 17:00,0.4785,59.560500000000005,15.83,0.4785,8.203,7.7395000000000005,4.42,50.475,2.9054752300000004,2.9054752300000004,2.9054752300000004,2.9054752300000004
2178,3/31/2012 18:00,0.6842,43.8783,5.614,0.6842,2.041,5.701700000000001,4.08,37.185,3.56097261,3.56097261,3.56097261,3.56097261
2179,3/31/2012 19:00,0.6259,36.0726,15.294,0.6259,0.52,4.6874,73.74000000000001,30.57,0.8419034199999998,0.8419034199999998,0.8419034199999998,0.8419034199999998
2180,3/31/2012 20:00,0.49060000000000004,32.6388,13.512,0.49060000000000004,0.195,4.2412,75.76,27.66,0.0,0.0,0.0,0.0
2181,3/31/2012 21:00,0.40700000000000003,29.8245,14.783999999999999,0.40700000000000003,26.0,3.8755,80.34,25.275000000000002,0.0,0.0,0.0,0.0
2182,3/31/2012 22:00,0.31129999999999997,22.9215,0.0,0.31129999999999997,26.0,2.9785,86.92,19.425,0.0,0.0,0.0,0.0
2183,3/31/2012 23:00,0.24200000000000002,15.487499999999999,6.058,0.24200000000000002,26.0,2.0124999999999997,84.2,13.125,0.0,0.0,0.0,0.0
2184,4/1/2012 0:00,0.2266,9.664200000000001,0.0,0.2266,0.8996,1.2558,77.24,8.190000000000001,0.0,0.0,0.0,0.0
2185,4/1/2012 1:00,0.3014,4.2657,6.9079999999999995,0.3014,1.2324,0.5543,69.26,3.6149999999999998,0.0,0.0,0.0,0.0
2186,4/1/2012 2:00,0.6765,1.6461,7.298,0.6765,1.3858,0.21389999999999998,61.519999999999996,1.3949999999999998,0.0,0.0,0.0,0.0
2187,4/1/2012 3:00,0.0,1.5576,1.248,0.0,1.7056000000000002,0.20240000000000002,53.14,1.32,0.0,0.0,0.0,0.0
2188,4/1/2012 4:00,0.7930999999999999,0.0,10.724,0.7930999999999999,2.0566,0.0,44.84,0.0,0.0,0.0,0.0,0.0
2189,4/1/2012 5:00,5.3031,0.0,11.234,5.3031,2.1761999999999997,0.0,40.9,0.0,0.0,0.0,0.0,0.0
2190,4/1/2012 6:00,6.4306,0.0,13.11,6.4306,8.19,0.0,39.5,0.0,0.0,0.0,0.0,0.0
2191,4/1/2012 7:00,7.392,0.0,17.4,7.392,3.7778000000000005,0.0,0.0,0.0,4.85955958,4.85955958,4.85955958,4.85955958
2192,4/1/2012 8:00,8.161999999999999,100.6776,19.224,8.161999999999999,2.5116,13.0824,0.0,85.32,5.2490505,5.2490505,5.2490505,5.2490505
2193,4/1/2012 9:00,8.501900000000001,117.7758,1.014,8.501900000000001,2.119,15.3042,0.0,99.81,4.71237489,4.71237489,4.71237489,4.71237489
2194,4/1/2012 10:00,8.8935,126.5373,1.874,8.8935,1.8589999999999998,16.4427,0.0,107.235,5.662261679999999,5.662261679999999,5.662261679999999,5.662261679999999
2195,4/1/2012 11:00,8.1235,96.21719999999999,2.84,8.1235,1.638,12.502799999999999,0.0,81.53999999999999,6.61730817,6.61730817,6.61730817,6.61730817
2196,4/1/2012 12:00,9.0431,74.2338,3.408,9.0431,1.4534,9.6462,1.66,62.91,7.218700920000001,7.218700920000001,7.218700920000001,7.218700920000001
2197,4/1/2012 13:00,9.3995,138.06,3.458,9.3995,25.474800000000002,17.94,3.38,117.0,7.53280082,7.53280082,7.53280082,7.53280082
2198,4/1/2012 14:00,9.7009,142.0779,3.0980000000000003,9.7009,25.4696,18.4621,9.54,120.405,7.39645507,7.39645507,7.39645507,7.39645507
2199,4/1/2012 15:00,9.603,146.733,1.8840000000000001,9.603,0.0,19.067,19.84,124.35000000000001,7.22835255,7.22835255,7.22835255,7.22835255
2200,4/1/2012 16:00,9.8296,152.25539999999998,1.634,9.8296,1.0972,19.784599999999998,52.66,129.03,6.75001822,6.75001822,6.75001822,6.75001822
2201,4/1/2012 17:00,10.0496,155.6538,2.2239999999999998,10.0496,0.6942,20.2262,69.16,131.91,5.5178987,5.5178987,5.5178987,5.5178987
2202,4/1/2012 18:00,10.2949,156.9636,2.9600000000000004,10.2949,6.0892,20.3964,80.58,133.02,4.81115845,4.81115845,4.81115845,4.81115845
2203,4/1/2012 19:00,10.4687,151.26420000000002,4.0600000000000005,10.4687,0.2678,19.6558,86.3,128.19,1.14483516,1.14483516,1.14483516,1.14483516
2204,4/1/2012 20:00,10.7349,149.08710000000002,5.948,10.7349,2.86,19.3729,86.24000000000001,126.34500000000001,0.0,0.0,0.0,0.0
2205,4/1/2012 21:00,10.467600000000001,149.6889,7.725999999999999,10.467600000000001,0.0,19.4511,81.17999999999999,126.855,0.0,0.0,0.0,0.0
2206,4/1/2012 22:00,10.3367,59.914500000000004,9.67,10.3367,0.0,7.785500000000001,44.080000000000005,50.775000000000006,0.0,0.0,0.0,0.0
2207,4/1/2012 23:00,10.5303,135.3873,11.104000000000001,10.5303,0.5589999999999999,17.5927,67.5,114.735,0.0,0.0,0.0,0.0
2208,4/2/2012 0:00,10.7327,5.7879,13.780000000000001,10.7327,0.6188,0.7521,137.66,4.905,0.0,0.0,0.0,0.0
2209,4/2/2012 1:00,10.8141,5.3631,1.876,10.8141,0.6526000000000001,0.6969,49.9,4.545,0.0,0.0,0.0,0.0
2210,4/2/2012 2:00,10.8658,4.8675,3.916,10.8658,0.8502,0.6325,14.879999999999999,4.125,0.0,0.0,0.0,0.0
2211,4/2/2012 3:00,11.0,4.230300000000001,2.9939999999999998,11.0,0.21320000000000003,0.5497000000000001,15.5,3.585,0.0,0.0,0.0,0.0
2212,4/2/2012 4:00,11.0,78.3933,5.984,11.0,0.0,10.1867,17.7,66.435,0.0,0.0,0.0,0.0
2213,4/2/2012 5:00,11.0,42.940200000000004,8.848,11.0,0.0,5.5798000000000005,21.34,36.39,0.0,0.0,0.0,0.0
2214,4/2/2012 6:00,11.0,132.573,11.088000000000001,11.0,0.0,17.227000000000004,24.58,112.35000000000002,0.0,0.0,0.0,0.0
2215,4/2/2012 7:00,11.0,129.4401,11.428,11.0,0.0,16.8199,22.0,109.695,5.56214153,5.56214153,5.56214153,5.56214153
2216,4/2/2012 8:00,11.0,125.5815,11.384,11.0,0.5252,16.3185,2.22,106.425,6.14829861,6.14829861,6.14829861,6.14829861
2217,4/2/2012 9:00,10.8559,113.2977,10.67,10.8559,0.5642,14.7223,38.76,96.015,5.14756374,5.14756374,5.14756374,5.14756374
2218,4/2/2012 10:00,10.805299999999999,94.94279999999999,9.43,10.805299999999999,0.715,12.3372,158.84,80.46,5.81161084,5.81161084,5.81161084,5.81161084
2219,4/2/2012 11:00,6.3536,70.4637,4.054,6.3536,0.8502,9.1563,148.6,59.715,6.393828020000001,6.393828020000001,6.393828020000001,6.393828020000001
2220,4/2/2012 12:00,5.683700000000001,43.5774,6.206,5.683700000000001,0.9282,5.6626,144.36,36.93,6.86549022,6.86549022,6.86549022,6.86549022
2221,4/2/2012 13:00,3.8929,14.1069,8.346,3.8929,1.0088,1.8331,0.0,11.954999999999998,7.19205025,7.19205025,7.19205025,7.19205025
2222,4/2/2012 14:00,2.1813000000000002,2.301,10.713999999999999,2.1813000000000002,1.0113999999999999,0.29900000000000004,0.0,1.9500000000000002,7.38747098,7.38747098,7.38747098,7.38747098
2223,4/2/2012 15:00,1.9899,2.2656,13.358,1.9899,0.8423999999999999,0.2944,0.0,1.9200000000000002,6.95115127,6.95115127,6.95115127,6.95115127
2224,4/2/2012 16:00,3.2494,2.7258,15.049999999999999,3.2494,0.6682,0.3542,0.0,2.31,6.492072760000001,6.492072760000001,6.492072760000001,6.492072760000001
2225,4/2/2012 17:00,6.107200000000001,22.4613,15.671999999999999,6.107200000000001,0.52,2.9187000000000003,0.0,19.035000000000004,5.8570325400000005,5.8570325400000005,5.8570325400000005,5.8570325400000005
2226,4/2/2012 18:00,7.6879,9.204,15.098,7.6879,0.533,1.1960000000000002,0.0,7.800000000000001,4.5434712,4.5434712,4.5434712,4.5434712
2227,4/2/2012 19:00,8.5987,4.9914,13.398000000000001,8.5987,0.4680000000000001,0.6486,0.0,4.2299999999999995,1.3587439000000001,1.3587439000000001,1.3587439000000001,1.3587439000000001
2228,4/2/2012 20:00,9.4006,2.8674,10.474,9.4006,0.4914,0.3726,0.0,2.4299999999999997,0.0,0.0,0.0,0.0
2229,4/2/2012 21:00,10.0045,1.5222,6.966,10.0045,1.0166000000000002,0.1978,110.96,1.29,0.0,0.0,0.0,0.0
2230,4/2/2012 22:00,11.0,0.0,0.0,11.0,2.8158,0.0,3.1199999999999997,0.0,0.0,0.0,0.0,0.0
2231,4/2/2012 23:00,11.0,0.0,0.0,11.0,7.043399999999999,0.0,6.76,0.0,0.0,0.0,0.0,0.0
2232,4/3/2012 0:00,10.9175,0.0,0.0,10.9175,18.746,0.0,2.04,0.0,0.0,0.0,0.0,0.0
2233,4/3/2012 1:00,10.8691,2.7611999999999997,0.2,10.8691,19.864,0.3588,1.54,2.34,0.0,0.0,0.0,0.0
2234,4/3/2012 2:00,10.8042,3.6992999999999996,0.25,10.8042,18.8006,0.48069999999999996,0.0,3.135,0.0,0.0,0.0,0.0
2235,4/3/2012 3:00,10.663400000000001,5.1684,0.184,10.663400000000001,17.121,0.6716,0.0,4.38,0.0,0.0,0.0,0.0
2236,4/3/2012 4:00,0.2035,8.956199999999999,0.212,0.2035,15.0176,1.1638,0.0,7.59,0.0,0.0,0.0,0.0
2237,4/3/2012 5:00,6.1886,14.9742,0.22599999999999998,6.1886,12.3578,1.9458,0.0,12.69,0.0,0.0,0.0,0.0
2238,4/3/2012 6:00,1.1616,24.0012,0.242,1.1616,9.906,3.1188,0.0,20.34,0.0,0.0,0.0,0.0
2239,4/3/2012 7:00,1.9041000000000001,13.6644,0.27,1.9041000000000001,9.4744,1.7756,0.0,11.58,4.77661582,4.77661582,4.77661582,4.77661582
2240,4/3/2012 8:00,2.6103,139.1397,17.23,2.6103,9.0714,18.0803,0.0,117.915,5.72233754,5.72233754,5.72233754,5.72233754
2241,4/3/2012 9:00,3.5409,177.0,0.32399999999999995,3.5409,7.6778,23.0,0.0,150.0,5.24582225,5.24582225,5.24582225,5.24582225
2242,4/3/2012 10:00,2.5377,174.168,0.424,2.5377,4.7398,22.632,0.0,147.60000000000002,6.11020859,6.11020859,6.11020859,6.11020859
2243,4/3/2012 11:00,2.3683,170.09699999999998,0.576,2.3683,24.5206,22.102999999999998,0.0,144.15,6.583748910000001,6.583748910000001,6.583748910000001,6.583748910000001
2244,4/3/2012 12:00,2.2198,165.1233,0.6519999999999999,2.2198,24.9158,21.456699999999998,141.84,139.935,6.943930690000001,6.943930690000001,6.943930690000001,6.943930690000001
2245,4/3/2012 13:00,0.1364,154.5387,0.774,0.1364,24.8742,20.0813,101.92000000000002,130.965,7.205025559999999,7.205025559999999,7.205025559999999,7.205025559999999
2246,4/3/2012 14:00,0.0,0.0,0.94,0.0,24.7416,0.0,91.06,0.0,7.57105696,7.57105696,7.57105696,7.57105696
2247,4/3/2012 15:00,3.5211,0.0,1.008,3.5211,24.785800000000002,0.0,5.72,0.0,7.468001050000001,7.468001050000001,7.468001050000001,7.468001050000001
2248,4/3/2012 16:00,1.2419,135.9891,2.234,1.2419,3.9156000000000004,17.6709,6.68,115.245,7.1200971299999996,7.1200971299999996,7.1200971299999996,7.1200971299999996
2249,4/3/2012 17:00,1.5983,151.335,6.0440000000000005,1.5983,3.8454,19.665,8.8,128.25,6.45617494,6.45617494,6.45617494,6.45617494
2250,4/3/2012 18:00,2.2462,156.999,8.856,2.2462,3.796,20.401,11.34,133.05,5.261084729999999,5.261084729999999,5.261084729999999,5.261084729999999
2251,4/3/2012 19:00,3.3,0.0,11.501999999999999,3.3,3.7466,0.0,13.04,0.0,1.68211997,1.68211997,1.68211997,1.68211997
2252,4/3/2012 20:00,4.0601,0.0,12.190000000000001,4.0601,3.6218000000000004,0.0,10.299999999999999,0.0,0.0,0.0,0.0,0.0
2253,4/3/2012 21:00,11.0,0.0,12.274000000000001,11.0,3.3722000000000003,0.0,11.84,0.0,0.0,0.0,0.0,0.0
2254,4/3/2012 22:00,11.0,0.0,13.06,11.0,3.3903999999999996,0.0,16.98,0.0,0.0,0.0,0.0,0.0
2255,4/3/2012 23:00,11.0,13.6113,12.77,11.0,2.6754000000000002,1.7687,18.9,11.535,0.0,0.0,0.0,0.0
2256,4/4/2012 0:00,11.0,11.823599999999999,11.494,11.0,4.674799999999999,1.5364,14.14,10.02,0.0,0.0,0.0,0.0
2257,4/4/2012 1:00,11.0,174.7344,9.796,11.0,9.399,22.7056,47.42,148.07999999999998,0.0,0.0,0.0,0.0
2258,4/4/2012 2:00,11.0,173.7786,16.572,11.0,8.5852,22.5814,28.08,147.27,0.0,0.0,0.0,0.0
2259,4/4/2012 3:00,11.0,4.0533,14.862,11.0,8.281,0.5267000000000001,45.8,3.435,0.0,0.0,0.0,0.0
2260,4/4/2012 4:00,11.0,159.2823,11.866000000000001,11.0,8.4552,20.6977,63.239999999999995,134.985,0.0,0.0,0.0,0.0
2261,4/4/2012 5:00,10.6128,134.99790000000002,9.246,10.6128,8.4188,17.5421,111.4,114.405,0.0,0.0,0.0,0.0
2262,4/4/2012 6:00,10.8515,9.5226,8.316,10.8515,8.2524,1.2374,150.1,8.07,0.0,0.0,0.0,0.0
2263,4/4/2012 7:00,10.8977,9.6465,8.225999999999999,10.8977,7.4334,1.2535,168.52,8.175,2.94929487,2.94929487,2.94929487,2.94929487
2264,4/4/2012 8:00,11.0,8.2128,7.598000000000001,11.0,6.856199999999999,1.0672,178.38,6.959999999999999,2.35918121,2.35918121,2.35918121,2.35918121
2265,4/4/2012 9:00,11.0,6.0003,5.086,11.0,4.4772,0.7797,11.52,5.085,2.20426775,2.20426775,2.20426775,2.20426775
2266,4/4/2012 10:00,11.0,120.67859999999999,7.231999999999999,11.0,5.434,15.6814,7.5,102.27,3.1392112899999995,3.1392112899999995,3.1392112899999995,3.1392112899999995
2267,4/4/2012 11:00,11.0,3.4869,16.988,11.0,5.9176,0.45309999999999995,4.92,2.9549999999999996,3.7520193399999995,3.7520193399999995,3.7520193399999995,3.7520193399999995
2268,4/4/2012 12:00,11.0,2.1063,15.962,11.0,4.1418,0.2737,7.3,1.7850000000000001,4.24835547,4.24835547,4.24835547,4.24835547
2269,4/4/2012 13:00,11.0,1.6461,14.41,11.0,2.4154,0.21389999999999998,28.76,1.3949999999999998,4.62550143,4.62550143,4.62550143,4.62550143
2270,4/4/2012 14:00,10.8713,1.4514,12.844,10.8713,1.43,0.18860000000000002,25.580000000000002,1.2300000000000002,4.81075574,4.81075574,4.81075574,4.81075574
2271,4/4/2012 15:00,10.8119,1.9470000000000003,11.736,10.8119,0.9438,0.253,0.0,1.6500000000000001,4.90921084,4.90921084,4.90921084,4.90921084
2272,4/4/2012 16:00,10.6744,3.6108000000000002,10.698,10.6744,0.6942,0.46920000000000006,0.0,3.06,4.35790584,4.35790584,4.35790584,4.35790584
2273,4/4/2012 17:00,10.492899999999999,13.0803,10.564,10.492899999999999,0.5642,1.6996999999999998,0.0,11.084999999999999,3.8801817100000005,3.8801817100000005,3.8801817100000005,3.8801817100000005
2274,4/4/2012 18:00,9.3643,32.1609,9.468,9.3643,0.5174000000000001,4.1791,0.0,27.255,3.05261601,3.05261601,3.05261601,3.05261601
2275,4/4/2012 19:00,10.726099999999999,57.8259,8.058,10.726099999999999,0.4966,7.5141,105.56,49.004999999999995,1.0135312300000001,1.0135312300000001,1.0135312300000001,1.0135312300000001
2276,4/4/2012 20:00,10.8834,85.4556,2.098,10.8834,0.4654,11.1044,106.38000000000001,72.42,0.0,0.0,0.0,0.0
2277,4/4/2012 21:00,10.89,100.6599,1.8179999999999998,10.89,0.40040000000000003,13.0801,0.0,85.30499999999999,0.0,0.0,0.0,0.0
2278,4/4/2012 22:00,10.8768,1.6991999999999998,1.622,10.8768,0.2964,0.22079999999999997,0.0,1.44,0.0,0.0,0.0,0.0
2279,4/4/2012 23:00,11.0,3.0090000000000003,7.178,11.0,0.22619999999999998,0.391,1.48,2.5500000000000003,0.0,0.0,0.0,0.0
2280,4/5/2012 0:00,11.0,4.602,6.192,11.0,26.0,0.5980000000000001,8.92,3.9000000000000004,0.0,0.0,0.0,0.0
2281,4/5/2012 1:00,11.0,5.770199999999999,7.393999999999999,11.0,26.0,0.7497999999999999,18.5,4.89,0.0,0.0,0.0,0.0
2282,4/5/2012 2:00,10.6689,177.0,0.528,10.6689,1.1622,23.0,17.4,150.0,0.0,0.0,0.0,0.0
2283,4/5/2012 3:00,5.2437000000000005,177.0,0.426,5.2437000000000005,0.0,23.0,11.76,150.0,0.0,0.0,0.0,0.0
2284,4/5/2012 4:00,5.907,177.0,7.074,5.907,1.4456,23.0,9.2,150.0,0.0,0.0,0.0,0.0
2285,4/5/2012 5:00,4.7025,177.0,0.28600000000000003,4.7025,1.7524,23.0,137.92,150.0,0.0,0.0,0.0,0.0
2286,4/5/2012 6:00,5.0875,177.0,0.27199999999999996,5.0875,2.3738,23.0,144.78,150.0,0.0,0.0,0.0,0.0
2287,4/5/2012 7:00,5.0347,174.876,0.368,5.0347,2.5454,22.724,3.58,148.2,3.75237185,3.75237185,3.75237185,3.75237185
2288,4/5/2012 8:00,11.0,171.8316,0.354,11.0,2.405,22.3284,2.7199999999999998,145.62,3.3484237,3.3484237,3.3484237,3.3484237
2289,4/5/2012 9:00,10.886700000000001,166.5747,0.256,10.886700000000001,2.1216,21.645300000000002,0.0,141.16500000000002,2.5253854,2.5253854,2.5253854,2.5253854
2290,4/5/2012 10:00,11.0,160.8399,0.298,11.0,1.3961999999999999,20.9001,0.0,136.305,3.2662678400000003,3.2662678400000003,3.2662678400000003,3.2662678400000003
2291,4/5/2012 11:00,11.0,153.5121,0.48,11.0,1.0582,19.9479,0.0,130.095,3.9205724700000006,3.9205724700000006,3.9205724700000006,3.9205724700000006
2292,4/5/2012 12:00,0.5511,147.264,0.948,0.5511,0.871,19.136000000000003,0.0,124.80000000000001,4.4120735,4.4120735,4.4120735,4.4120735
2293,4/5/2012 13:00,0.3751,144.7152,1.96,0.3751,0.8892,18.8048,0.0,122.64,4.83035192,4.83035192,4.83035192,4.83035192
2294,4/5/2012 14:00,11.0,147.3702,0.602,11.0,0.9152,19.1498,0.0,124.89,4.92925461,4.92925461,4.92925461,4.92925461
2295,4/5/2012 15:00,11.0,152.1846,0.508,11.0,0.8787999999999999,19.7754,0.0,128.97,4.8602805600000005,4.8602805600000005,4.8602805600000005,4.8602805600000005
2296,4/5/2012 16:00,10.7789,158.0964,12.866,10.7789,0.7929999999999999,20.5436,37.66,133.98,4.67222354,4.67222354,4.67222354,4.67222354
2297,4/5/2012 17:00,10.593,161.5833,16.848,10.593,13.743599999999999,20.9967,92.78,136.935,4.19553736,4.19553736,4.19553736,4.19553736
2298,4/5/2012 18:00,10.3807,167.91989999999998,18.054,10.3807,15.4492,21.8201,198.44,142.305,3.31252101,3.31252101,3.31252101,3.31252101
2299,4/5/2012 19:00,3.8478,29.6475,18.422,3.8478,17.383599999999998,3.8525,197.84,25.125,1.2640412,1.2640412,1.2640412,1.2640412
2300,4/5/2012 20:00,1.3639999999999999,26.797800000000002,18.828,1.3639999999999999,15.997799999999998,3.4822,198.42,22.71,0.0,0.0,0.0,0.0
2301,4/5/2012 21:00,0.6413,18.5142,18.880000000000003,0.6413,9.9632,2.4058,0.0,15.69,0.0,0.0,0.0,0.0
2302,4/5/2012 22:00,0.6754,59.0826,18.756,0.6754,4.7606,7.6774,114.1,50.07,0.0,0.0,0.0,0.0
2303,4/5/2012 23:00,1.1,174.41580000000002,18.61,1.1,3.3930000000000002,22.6642,187.46,147.81,0.0,0.0,0.0,0.0
2304,4/6/2012 0:00,5.7222,174.1149,18.386,5.7222,14.1778,22.6251,198.04,147.555,0.0,0.0,0.0,0.0
2305,4/6/2012 1:00,6.3778,174.0087,1.98,6.3778,0.806,22.6113,85.92,147.465,0.0,0.0,0.0,0.0
2306,4/6/2012 2:00,6.8343,174.25650000000002,5.298,6.8343,14.853800000000001,22.6435,92.9,147.675,0.0,0.0,0.0,0.0
2307,4/6/2012 3:00,7.233599999999999,174.6636,1.1360000000000001,7.233599999999999,15.4934,22.6964,92.17999999999999,148.02,0.0,0.0,0.0,0.0
2308,4/6/2012 4:00,0.1452,177.0,6.35,0.1452,0.0,23.0,64.56,150.0,0.0,0.0,0.0,0.0
2309,4/6/2012 5:00,0.2519,177.0,4.562,0.2519,0.0,23.0,50.72,150.0,0.0,0.0,0.0,0.0
2310,4/6/2012 6:00,0.4158,177.0,2.194,0.4158,0.5095999999999999,23.0,44.080000000000005,150.0,0.0,0.0,0.0,0.0
2311,4/6/2012 7:00,0.5412,177.0,0.796,0.5412,1.6587999999999998,23.0,37.419999999999995,150.0,3.0797168299999997,3.0797168299999997,3.0797168299999997,3.0797168299999997
2312,4/6/2012 8:00,0.5665,177.0,0.388,0.5665,0.364,23.0,35.160000000000004,150.0,3.0103673300000002,3.0103673300000002,3.0103673300000002,3.0103673300000002
2313,4/6/2012 9:00,0.5885,177.0,0.17600000000000002,0.5885,0.338,23.0,126.08,150.0,2.1698540399999997,2.1698540399999997,2.1698540399999997,2.1698540399999997
2314,4/6/2012 10:00,0.4587,177.0,0.0,0.4587,2.9276,23.0,80.96,150.0,2.9579877199999998,2.9579877199999998,2.9579877199999998,2.9579877199999998
2315,4/6/2012 11:00,0.21780000000000002,177.0,1.9220000000000002,0.21780000000000002,2.5141999999999998,23.0,31.52,150.0,3.8366959,3.8366959,3.8366959,3.8366959
2316,4/6/2012 12:00,0.1012,177.0,2.692,0.1012,4.0638,23.0,150.34,150.0,4.34359916,4.34359916,4.34359916,4.34359916
2317,4/6/2012 13:00,0.0803,177.0,0.0,0.0803,9.8202,23.0,26.6,150.0,4.6882667399999995,4.6882667399999995,4.6882667399999995,4.6882667399999995
2318,4/6/2012 14:00,0.17049999999999998,177.0,0.0,0.17049999999999998,15.5688,23.0,168.48000000000002,150.0,4.31723077,4.31723077,4.31723077,4.31723077
2319,4/6/2012 15:00,0.5577,177.0,16.434,0.5577,18.8266,23.0,164.8,150.0,3.60964048,3.60964048,3.60964048,3.60964048
2320,4/6/2012 16:00,0.6512,175.17690000000002,17.718,0.6512,20.300800000000002,22.7631,158.1,148.455,2.3559224100000002,2.3559224100000002,2.3559224100000002,2.3559224100000002
2321,4/6/2012 17:00,0.6225999999999999,173.67239999999998,0.374,0.6225999999999999,9.744800000000001,22.5676,151.22,147.18,1.9930955600000002,1.9930955600000002,1.9930955600000002,1.9930955600000002
2322,4/6/2012 18:00,0.6391,63.843900000000005,0.782,0.6391,10.6522,8.296100000000001,142.46,54.105000000000004,1.6956146699999999,1.6956146699999999,1.6956146699999999,1.6956146699999999
2323,4/6/2012 19:00,0.5786,48.745799999999996,16.637999999999998,0.5786,10.4806,6.334199999999999,135.04,41.309999999999995,0.59713519,0.59713519,0.59713519,0.59713519
2324,4/6/2012 20:00,6.0466999999999995,36.8337,1.27,6.0466999999999995,9.4276,4.7863,9.32,31.215,0.0,0.0,0.0,0.0
2325,4/6/2012 21:00,6.6044,40.2498,0.8300000000000001,6.6044,7.7324,5.2302,26.040000000000003,34.11,0.0,0.0,0.0,0.0
2326,4/6/2012 22:00,3.8775,174.3981,0.51,3.8775,5.9852,22.6619,52.44,147.795,0.0,0.0,0.0,0.0
2327,4/6/2012 23:00,3.5673,177.0,7.302,3.5673,8.853000000000002,23.0,77.46,150.0,0.0,0.0,0.0,0.0
2328,4/7/2012 0:00,3.2384,177.0,5.218,3.2384,10.5846,23.0,59.78,150.0,0.0,0.0,0.0,0.0
2329,4/7/2012 1:00,3.0953999999999997,177.0,4.2059999999999995,3.0953999999999997,10.491000000000001,23.0,20.24,150.0,0.0,0.0,0.0,0.0
2330,4/7/2012 2:00,3.6542,66.25110000000001,5.64,3.6542,9.9398,8.6089,16.919999999999998,56.145,0.0,0.0,0.0,0.0
2331,4/7/2012 3:00,4.697000000000001,38.055,18.799999999999997,4.697000000000001,10.1816,4.945,22.02,32.25,0.0,0.0,0.0,0.0
2332,4/7/2012 4:00,5.2899,18.6912,19.11,5.2899,15.3816,2.4288,18.42,15.84,0.0,0.0,0.0,0.0
2333,4/7/2012 5:00,5.753,11.9652,19.322,5.753,10.189400000000001,1.5547999999999997,173.2,10.139999999999999,0.0,0.0,0.0,0.0
2334,4/7/2012 6:00,6.6847,177.0,19.452,6.6847,0.0,23.0,169.74,150.0,0.0,0.0,0.0,0.0
2335,4/7/2012 7:00,8.9353,177.0,3.55,8.9353,0.0,23.0,162.94,150.0,0.13484569,0.13484569,0.13484569,0.13484569
2336,4/7/2012 8:00,8.1576,177.0,3.2560000000000002,8.1576,5.3092,23.0,72.61999999999999,150.0,0.31058592,0.31058592,0.31058592,0.31058592
2337,4/7/2012 9:00,6.857399999999999,175.4778,0.0,6.857399999999999,20.0408,22.8022,45.540000000000006,148.70999999999998,1.21416589,1.21416589,1.21416589,1.21416589
2338,4/7/2012 10:00,5.3988000000000005,1.3275,0.144,5.3988000000000005,21.0704,0.1725,26.619999999999997,1.125,1.9568827199999999,1.9568827199999999,1.9568827199999999,1.9568827199999999
2339,4/7/2012 11:00,10.7151,3.1860000000000004,0.266,10.7151,22.7552,0.41400000000000003,1.8399999999999999,2.7,2.31737383,2.31737383,2.31737383,2.31737383
2340,4/7/2012 12:00,10.5127,9.575700000000001,3.734,10.5127,23.894000000000002,1.2443,3.62,8.115,2.5167952,2.5167952,2.5167952,2.5167952
2341,4/7/2012 13:00,9.430299999999999,22.6383,0.542,9.430299999999999,8.7542,2.9417000000000004,3.44,19.185000000000002,3.39950022,3.39950022,3.39950022,3.39950022
2342,4/7/2012 14:00,9.7009,39.5064,0.984,9.7009,10.8732,5.1336,101.82,33.480000000000004,4.36163052,4.36163052,4.36163052,4.36163052
2343,4/7/2012 15:00,9.8923,53.5425,1.43,9.8923,26.0,6.9575,135.95999999999998,45.375,2.81745205,2.81745205,2.81745205,2.81745205
2344,4/7/2012 16:00,10.0166,62.0385,1.7399999999999998,10.0166,25.753,8.061499999999999,39.36,52.574999999999996,4.2993643200000005,4.2993643200000005,4.2993643200000005,4.2993643200000005
2345,4/7/2012 17:00,9.8395,68.9061,1.9500000000000002,9.8395,0.0,8.953899999999999,46.94,58.394999999999996,3.7804177500000002,3.7804177500000002,3.7804177500000002,3.7804177500000002
2346,4/7/2012 18:00,9.7823,4.0356000000000005,4.056,9.7823,0.20540000000000003,0.5244,58.48,3.42,2.95064838,2.95064838,2.95064838,2.95064838
2347,4/7/2012 19:00,0.9614,6.4605,2.564,0.9614,0.3146,0.8394999999999999,73.38,5.475,1.3320569400000002,1.3320569400000002,1.3320569400000002,1.3320569400000002
2348,4/7/2012 20:00,8.745000000000001,2.5842,1.686,8.745000000000001,3.9832,0.3358,79.97999999999999,2.19,0.0,0.0,0.0,0.0
2349,4/7/2012 21:00,9.6129,40.3383,6.734,9.6129,3.0524,5.2417,74.64,34.185,0.0,0.0,0.0,0.0
2350,4/7/2012 22:00,10.052900000000001,34.0725,7.096,10.052900000000001,2.314,4.4275,59.760000000000005,28.875,0.0,0.0,0.0,0.0
2351,4/7/2012 23:00,0.0,26.797800000000002,0.40399999999999997,0.0,2.0358,3.4822,46.14,22.71,0.0,0.0,0.0,0.0
2352,4/8/2012 0:00,1.6291000000000002,16.6203,0.29000000000000004,1.6291000000000002,1.9422000000000001,2.1597,0.0,14.084999999999999,0.0,0.0,0.0,0.0
2353,4/8/2012 1:00,2.805,8.1774,0.268,2.805,23.439,1.0626,0.0,6.93,0.0,0.0,0.0,0.0
2354,4/8/2012 2:00,4.4913,70.5699,14.392,4.4913,20.8234,9.1701,0.0,59.805,0.0,0.0,0.0,0.0
2355,4/8/2012 3:00,0.2574,0.0,15.649999999999999,0.2574,21.97,0.0,2.8400000000000003,0.0,0.0,0.0,0.0,0.0
2356,4/8/2012 4:00,7.4745,6.7791,16.482,7.4745,16.861,0.8809,9.76,5.745,0.0,0.0,0.0,0.0
2357,4/8/2012 5:00,7.8606,4.230300000000001,0.15800000000000003,7.8606,10.855,0.5497000000000001,39.7,3.585,0.0,0.0,0.0,0.0
2358,4/8/2012 6:00,0.4422,11.9652,0.144,0.4422,6.0476,1.5547999999999997,107.46,10.139999999999999,0.0,0.0,0.0,0.0
2359,4/8/2012 7:00,2.3529,14.8503,1.512,2.3529,2.9952,1.9297,19.02,12.585,2.58743754,2.58743754,2.58743754,2.58743754
2360,4/8/2012 8:00,0.4829,15.8946,1.7480000000000002,0.4829,0.23400000000000004,2.0654,21.22,13.47,1.7045639199999998,1.7045639199999998,1.7045639199999998,1.7045639199999998
2361,4/8/2012 9:00,0.9140999999999999,16.1247,1.964,0.9140999999999999,0.2678,2.0953,164.2,13.665000000000001,2.29126662,2.29126662,2.29126662,2.29126662
2362,4/8/2012 10:00,1.5421999999999998,156.37949999999998,0.0,1.5421999999999998,0.2912,20.3205,168.34,132.525,2.61752318,2.61752318,2.61752318,2.61752318
2363,4/8/2012 11:00,2.2704,23.9304,15.666,2.2704,0.2912,3.1095999999999995,11.4,20.279999999999998,4.43752135,4.43752135,4.43752135,4.43752135
2364,4/8/2012 12:00,2.5025,30.4617,0.576,2.5025,1.2272,3.9583,131.76000000000002,25.815,5.0394510299999995,5.0394510299999995,5.0394510299999995,5.0394510299999995
2365,4/8/2012 13:00,2.7796999999999996,0.0,1.524,2.7796999999999996,1.6718,0.0,8.92,0.0,5.8683511,5.8683511,5.8683511,5.8683511
2366,4/8/2012 14:00,4.9247,0.0,2.7600000000000002,4.9247,2.47,0.0,13.900000000000002,0.0,5.78460827,5.78460827,5.78460827,5.78460827
2367,4/8/2012 15:00,6.5384,3.2744999999999997,3.686,6.5384,3.6270000000000002,0.4255,22.24,2.775,3.68439477,3.68439477,3.68439477,3.68439477
2368,4/8/2012 16:00,7.5471,2.4779999999999998,3.2,7.5471,4.9972,0.32199999999999995,22.900000000000002,2.0999999999999996,3.2327338,3.2327338,3.2327338,3.2327338
2369,4/8/2012 17:00,9.5458,2.124,2.104,9.5458,6.279,0.276,157.26,1.8,2.4957728899999996,2.4957728899999996,2.4957728899999996,2.4957728899999996
2370,4/8/2012 18:00,10.3015,34.8336,0.948,10.3015,6.9446,4.5264,161.98,29.52,1.5498872499999998,1.5498872499999998,1.5498872499999998,1.5498872499999998
2371,4/8/2012 19:00,10.584200000000001,35.1345,0.33399999999999996,10.584200000000001,7.3553999999999995,4.5655,169.5,29.775000000000002,0.55254066,0.55254066,0.55254066,0.55254066
2372,4/8/2012 20:00,10.7184,10.797,0.656,10.7184,7.2462,1.403,175.6,9.15,0.0,0.0,0.0,0.0
2373,4/8/2012 21:00,0.7953,1.6461,5.696,0.7953,6.4194,0.21389999999999998,179.32,1.3949999999999998,0.0,0.0,0.0,0.0
2374,4/8/2012 22:00,0.418,1.8585,16.876,0.418,5.4704,0.24150000000000002,8.559999999999999,1.5750000000000002,0.0,0.0,0.0,0.0
2375,4/8/2012 23:00,0.2365,2.1771,19.363999999999997,0.2365,3.7622,0.2829,24.6,1.845,0.0,0.0,0.0,0.0
2376,4/9/2012 0:00,10.8878,2.0886,19.826,10.8878,1.391,0.2714,24.66,1.77,0.0,0.0,0.0,0.0
2377,4/9/2012 1:00,10.9142,2.1417,1.698,10.9142,0.9074,0.2783,115.06,1.815,0.0,0.0,0.0,0.0
2378,4/9/2012 2:00,11.0,47.6484,3.1,11.0,2.496,6.1916,128.0,40.38,0.0,0.0,0.0,0.0
2379,4/9/2012 3:00,11.0,30.1077,0.0,11.0,2.9588,3.9123,197.6,25.515,0.0,0.0,0.0,0.0
2380,4/9/2012 4:00,11.0,22.337400000000002,0.0,11.0,4.0612,2.9026,197.28,18.93,0.0,0.0,0.0,0.0
2381,4/9/2012 5:00,11.0,0.0,0.0,11.0,5.9098,0.0,197.54,0.0,0.0,0.0,0.0,0.0
2382,4/9/2012 6:00,11.0,0.0,0.0,11.0,8.431799999999999,0.0,0.0,0.0,0.0,0.0,0.0,0.0
2383,4/9/2012 7:00,1.3739,6.6021,0.0,1.3739,9.544599999999999,0.8579,0.0,5.595,0.20936733999999999,0.20936733999999999,0.20936733999999999,0.20936733999999999
2384,4/9/2012 8:00,3.4529,20.3727,0.0,3.4529,8.8868,2.6473,0.0,17.265,0.99774402,0.99774402,0.99774402,0.99774402
2385,4/9/2012 9:00,5.8134999999999994,44.7279,0.0,5.8134999999999994,4.7528,5.812099999999999,0.0,37.904999999999994,1.3917605599999998,1.3917605599999998,1.3917605599999998,1.3917605599999998
2386,4/9/2012 10:00,7.5306,16.2486,0.0,7.5306,2.1086,2.1114,0.0,13.770000000000001,1.0939512599999999,1.0939512599999999,1.0939512599999999,1.0939512599999999
2387,4/9/2012 11:00,7.9299,31.824599999999997,0.0,7.9299,1.6822,4.1354,185.84,26.97,1.34504646,1.34504646,1.34504646,1.34504646
2388,4/9/2012 12:00,7.2435,46.5687,0.0,7.2435,1.6016000000000001,6.0513,181.29999999999998,39.465,1.36116633,1.36116633,1.36116633,1.36116633
2389,4/9/2012 13:00,6.3943,7.9827,0.298,6.3943,4.2874,1.0373,179.62,6.765000000000001,1.3812115999999999,1.3812115999999999,1.3812115999999999,1.3812115999999999
2390,4/9/2012 14:00,4.543,57.8082,12.168000000000001,4.543,3.9286000000000003,7.5118,27.02,48.99,1.31760369,1.31760369,1.31760369,1.31760369
2391,4/9/2012 15:00,2.6576,68.2689,11.62,2.6576,3.9182,8.8711,29.92,57.855,1.17866863,1.17866863,1.17866863,1.17866863
2392,4/9/2012 16:00,3.1911000000000005,42.3915,10.408,3.1911000000000005,4.1756,5.5085,36.26,35.925,1.1706360199999999,1.1706360199999999,1.1706360199999999,1.1706360199999999
2393,4/9/2012 17:00,3.4396999999999998,25.6473,7.53,3.4396999999999998,4.5161999999999995,3.3327,43.54,21.735,0.65600434,0.65600434,0.65600434,0.65600434
2394,4/9/2012 18:00,2.4024,15.469800000000001,9.6,2.4024,4.6098,2.0102,186.4,13.110000000000001,0.3710299,0.3710299,0.3710299,0.3710299
2395,4/9/2012 19:00,10.5831,161.6718,9.193999999999999,10.5831,8.0418,21.0082,190.82,137.01,0.05217252,0.05217252,0.05217252,0.05217252
2396,4/9/2012 20:00,10.6997,0.0,9.276,10.6997,11.362000000000002,0.0,195.74,0.0,0.0,0.0,0.0,0.0
2397,4/9/2012 21:00,10.7173,108.5895,7.898,10.7173,0.0,14.110500000000002,13.98,92.025,0.0,0.0,0.0,0.0
2398,4/9/2012 22:00,0.6985,80.535,6.252,0.6985,0.0,10.465,16.6,68.25,0.0,0.0,0.0,0.0
2399,4/9/2012 23:00,0.0,72.9417,3.67,0.0,0.0,9.4783,20.2,61.815000000000005,0.0,0.0,0.0,0.0
2400,4/10/2012 0:00,1.6918,45.3828,3.006,1.6918,0.0,5.897200000000001,25.380000000000003,38.46,0.0,0.0,0.0,0.0
2401,4/10/2012 1:00,2.2011,1.6107,1.234,2.2011,0.0,0.2093,30.659999999999997,1.365,0.0,0.0,0.0,0.0
2402,4/10/2012 2:00,2.3880999999999997,0.0,18.674,2.3880999999999997,4.066400000000001,0.0,32.06,0.0,0.0,0.0,0.0,0.0
2403,4/10/2012 3:00,1.2078,0.0,0.14200000000000002,1.2078,3.471,0.0,28.939999999999998,0.0,0.0,0.0,0.0,0.0
2404,4/10/2012 4:00,1.0582,0.0,0.396,1.0582,2.8704,0.0,23.02,0.0,0.0,0.0,0.0,0.0
2405,4/10/2012 5:00,1.2012,138.2901,1.79,1.2012,2.756,17.9699,21.18,117.195,0.0,0.0,0.0,0.0
2406,4/10/2012 6:00,2.0328,6.7791,15.198,2.0328,2.9016,0.8809,21.560000000000002,5.745,0.0,0.0,0.0,0.0
2407,4/10/2012 7:00,10.8592,13.310400000000001,19.088,10.8592,1.8408,1.7296,28.860000000000003,11.280000000000001,6.912379400000001,6.912379400000001,6.912379400000001,6.912379400000001
2408,4/10/2012 8:00,10.8537,2.7966,14.062,10.8537,1.508,0.36340000000000006,45.540000000000006,2.37,6.780954240000002,6.780954240000002,6.780954240000002,6.780954240000002
2409,4/10/2012 9:00,10.7998,3.363,13.85,10.7998,4.2146,0.437,112.6,2.85,5.96690021,5.96690021,5.96690021,5.96690021
2410,4/10/2012 10:00,10.6502,34.2141,14.177999999999999,10.6502,7.147399999999999,4.4459,156.29999999999998,28.995,6.78384953,6.78384953,6.78384953,6.78384953
2411,4/10/2012 11:00,10.363100000000001,7.5756,16.298,10.363100000000001,9.937199999999999,0.9843999999999999,166.1,6.42,7.697264820000001,7.697264820000001,7.697264820000001,7.697264820000001
2412,4/10/2012 12:00,0.7513,43.2057,18.433999999999997,0.7513,13.428999999999998,5.6143,187.32,36.615,8.15356761,8.15356761,8.15356761,8.15356761
2413,4/10/2012 13:00,0.7545999999999999,21.381600000000002,19.644,0.7545999999999999,18.1142,2.7784,193.76,18.12,8.10485628,8.10485628,8.10485628,8.10485628
2414,4/10/2012 14:00,1.0362,15.2751,20.0,1.0362,22.9606,1.9849,191.70000000000002,12.945,8.456773259999999,8.456773259999999,8.456773259999999,8.456773259999999
2415,4/10/2012 15:00,1.3904,10.938600000000001,20.0,1.3904,22.8384,1.4214,191.8,9.27,8.49081339,8.49081339,8.49081339,8.49081339
2416,4/10/2012 16:00,1.5499,7.965,20.0,1.5499,21.372,1.035,190.88,6.75,7.605103,7.605103,7.605103,7.605103
2417,4/10/2012 17:00,1.3343,4.407299999999999,20.0,1.3343,13.8424,0.5727,194.3,3.735,7.02036091,7.02036091,7.02036091,7.02036091
2418,4/10/2012 18:00,1.0846,2.1594,13.113999999999999,1.0846,6.695,0.2806,178.2,1.83,5.78339904,5.78339904,5.78339904,5.78339904
2419,4/10/2012 19:00,4.6948,128.2542,11.384,4.6948,0.0,16.6658,177.72,108.69,3.3641450899999996,3.3641450899999996,3.3641450899999996,3.3641450899999996
2420,4/10/2012 20:00,1.54,138.6795,0.228,1.54,0.0,18.0205,175.6,117.52499999999999,0.0,0.0,0.0,0.0
2421,4/10/2012 21:00,1.5576,141.7593,0.378,1.5576,2.2152,18.4207,174.34,120.13499999999999,0.0,0.0,0.0,0.0
2422,4/10/2012 22:00,1.6797,149.9013,0.646,1.6797,0.3562,19.4787,172.45999999999998,127.035,0.0,0.0,0.0,0.0
2423,4/10/2012 23:00,1.7787000000000002,162.0789,1.024,1.7787000000000002,0.4654,21.0611,162.38,137.355,0.0,0.0,0.0,0.0
2424,4/11/2012 0:00,1.9569,170.5041,1.544,1.9569,3.2032000000000003,22.155900000000003,153.48,144.495,0.0,0.0,0.0,0.0
2425,4/11/2012 1:00,2.2088,174.09720000000002,2.2359999999999998,2.2088,2.9301999999999997,22.6228,150.26,147.54,0.0,0.0,0.0,0.0
2426,4/11/2012 2:00,1.7765,173.106,3.246,1.7765,2.2516,22.494,146.54,146.7,0.0,0.0,0.0,0.0
2427,4/11/2012 3:00,0.7766,167.6544,3.246,0.7766,0.9282,21.785600000000002,138.32,142.08,0.0,0.0,0.0,0.0
2428,4/11/2012 4:00,0.6962999999999999,94.50030000000001,19.642,0.6962999999999999,1.1206,12.279700000000002,124.66,80.08500000000001,0.0,0.0,0.0,0.0
2429,4/11/2012 5:00,1.4981999999999998,90.1107,19.714,1.4981999999999998,1.6666,11.7093,100.24,76.365,0.0,0.0,0.0,0.0
2430,4/11/2012 6:00,0.6930000000000001,85.9866,0.29000000000000004,0.6930000000000001,1.794,11.1734,0.0,72.87,0.94025619,0.94025619,0.94025619,0.94025619
2431,4/11/2012 7:00,0.5709,63.029700000000005,0.486,0.5709,0.4888,8.1903,0.0,53.415000000000006,6.230716579999999,6.230716579999999,6.230716579999999,6.230716579999999
2432,4/11/2012 8:00,0.5786,37.3647,8.72,0.5786,0.5148,4.855300000000001,0.0,31.665000000000003,6.59399432,6.59399432,6.59399432,6.59399432
2433,4/11/2012 9:00,0.3938,36.8514,20.0,0.3938,0.2314,4.7886,194.76,31.23,5.824116889999999,5.824116889999999,5.824116889999999,5.824116889999999
2434,4/11/2012 10:00,0.2321,49.0113,20.0,0.2321,0.0,6.3687,195.06,41.535,6.6056402400000005,6.6056402400000005,6.6056402400000005,6.6056402400000005
2435,4/11/2012 11:00,0.13090000000000002,79.0305,20.0,0.13090000000000002,0.20540000000000003,10.2695,169.52,66.975,7.27248888,7.27248888,7.27248888,7.27248888
2436,4/11/2012 12:00,0.08249999999999999,109.8816,20.0,0.08249999999999999,0.5538,14.278400000000001,174.82,93.12,7.7614211,7.7614211,7.7614211,7.7614211
2437,4/11/2012 13:00,0.0,131.63490000000002,20.0,0.0,1.3936,17.1051,182.58,111.555,8.13739223,8.13739223,8.13739223,8.13739223
2438,4/11/2012 14:00,0.0,148.6977,20.0,0.0,2.847,19.3223,87.4,126.015,7.399203679999999,7.399203679999999,7.399203679999999,7.399203679999999
2439,4/11/2012 15:00,0.0,63.897,1.7280000000000002,0.0,0.6577999999999999,8.302999999999999,109.53999999999999,54.15,6.731662740000001,6.731662740000001,6.731662740000001,6.731662740000001
2440,4/11/2012 16:00,0.0,162.3798,2.8699999999999997,0.0,0.5668,21.1002,126.58,137.60999999999999,6.38935456,6.38935456,6.38935456,6.38935456
2441,4/11/2012 17:00,0.0,177.0,3.624,0.0,0.52,23.0,129.8,150.0,5.3992875399999996,5.3992875399999996,5.3992875399999996,5.3992875399999996
2442,4/11/2012 18:00,0.0,177.0,3.914,0.0,0.4706,23.0,129.7,150.0,4.7069599,4.7069599,4.7069599,4.7069599
2443,4/11/2012 19:00,0.1243,177.0,9.963999999999999,0.1243,0.45239999999999997,23.0,157.18,150.0,2.7394966700000003,2.7394966700000003,2.7394966700000003,2.7394966700000003
2444,4/11/2012 20:00,10.430200000000001,177.0,7.884,10.430200000000001,0.377,23.0,188.34,150.0,0.0,0.0,0.0,0.0
2445,4/11/2012 21:00,10.2014,177.0,7.654,10.2014,4.2848,23.0,151.82,150.0,0.0,0.0,0.0,0.0
2446,4/11/2012 22:00,9.5667,177.0,6.879999999999999,9.5667,2.6,23.0,200.0,150.0,0.0,0.0,0.0,0.0
2447,4/11/2012 23:00,7.7583,177.0,6.572,7.7583,0.5798,23.0,200.0,150.0,0.0,0.0,0.0,0.0
2448,4/12/2012 0:00,4.587000000000001,175.17690000000002,7.3740000000000006,4.587000000000001,7.592,22.7631,198.52,148.455,0.0,0.0,0.0,0.0
2449,4/12/2012 1:00,3.8225,174.3627,7.91,3.8225,6.539,22.6573,40.839999999999996,147.765,0.0,0.0,0.0,0.0
2450,4/12/2012 2:00,3.9820000000000007,13.398900000000001,7.659999999999999,3.9820000000000007,7.0356000000000005,1.7411,54.42,11.355,0.0,0.0,0.0,0.0
2451,4/12/2012 3:00,3.4408000000000003,7.8588000000000005,6.6080000000000005,3.4408000000000003,0.0,1.0212,54.17999999999999,6.66,0.0,0.0,0.0,0.0
2452,4/12/2012 4:00,2.1835,5.5932,19.564,2.1835,0.0,0.7268000000000001,61.7,4.74,0.0,0.0,0.0,0.0
2453,4/12/2012 5:00,2.6532,6.3189,19.596,2.6532,0.5694,0.8211,71.98,5.355,0.0,0.0,0.0,0.0
2454,4/12/2012 6:00,2.5047,11.257200000000001,19.846,2.5047,0.0,1.4628,10.4,9.540000000000001,0.61187104,0.61187104,0.61187104,0.61187104
2455,4/12/2012 7:00,1.6038000000000001,26.426099999999998,3.634,1.6038000000000001,0.0,3.4338999999999995,16.18,22.395,3.8900020200000003,3.8900020200000003,3.8900020200000003,3.8900020200000003
2456,4/12/2012 8:00,0.8503,53.6487,4.084,0.8503,0.0,6.971299999999999,17.2,45.464999999999996,3.53359081,3.53359081,3.53359081,3.53359081
2457,4/12/2012 9:00,0.43119999999999997,113.811,6.858,0.43119999999999997,0.42119999999999996,14.789,13.5,96.45,2.9297660800000003,2.9297660800000003,2.9297660800000003,2.9297660800000003
2458,4/12/2012 10:00,0.2519,109.61609999999999,12.427999999999999,0.2519,0.0,14.2439,10.96,92.895,3.6485402200000006,3.6485402200000006,3.6485402200000006,3.6485402200000006
2459,4/12/2012 11:00,0.1771,105.8106,16.754,0.1771,0.0,13.7494,9.54,89.67,4.3674694,4.3674694,4.3674694,4.3674694
2460,4/12/2012 12:00,0.13090000000000002,134.6793,18.413999999999998,0.13090000000000002,11.7468,17.500700000000002,8.98,114.135,4.693875770000001,4.693875770000001,4.693875770000001,4.693875770000001
2461,4/12/2012 13:00,8.5855,155.6892,19.073999999999998,8.5855,11.7858,20.230800000000002,49.02,131.94,5.02369269,5.02369269,5.02369269,5.02369269
2462,4/12/2012 14:00,0.8096,73.455,19.368000000000002,0.8096,12.4618,9.545,51.2,62.25,4.925967460000001,4.925967460000001,4.925967460000001,4.925967460000001
2463,4/12/2012 15:00,1.2903,70.16279999999999,19.374,1.2903,0.0,9.117199999999999,58.440000000000005,59.459999999999994,5.14725576,5.14725576,5.14725576,5.14725576
2464,4/12/2012 16:00,3.4144,91.57979999999999,19.488,3.4144,0.0,11.9002,58.919999999999995,77.61,4.86920922,4.86920922,4.86920922,4.86920922
2465,4/12/2012 17:00,8.1917,135.3873,19.548000000000002,8.1917,15.870400000000002,17.5927,6.279999999999999,114.735,4.38209318,4.38209318,4.38209318,4.38209318
2466,4/12/2012 18:00,10.1981,129.74099999999999,19.566,10.1981,16.366999999999997,16.858999999999998,5.92,109.95,3.06720796,3.06720796,3.06720796,3.06720796
2467,4/12/2012 19:00,10.3895,117.7935,19.106,10.3895,17.445999999999998,15.3065,5.08,99.825,1.6489068099999997,1.6489068099999997,1.6489068099999997,1.6489068099999997
2468,4/12/2012 20:00,0.0,100.6245,18.332,0.0,2.8626,13.0755,4.14,85.275,0.0,0.0,0.0,0.0
2469,4/12/2012 21:00,0.0,81.8625,17.528,0.0,2.4596,10.637500000000001,3.36,69.375,0.0,0.0,0.0,0.0
2470,4/12/2012 22:00,0.0,62.0916,16.804,0.0,1.6094,8.0684,3.06,52.62,0.0,0.0,0.0,0.0
2471,4/12/2012 23:00,0.0,43.2057,15.85,0.0,2.7508,5.6143,3.06,36.615,0.0,0.0,0.0,0.0
2472,4/13/2012 0:00,0.0,3.717,14.580000000000002,0.0,2.2464,0.48300000000000004,46.58,3.1500000000000004,0.0,0.0,0.0,0.0
2473,4/13/2012 1:00,0.1595,1.2921,12.318,0.1595,1.4326,0.1679,197.56,1.095,0.0,0.0,0.0,0.0
2474,4/13/2012 2:00,10.7173,177.0,9.828,10.7173,24.4114,23.0,197.23999999999998,150.0,0.0,0.0,0.0,0.0
2475,4/13/2012 3:00,2.0669,177.0,6.61,2.0669,24.349,23.0,200.0,150.0,0.0,0.0,0.0,0.0
2476,4/13/2012 4:00,0.21009999999999998,177.0,10.556000000000001,0.21009999999999998,24.3386,23.0,62.86000000000001,150.0,0.0,0.0,0.0,0.0
2477,4/13/2012 5:00,0.231,177.0,10.238,0.231,24.2502,23.0,189.72,150.0,0.0,0.0,0.0,0.0
2478,4/13/2012 6:00,0.19910000000000003,177.0,0.17,0.19910000000000003,23.7926,23.0,182.58,150.0,0.41830935,0.41830935,0.41830935,0.41830935
2479,4/13/2012 7:00,10.6029,120.20070000000001,0.182,10.6029,23.082800000000002,15.6193,200.0,101.86500000000001,3.0700719600000004,3.0700719600000004,3.0700719600000004,3.0700719600000004
2480,4/13/2012 8:00,10.3785,103.01400000000001,0.21000000000000002,10.3785,21.8556,13.386000000000001,200.0,87.30000000000001,1.9064400300000002,1.9064400300000002,1.9064400300000002,1.9064400300000002
2481,4/13/2012 9:00,10.075999999999999,80.4465,6.766,10.075999999999999,21.333,10.4535,200.0,68.175,2.0401303100000003,2.0401303100000003,2.0401303100000003,2.0401303100000003
2482,4/13/2012 10:00,9.6316,147.58259999999999,7.241999999999999,9.6316,19.458399999999997,19.1774,4.62,125.07,2.3436368499999998,2.3436368499999998,2.3436368499999998,2.3436368499999998
2483,4/13/2012 11:00,9.065100000000001,130.8738,8.392,9.065100000000001,0.0,17.0062,91.6,110.91,2.8314426,2.8314426,2.8314426,2.8314426
2484,4/13/2012 12:00,3.0151000000000003,107.7576,9.322000000000001,3.0151000000000003,0.0,14.0024,33.62,91.32000000000001,3.0742872500000002,3.0742872500000002,3.0742872500000002,3.0742872500000002
2485,4/13/2012 13:00,1.7512,54.87,7.8420000000000005,1.7512,11.8846,7.13,28.26,46.5,3.4277183200000003,3.4277183200000003,3.4277183200000003,3.4277183200000003
2486,4/13/2012 14:00,1.9459,30.2316,4.622,1.9459,8.2758,3.9284000000000003,20.22,25.62,3.3796098600000004,3.3796098600000004,3.3796098600000004,3.3796098600000004
2487,4/13/2012 15:00,0.1485,110.12939999999999,2.122,0.1485,6.318,14.310599999999999,196.52,93.33,2.74647201,2.74647201,2.74647201,2.74647201
2488,4/13/2012 16:00,0.1166,23.4171,0.938,0.1166,5.343,3.0429,0.0,19.845,1.9351067,1.9351067,1.9351067,1.9351067
2489,4/13/2012 17:00,0.0858,9.6288,0.35200000000000004,0.0858,5.9722,1.2511999999999999,0.0,8.16,1.0308245699999998,1.0308245699999998,1.0308245699999998,1.0308245699999998
2490,4/13/2012 18:00,4.7036,131.4402,0.172,4.7036,6.531199999999999,17.079800000000002,0.0,111.39,0.93405548,0.93405548,0.93405548,0.93405548
2491,4/13/2012 19:00,5.5935,7.4163,0.0,5.5935,7.727200000000001,0.9637,0.0,6.285,0.35284063,0.35284063,0.35284063,0.35284063
2492,4/13/2012 20:00,1.3782999999999999,162.64530000000002,0.6900000000000001,1.3782999999999999,9.152000000000001,21.134700000000002,0.0,137.835,0.0,0.0,0.0,0.0
2493,4/13/2012 21:00,1.1033,167.4066,0.0,1.1033,11.421800000000001,21.7534,0.0,141.87,0.0,0.0,0.0,0.0
2494,4/13/2012 22:00,10.7151,169.8669,0.0,10.7151,14.3572,22.0731,43.08,143.955,0.0,0.0,0.0,0.0
2495,4/13/2012 23:00,10.487400000000001,170.0439,15.282,10.487400000000001,15.3608,22.0961,41.0,144.105,0.0,0.0,0.0,0.0
2496,4/14/2012 0:00,10.2234,5.345400000000001,16.166,10.2234,15.6208,0.6946,36.94,4.53,0.0,0.0,0.0,0.0
2497,4/14/2012 1:00,0.6039,4.230300000000001,16.662,0.6039,15.6234,0.5497000000000001,15.340000000000002,3.585,0.0,0.0,0.0,0.0
2498,4/14/2012 2:00,0.31789999999999996,3.9471000000000003,1.908,0.31789999999999996,15.787199999999999,0.5129,41.24,3.345,0.0,0.0,0.0,0.0
2499,4/14/2012 3:00,0.0,4.3365,1.292,0.0,15.771600000000001,0.5635,78.7,3.6750000000000003,0.0,0.0,0.0,0.0
2500,4/14/2012 4:00,0.0,5.0976,0.8640000000000001,0.0,1.2584,0.6624,79.74,4.32,0.0,0.0,0.0,0.0
2501,4/14/2012 5:00,3.5585,166.1322,0.8079999999999999,3.5585,1.3442,21.5878,61.36000000000001,140.79,0.0,0.0,0.0,0.0
2502,4/14/2012 6:00,9.9275,5.9472,0.758,9.9275,1.3442,0.7727999999999999,49.46,5.04,0.90925559,0.90925559,0.90925559,0.90925559
2503,4/14/2012 7:00,0.28600000000000003,6.2304,0.496,0.28600000000000003,1.3312000000000002,0.8096000000000001,36.2,5.28,3.97380654,3.97380654,3.97380654,3.97380654
2504,4/14/2012 8:00,0.2079,5.3631,0.342,0.2079,1.0738,0.6969,67.38,4.545,3.43919021,3.43919021,3.43919021,3.43919021
2505,4/14/2012 9:00,0.1551,3.6816,0.664,0.1551,0.7384000000000001,0.4784,87.74,3.1199999999999997,3.0161861,3.0161861,3.0161861,3.0161861
2506,4/14/2012 10:00,0.1672,2.3718,1.4000000000000001,0.1672,0.6577999999999999,0.30820000000000003,88.88000000000001,2.0100000000000002,3.99160196,3.99160196,3.99160196,3.99160196
2507,4/14/2012 11:00,0.1826,2.301,0.268,0.1826,0.7254,0.29900000000000004,81.08,1.9500000000000002,4.49163691,4.49163691,4.49163691,4.49163691
2508,4/14/2012 12:00,0.0979,174.9999,0.8340000000000001,0.0979,0.78,22.7401,9.56,148.305,4.94635462,4.94635462,4.94635462,4.94635462
2509,4/14/2012 13:00,0.2255,177.0,3.646,0.2255,0.9256,23.0,78.97999999999999,150.0,5.192501699999999,5.192501699999999,5.192501699999999,5.192501699999999
2510,4/14/2012 14:00,3.3506,177.0,7.532,3.3506,1.2688000000000001,23.0,81.2,150.0,4.91779011,4.91779011,4.91779011,4.91779011
2511,4/14/2012 15:00,3.7246,173.7255,0.27,3.7246,1.7342,22.5745,82.67999999999999,147.225,4.70613675,4.70613675,4.70613675,4.70613675
2512,4/14/2012 16:00,1.0372999999999999,166.0968,0.228,1.0372999999999999,3.0238,21.5832,23.8,140.76,4.76805394,4.76805394,4.76805394,4.76805394
2513,4/14/2012 17:00,0.0,38.1789,0.15800000000000003,0.0,4.42,4.9611,12.26,32.355000000000004,4.52138035,4.52138035,4.52138035,4.52138035
2514,4/14/2012 18:00,0.2387,31.5237,0.0,0.2387,5.4392,4.0963,6.5600000000000005,26.715,3.67809509,3.67809509,3.67809509,3.67809509
2515,4/14/2012 19:00,0.2409,72.16290000000001,0.0,0.2409,16.5412,9.3771,4.7,61.155,2.19709856,2.19709856,2.19709856,2.19709856
2516,4/14/2012 20:00,0.0,65.9856,0.0,0.0,17.5708,8.5744,7.400000000000001,55.92,0.0,0.0,0.0,0.0
2517,4/14/2012 21:00,0.176,63.9324,9.45,0.176,0.33280000000000004,8.3076,15.42,54.18,0.0,0.0,0.0,0.0
2518,4/14/2012 22:00,0.0,72.4284,1.9620000000000002,0.0,1.0478,9.4116,29.04,61.38,0.0,0.0,0.0,0.0
2519,4/14/2012 23:00,1.1396,27.6297,2.25,1.1396,0.4992,3.5902999999999996,56.76,23.415,0.0,0.0,0.0,0.0
2520,4/15/2012 0:00,1.1120999999999999,0.0,2.54,1.1120999999999999,0.8163999999999999,0.0,62.0,0.0,0.0,0.0,0.0,0.0
2521,4/15/2012 1:00,1.342,0.0,2.826,1.342,0.8865999999999999,0.0,53.339999999999996,0.0,0.0,0.0,0.0,0.0
2522,4/15/2012 2:00,1.9041000000000001,0.0,2.92,1.9041000000000001,1.1232,0.0,52.82,0.0,0.0,0.0,0.0,0.0
2523,4/15/2012 3:00,3.5892999999999997,144.5205,0.154,3.5892999999999997,1.5808,18.7795,58.160000000000004,122.475,0.0,0.0,0.0,0.0
2524,4/15/2012 4:00,2.6510000000000002,138.8919,0.15800000000000003,2.6510000000000002,11.3724,18.048099999999998,64.92,117.705,0.0,0.0,0.0,0.0
2525,4/15/2012 5:00,3.0492,131.0331,0.0,3.0492,12.8154,17.026899999999998,71.84,111.04499999999999,0.0,0.0,0.0,0.0
2526,4/15/2012 6:00,3.1449,124.077,0.0,3.1449,11.128,16.122999999999998,72.6,105.14999999999999,0.40716617000000005,0.40716617000000005,0.40716617000000005,0.40716617000000005
2527,4/15/2012 7:00,3.3704,0.0,5.42,3.3704,7.462,0.0,59.12,0.0,2.9207924299999997,2.9207924299999997,2.9207924299999997,2.9207924299999997
2528,4/15/2012 8:00,2.805,0.0,3.2479999999999998,2.805,3.1902,0.0,38.080000000000005,0.0,3.64262635,3.64262635,3.64262635,3.64262635
2529,4/15/2012 9:00,3.0393,0.0,5.758,3.0393,1.0478,0.0,18.4,0.0,4.56789946,4.56789946,4.56789946,4.56789946
2530,4/15/2012 10:00,3.3451,0.0,12.016,3.3451,0.42379999999999995,0.0,10.34,0.0,6.108974420000001,6.108974420000001,6.108974420000001,6.108974420000001
2531,4/15/2012 11:00,2.9633999999999996,0.0,14.84,2.9633999999999996,0.2704,0.0,7.5200000000000005,0.0,7.88194352,7.88194352,7.88194352,7.88194352
2532,4/15/2012 12:00,2.7412,1.6284,13.906,2.7412,5.8396,0.2116,6.04,1.38,9.26635559,9.26635559,9.26635559,9.26635559
2533,4/15/2012 13:00,10.571,2.4426,10.29,10.571,6.9732,0.3174,5.64,2.07,10.21122286,10.21122286,10.21122286,10.21122286
2534,4/15/2012 14:00,10.7855,3.1506,0.482,10.7855,7.189000000000001,0.4094,180.51999999999998,2.67,9.83363345,9.83363345,9.83363345,9.83363345
2535,4/15/2012 15:00,10.8042,3.5930999999999997,0.5820000000000001,10.8042,6.689799999999999,0.4669,187.88,3.045,9.20643181,9.20643181,9.20643181,9.20643181
2536,4/15/2012 16:00,11.0,2.6727000000000003,17.396,11.0,20.5842,0.3473,191.12,2.265,7.0417918,7.0417918,7.0417918,7.0417918
2537,4/15/2012 17:00,11.0,2.2656,9.806000000000001,11.0,17.6826,0.2944,191.96,1.9200000000000002,5.322556079999999,5.322556079999999,5.322556079999999,5.322556079999999
2538,4/15/2012 18:00,11.0,4.4780999999999995,0.252,11.0,15.363399999999999,0.5819,4.12,3.795,3.17741094,3.17741094,3.17741094,3.17741094
2539,4/15/2012 19:00,11.0,28.9749,1.1700000000000002,11.0,5.5406,3.7651000000000003,3.18,24.555000000000003,1.80730258,1.80730258,1.80730258,1.80730258
2540,4/15/2012 20:00,11.0,116.43060000000001,2.508,11.0,5.07,15.1294,2.44,98.67,0.0,0.0,0.0,0.0
2541,4/15/2012 21:00,11.0,79.3314,3.7840000000000003,11.0,4.1964,10.3086,2.08,67.23,0.0,0.0,0.0,0.0
2542,4/15/2012 22:00,11.0,109.29750000000001,16.512,11.0,2.9042,14.2025,0.0,92.62500000000001,0.0,0.0,0.0,0.0
2543,4/15/2012 23:00,11.0,118.7847,0.8800000000000001,11.0,1.0296,15.435300000000002,0.0,100.665,0.0,0.0,0.0,0.0
2544,4/16/2012 0:00,10.8383,127.5639,0.504,10.8383,0.3042,16.5761,0.0,108.105,0.0,0.0,0.0,0.0
2545,4/16/2012 1:00,10.7393,139.28130000000002,0.23800000000000002,10.7393,0.2158,18.0987,0.0,118.03500000000001,0.0,0.0,0.0,0.0
2546,4/16/2012 2:00,10.6304,152.5917,13.346,10.6304,0.741,19.8283,0.0,129.315,0.0,0.0,0.0,0.0
2547,4/16/2012 3:00,10.618300000000001,162.1497,0.0,10.618300000000001,1.7758,21.0703,0.0,137.415,0.0,0.0,0.0,0.0
2548,4/16/2012 4:00,10.6414,166.92870000000002,4.2780000000000005,10.6414,4.0638,21.691300000000002,0.0,141.465,0.0,0.0,0.0,0.0
2549,4/16/2012 5:00,10.7426,165.3711,7.104,10.7426,0.8086,21.4889,0.0,140.145,0.0,0.0,0.0,0.0
2550,4/16/2012 6:00,10.549000000000001,159.2469,10.126,10.549000000000001,0.7826,20.6931,0.0,134.955,0.6843367899999999,0.6843367899999999,0.6843367899999999,0.6843367899999999
2551,4/16/2012 7:00,1.6280000000000001,144.92759999999998,8.904,1.6280000000000001,0.6786000000000001,18.8324,2.16,122.82,2.0565607,2.0565607,2.0565607,2.0565607
2552,4/16/2012 8:00,3.2593,83.01299999999999,5.238,3.2593,0.6682,10.786999999999999,10.12,70.35,1.8626852800000002,1.8626852800000002,1.8626852800000002,1.8626852800000002
2553,4/16/2012 9:00,0.6072,56.3037,3.512,0.6072,0.7046,7.3163,14.360000000000001,47.714999999999996,2.6674073,2.6674073,2.6674073,2.6674073
2554,4/16/2012 10:00,10.3466,60.9234,3.4779999999999998,10.3466,2.2204,7.9166,22.42,51.63,3.2699763199999996,3.2699763199999996,3.2699763199999996,3.2699763199999996
2555,4/16/2012 11:00,9.9418,73.8798,3.728,9.9418,24.219,9.6002,31.900000000000002,62.61,3.68498108,3.68498108,3.68498108,3.68498108
2556,4/16/2012 12:00,9.6448,80.1633,12.626,9.6448,3.1148000000000002,10.4167,41.44,67.935,4.448776120000001,4.448776120000001,4.448776120000001,4.448776120000001
2557,4/16/2012 13:00,9.310400000000001,76.6764,0.0,9.310400000000001,9.4926,9.9636,50.86000000000001,64.97999999999999,4.5143216200000005,4.5143216200000005,4.5143216200000005,4.5143216200000005
2558,4/16/2012 14:00,7.3975,68.7291,0.0,7.3975,7.3008,8.9309,196.72,58.245,3.92674636,3.92674636,3.92674636,3.92674636
2559,4/16/2012 15:00,6.1226,130.44899999999998,0.0,6.1226,4.0014,16.951,197.36,110.55,3.84705745,3.84705745,3.84705745,3.84705745
2560,4/16/2012 16:00,5.1139,132.3075,0.0,5.1139,2.9354,17.192500000000003,197.58,112.12500000000001,3.08817232,3.08817232,3.08817232,3.08817232
2561,4/16/2012 17:00,4.7982,3.9825,7.488,4.7982,3.5360000000000005,0.5175,197.08,3.375,2.5200730300000003,2.5200730300000003,2.5200730300000003,2.5200730300000003
2562,4/16/2012 18:00,2.5597,4.0356000000000005,6.8020000000000005,2.5597,4.6072,0.5244,194.32,3.42,2.2037481899999998,2.2037481899999998,2.2037481899999998,2.2037481899999998
2563,4/16/2012 19:00,0.9911,10.5138,6.303999999999999,0.9911,1.2713999999999999,1.3662,183.02,8.91,1.2580648,1.2580648,1.2580648,1.2580648
2564,4/16/2012 20:00,0.3674,64.35719999999999,5.812,0.3674,20.714199999999998,8.3628,163.34,54.54,0.0,0.0,0.0,0.0
2565,4/16/2012 21:00,3.2735999999999996,113.7225,4.998,3.2735999999999996,18.5302,14.7775,85.68,96.375,0.0,0.0,0.0,0.0
2566,4/16/2012 22:00,2.3001,103.6866,4.0600000000000005,2.3001,8.158800000000001,13.4734,96.5,87.87,0.0,0.0,0.0,0.0
2567,4/16/2012 23:00,0.0,80.8359,2.8360000000000003,0.0,0.31980000000000003,10.5041,88.53999999999999,68.505,0.0,0.0,0.0,0.0
2568,4/17/2012 0:00,0.0,46.33859999999999,1.482,0.0,0.0,6.0214,48.16,39.269999999999996,0.0,0.0,0.0,0.0
2569,4/17/2012 1:00,0.0,36.3558,0.6479999999999999,0.0,13.8008,4.7242,20.68,30.81,0.0,0.0,0.0,0.0
2570,4/17/2012 2:00,0.0,149.6712,16.619999999999997,0.0,1.9812,19.448800000000002,11.459999999999999,126.84,0.0,0.0,0.0,0.0
2571,4/17/2012 3:00,0.0,149.3349,0.28600000000000003,0.0,6.7002,19.4051,14.540000000000001,126.555,0.0,0.0,0.0,0.0
2572,4/17/2012 4:00,5.109500000000001,7.434,0.0,5.109500000000001,9.924199999999999,0.9660000000000001,23.580000000000002,6.300000000000001,0.0,0.0,0.0,0.0
2573,4/17/2012 5:00,2.6542999999999997,8.0535,0.0,2.6542999999999997,11.9574,1.0465,32.04,6.825,0.0,0.0,0.0,0.0
2574,4/17/2012 6:00,1.1209,10.5492,0.0,1.1209,11.6012,1.3708,0.0,8.94,1.7609119500000001,1.7609119500000001,1.7609119500000001,1.7609119500000001
2575,4/17/2012 7:00,0.9041999999999999,118.6785,18.592,0.9041999999999999,9.6044,15.4215,0.0,100.575,4.57980937,4.57980937,4.57980937,4.57980937
2576,4/17/2012 8:00,0.0781,85.7742,18.924,0.0781,7.085000000000001,11.1458,0.0,72.69,3.8185626200000007,3.8185626200000007,3.8185626200000007,3.8185626200000007
2577,4/17/2012 9:00,0.1221,89.9691,18.902,0.1221,4.7892,11.6909,0.0,76.24499999999999,3.0431651600000005,3.0431651600000005,3.0431651600000005,3.0431651600000005
2578,4/17/2012 10:00,0.2486,43.418099999999995,18.912,0.2486,0.4992,5.6419,0.0,36.795,3.688927,3.688927,3.688927,3.688927
2579,4/17/2012 11:00,0.32889999999999997,33.7185,18.948,0.32889999999999997,0.403,4.3815,0.0,28.575,4.2386975,4.2386975,4.2386975,4.2386975
2580,4/17/2012 12:00,0.4686,22.231199999999998,18.77,0.4686,0.4628,2.8888,0.0,18.84,4.66683172,4.66683172,4.66683172,4.66683172
2581,4/17/2012 13:00,0.583,10.708499999999999,18.158,0.583,0.9229999999999999,1.3915,1.54,9.075,4.93187021,4.93187021,4.93187021,4.93187021
2582,4/17/2012 14:00,2.7269,6.9207,17.254,2.7269,1.8278,0.8993000000000001,0.0,5.865,4.964942089999999,4.964942089999999,4.964942089999999,4.964942089999999
2583,4/17/2012 15:00,6.8387,3.9825,14.818,6.8387,3.7232,0.5175,0.0,3.375,4.9210156,4.9210156,4.9210156,4.9210156
2584,4/17/2012 16:00,8.6691,5.7348,10.382,8.6691,5.408,0.7452,18.48,4.859999999999999,4.68618793,4.68618793,4.68618793,4.68618793
2585,4/17/2012 17:00,8.5778,2.6727000000000003,5.396,8.5778,7.027799999999999,0.3473,18.82,2.265,4.21837371,4.21837371,4.21837371,4.21837371
2586,4/17/2012 18:00,1.8788,1.9647000000000001,1.936,1.8788,7.9586,0.2553,22.3,1.665,3.47795656,3.47795656,3.47795656,3.47795656
2587,4/17/2012 19:00,1.6807999999999998,1.3983,0.624,1.6807999999999998,10.2752,0.18170000000000003,0.0,1.185,2.41616081,2.41616081,2.41616081,2.41616081
2588,4/17/2012 20:00,1.3706,0.0,0.332,1.3706,14.3104,0.0,0.0,0.0,0.0,0.0,0.0,0.0
2589,4/17/2012 21:00,0.99,0.0,0.42200000000000004,0.99,15.7508,0.0,55.379999999999995,0.0,0.0,0.0,0.0,0.0
2590,4/17/2012 22:00,5.0149,0.0,0.8699999999999999,5.0149,14.242799999999999,0.0,7.4399999999999995,0.0,0.0,0.0,0.0,0.0
2591,4/17/2012 23:00,4.176699999999999,0.0,1.992,4.176699999999999,10.2362,0.0,8.260000000000002,0.0,0.0,0.0,0.0,0.0
2592,4/18/2012 0:00,3.1944,0.0,4.722,3.1944,0.7254,0.0,7.08,0.0,0.0,0.0,0.0,0.0
2593,4/18/2012 1:00,2.5168,0.0,7.654,2.5168,1.3312000000000002,0.0,5.220000000000001,0.0,0.0,0.0,0.0,0.0
2594,4/18/2012 2:00,1.8304,127.9002,7.114000000000001,1.8304,1.9526,16.6198,3.1199999999999997,108.39,0.0,0.0,0.0,0.0
2595,4/18/2012 3:00,1.0604,135.8121,6.128,1.0604,4.0638,17.6479,1.68,115.095,0.0,0.0,0.0,0.0
2596,4/18/2012 4:00,1.1648999999999998,140.4495,4.32,1.1648999999999998,6.143800000000001,18.2505,0.0,119.02499999999999,0.0,0.0,0.0,0.0
2597,4/18/2012 5:00,2.1626,0.0,18.768,2.1626,7.4698,0.0,1.82,0.0,0.0,0.0,0.0,0.0
2598,4/18/2012 6:00,4.8884,0.0,19.336,4.8884,7.552999999999999,0.0,11.72,0.0,1.86498661,1.86498661,1.86498661,1.86498661
2599,4/18/2012 7:00,5.3394,0.0,19.512,5.3394,7.9534,0.0,30.759999999999998,0.0,3.5499229999999997,3.5499229999999997,3.5499229999999997,3.5499229999999997
2600,4/18/2012 8:00,1.4707000000000001,144.8745,19.541999999999998,1.4707000000000001,6.1464,18.8255,16.32,122.775,2.4206926600000003,2.4206926600000003,2.4206926600000003,2.4206926600000003
2601,4/18/2012 9:00,7.7407,148.5207,19.502,7.7407,4.0534,19.2993,8.34,125.865,1.88818032,1.88818032,1.88818032,1.88818032
2602,4/18/2012 10:00,7.5174,160.3974,0.0,7.5174,2.9146,20.8426,5.0200000000000005,135.93,2.17035174,2.17035174,2.17035174,2.17035174
2603,4/18/2012 11:00,1.0285,170.8227,0.0,1.0285,2.5168,22.1973,4.02,144.765,2.8459592000000002,2.8459592000000002,2.8459592000000002,2.8459592000000002
2604,4/18/2012 12:00,0.7634000000000001,175.3185,0.0,0.7634000000000001,8.71,22.7815,4.02,148.57500000000002,2.7857925,2.7857925,2.7857925,2.7857925
2605,4/18/2012 13:00,0.7535000000000001,177.0,19.798000000000002,0.7535000000000001,9.0038,23.0,4.06,150.0,2.99418181,2.99418181,2.99418181,2.99418181
2606,4/18/2012 14:00,6.469099999999999,175.4424,20.0,6.469099999999999,8.704799999999999,22.7976,4.06,148.68,3.4285771200000004,3.4285771200000004,3.4285771200000004,3.4285771200000004
2607,4/18/2012 15:00,1.5939,52.745999999999995,20.0,1.5939,7.056399999999999,6.854,4.12,44.699999999999996,3.74689487,3.74689487,3.74689487,3.74689487
2608,4/18/2012 16:00,7.6769,175.49550000000002,19.852,7.6769,5.4132,22.8045,4.46,148.725,3.11656411,3.11656411,3.11656411,3.11656411
2609,4/18/2012 17:00,2.2616,50.6751,19.758,2.2616,4.5291999999999994,6.5849,4.66,42.945,2.36713935,2.36713935,2.36713935,2.36713935
2610,4/18/2012 18:00,2.7796999999999996,48.0201,19.568,2.7796999999999996,2.6416,6.2399,6.660000000000001,40.695,1.72245922,1.72245922,1.72245922,1.72245922
2611,4/18/2012 19:00,1.6422999999999999,159.4947,12.911999999999999,1.6422999999999999,1.742,20.7253,50.4,135.165,1.43438978,1.43438978,1.43438978,1.43438978
2612,4/18/2012 20:00,0.6467999999999999,127.68780000000001,14.812000000000001,0.6467999999999999,4.3732,16.592200000000002,27.38,108.21000000000001,0.0,0.0,0.0,0.0
2613,4/18/2012 21:00,0.29700000000000004,173.46,16.026,0.29700000000000004,1.0972,22.54,15.7,147.0,0.0,0.0,0.0,0.0
2614,4/18/2012 22:00,0.0,16.6026,16.69,0.0,0.4472,2.1574,58.36,14.069999999999999,0.0,0.0,0.0,0.0
2615,4/18/2012 23:00,0.0,18.7266,16.472,0.0,0.20540000000000003,2.4334000000000002,64.78,15.870000000000001,0.0,0.0,0.0,0.0
2616,4/19/2012 0:00,0.20459999999999998,7.133100000000001,15.658000000000001,0.20459999999999998,0.0,0.9269000000000001,68.78,6.045,0.0,0.0,0.0,0.0
2617,4/19/2012 1:00,0.0,22.302,15.671999999999999,0.0,0.0,2.898,66.32000000000001,18.9,0.0,0.0,0.0,0.0
2618,4/19/2012 2:00,0.0,67.3131,11.71,0.0,0.0,8.7469,15.340000000000002,57.045,0.0,0.0,0.0,0.0
2619,4/19/2012 3:00,0.8283,124.64340000000001,8.152000000000001,0.8283,0.2392,16.1966,30.54,105.63000000000001,0.0,0.0,0.0,0.0
2620,4/19/2012 4:00,0.9559000000000001,114.41279999999999,8.384,0.9559000000000001,0.4316,14.867199999999999,42.36,96.96,0.0,0.0,0.0,0.0
2621,4/19/2012 5:00,0.9680000000000001,9.4695,9.708,0.9680000000000001,0.6317999999999999,1.2305,17.8,8.025,0.0,0.0,0.0,0.0
2622,4/19/2012 6:00,4.8675,3.2568,11.254,4.8675,0.7436,0.4232,17.380000000000003,2.76,1.46895066,1.46895066,1.46895066,1.46895066
2623,4/19/2012 7:00,4.8939,169.97310000000002,12.118,4.8939,3.8064,22.0869,15.64,144.04500000000002,3.22206044,3.22206044,3.22206044,3.22206044
2624,4/19/2012 8:00,4.2932999999999995,3.6816,11.276,4.2932999999999995,2.4934,0.4784,9.32,3.1199999999999997,3.23943548,3.23943548,3.23943548,3.23943548
2625,4/19/2012 9:00,3.322,5.9826,8.546,3.322,2.0046,0.7773999999999999,6.5,5.069999999999999,2.7592706899999997,2.7592706899999997,2.7592706899999997,2.7592706899999997
2626,4/19/2012 10:00,2.5927,0.0,6.896,2.5927,1.7186000000000001,0.0,7.42,0.0,3.63894175,3.63894175,3.63894175,3.63894175
2627,4/19/2012 11:00,2.024,146.2905,9.92,2.024,1.5886,19.0095,7.26,123.97500000000001,4.14303543,4.14303543,4.14303543,4.14303543
2628,4/19/2012 12:00,1.4949,141.3699,11.892,1.4949,1.5054,18.3701,8.8,119.80499999999999,4.45709109,4.45709109,4.45709109,4.45709109
2629,4/19/2012 13:00,0.9624999999999999,133.21020000000001,11.932,0.9624999999999999,1.5834000000000001,17.309800000000003,12.2,112.89,4.90399876,4.90399876,4.90399876,4.90399876
2630,4/19/2012 14:00,0.7766,6.018000000000001,11.966000000000001,0.7766,0.0,0.782,14.099999999999998,5.1000000000000005,4.40368905,4.40368905,4.40368905,4.40368905
2631,4/19/2012 15:00,0.6534,0.0,14.328000000000001,0.6534,0.0,0.0,9.4,0.0,2.97569702,2.97569702,2.97569702,2.97569702
2632,4/19/2012 16:00,0.2629,0.0,2.2159999999999997,0.2629,0.0,0.0,3.1199999999999997,0.0,2.8086123699999996,2.8086123699999996,2.8086123699999996,2.8086123699999996
2633,4/19/2012 17:00,0.0869,0.0,1.4580000000000002,0.0869,0.0,0.0,2.58,0.0,1.26176755,1.26176755,1.26176755,1.26176755
2634,4/19/2012 18:00,0.0,3.5930999999999997,1.1139999999999999,0.0,0.22100000000000003,0.4669,2.56,3.045,0.62520217,0.62520217,0.62520217,0.62520217
2635,4/19/2012 19:00,0.8293999999999999,4.7259,2.138,0.8293999999999999,0.2912,0.6141000000000001,32.16,4.005,0.66956547,0.66956547,0.66956547,0.66956547
2636,4/19/2012 20:00,0.8019000000000001,6.372000000000001,4.464,0.8019000000000001,0.3562,0.8280000000000001,28.999999999999996,5.4,0.0,0.0,0.0,0.0
2637,4/19/2012 21:00,9.770199999999999,0.0,4.604,9.770199999999999,0.41080000000000005,0.0,30.580000000000002,0.0,0.0,0.0,0.0,0.0
2638,4/19/2012 22:00,10.514899999999999,0.0,1.59,10.514899999999999,0.5356,0.0,34.78,0.0,0.0,0.0,0.0,0.0
2639,4/19/2012 23:00,10.6205,0.0,2.664,10.6205,0.6058,0.0,35.32,0.0,0.0,0.0,0.0,0.0
2640,4/20/2012 0:00,10.6821,0.0,2.774,10.6821,0.598,0.0,34.8,0.0,0.0,0.0,0.0,0.0
2641,4/20/2012 1:00,10.787700000000001,0.0,5.093999999999999,10.787700000000001,0.5304,0.0,41.24,0.0,0.0,0.0,0.0,0.0
2642,4/20/2012 2:00,6.534,41.1702,2.532,6.534,0.4758,5.3498,1.4200000000000002,34.89,0.0,0.0,0.0,0.0
2643,4/20/2012 3:00,5.662800000000001,26.55,1.4979999999999998,5.662800000000001,0.494,3.4499999999999997,1.4200000000000002,22.5,0.0,0.0,0.0,0.0
2644,4/20/2012 4:00,5.005,24.656100000000002,1.258,5.005,0.5408,3.2039,1.46,20.895,0.0,0.0,0.0,0.0
2645,4/20/2012 5:00,4.5958,23.2755,0.9660000000000001,4.5958,0.4316,3.0245,1.6400000000000001,19.725,0.0,0.0,0.0,0.0
2646,4/20/2012 6:00,11.0,19.5231,0.6779999999999999,11.0,0.2444,2.5368999999999997,1.8599999999999999,16.544999999999998,1.18301795,1.18301795,1.18301795,1.18301795
2647,4/20/2012 7:00,10.4533,11.151,0.71,10.4533,0.0,1.449,177.04,9.45,2.6967792299999997,2.6967792299999997,2.6967792299999997,2.6967792299999997
2648,4/20/2012 8:00,3.9644,3.2922,16.758,3.9644,0.18460000000000001,0.42779999999999996,155.8,2.7899999999999996,2.50451461,2.50451461,2.50451461,2.50451461
2649,4/20/2012 9:00,10.9032,30.497100000000003,17.65,10.9032,0.351,3.9629000000000003,121.94,25.845000000000002,3.07098317,3.07098317,3.07098317,3.07098317
2650,4/20/2012 10:00,10.0727,4.1064,18.378,10.0727,0.7618,0.5336,77.14,3.4799999999999995,3.7829499299999996,3.7829499299999996,3.7829499299999996,3.7829499299999996
2651,4/20/2012 11:00,10.9098,9.0447,18.09,10.9098,1.5626,1.1753,44.34,7.665,4.35106769,4.35106769,4.35106769,4.35106769
2652,4/20/2012 12:00,9.985800000000001,10.5315,18.762,9.985800000000001,1.9005999999999998,1.3685,32.9,8.924999999999999,3.8279070799999997,3.8279070799999997,3.8279070799999997,3.8279070799999997
2653,4/20/2012 13:00,8.6614,5.770199999999999,19.546,8.6614,2.8496,0.7497999999999999,46.18,4.89,4.212776720000001,4.212776720000001,4.212776720000001,4.212776720000001
2654,4/20/2012 14:00,5.1743999999999994,1.5222,19.584,5.1743999999999994,4.4564,0.1978,79.03999999999999,1.29,4.65126829,4.65126829,4.65126829,4.65126829
2655,4/20/2012 15:00,1.1824999999999999,41.860499999999995,19.246000000000002,1.1824999999999999,6.188000000000001,5.4395,126.32000000000001,35.475,4.21291449,4.21291449,4.21291449,4.21291449
2656,4/20/2012 16:00,11.0,37.3647,19.080000000000002,11.0,6.910799999999999,4.855300000000001,160.17999999999998,31.665000000000003,3.41103922,3.41103922,3.41103922,3.41103922
2657,4/20/2012 17:00,11.0,51.595499999999994,18.984,11.0,6.965400000000001,6.7044999999999995,178.0,43.724999999999994,1.8765863800000002,1.8765863800000002,1.8765863800000002,1.8765863800000002
2658,4/20/2012 18:00,11.0,61.2951,18.726,11.0,23.6548,7.9649,189.06,51.945,1.7703442699999998,1.7703442699999998,1.7703442699999998,1.7703442699999998
2659,4/20/2012 19:00,10.8559,52.94069999999999,12.656,10.8559,23.134800000000002,6.8793,194.44,44.864999999999995,0.80042166,0.80042166,0.80042166,0.80042166
2660,4/20/2012 20:00,10.5974,41.683499999999995,15.876,10.5974,22.113,5.4165,114.4,35.324999999999996,0.0,0.0,0.0,0.0
2661,4/20/2012 21:00,9.7922,33.099,17.646,9.7922,20.4776,4.301,130.54,28.05,0.0,0.0,0.0,0.0
2662,4/20/2012 22:00,8.5668,30.0723,18.159999999999997,8.5668,15.103399999999999,3.9076999999999997,134.48,25.485,0.0,0.0,0.0,0.0
2663,4/20/2012 23:00,10.0617,27.275699999999997,18.45,10.0617,10.347999999999999,3.5443,22.86,23.115,0.0,0.0,0.0,0.0
2664,4/21/2012 0:00,10.007800000000001,18.1425,18.874,10.007800000000001,8.9414,2.3575,195.84,15.374999999999998,0.0,0.0,0.0,0.0
2665,4/21/2012 1:00,9.7493,11.2395,19.256,9.7493,7.5478000000000005,1.4605000000000001,192.38,9.525,0.0,0.0,0.0,0.0
2666,4/21/2012 2:00,9.3819,64.72890000000001,19.446,9.3819,20.28,8.411100000000001,184.32,54.855000000000004,0.0,0.0,0.0,0.0
2667,4/21/2012 3:00,4.499,34.4796,19.628,4.499,3.3436,4.4804,169.26000000000002,29.22,0.0,0.0,0.0,0.0
2668,4/21/2012 4:00,0.5676,46.816500000000005,19.692,0.5676,1.6822,6.0835,154.58,39.675000000000004,0.0,0.0,0.0,0.0
2669,4/21/2012 5:00,0.45539999999999997,68.9592,19.72,0.45539999999999997,9.061,8.9608,143.48000000000002,58.44,0.0,0.0,0.0,0.0
2670,4/21/2012 6:00,0.29700000000000004,62.5341,19.632,0.29700000000000004,19.7886,8.1259,126.86,52.995,1.9027193899999997,1.9027193899999997,1.9027193899999997,1.9027193899999997
2671,4/21/2012 7:00,0.30799999999999994,61.9146,19.514,0.30799999999999994,19.5988,8.0454,112.16,52.47,3.5056818799999996,3.5056818799999996,3.5056818799999996,3.5056818799999996
2672,4/21/2012 8:00,0.41690000000000005,35.5947,1.1360000000000001,0.41690000000000005,22.032400000000003,4.6253,102.67999999999999,30.165,3.13863642,3.13863642,3.13863642,3.13863642
2673,4/21/2012 9:00,0.5478,36.3558,0.7979999999999999,0.5478,22.3106,4.7242,91.06,30.81,2.61879993,2.61879993,2.61879993,2.61879993
2674,4/21/2012 10:00,0.6314,37.9488,0.414,0.6314,21.9024,4.9312000000000005,71.94,32.160000000000004,3.50326312,3.50326312,3.50326312,3.50326312
2675,4/21/2012 11:00,0.55,40.002,0.17600000000000002,0.55,1.9058000000000002,5.198,51.339999999999996,33.9,4.032736389999999,4.032736389999999,4.032736389999999,4.032736389999999
2676,4/21/2012 12:00,0.4664,36.4266,0.0,0.4664,6.884799999999999,4.7334000000000005,195.4,30.87,4.3910575000000005,4.3910575000000005,4.3910575000000005,4.3910575000000005
2677,4/21/2012 13:00,0.4862,31.0458,0.0,0.4862,11.892399999999999,4.0342,38.2,26.31,4.67938787,4.67938787,4.67938787,4.67938787
2678,4/21/2012 14:00,0.6357999999999999,19.682399999999998,0.0,0.6357999999999999,18.8032,2.5576,42.22,16.68,4.12483054,4.12483054,4.12483054,4.12483054
2679,4/21/2012 15:00,0.5983999999999999,10.230599999999999,1.592,0.5983999999999999,19.0372,1.3294,44.080000000000005,8.67,3.82483313,3.82483313,3.82483313,3.82483313
2680,4/21/2012 16:00,0.3476,5.7879,3.9040000000000004,0.3476,18.0102,0.7521,160.78,4.905,4.16248238,4.16248238,4.16248238,4.16248238
2681,4/21/2012 17:00,0.3135,104.12910000000001,7.014,0.3135,14.788799999999998,13.5309,167.46,88.245,3.6613311900000003,3.6613311900000003,3.6613311900000003,3.6613311900000003
2682,4/21/2012 18:00,0.20020000000000002,39.9843,12.386,0.20020000000000002,16.008200000000002,5.1956999999999995,34.62,33.885,2.6252808699999997,2.6252808699999997,2.6252808699999997,2.6252808699999997
2683,4/21/2012 19:00,0.7095,4.1772,0.0,0.7095,15.9562,0.5428,25.240000000000002,3.54,1.0248187899999999,1.0248187899999999,1.0248187899999999,1.0248187899999999
2684,4/21/2012 20:00,1.6214,3.0621,0.222,1.6214,14.3936,0.3979,16.32,2.5949999999999998,0.0,0.0,0.0,0.0
2685,4/21/2012 21:00,3.0689999999999995,3.0267,11.554,3.0689999999999995,12.2122,0.39330000000000004,16.3,2.565,0.0,0.0,0.0,0.0
2686,4/21/2012 22:00,4.8884,3.3276000000000003,10.678,4.8884,10.2102,0.4324,19.580000000000002,2.8200000000000003,0.0,0.0,0.0,0.0
2687,4/21/2012 23:00,6.344799999999999,3.8763,9.66,6.344799999999999,7.9924,0.5037,23.24,3.2849999999999997,0.0,0.0,0.0,0.0
2688,4/22/2012 0:00,7.4415,3.8940000000000006,0.0,7.4415,6.0216,0.506,135.66,3.3000000000000003,0.0,0.0,0.0,0.0
2689,4/22/2012 1:00,8.129000000000001,3.2037000000000004,7.645999999999999,8.129000000000001,5.428800000000001,0.41630000000000006,200.0,2.7150000000000003,0.0,0.0,0.0,0.0
2690,4/22/2012 2:00,8.514,2.7081,4.013999999999999,8.514,5.486000000000001,0.3519,200.0,2.295,0.0,0.0,0.0,0.0
2691,4/22/2012 3:00,8.792300000000001,2.301,4.093999999999999,8.792300000000001,0.40559999999999996,0.29900000000000004,200.0,1.9500000000000002,0.0,0.0,0.0,0.0
2692,4/22/2012 4:00,0.3861,1.8408,4.32,0.3861,0.3146,0.2392,148.6,1.5599999999999998,0.0,0.0,0.0,0.0
2693,4/22/2012 5:00,0.3036,1.5045000000000002,0.5,0.3036,0.2496,0.1955,159.48,1.2750000000000001,0.0,0.0,0.0,0.0
2694,4/22/2012 6:00,0.2816,2.0886,0.366,0.2816,0.2652,0.2714,200.0,1.77,0.09300141999999999,0.09300141999999999,0.09300141999999999,0.09300141999999999
2695,4/22/2012 7:00,0.2948,4.5489,0.502,0.2948,0.4680000000000001,0.5911,52.82,3.855,1.51074755,1.51074755,1.51074755,1.51074755
2696,4/22/2012 8:00,0.2772,7.4694,0.598,0.2772,20.183799999999998,0.9706,34.94,6.33,2.17346059,2.17346059,2.17346059,2.17346059
2697,4/22/2012 9:00,0.2838,37.5594,0.6679999999999999,0.2838,17.862000000000002,4.8806,197.14000000000001,31.83,2.33556878,2.33556878,2.33556878,2.33556878
2698,4/22/2012 10:00,0.3091,13.806,0.656,0.3091,5.4002,1.794,194.8,11.7,3.49961454,3.49961454,3.49961454,3.49961454
2699,4/22/2012 11:00,0.3278,3.6462,0.65,0.3278,4.9348,0.4738,108.04,3.09,4.231587770000001,4.231587770000001,4.231587770000001,4.231587770000001
2700,4/22/2012 12:00,0.3102,7.6640999999999995,0.77,0.3102,4.3342,0.9959,73.54,6.495,4.50761568,4.50761568,4.50761568,4.50761568
2701,4/22/2012 13:00,0.3278,6.9207,1.022,0.3278,22.022,0.8993000000000001,135.94,5.865,4.43224247,4.43224247,4.43224247,4.43224247
2702,4/22/2012 14:00,0.40370000000000006,6.141900000000001,1.572,0.40370000000000006,23.296,0.7981,101.54,5.205,4.56128606,4.56128606,4.56128606,4.56128606
2703,4/22/2012 15:00,5.423,5.026800000000001,2.362,5.423,23.6314,0.6532,68.96,4.260000000000001,4.2023879200000005,4.2023879200000005,4.2023879200000005,4.2023879200000005
2704,4/22/2012 16:00,6.0753,8.8677,0.0,6.0753,23.296,1.1522999999999999,46.64,7.515,4.23046703,4.23046703,4.23046703,4.23046703
2705,4/22/2012 17:00,6.3426,7.3278,0.0,6.3426,22.898200000000003,0.9521999999999999,152.06,6.21,3.53649627,3.53649627,3.53649627,3.53649627
2706,4/22/2012 18:00,6.3063,7.8057,0.0,6.3063,22.560200000000002,1.0143,1.78,6.615,3.03382093,3.03382093,3.03382093,3.03382093
2707,4/22/2012 19:00,5.2481,9.6288,0.0,5.2481,10.413,1.2511999999999999,24.98,8.16,2.2075940600000004,2.2075940600000004,2.2075940600000004,2.2075940600000004
2708,4/22/2012 20:00,3.3077,25.7712,1.318,3.3077,24.8144,3.3488,16.02,21.84,0.0,0.0,0.0,0.0
2709,4/22/2012 21:00,1.8304,31.0104,0.968,1.8304,25.0198,4.0296,8.08,26.279999999999998,0.0,0.0,0.0,0.0
2710,4/22/2012 22:00,1.1902000000000001,19.7532,0.878,1.1902000000000001,7.306000000000001,2.5668,5.28,16.740000000000002,0.0,0.0,0.0,0.0
2711,4/22/2012 23:00,5.3042,36.745200000000004,0.752,5.3042,5.4366,4.7748,9.46,31.14,0.0,0.0,0.0,0.0
2712,4/23/2012 0:00,0.08249999999999999,55.54260000000001,0.366,0.08249999999999999,15.659799999999999,7.2174000000000005,8.9,47.07,0.0,0.0,0.0,0.0
2713,4/23/2012 1:00,0.0,53.9673,0.164,0.0,12.4176,7.0127,0.0,45.735,0.0,0.0,0.0,0.0
2714,4/23/2012 2:00,0.0,58.7817,0.0,0.0,8.4942,7.6383,0.0,49.815,0.0,0.0,0.0,0.0
2715,4/23/2012 3:00,10.0815,81.9333,0.0,10.0815,7.6752,10.6467,3.9,69.435,0.0,0.0,0.0,0.0
2716,4/23/2012 4:00,0.3729,110.76660000000001,0.0,0.3729,8.444799999999999,14.3934,13.98,93.87,0.0,0.0,0.0,0.0
2717,4/23/2012 5:00,0.4026,132.042,2.82,0.4026,12.2122,17.158,23.34,111.9,0.0,0.0,0.0,0.0
2718,4/23/2012 6:00,0.3916,12.744000000000002,3.482,0.3916,13.1586,1.6560000000000001,25.72,10.8,3.2302066600000003,3.2302066600000003,3.2302066600000003,3.2302066600000003
2719,4/23/2012 7:00,0.3784,18.6381,4.744,0.3784,14.8512,2.4219,17.119999999999997,15.795,4.62546546,4.62546546,4.62546546,4.62546546
2720,4/23/2012 8:00,0.4103,23.965799999999998,6.57,0.4103,17.4044,3.1142,9.76,20.31,3.73391426,3.73391426,3.73391426,3.73391426
2721,4/23/2012 9:00,0.39820000000000005,8.5314,7.416,0.39820000000000005,18.6368,1.1086,9.2,7.2299999999999995,3.0671821799999996,3.0671821799999996,3.0671821799999996,3.0671821799999996
2722,4/23/2012 10:00,0.30469999999999997,21.9303,6.454,0.30469999999999997,18.4028,2.8497,8.459999999999999,18.585,3.57482775,3.57482775,3.57482775,3.57482775
2723,4/23/2012 11:00,0.3366,18.3549,4.346,0.3366,16.7466,2.3851,147.66,15.555,4.157322639999999,4.157322639999999,4.157322639999999,4.157322639999999
2724,4/23/2012 12:00,0.1265,19.3107,2.364,0.1265,15.287999999999998,2.5093,150.78,16.365000000000002,4.53765397,4.53765397,4.53765397,4.53765397
2725,4/23/2012 13:00,0.2409,155.2644,16.0,0.2409,14.302600000000002,20.1756,106.64,131.57999999999998,5.10643642,5.10643642,5.10643642,5.10643642
2726,4/23/2012 14:00,0.3542,62.9235,9.43,0.3542,0.2158,8.176499999999999,97.78,53.324999999999996,5.11953714,5.11953714,5.11953714,5.11953714
2727,4/23/2012 15:00,0.4785,30.3732,10.145999999999999,0.4785,0.0,3.9468,114.75999999999999,25.740000000000002,5.005351129999999,5.005351129999999,5.005351129999999,5.005351129999999
2728,4/23/2012 16:00,0.5962,12.372300000000001,9.892,0.5962,15.99,1.6077000000000001,5.66,10.485000000000001,4.64209022,4.64209022,4.64209022,4.64209022
2729,4/23/2012 17:00,0.7271000000000001,41.2587,8.91,0.7271000000000001,15.854800000000001,5.3613,143.62,34.965,3.8027319299999993,3.8027319299999993,3.8027319299999993,3.8027319299999993
2730,4/23/2012 18:00,10.4082,52.781400000000005,7.364000000000001,10.4082,17.0716,6.858600000000001,147.06,44.730000000000004,2.59185609,2.59185609,2.59185609,2.59185609
2731,4/23/2012 19:00,10.4885,60.374700000000004,6.1419999999999995,10.4885,17.4798,7.8453,6.12,51.165,1.7524254600000002,1.7524254600000002,1.7524254600000002,1.7524254600000002
2732,4/23/2012 20:00,10.504999999999999,62.3925,4.99,10.504999999999999,16.6582,8.1075,15.340000000000002,52.875,0.0,0.0,0.0,0.0
2733,4/23/2012 21:00,10.417000000000002,65.8086,4.408,10.417000000000002,15.3998,8.551400000000001,18.72,55.77,0.0,0.0,0.0,0.0
2734,4/23/2012 22:00,10.2465,2.0355,4.31,10.2465,15.246400000000001,0.2645,21.9,1.7249999999999999,0.0,0.0,0.0,0.0
2735,4/23/2012 23:00,10.0353,1.9470000000000003,4.202,10.0353,2.6988000000000003,0.253,29.799999999999997,1.6500000000000001,0.0,0.0,0.0,0.0
2736,4/24/2012 0:00,9.8208,1.9470000000000003,3.9579999999999997,9.8208,3.419,0.253,42.480000000000004,1.6500000000000001,0.0,0.0,0.0,0.0
2737,4/24/2012 1:00,4.84,67.36619999999999,5.106000000000001,4.84,4.2874,8.7538,56.98,57.089999999999996,0.0,0.0,0.0,0.0
2738,4/24/2012 2:00,4.0359,66.14489999999999,3.9179999999999997,4.0359,5.629,8.595099999999999,28.800000000000004,56.055,0.0,0.0,0.0,0.0
2739,4/24/2012 3:00,10.854800000000001,69.8973,3.916,10.854800000000001,8.078199999999999,9.082699999999999,85.6,59.235,0.0,0.0,0.0,0.0
2740,4/24/2012 4:00,1.1363,74.7117,5.734,1.1363,14.344199999999999,9.7083,99.86,63.315,0.0,0.0,0.0,0.0
2741,4/24/2012 5:00,10.5215,79.6854,8.39,10.5215,12.3604,10.3546,14.34,67.53,0.0,0.0,0.0,0.0
2742,4/24/2012 6:00,0.2662,86.4291,9.34,0.2662,0.7774,11.2309,27.500000000000004,73.245,0.11134841999999999,0.11134841999999999,0.11134841999999999,0.11134841999999999
2743,4/24/2012 7:00,0.0,99.4386,8.568,0.0,0.689,12.921399999999998,133.48,84.27,0.50656727,0.50656727,0.50656727,0.50656727
2744,4/24/2012 8:00,0.0,110.3064,9.079999999999998,0.0,1.9864,14.333599999999999,0.0,93.47999999999999,1.07340887,1.07340887,1.07340887,1.07340887
2745,4/24/2012 9:00,0.0,114.4305,11.796,0.0,1.3598,14.869499999999999,0.0,96.975,0.73950821,0.73950821,0.73950821,0.73950821
2746,4/24/2012 10:00,0.0,115.9704,15.014000000000001,0.0,8.2082,15.0696,0.0,98.28,2.27845149,2.27845149,2.27845149,2.27845149
2747,4/24/2012 11:00,2.7565999999999997,157.4238,17.156,2.7565999999999997,8.2966,20.4562,0.0,133.41,2.62485766,2.62485766,2.62485766,2.62485766
2748,4/24/2012 12:00,3.1581,138.1131,18.034,3.1581,12.064,17.9469,0.0,117.045,1.37914772,1.37914772,1.37914772,1.37914772
2749,4/24/2012 13:00,3.0525,100.8723,18.362000000000002,3.0525,13.4914,13.1077,1.6199999999999999,85.485,1.58243957,1.58243957,1.58243957,1.58243957
2750,4/24/2012 14:00,2.7896,59.9322,18.52,2.7896,13.980199999999998,7.787800000000001,2.04,50.79,2.7159318,2.7159318,2.7159318,2.7159318
2751,4/24/2012 15:00,0.2739,80.2341,18.676,0.2739,24.323,10.4259,1.82,67.99499999999999,2.4253673399999998,2.4253673399999998,2.4253673399999998,2.4253673399999998
2752,4/24/2012 16:00,0.5731,94.27019999999999,18.628,0.5731,22.8488,12.249799999999999,16.74,79.89,0.82953997,0.82953997,0.82953997,0.82953997
2753,4/24/2012 17:00,1.1858,100.713,14.963999999999999,1.1858,19.351799999999997,13.087,19.1,85.35,0.4220174099999999,0.4220174099999999,0.4220174099999999,0.4220174099999999
2754,4/24/2012 18:00,2.0745999999999998,95.3676,15.126,2.0745999999999998,17.9998,12.392399999999999,17.46,80.82,0.42426538,0.42426538,0.42426538,0.42426538
2755,4/24/2012 19:00,2.926,7.4163,14.188,2.926,14.981200000000001,0.9637,15.6,6.285,0.20789795,0.20789795,0.20789795,0.20789795
2756,4/24/2012 20:00,2.2693000000000003,7.965,13.149999999999999,2.2693000000000003,12.4358,1.035,12.959999999999999,6.75,0.0,0.0,0.0,0.0
2757,4/24/2012 21:00,0.9647,9.3987,12.634,0.9647,12.3552,1.2213,9.68,7.965,0.0,0.0,0.0,0.0
2758,4/24/2012 22:00,0.99,7.8411,7.728000000000001,0.99,1.4040000000000001,1.0189,7.5600000000000005,6.645,0.0,0.0,0.0,0.0
2759,4/24/2012 23:00,0.31899999999999995,5.4516,3.0620000000000003,0.31899999999999995,1.2064,0.7084,6.72,4.62,0.0,0.0,0.0,0.0
2760,4/25/2012 0:00,0.41690000000000005,152.397,13.116000000000001,0.41690000000000005,1.2168,19.803,6.260000000000001,129.15,0.0,0.0,0.0,0.0
2761,4/25/2012 1:00,0.5445,3.9471000000000003,14.62,0.5445,1.3052000000000001,0.5129,4.6,3.345,0.0,0.0,0.0,0.0
2762,4/25/2012 2:00,0.1419,2.301,15.576,0.1419,1.4846,0.29900000000000004,2.9000000000000004,1.9500000000000002,0.0,0.0,0.0,0.0
2763,4/25/2012 3:00,1.0439,3.3099000000000003,1.836,1.0439,1.8798000000000001,0.43010000000000004,1.5,2.805,0.0,0.0,0.0,0.0
2764,4/25/2012 4:00,0.0,2.3364,1.666,0.0,25.6776,0.3036,0.0,1.98,0.0,0.0,0.0,0.0
2765,4/25/2012 5:00,0.8547,39.8604,3.552,0.8547,25.641199999999998,5.179600000000001,0.0,33.78,0.0,0.0,0.0,0.0
2766,4/25/2012 6:00,1.5895,71.1186,2.02,1.5895,25.3786,9.2414,0.0,60.269999999999996,0.17806665,0.17806665,0.17806665,0.17806665
2767,4/25/2012 7:00,4.7200999999999995,89.8806,1.048,4.7200999999999995,25.181,11.679400000000001,0.0,76.17,0.28724946,0.28724946,0.28724946,0.28724946
2768,4/25/2012 8:00,3.7015000000000002,108.324,0.7879999999999999,3.7015000000000002,25.337,14.076,0.0,91.8,0.52864422,0.52864422,0.52864422,0.52864422
2769,4/25/2012 9:00,1.1847,1.6284,0.6859999999999999,1.1847,25.7348,0.2116,0.0,1.38,0.79065561,0.79065561,0.79065561,0.79065561
2770,4/25/2012 10:00,10.7096,4.6728,19.262,10.7096,26.0,0.6072,0.0,3.96,1.01486686,1.01486686,1.01486686,1.01486686
2771,4/25/2012 11:00,10.817400000000001,42.6393,10.924,10.817400000000001,26.0,5.5407,0.0,36.135,1.46081451,1.46081451,1.46081451,1.46081451
2772,4/25/2012 12:00,0.9680000000000001,36.231899999999996,11.432,0.9680000000000001,26.0,4.7081,2.1,30.705,2.4204589199999997,2.4204589199999997,2.4204589199999997,2.4204589199999997
2773,4/25/2012 13:00,0.6699,34.373400000000004,11.521999999999998,0.6699,26.0,4.466600000000001,6.660000000000001,29.130000000000003,2.90941509,2.90941509,2.90941509,2.90941509
2774,4/25/2012 14:00,0.4752,17.8593,11.852,0.4752,26.0,2.3207,15.02,15.135,2.76921807,2.76921807,2.76921807,2.76921807
2775,4/25/2012 15:00,2.8985000000000003,42.1614,11.823999999999998,2.8985000000000003,26.0,5.4786,23.119999999999997,35.73,2.47926546,2.47926546,2.47926546,2.47926546
2776,4/25/2012 16:00,2.5189999999999997,15.664499999999999,11.272,2.5189999999999997,26.0,2.0355,30.44,13.274999999999999,2.04656424,2.04656424,2.04656424,2.04656424
2777,4/25/2012 17:00,0.6303,14.1954,12.218,0.6303,1.2792000000000001,1.8445999999999998,36.94,12.03,1.50619395,1.50619395,1.50619395,1.50619395
2778,4/25/2012 18:00,0.517,12.195300000000001,14.094,0.517,1.2324,1.5847,0.0,10.335,0.90367771,0.90367771,0.90367771,0.90367771
2779,4/25/2012 19:00,0.4796,168.2208,15.102,0.4796,1.2012,21.8592,0.0,142.56,0.34111422999999996,0.34111422999999996,0.34111422999999996,0.34111422999999996
2780,4/25/2012 20:00,0.4763,17.168999999999997,15.504,0.4763,0.0,2.231,0.0,14.549999999999999,0.0,0.0,0.0,0.0
2781,4/25/2012 21:00,0.2827,10.1067,16.240000000000002,0.2827,0.7462,1.3133,0.0,8.565,0.0,0.0,0.0,0.0
2782,4/25/2012 22:00,0.21669999999999998,7.3455,16.968,0.21669999999999998,25.2694,0.9545,0.0,6.2250000000000005,0.0,0.0,0.0,0.0
2783,4/25/2012 23:00,0.374,5.8056,17.374000000000002,0.374,0.0,0.7544000000000001,0.0,4.920000000000001,0.0,0.0,0.0,0.0
2784,4/26/2012 0:00,0.7821,3.8409,11.444,0.7821,0.0,0.4991,0.0,3.255,0.0,0.0,0.0,0.0
2785,4/26/2012 1:00,1.5081,12.5139,12.738,1.5081,24.3048,1.6260999999999999,0.0,10.605,0.0,0.0,0.0,0.0
2786,4/26/2012 2:00,2.5696,10.7616,12.097999999999999,2.5696,2.4492000000000003,1.3984,0.0,9.12,0.0,0.0,0.0,0.0
2787,4/26/2012 3:00,3.9523,8.7084,11.384,3.9523,1.4248,1.1316,1.48,7.38,0.0,0.0,0.0,0.0
2788,4/26/2012 4:00,5.3317000000000005,8.3721,12.508,5.3317000000000005,0.0,1.0879,0.0,7.095000000000001,0.0,0.0,0.0,0.0
2789,4/26/2012 5:00,6.4823,2.7435,15.058,6.4823,0.1872,0.3565,0.0,2.325,0.0,0.0,0.0,0.0
2790,4/26/2012 6:00,0.10779999999999999,2.5488,2.908,0.10779999999999999,0.25479999999999997,0.3312,0.0,2.16,1.84062685,1.84062685,1.84062685,1.84062685
2791,4/26/2012 7:00,0.1738,2.1063,3.2379999999999995,0.1738,0.0,0.2737,0.0,1.7850000000000001,1.43758636,1.43758636,1.43758636,1.43758636
2792,4/26/2012 8:00,4.3769,1.9293,2.7139999999999995,4.3769,1.105,0.2507,0.0,1.635,1.3511140199999998,1.3511140199999998,1.3511140199999998,1.3511140199999998
2793,4/26/2012 9:00,4.4902,2.2302,1.142,4.4902,2.6780000000000004,0.2898,0.0,1.8900000000000001,1.22754135,1.22754135,1.22754135,1.22754135
2794,4/26/2012 10:00,7.514100000000001,103.01400000000001,19.698,7.514100000000001,2.9198,13.386000000000001,0.0,87.30000000000001,0.77190775,0.77190775,0.77190775,0.77190775
2795,4/26/2012 11:00,7.9662,67.3131,19.568,7.9662,2.3634,8.7469,0.0,57.045,0.9741343400000001,0.9741343400000001,0.9741343400000001,0.9741343400000001
2796,4/26/2012 12:00,6.9729,4.920599999999999,0.268,6.9729,3.0498,0.6394,128.54000000000002,4.17,1.42853903,1.42853903,1.42853903,1.42853903
2797,4/26/2012 13:00,5.8872,6.8145,0.606,5.8872,5.1116,0.8855,140.32,5.775,2.1731975500000003,2.1731975500000003,2.1731975500000003,2.1731975500000003
2798,4/26/2012 14:00,5.027,10.0005,0.998,5.027,8.0808,1.2995,156.6,8.475,2.2279538199999998,2.2279538199999998,2.2279538199999998,2.2279538199999998
2799,4/26/2012 15:00,4.3901,10.6023,1.22,4.3901,9.809800000000001,1.3777000000000001,0.0,8.985,2.39843045,2.39843045,2.39843045,2.39843045
2800,4/26/2012 16:00,3.0206,13.8945,1.274,3.0206,12.3318,1.8055,0.0,11.775,2.21348825,2.21348825,2.21348825,2.21348825
2801,4/26/2012 17:00,1.9910000000000003,7.6640999999999995,1.3239999999999998,1.9910000000000003,15.4336,0.9959,0.0,6.495,2.22601872,2.22601872,2.22601872,2.22601872
2802,4/26/2012 18:00,1.3222,85.1901,1.602,1.3222,1.7602,11.0699,9.6,72.19500000000001,1.9412125,1.9412125,1.9412125,1.9412125
2803,4/26/2012 19:00,0.8173,73.0125,2.142,0.8173,2.5116,9.487499999999999,15.920000000000002,61.875,0.9833608300000001,0.9833608300000001,0.9833608300000001,0.9833608300000001
2804,4/26/2012 20:00,0.4323,59.6136,13.08,0.4323,4.8178,7.7463999999999995,15.9,50.519999999999996,0.0,0.0,0.0,0.0
2805,4/26/2012 21:00,0.40919999999999995,11.8059,19.414,0.40919999999999995,9.0948,1.5340999999999998,8.44,10.004999999999999,0.0,0.0,0.0,0.0
2806,4/26/2012 22:00,0.6534,1.7876999999999998,1.8940000000000001,0.6534,13.7254,0.23229999999999998,2.7199999999999998,1.515,0.0,0.0,0.0,0.0
2807,4/26/2012 23:00,0.8008000000000001,0.0,3.4139999999999997,0.8008000000000001,17.082,0.0,1.44,0.0,0.0,0.0,0.0,0.0
2808,4/27/2012 0:00,0.627,1.7169,2.694,0.627,18.709600000000002,0.22310000000000002,179.8,1.455,0.0,0.0,0.0,0.0
2809,4/27/2012 1:00,0.4818,3.9117,11.532,0.4818,1.0659999999999998,0.5083000000000001,184.08,3.3150000000000004,0.0,0.0,0.0,0.0
2810,4/27/2012 2:00,0.37950000000000006,6.8145,10.24,0.37950000000000006,1.001,0.8855,185.98,5.775,0.0,0.0,0.0,0.0
2811,4/27/2012 3:00,0.3212,10.938600000000001,9.388,0.3212,0.6447999999999999,1.4214,189.06,9.27,0.0,0.0,0.0,0.0
2812,4/27/2012 4:00,0.2937,13.2219,9.14,0.2937,0.3926,1.7181,196.06,11.205,0.0,0.0,0.0,0.0
2813,4/27/2012 5:00,0.2134,14.443200000000001,8.908000000000001,0.2134,0.4498,1.8768000000000002,197.06,12.24,0.0,0.0,0.0,0.0
2814,4/27/2012 6:00,0.14300000000000002,15.6999,14.542,0.14300000000000002,0.7929999999999999,2.0401,197.4,13.305,0.20343358,0.20343358,0.20343358,0.20343358
2815,4/27/2012 7:00,0.0902,16.6203,14.152000000000001,0.0902,0.9828,2.1597,5.779999999999999,14.084999999999999,1.6638736099999998,1.6638736099999998,1.6638736099999998,1.6638736099999998
2816,4/27/2012 8:00,8.9826,17.2398,13.844000000000001,8.9826,0.19240000000000002,2.2402,2.8400000000000003,14.61,3.8317466700000002,3.8317466700000002,3.8317466700000002,3.8317466700000002
2817,4/27/2012 9:00,6.7111,22.3551,15.946,6.7111,0.0,2.9049,2.18,18.945,3.60713408,3.60713408,3.60713408,3.60713408
2818,4/27/2012 10:00,3.2252,136.113,16.652,3.2252,5.4184,17.687,1.94,115.35000000000001,4.34900324,4.34900324,4.34900324,4.34900324
2819,4/27/2012 11:00,1.342,135.2634,16.458,1.342,3.8168,17.5766,3.26,114.63,4.73783798,4.73783798,4.73783798,4.73783798
2820,4/27/2012 12:00,1.6335,121.0149,15.822000000000001,1.6335,2.1944,15.7251,7.62,102.55499999999999,5.4402791299999995,5.4402791299999995,5.4402791299999995,5.4402791299999995
2821,4/27/2012 13:00,6.5857,106.1823,15.438,6.5857,1.0322,13.797699999999999,21.16,89.985,5.49499039,5.49499039,5.49499039,5.49499039
2822,4/27/2012 14:00,1.9767,82.836,15.318000000000001,1.9767,0.6214000000000001,10.764,17.4,70.19999999999999,5.7364649,5.7364649,5.7364649,5.7364649
2823,4/27/2012 15:00,2.3243,60.8349,14.980000000000002,2.3243,0.4498,7.9051,14.940000000000001,51.555,5.66487384,5.66487384,5.66487384,5.66487384
2824,4/27/2012 16:00,2.5223,54.0558,11.712,2.5223,0.28600000000000003,7.0242,27.439999999999998,45.81,5.5768015900000005,5.5768015900000005,5.5768015900000005,5.5768015900000005
2825,4/27/2012 17:00,0.1012,45.3828,8.62,0.1012,0.195,5.897200000000001,52.62,38.46,5.05467245,5.05467245,5.05467245,5.05467245
2826,4/27/2012 18:00,3.2472000000000003,33.506099999999996,11.504000000000001,3.2472000000000003,25.7036,4.3539,166.76,28.395,4.41333923,4.41333923,4.41333923,4.41333923
2827,4/27/2012 19:00,9.438,21.9834,13.384,9.438,0.1898,2.8566000000000003,158.44,18.63,3.1249250899999996,3.1249250899999996,3.1249250899999996,3.1249250899999996
2828,4/27/2012 20:00,9.2125,15.8592,15.386,9.2125,0.23400000000000004,2.0608,25.919999999999998,13.44,0.0,0.0,0.0,0.0
2829,4/27/2012 21:00,8.2346,14.337,18.178,8.2346,0.36920000000000003,1.863,12.559999999999999,12.15,0.0,0.0,0.0,0.0
2830,4/27/2012 22:00,7.9057,2.3364,19.262,7.9057,0.6214000000000001,0.3036,6.36,1.98,0.0,0.0,0.0,0.0
2831,4/27/2012 23:00,8.7274,7.6287,19.618,8.7274,1.1934,0.9913,2.48,6.465,0.0,0.0,0.0,0.0
2832,4/28/2012 0:00,0.495,18.496499999999997,19.738,0.495,2.6182,2.4034999999999997,0.0,15.674999999999999,0.0,0.0,0.0,0.0
2833,4/28/2012 1:00,0.1782,3.7878,19.762,0.1782,4.591600000000001,0.49219999999999997,0.0,3.21,0.0,0.0,0.0,0.0
2834,4/28/2012 2:00,0.0,1.4337,19.78,0.0,5.7096,0.1863,0.0,1.2149999999999999,0.0,0.0,0.0,0.0
2835,4/28/2012 3:00,0.0,0.0,19.758,0.0,25.6958,0.0,0.0,0.0,0.0,0.0,0.0,0.0
2836,4/28/2012 4:00,7.3744,37.8249,19.701999999999998,7.3744,11.6844,4.9151,3.02,32.055,0.0,0.0,0.0,0.0
2837,4/28/2012 5:00,6.0896,39.0108,19.516,6.0896,9.942400000000001,5.0692,10.059999999999999,33.06,0.0,0.0,0.0,0.0
2838,4/28/2012 6:00,0.0,25.2933,19.052,0.0,9.1572,3.2867,2.18,21.435,4.4060396299999995,4.4060396299999995,4.4060396299999995,4.4060396299999995
2839,4/28/2012 7:00,0.0979,13.487400000000001,17.114,0.0979,24.3698,1.7526000000000002,196.74,11.43,5.044649689999999,5.044649689999999,5.044649689999999,5.044649689999999
2840,4/28/2012 8:00,0.1694,14.0715,14.240000000000002,0.1694,23.558600000000002,1.8285,193.5,11.925,4.059709310000001,4.059709310000001,4.059709310000001,4.059709310000001
2841,4/28/2012 9:00,0.2332,2.7966,11.530000000000001,0.2332,23.5196,0.36340000000000006,200.0,2.37,3.76887586,3.76887586,3.76887586,3.76887586
2842,4/28/2012 10:00,0.28600000000000003,2.7966,8.514000000000001,0.28600000000000003,23.7978,0.36340000000000006,198.44,2.37,4.62636716,4.62636716,4.62636716,4.62636716
2843,4/28/2012 11:00,0.3201,3.0797999999999996,0.0,0.3201,23.883599999999998,0.4002,197.14000000000001,2.61,5.3138606600000005,5.3138606600000005,5.3138606600000005,5.3138606600000005
2844,4/28/2012 12:00,0.3124,3.7524,0.0,0.3124,23.5144,0.4876,193.72,3.18,5.657247549999999,5.657247549999999,5.657247549999999,5.657247549999999
2845,4/28/2012 13:00,0.2475,42.533100000000005,0.146,0.2475,23.1322,5.5269,175.0,36.045,5.89837428,5.89837428,5.89837428,5.89837428
2846,4/28/2012 14:00,8.9265,11.2218,0.258,8.9265,23.134800000000002,1.4582,169.88,9.51,6.025594549999999,6.025594549999999,6.025594549999999,6.025594549999999
2847,4/28/2012 15:00,9.8109,11.0094,0.438,9.8109,23.3948,1.4305999999999999,3.4799999999999995,9.33,6.08847193,6.08847193,6.08847193,6.08847193
2848,4/28/2012 16:00,10.0518,10.319099999999999,0.7140000000000001,10.0518,23.114,1.3409,0.0,8.745,5.81621178,5.81621178,5.81621178,5.81621178
2849,4/28/2012 17:00,9.4908,9.3987,1.05,9.4908,22.5264,1.2213,7.76,7.965,5.01705316,5.01705316,5.01705316,5.01705316
2850,4/28/2012 18:00,10.572099999999999,9.1332,1.516,10.572099999999999,22.110400000000002,1.1868,13.96,7.74,3.77212075,3.77212075,3.77212075,3.77212075
2851,4/28/2012 19:00,11.0,25.3818,2.056,11.0,21.9804,3.2982,0.0,21.51,2.32695597,2.32695597,2.32695597,2.32695597
2852,4/28/2012 20:00,11.0,7.965,2.5540000000000003,11.0,21.7724,1.035,158.72,6.75,0.0,0.0,0.0,0.0
2853,4/28/2012 21:00,11.0,8.814599999999999,2.928,11.0,21.7932,1.1454,137.6,7.47,0.0,0.0,0.0,0.0
2854,4/28/2012 22:00,11.0,11.328,3.1380000000000003,11.0,21.790599999999998,1.472,135.64000000000001,9.6,0.0,0.0,0.0,0.0
2855,4/28/2012 23:00,11.0,14.6556,2.51,11.0,22.334000000000003,1.9043999999999999,138.64000000000001,12.42,0.0,0.0,0.0,0.0
2856,4/29/2012 0:00,11.0,13.257299999999999,1.5779999999999998,11.0,23.192,1.7227,144.16,11.235,0.0,0.0,0.0,0.0
2857,4/29/2012 1:00,11.0,8.4075,16.108,11.0,0.2444,1.0925,147.82,7.125,0.0,0.0,0.0,0.0
2858,4/29/2012 2:00,11.0,0.0,16.540000000000003,11.0,0.0,0.0,140.54,0.0,0.0,0.0,0.0,0.0
2859,4/29/2012 3:00,11.0,0.0,16.762,11.0,0.41080000000000005,0.0,148.0,0.0,0.0,0.0,0.0,0.0
2860,4/29/2012 4:00,11.0,0.0,18.028,11.0,1.2272,0.0,159.9,0.0,0.0,0.0,0.0,0.0
2861,4/29/2012 5:00,11.0,0.0,0.2,11.0,3.2708,0.0,64.08,0.0,0.0,0.0,0.0,0.0
2862,4/29/2012 6:00,11.0,0.0,5.5200000000000005,11.0,5.928,0.0,78.5,0.0,4.0693657,4.0693657,4.0693657,4.0693657
2863,4/29/2012 7:00,11.0,0.0,7.01,11.0,7.6674,0.0,175.5,0.0,4.736310039999999,4.736310039999999,4.736310039999999,4.736310039999999
2864,4/29/2012 8:00,2.2979,0.0,7.588,2.2979,8.2836,0.0,181.92,0.0,3.7320012499999997,3.7320012499999997,3.7320012499999997,3.7320012499999997
2865,4/29/2012 9:00,3.8456,1.8939,7.87,3.8456,0.3276,0.24609999999999999,188.88,1.605,3.6318756899999998,3.6318756899999998,3.6318756899999998,3.6318756899999998
2866,4/29/2012 10:00,0.5907,2.8674,8.798,0.5907,6.1568000000000005,0.3726,192.70000000000002,2.4299999999999997,4.3273857200000005,4.3273857200000005,4.3273857200000005,4.3273857200000005
2867,4/29/2012 11:00,0.41910000000000003,4.4604,11.27,0.41910000000000003,4.4174,0.5796,194.28,3.7800000000000002,4.85497263,4.85497263,4.85497263,4.85497263
2868,4/29/2012 12:00,10.6194,7.3632,15.68,10.6194,2.9718,0.9568,194.88,6.239999999999999,4.90859624,4.90859624,4.90859624,4.90859624
2869,4/29/2012 13:00,1.7995999999999999,10.9917,18.398,1.7995999999999999,1.8356,1.4283000000000001,194.4,9.315,3.5342220099999997,3.5342220099999997,3.5342220099999997,3.5342220099999997
2870,4/29/2012 14:00,1.6115,23.399400000000004,19.286,1.6115,1.0659999999999998,3.0406000000000004,193.86,19.830000000000002,3.73900904,3.73900904,3.73900904,3.73900904
2871,4/29/2012 15:00,0.1232,48.6927,19.584,0.1232,0.6032,6.3273,193.76,41.265,2.9045776400000003,2.9045776400000003,2.9045776400000003,2.9045776400000003
2872,4/29/2012 16:00,1.6489,6.1242,19.686,1.6489,0.338,0.7958,17.740000000000002,5.1899999999999995,2.38022427,2.38022427,2.38022427,2.38022427
2873,4/29/2012 17:00,0.1507,14.4078,19.61,0.1507,14.040000000000001,1.8722,8.459999999999999,12.21,1.03951419,1.03951419,1.03951419,1.03951419
2874,4/29/2012 18:00,1.2715999999999998,175.6017,19.462,1.2715999999999998,11.8404,22.8183,4.08,148.815,0.7284609799999999,0.7284609799999999,0.7284609799999999,0.7284609799999999
2875,4/29/2012 19:00,0.9152,15.8415,15.546,0.9152,9.2898,2.0585,2.08,13.424999999999999,0.48686352999999993,0.48686352999999993,0.48686352999999993,0.48686352999999993
2876,4/29/2012 20:00,0.1397,12.8325,14.884,0.1397,2.0852,1.6675,0.0,10.875,0.0,0.0,0.0,0.0
2877,4/29/2012 21:00,0.0,83.19,14.032,0.0,12.506,10.809999999999999,0.0,70.5,0.0,0.0,0.0,0.0
2878,4/29/2012 22:00,0.539,79.9863,11.963999999999999,0.539,4.3758,10.3937,1.8599999999999999,67.785,0.0,0.0,0.0,0.0
2879,4/29/2012 23:00,9.4193,167.2473,9.200000000000001,9.4193,6.122999999999999,21.732699999999998,2.42,141.73499999999999,0.0,0.0,0.0,0.0
