,date,Wind_1,Wind_2,Wind_3,Wind_4,Wind_5,Wind_6,Wind_7,Wind_8,Solar_1,Solar_2,Solar_3,Solar_4
720,1/31/2012 0:00,5.4845999999999995,97.3677,8.106,5.4845999999999995,0.0,12.6523,64.58,82.515,0.0,0.0,0.0,0.0
721,1/31/2012 1:00,5.5813999999999995,83.5971,11.342,5.5813999999999995,1.6094,10.8629,71.64,70.845,0.0,0.0,0.0,0.0
722,1/31/2012 2:00,5.9301,66.2865,13.326,5.9301,7.709,8.6135,73.88,56.175,0.0,0.0,0.0,0.0
723,1/31/2012 3:00,6.226000000000001,5.4162,0.0,6.226000000000001,6.7964,0.7038,7.5600000000000005,4.59,0.0,0.0,0.0,0.0
724,1/31/2012 4:00,6.4196,5.5932,0.0,6.4196,3.3878,0.7268000000000001,59.58,4.74,0.0,0.0,0.0,0.0
725,1/31/2012 5:00,0.2475,17.5938,0.0,0.2475,1.1986,2.2862,48.58,14.91,0.0,0.0,0.0,0.0
726,1/31/2012 6:00,9.353299999999999,10.7262,0.0,9.353299999999999,1.2064,1.3938,36.74,9.09,0.0,0.0,0.0,0.0
727,1/31/2012 7:00,10.6502,5.6109,0.0,10.6502,15.8808,0.7291,30.28,4.755,0.0,0.0,0.0,0.0
728,1/31/2012 8:00,10.9219,132.4137,4.196,10.9219,11.4114,17.2063,22.8,112.215,0.0,0.0,0.0,0.0
729,1/31/2012 9:00,5.4681,132.2013,15.88,5.4681,11.892399999999999,17.1787,13.44,112.035,2.49028207,2.49028207,2.49028207,2.49028207
730,1/31/2012 10:00,11.0,134.3784,0.444,11.0,12.516399999999999,17.4616,200.0,113.88,2.82552218,2.82552218,2.82552218,2.82552218
731,1/31/2012 11:00,2.2495,136.8387,0.0,2.2495,13.2652,17.7813,200.0,115.965,3.5767513899999996,3.5767513899999996,3.5767513899999996,3.5767513899999996
732,1/31/2012 12:00,2.2253000000000003,135.7767,19.14,2.2253000000000003,1.6406,17.6433,0.0,115.065,4.302950279999999,4.302950279999999,4.302950279999999,4.302950279999999
733,1/31/2012 13:00,0.1815,124.60800000000002,0.0,0.1815,23.9356,16.192,197.8,105.60000000000001,4.62848747,4.62848747,4.62848747,4.62848747
734,1/31/2012 14:00,4.8873,105.8106,0.0,4.8873,0.0,13.7494,167.86,89.67,4.772473120000001,4.772473120000001,4.772473120000001,4.772473120000001
735,1/31/2012 15:00,4.2625,106.2177,19.45,4.2625,19.1542,13.802299999999999,3.06,90.015,4.57447339,4.57447339,4.57447339,4.57447339
736,1/31/2012 16:00,3.7147,99.474,19.756,3.7147,0.8553999999999999,12.926000000000002,136.74,84.30000000000001,3.86923235,3.86923235,3.86923235,3.86923235
737,1/31/2012 17:00,3.1834,91.57979999999999,19.823999999999998,3.1834,0.41080000000000005,11.9002,125.6,77.61,1.3444312699999998,1.3444312699999998,1.3444312699999998,1.3444312699999998
738,1/31/2012 18:00,1.2122000000000002,0.0,0.992,1.2122000000000002,1.2635999999999998,0.0,50.22,0.0,0.0,0.0,0.0,0.0
739,1/31/2012 19:00,1.9756,21.8418,19.472,1.9756,3.5984,2.8382,33.98,18.509999999999998,0.0,0.0,0.0,0.0
740,1/31/2012 20:00,2.6026000000000002,28.125300000000003,19.652,2.6026000000000002,0.5538,3.6547000000000005,55.02,23.835,0.0,0.0,0.0,0.0
741,1/31/2012 21:00,7.2116,29.2581,18.742,7.2116,1.17,3.8019,5.86,24.795,0.0,0.0,0.0,0.0
742,1/31/2012 22:00,7.2963000000000005,16.9035,8.936,7.2963000000000005,1.7394,2.1965,25.16,14.325000000000001,0.0,0.0,0.0,0.0
743,1/31/2012 23:00,7.2501,8.8323,11.912,7.2501,1.5626,1.1477,16.42,7.485,0.0,0.0,0.0,0.0
744,2/1/2012 0:00,7.0917,3.0267,1.016,7.0917,1.3546,0.39330000000000004,195.48000000000002,2.565,0.0,0.0,0.0,0.0
745,2/1/2012 1:00,0.3564,0.0,8.759999999999998,0.3564,24.9028,0.0,103.32,0.0,0.0,0.0,0.0,0.0
746,2/1/2012 2:00,1.056,0.0,0.41000000000000003,1.056,24.6922,0.0,13.54,0.0,0.0,0.0,0.0,0.0
747,2/1/2012 3:00,1.1429,1.3275,0.33599999999999997,1.1429,23.883599999999998,0.1725,167.96,1.125,0.0,0.0,0.0,0.0
748,2/1/2012 4:00,6.2238,2.124,0.97,6.2238,12.3526,0.276,31.180000000000003,1.8,0.0,0.0,0.0,0.0
749,2/1/2012 5:00,1.1836,156.7335,0.434,1.1836,12.3214,20.3665,12.959999999999999,132.825,0.0,0.0,0.0,0.0
750,2/1/2012 6:00,0.4928,142.3434,0.58,0.4928,23.7276,18.4966,0.0,120.63000000000001,0.0,0.0,0.0,0.0
751,2/1/2012 7:00,0.7359,110.9436,15.256,0.7359,22.471799999999998,14.416400000000001,0.0,94.02000000000001,0.0,0.0,0.0,0.0
752,2/1/2012 8:00,0.671,171.2829,4.3580000000000005,0.671,20.818199999999997,22.2571,99.02,145.155,0.0,0.0,0.0,0.0
753,2/1/2012 9:00,0.6985,52.8876,4.84,0.6985,18.5848,6.8724,31.44,44.82,0.8700865400000001,0.8700865400000001,0.8700865400000001,0.8700865400000001
754,2/1/2012 10:00,0.6182,167.4597,2.116,0.6182,23.1686,21.7603,54.0,141.91500000000002,1.3610482099999999,1.3610482099999999,1.3610482099999999,1.3610482099999999
755,2/1/2012 11:00,1.4388,1.7169,1.976,1.4388,25.402,0.22310000000000002,120.28000000000002,1.455,1.8997971,1.8997971,1.8997971,1.8997971
756,2/1/2012 12:00,1.3167,0.0,2.376,1.3167,8.2654,0.0,54.54,0.0,2.3946686,2.3946686,2.3946686,2.3946686
757,2/1/2012 13:00,1.1495,177.0,6.212,1.1495,9.282000000000002,23.0,8.2,150.0,2.54891832,2.54891832,2.54891832,2.54891832
758,2/1/2012 14:00,1.0273999999999999,6.9915,9.356,1.0273999999999999,10.192,0.9085,76.68,5.925,2.3304320000000005,2.3304320000000005,2.3304320000000005,2.3304320000000005
759,2/1/2012 15:00,0.9691,177.0,11.388,0.9691,26.0,23.0,23.54,150.0,1.2272425,1.2272425,1.2272425,1.2272425
760,2/1/2012 16:00,0.946,15.8946,11.815999999999999,0.946,14.0998,2.0654,7.8,13.47,1.4775076600000001,1.4775076600000001,1.4775076600000001,1.4775076600000001
761,2/1/2012 17:00,0.5885,43.896,10.716000000000001,0.5885,5.0648,5.704,12.6,37.2,0.95199078,0.95199078,0.95199078,0.95199078
762,2/1/2012 18:00,4.7729,56.1798,9.540000000000001,4.7729,26.0,7.3002,7.720000000000001,47.61,0.0,0.0,0.0,0.0
763,2/1/2012 19:00,0.5819000000000001,67.7025,6.1240000000000006,0.5819000000000001,0.28600000000000003,8.7975,3.56,57.375,0.0,0.0,0.0,0.0
764,2/1/2012 20:00,0.0,42.9933,11.677999999999999,0.0,0.1872,5.5867,1.66,36.435,0.0,0.0,0.0,0.0
765,2/1/2012 21:00,7.4019,3.2391,8.988,7.4019,0.6136,0.4209,0.0,2.745,0.0,0.0,0.0,0.0
766,2/1/2012 22:00,0.08249999999999999,29.3112,7.388,0.08249999999999999,0.40559999999999996,3.8087999999999997,116.10000000000001,24.84,0.0,0.0,0.0,0.0
767,2/1/2012 23:00,0.7634000000000001,16.4079,9.694,0.7634000000000001,0.3978,2.1321000000000003,49.78,13.905000000000001,0.0,0.0,0.0,0.0
768,2/2/2012 0:00,0.1067,41.9313,11.822,0.1067,16.6712,5.4487,66.2,35.535,0.0,0.0,0.0,0.0
769,2/2/2012 1:00,3.0128999999999997,4.407299999999999,11.655999999999999,3.0128999999999997,15.654599999999999,0.5727,0.0,3.735,0.0,0.0,0.0,0.0
770,2/2/2012 2:00,3.0866000000000002,142.66199999999998,11.838,3.0866000000000002,25.3032,18.538,0.0,120.89999999999999,0.0,0.0,0.0,0.0
771,2/2/2012 3:00,0.39820000000000005,0.0,11.886000000000001,0.39820000000000005,0.3146,0.0,0.0,0.0,0.0,0.0,0.0,0.0
772,2/2/2012 4:00,0.7249,137.7591,14.212,0.7249,14.443,17.9009,0.0,116.745,0.0,0.0,0.0,0.0
773,2/2/2012 5:00,0.7336999999999999,139.7592,10.398,0.7336999999999999,14.417,18.1608,187.5,118.44,0.0,0.0,0.0,0.0
774,2/2/2012 6:00,0.2332,0.0,6.1739999999999995,0.2332,16.1044,0.0,187.06,0.0,0.0,0.0,0.0,0.0
775,2/2/2012 7:00,0.2321,10.2129,15.152000000000001,0.2321,1.0504,1.3271,188.1,8.655,0.0,0.0,0.0,0.0
776,2/2/2012 8:00,0.1243,159.2292,16.086,0.1243,0.7852,20.6908,0.0,134.94,0.0,0.0,0.0,0.0
777,2/2/2012 9:00,2.4068,15.469800000000001,16.616,2.4068,0.3302,2.0102,147.12,13.110000000000001,2.53879999,2.53879999,2.53879999,2.53879999
778,2/2/2012 10:00,2.2704,80.5881,16.858,2.2704,12.9168,10.4719,144.2,68.295,2.80144905,2.80144905,2.80144905,2.80144905
779,2/2/2012 11:00,0.1848,41.064,19.424,0.1848,16.7544,5.335999999999999,49.3,34.8,3.49890295,3.49890295,3.49890295,3.49890295
780,2/2/2012 12:00,1.8755000000000002,48.9936,0.578,1.8755000000000002,0.36920000000000003,6.3664,32.48,41.519999999999996,4.37076357,4.37076357,4.37076357,4.37076357
781,2/2/2012 13:00,5.7519,177.0,6.1739999999999995,5.7519,1.0218,23.0,23.18,150.0,4.776009920000001,4.776009920000001,4.776009920000001,4.776009920000001
782,2/2/2012 14:00,6.5846,101.36789999999999,0.0,6.5846,1.9344,13.1721,18.88,85.905,4.89040948,4.89040948,4.89040948,4.89040948
783,2/2/2012 15:00,2.1307,112.2888,0.218,2.1307,2.9718,14.591199999999999,160.57999999999998,95.16,4.6187127,4.6187127,4.6187127,4.6187127
784,2/2/2012 16:00,0.099,21.3639,19.040000000000003,0.099,4.0846,2.7761,160.5,18.105,3.4811138,3.4811138,3.4811138,3.4811138
785,2/2/2012 17:00,1.8898000000000001,34.2495,19.044,1.8898000000000001,17.836,4.4505,183.06,29.025000000000002,1.1954704699999998,1.1954704699999998,1.1954704699999998,1.1954704699999998
786,2/2/2012 18:00,0.0891,168.0084,19.098,0.0891,18.857799999999997,21.8316,127.42,142.38,0.0,0.0,0.0,0.0
787,2/2/2012 19:00,6.0654,1.2389999999999999,19.124000000000002,6.0654,20.334600000000002,0.16099999999999998,32.72,1.0499999999999998,0.0,0.0,0.0,0.0
788,2/2/2012 20:00,0.0,46.9404,19.25,0.0,21.0444,6.0996,92.97999999999999,39.78,0.0,0.0,0.0,0.0
789,2/2/2012 21:00,2.2341,54.09119999999999,1.516,2.2341,20.6908,7.0287999999999995,115.44000000000001,45.839999999999996,0.0,0.0,0.0,0.0
790,2/2/2012 22:00,1.8315000000000001,0.0,1.692,1.8315000000000001,8.463000000000001,0.0,193.68,0.0,0.0,0.0,0.0,0.0
791,2/2/2012 23:00,0.0,0.0,1.496,0.0,8.520199999999999,0.0,4.38,0.0,0.0,0.0,0.0,0.0
792,2/3/2012 0:00,0.0,97.4208,0.0,0.0,8.0002,12.6592,4.06,82.56,0.0,0.0,0.0,0.0
793,2/3/2012 1:00,1.6093000000000002,71.1717,0.17600000000000002,1.6093000000000002,6.6716,9.2483,20.8,60.315000000000005,0.0,0.0,0.0,0.0
794,2/3/2012 2:00,1.6412,79.2075,0.234,1.6412,9.6226,10.2925,1.7399999999999998,67.125,0.0,0.0,0.0,0.0
795,2/3/2012 3:00,2.0669,84.783,10.51,2.0669,11.18,11.017,2.4,71.85,0.0,0.0,0.0,0.0
796,2/3/2012 4:00,6.4515,0.0,9.548,6.4515,1.6640000000000001,0.0,3.66,0.0,0.0,0.0,0.0,0.0
797,2/3/2012 5:00,5.9092,3.8409,19.746,5.9092,2.9276,0.4991,9.62,3.255,0.0,0.0,0.0,0.0
798,2/3/2012 6:00,0.3938,3.8232000000000004,19.7,0.3938,5.5588,0.4968,3.4799999999999995,3.24,0.0,0.0,0.0,0.0
799,2/3/2012 7:00,0.0,8.4429,14.790000000000001,0.0,19.448,1.0971,7.7,7.155,0.0,0.0,0.0,0.0
800,2/3/2012 8:00,0.0,8.938500000000001,2.432,0.0,0.9828,1.1615,182.64000000000001,7.575,0.0,0.0,0.0,0.0
801,2/3/2012 9:00,4.243799999999999,7.3101,17.944,4.243799999999999,15.397199999999998,0.9499000000000001,188.54,6.195,0.9465624199999999,0.9465624199999999,0.9465624199999999,0.9465624199999999
802,2/3/2012 10:00,3.6861,2.5134000000000003,3.252,3.6861,14.879800000000001,0.3266,182.86,2.1300000000000003,1.54484439,1.54484439,1.54484439,1.54484439
803,2/3/2012 11:00,1.2529,83.2077,3.5020000000000002,1.2529,14.1596,10.8123,3.58,70.515,1.9595204300000002,1.9595204300000002,1.9595204300000002,1.9595204300000002
804,2/3/2012 12:00,4.0238000000000005,93.4914,2.068,4.0238000000000005,12.1368,12.1486,4.8,79.23,2.4780669399999997,2.4780669399999997,2.4780669399999997,2.4780669399999997
805,2/3/2012 13:00,1.2837,3.0267,1.3039999999999998,1.2837,24.3256,0.39330000000000004,110.33999999999999,2.565,4.3494551,4.3494551,4.3494551,4.3494551
806,2/3/2012 14:00,1.1737,122.2362,19.67,1.1737,24.6428,15.883799999999999,3.26,103.59,4.82673569,4.82673569,4.82673569,4.82673569
807,2/3/2012 15:00,1.2474,24.6207,19.804,1.2474,24.284000000000002,3.1993,1.5,20.865000000000002,4.42191809,4.42191809,4.42191809,4.42191809
808,2/3/2012 16:00,0.0803,177.0,19.146,0.0803,10.7822,23.0,190.96,150.0,3.5782329399999995,3.5782329399999995,3.5782329399999995,3.5782329399999995
809,2/3/2012 17:00,0.0,12.0183,1.52,0.0,8.9492,1.5617,194.32,10.185,1.61481773,1.61481773,1.61481773,1.61481773
810,2/3/2012 18:00,3.3736999999999995,60.7464,1.786,3.3736999999999995,7.9742,7.8936,129.54000000000002,51.480000000000004,0.0,0.0,0.0,0.0
811,2/3/2012 19:00,0.0,56.038199999999996,2.138,0.0,24.2892,7.2818,117.96,47.49,0.0,0.0,0.0,0.0
812,2/3/2012 20:00,2.9402999999999997,143.7771,2.028,2.9402999999999997,3.2942,18.6829,197.52,121.845,0.0,0.0,0.0,0.0
813,2/3/2012 21:00,2.9062,159.7602,0.17600000000000002,2.9062,3.471,20.7598,9.84,135.39,0.0,0.0,0.0,0.0
814,2/3/2012 22:00,10.4841,34.2141,9.952,10.4841,3.315,4.4459,6.18,28.995,0.0,0.0,0.0,0.0
815,2/3/2012 23:00,10.6469,20.7975,9.879999999999999,10.6469,16.042,2.7024999999999997,200.0,17.625,0.0,0.0,0.0,0.0
816,2/4/2012 0:00,0.0,18.9567,1.778,0.0,15.457,2.4633,200.0,16.065,0.0,0.0,0.0,0.0
817,2/4/2012 1:00,10.1156,111.156,4.904,10.1156,21.3226,14.444,6.16,94.2,0.0,0.0,0.0,0.0
818,2/4/2012 2:00,5.6682999999999995,177.0,3.912,5.6682999999999995,25.3942,23.0,198.3,150.0,0.0,0.0,0.0,0.0
819,2/4/2012 3:00,10.7448,177.0,7.3340000000000005,10.7448,2.184,23.0,198.28,150.0,0.0,0.0,0.0,0.0
820,2/4/2012 4:00,7.7847,46.551,7.763999999999999,7.7847,3.8168,6.049,198.58,39.45,0.0,0.0,0.0,0.0
821,2/4/2012 5:00,0.0,0.0,0.438,0.0,7.0043999999999995,0.0,187.9,0.0,0.0,0.0,0.0,0.0
822,2/4/2012 6:00,0.0,111.20909999999999,19.686,0.0,6.2816,14.450899999999999,191.70000000000002,94.24499999999999,0.0,0.0,0.0,0.0
823,2/4/2012 7:00,9.0156,86.19900000000001,17.176000000000002,9.0156,5.473,11.201,189.62,73.05000000000001,0.0,0.0,0.0,0.0
824,2/4/2012 8:00,1.4696,147.1755,16.29,1.4696,21.8114,19.1245,0.0,124.72500000000001,0.0,0.0,0.0,0.0
825,2/4/2012 9:00,0.5104,129.7764,2.2,0.5104,22.945,16.863599999999998,0.0,109.97999999999999,0.22087869,0.22087869,0.22087869,0.22087869
826,2/4/2012 10:00,0.0,132.6969,1.57,0.0,19.458399999999997,17.243100000000002,2.1399999999999997,112.455,2.10098965,2.10098965,2.10098965,2.10098965
827,2/4/2012 11:00,0.1243,119.7936,0.804,0.1243,12.142000000000001,15.5664,1.44,101.52,1.42029254,1.42029254,1.42029254,1.42029254
828,2/4/2012 12:00,0.8316,92.51790000000001,5.629999999999999,0.8316,4.823,12.022100000000002,4.38,78.405,1.18294874,1.18294874,1.18294874,1.18294874
829,2/4/2012 13:00,4.334,95.3322,9.982,4.334,24.9548,12.387799999999999,13.200000000000001,80.78999999999999,4.408220470000001,4.408220470000001,4.408220470000001,4.408220470000001
830,2/4/2012 14:00,4.2261999999999995,125.51069999999999,15.427999999999999,4.2261999999999995,24.934,16.3093,25.040000000000003,106.365,3.252546,3.252546,3.252546,3.252546
831,2/4/2012 15:00,10.6568,20.0895,17.592000000000002,10.6568,24.775399999999998,2.6105,37.12,17.025000000000002,3.7181666,3.7181666,3.7181666,3.7181666
832,2/4/2012 16:00,0.0,124.09469999999999,17.718,0.0,2.4908,16.1253,68.86,105.16499999999999,1.3785984699999998,1.3785984699999998,1.3785984699999998,1.3785984699999998
833,2/4/2012 17:00,0.0,118.2006,17.204,0.0,1.5262,15.359399999999999,152.54000000000002,100.16999999999999,0.61327491,0.61327491,0.61327491,0.61327491
834,2/4/2012 18:00,0.0,91.3143,16.48,0.0,26.0,11.8657,155.96,77.385,0.0,0.0,0.0,0.0
835,2/4/2012 19:00,0.0,80.9952,0.0,0.0,26.0,10.5248,156.44,68.64,0.0,0.0,0.0,0.0
836,2/4/2012 20:00,5.694700000000001,71.95049999999999,9.498,5.694700000000001,0.0,9.349499999999999,155.0,60.974999999999994,0.0,0.0,0.0,0.0
837,2/4/2012 21:00,5.6749,61.4721,1.964,5.6749,1.2168,7.9879,153.06,52.095,0.0,0.0,0.0,0.0
838,2/4/2012 22:00,0.2233,49.5246,8.246,0.2233,0.0,6.4354,148.66,41.97,0.0,0.0,0.0,0.0
839,2/4/2012 23:00,0.10779999999999999,42.5685,1.238,0.10779999999999999,0.20279999999999998,5.531499999999999,25.259999999999998,36.074999999999996,0.0,0.0,0.0,0.0
840,2/5/2012 0:00,3.9501,38.4444,4.0760000000000005,3.9501,26.0,4.9956000000000005,157.56,32.58,0.0,0.0,0.0,0.0
841,2/5/2012 1:00,3.4595000000000002,35.1699,0.248,3.4595000000000002,26.0,4.5701,173.98,29.805,0.0,0.0,0.0,0.0
842,2/5/2012 2:00,3.0008,30.249299999999998,0.27199999999999996,3.0008,26.0,3.9307,4.02,25.634999999999998,0.0,0.0,0.0,0.0
843,2/5/2012 3:00,0.8876999999999999,25.0986,0.0,0.8876999999999999,0.0,3.2614,3.58,21.270000000000003,0.0,0.0,0.0,0.0
844,2/5/2012 4:00,1.1517,46.8519,0.972,1.1517,1.5288,6.0881,69.5,39.705,0.0,0.0,0.0,0.0
845,2/5/2012 5:00,2.7995,29.328899999999997,0.786,2.7995,10.2258,3.8110999999999997,196.72,24.854999999999997,0.0,0.0,0.0,0.0
846,2/5/2012 6:00,3.4573,116.35979999999999,0.792,3.4573,9.477,15.1202,192.1,98.61,0.0,0.0,0.0,0.0
847,2/5/2012 7:00,3.8544,133.81199999999998,0.8079999999999999,3.8544,0.0,17.387999999999998,196.8,113.39999999999998,0.0,0.0,0.0,0.0
848,2/5/2012 8:00,0.0946,9.0093,0.0,0.0946,1.1778,1.1707,195.82,7.635,0.0,0.0,0.0,0.0
849,2/5/2012 9:00,0.9470999999999999,10.053600000000001,0.61,0.9470999999999999,5.382,1.3064,131.66,8.520000000000001,0.18992476000000003,0.18992476000000003,0.18992476000000003,0.18992476000000003
850,2/5/2012 10:00,0.4851,11.1333,2.692,0.4851,9.1624,1.4466999999999999,130.07999999999998,9.435,0.6242106700000001,0.6242106700000001,0.6242106700000001,0.6242106700000001
851,2/5/2012 11:00,0.1232,9.735,14.808,0.1232,7.734999999999999,1.265,128.36,8.25,1.04250986,1.04250986,1.04250986,1.04250986
852,2/5/2012 12:00,6.195200000000001,0.0,14.336,6.195200000000001,6.1594,0.0,183.82,0.0,3.59843495,3.59843495,3.59843495,3.59843495
853,2/5/2012 13:00,4.1107,0.0,0.0,4.1107,5.1453999999999995,0.0,170.04,0.0,4.17454857,4.17454857,4.17454857,4.17454857
854,2/5/2012 14:00,8.2005,2.6904,0.152,8.2005,3.3566,0.3496,135.76,2.28,4.62767771,4.62767771,4.62767771,4.62767771
855,2/5/2012 15:00,9.922,4.9737,19.6,9.922,0.0,0.6463,192.01999999999998,4.215,4.513744679999999,4.513744679999999,4.513744679999999,4.513744679999999
856,2/5/2012 16:00,10.132100000000001,8.460600000000001,5.292,10.132100000000001,0.0,1.0994000000000002,146.01999999999998,7.17,1.7244736300000003,1.7244736300000003,1.7244736300000003,1.7244736300000003
857,2/5/2012 17:00,10.343300000000001,2.301,18.977999999999998,10.343300000000001,0.0,0.29900000000000004,4.08,1.9500000000000002,0.59231519,0.59231519,0.59231519,0.59231519
858,2/5/2012 18:00,10.4115,1.9470000000000003,17.756,10.4115,3.3748,0.253,6.52,1.6500000000000001,0.0,0.0,0.0,0.0
859,2/5/2012 19:00,10.5699,1.6107,19.823999999999998,10.5699,0.1898,0.2093,162.95999999999998,1.365,0.0,0.0,0.0,0.0
860,2/5/2012 20:00,10.6513,177.0,0.9420000000000001,10.6513,0.299,23.0,74.32,150.0,0.0,0.0,0.0,0.0
861,2/5/2012 21:00,10.6051,41.8782,0.9460000000000001,10.6051,8.5878,5.4418,8.38,35.49,0.0,0.0,0.0,0.0
862,2/5/2012 22:00,10.5688,38.055,9.506,10.5688,15.428400000000002,4.945,106.26,32.25,0.0,0.0,0.0,0.0
863,2/5/2012 23:00,10.519300000000001,39.4887,1.568,10.519300000000001,20.776600000000002,5.1312999999999995,113.6,33.464999999999996,0.0,0.0,0.0,0.0
864,2/6/2012 0:00,10.3994,0.0,0.49,10.3994,22.9346,0.0,100.62,0.0,0.0,0.0,0.0,0.0
865,2/6/2012 1:00,0.48400000000000004,1.77,0.198,0.48400000000000004,23.0204,0.23,91.03999999999999,1.5,0.0,0.0,0.0,0.0
866,2/6/2012 2:00,0.385,5.1861,0.17,0.385,23.6938,0.6738999999999999,193.64,4.395,0.0,0.0,0.0,0.0
867,2/6/2012 3:00,0.3212,11.8059,16.375999999999998,0.3212,1.2454,1.5340999999999998,165.5,10.004999999999999,0.0,0.0,0.0,0.0
868,2/6/2012 4:00,0.30799999999999994,23.080799999999996,15.122,0.30799999999999994,1.2012,2.9991999999999996,23.7,19.56,0.0,0.0,0.0,0.0
869,2/6/2012 5:00,1.1891,38.2497,14.542,1.1891,1.8642,4.9703,3.02,32.415,0.0,0.0,0.0,0.0
870,2/6/2012 6:00,9.6206,51.099900000000005,20.0,9.6206,1.6718,6.6401,198.44,43.305,0.0,0.0,0.0,0.0
871,2/6/2012 7:00,0.0,60.4809,20.0,0.0,17.693,7.8591,15.8,51.255,0.0,0.0,0.0,0.0
872,2/6/2012 8:00,0.858,85.2786,20.0,0.858,13.0572,11.0814,12.24,72.27,0.0,0.0,0.0,0.0
873,2/6/2012 9:00,0.7458,104.85480000000001,20.0,0.7458,11.2372,13.625200000000001,7.4399999999999995,88.86,1.80146102,1.80146102,1.80146102,1.80146102
874,2/6/2012 10:00,1.5113999999999999,21.4524,19.808,1.5113999999999999,10.0672,2.7876,189.5,18.18,2.36567317,2.36567317,2.36567317,2.36567317
875,2/6/2012 11:00,3.1064,34.0725,0.0,3.1064,18.9644,4.4275,188.46,28.875,3.1488584800000003,3.1488584800000003,3.1488584800000003,3.1488584800000003
876,2/6/2012 12:00,4.9324,169.1589,0.0,4.9324,5.252,21.9811,21.52,143.355,2.47612437,2.47612437,2.47612437,2.47612437
877,2/6/2012 13:00,6.5988999999999995,177.0,0.0,6.5988999999999995,12.420200000000001,23.0,183.46,150.0,1.44926095,1.44926095,1.44926095,1.44926095
878,2/6/2012 14:00,4.8301,171.2298,0.0,4.8301,15.735199999999999,22.2502,143.2,145.11,0.7987175099999999,0.7987175099999999,0.7987175099999999,0.7987175099999999
879,2/6/2012 15:00,3.1723999999999997,177.0,2.602,3.1723999999999997,15.7066,23.0,147.42,150.0,1.79110385,1.79110385,1.79110385,1.79110385
880,2/6/2012 16:00,4.8972,85.7919,2.636,4.8972,12.7842,11.148100000000001,111.82000000000001,72.705,2.2634372799999998,2.2634372799999998,2.2634372799999998,2.2634372799999998
881,2/6/2012 17:00,5.8233999999999995,71.3841,2.898,5.8233999999999995,8.8868,9.2759,17.96,60.495,0.1977992,0.1977992,0.1977992,0.1977992
882,2/6/2012 18:00,5.8256,58.940999999999995,0.0,5.8256,26.0,7.658999999999999,200.0,49.949999999999996,0.0,0.0,0.0,0.0
883,2/6/2012 19:00,0.3421,43.524300000000004,1.54,0.3421,26.0,5.6557,54.779999999999994,36.885,0.0,0.0,0.0,0.0
884,2/6/2012 20:00,0.22440000000000002,167.1411,1.804,0.22440000000000002,2.5948,21.7189,198.36,141.645,0.0,0.0,0.0,0.0
885,2/6/2012 21:00,1.9426,27.859800000000003,3.2119999999999997,1.9426,1.2532,3.6202,198.5,23.610000000000003,0.0,0.0,0.0,0.0
886,2/6/2012 22:00,1.1715,44.674800000000005,2.626,1.1715,0.5382,5.8052,200.0,37.86,0.0,0.0,0.0,0.0
887,2/6/2012 23:00,0.3036,12.2661,1.394,0.3036,1.2662,1.5939,69.64,10.395,0.0,0.0,0.0,0.0
888,2/7/2012 0:00,0.1045,6.903,0.58,0.1045,22.8956,0.897,0.0,5.85,0.0,0.0,0.0,0.0
889,2/7/2012 1:00,0.1485,8.2836,6.74,0.1485,22.656399999999998,1.0764,180.02,7.0200000000000005,0.0,0.0,0.0,0.0
890,2/7/2012 2:00,0.15399999999999997,4.6905,6.578,0.15399999999999997,22.1182,0.6094999999999999,4.4799999999999995,3.975,0.0,0.0,0.0,0.0
891,2/7/2012 3:00,0.1397,8.9916,6.25,0.1397,5.0908,1.1683999999999999,2.0,7.62,0.0,0.0,0.0,0.0
892,2/7/2012 4:00,0.1518,177.0,5.77,0.1518,14.9994,23.0,0.0,150.0,0.0,0.0,0.0,0.0
893,2/7/2012 5:00,0.627,177.0,5.57,0.627,20.124000000000002,23.0,166.46,150.0,0.0,0.0,0.0,0.0
894,2/7/2012 6:00,1.0714,177.0,5.584,1.0714,18.5042,23.0,149.52,150.0,0.0,0.0,0.0,0.0
895,2/7/2012 7:00,0.6633,163.8489,5.878,0.6633,16.6322,21.2911,134.64000000000001,138.855,0.0,0.0,0.0,0.0
896,2/7/2012 8:00,6.7529,133.4757,6.308,6.7529,18.226,17.3443,121.41999999999999,113.115,0.0,0.0,0.0,0.0
897,2/7/2012 9:00,6.3206,16.7265,6.382,6.3206,18.8552,2.1735,112.6,14.175,3.04152539,3.04152539,3.04152539,3.04152539
898,2/7/2012 10:00,0.15839999999999999,156.0432,20.0,0.15839999999999999,5.083,20.2768,0.0,132.24,1.8791846399999999,1.8791846399999999,1.8791846399999999,1.8791846399999999
899,2/7/2012 11:00,0.1639,35.2938,20.0,0.1639,1.2428000000000001,4.5862,70.32000000000001,29.91,2.45783989,2.45783989,2.45783989,2.45783989
900,2/7/2012 12:00,1.4288999999999998,1.2921,20.0,1.4288999999999998,0.22100000000000003,0.1679,113.46000000000001,1.095,4.3949560100000005,4.3949560100000005,4.3949560100000005,4.3949560100000005
901,2/7/2012 13:00,1.8392,12.903300000000002,4.55,1.8392,0.0,1.6767,121.72,10.935,4.89941876,4.89941876,4.89941876,4.89941876
902,2/7/2012 14:00,1.8876,173.6016,3.704,1.8876,0.5018,22.5584,129.98000000000002,147.12,5.0482694200000005,5.0482694200000005,5.0482694200000005,5.0482694200000005
903,2/7/2012 15:00,1.7369,17.452199999999998,20.0,1.7369,3.0705999999999998,2.2678,49.26,14.79,3.88516776,3.88516776,3.88516776,3.88516776
904,2/7/2012 16:00,0.12100000000000001,64.0563,0.0,0.12100000000000001,6.058000000000001,8.3237,16.34,54.285,2.4131461300000003,2.4131461300000003,2.4131461300000003,2.4131461300000003
905,2/7/2012 17:00,1.4652,54.72839999999999,17.936,1.4652,21.8686,7.111599999999999,13.020000000000001,46.379999999999995,1.45857027,1.45857027,1.45857027,1.45857027
906,2/7/2012 18:00,0.8129,68.3043,0.588,0.8129,17.9764,8.8757,158.54,57.885000000000005,0.0,0.0,0.0,0.0
907,2/7/2012 19:00,0.41140000000000004,68.02109999999999,3.654,0.41140000000000004,21.6268,8.838899999999999,190.06,57.644999999999996,0.0,0.0,0.0,0.0
908,2/7/2012 20:00,1.1803000000000001,171.21210000000002,4.57,1.1803000000000001,23.0802,22.2479,192.8,145.095,0.0,0.0,0.0,0.0
909,2/7/2012 21:00,6.8651,163.9374,6.086,6.8651,24.128,21.3026,130.94,138.93,0.0,0.0,0.0,0.0
910,2/7/2012 22:00,7.4415,18.5496,7.1819999999999995,7.4415,20.5582,2.4104,150.92000000000002,15.72,0.0,0.0,0.0,0.0
911,2/7/2012 23:00,7.1522,19.8771,0.766,7.1522,19.5962,2.5829,146.2,16.845,0.0,0.0,0.0,0.0
912,2/8/2012 0:00,6.8101,20.8329,1.068,6.8101,17.932199999999998,2.7071,73.7,17.655,0.0,0.0,0.0,0.0
913,2/8/2012 1:00,5.687,21.1692,13.756,5.687,17.9998,2.7508,31.22,17.94,0.0,0.0,0.0,0.0
914,2/8/2012 2:00,2.3056,177.0,13.174,2.3056,18.2988,23.0,83.7,150.0,0.0,0.0,0.0,0.0
915,2/8/2012 3:00,1.9382,177.0,12.278,1.9382,15.813199999999998,23.0,34.06,150.0,0.0,0.0,0.0,0.0
916,2/8/2012 4:00,1.0835000000000001,177.0,0.292,1.0835000000000001,12.149799999999999,23.0,115.52,150.0,0.0,0.0,0.0,0.0
917,2/8/2012 5:00,4.5363999999999995,14.6556,0.37,4.5363999999999995,8.8582,1.9043999999999999,87.32,12.42,0.0,0.0,0.0,0.0
918,2/8/2012 6:00,4.7949,7.9473,10.134,4.7949,5.7304,1.0327,182.24,6.735,0.0,0.0,0.0,0.0
919,2/8/2012 7:00,11.0,4.7259,12.398,11.0,3.0212,0.6141000000000001,161.17999999999998,4.005,0.0,0.0,0.0,0.0
920,2/8/2012 8:00,10.0034,5.0799,3.93,10.0034,1.391,0.6601,28.199999999999996,4.305,0.0,0.0,0.0,0.0
921,2/8/2012 9:00,9.724,3.1152,5.432,9.724,0.9100000000000001,0.40480000000000005,29.080000000000002,2.64,2.76423009,2.76423009,2.76423009,2.76423009
922,2/8/2012 10:00,9.5931,17.6646,1.1260000000000001,9.5931,0.7904,2.2954,26.939999999999998,14.97,2.53678225,2.53678225,2.53678225,2.53678225
923,2/8/2012 11:00,9.5359,5.0622,11.674,9.5359,0.8632,0.6578,23.32,4.29,3.6059009200000003,3.6059009200000003,3.6059009200000003,3.6059009200000003
924,2/8/2012 12:00,9.807599999999999,32.5503,1.5559999999999998,9.807599999999999,1.1908,4.2297,19.82,27.585,4.2655142,4.2655142,4.2655142,4.2655142
925,2/8/2012 13:00,8.1037,0.0,3.566,8.1037,9.183200000000001,0.0,99.32,0.0,4.59761457,4.59761457,4.59761457,4.59761457
926,2/8/2012 14:00,6.6286000000000005,107.0496,5.34,6.6286000000000005,0.9282,13.9104,16.259999999999998,90.72,4.74158811,4.74158811,4.74158811,4.74158811
927,2/8/2012 15:00,11.0,0.0,0.438,11.0,1.7758,0.0,13.320000000000002,0.0,4.41463357,4.41463357,4.41463357,4.41463357
928,2/8/2012 16:00,11.0,1.5576,0.7240000000000001,11.0,2.4674,0.20240000000000002,16.82,1.32,3.34016442,3.34016442,3.34016442,3.34016442
929,2/8/2012 17:00,1.8656,29.346600000000002,4.108,1.8656,1.7965999999999998,3.8134,15.559999999999999,24.87,1.38797595,1.38797595,1.38797595,1.38797595
930,2/8/2012 18:00,2.9447,5.3277,5.236,2.9447,9.4016,0.6922999999999999,17.28,4.515,0.0,0.0,0.0,0.0
931,2/8/2012 19:00,11.0,93.3321,15.374,11.0,20.8208,12.1279,24.14,79.095,0.0,0.0,0.0,0.0
932,2/8/2012 20:00,3.322,69.0477,0.5559999999999999,3.322,1.079,8.9723,44.28,58.515,0.0,0.0,0.0,0.0
933,2/8/2012 21:00,0.0,162.4329,11.75,0.0,26.0,21.1071,73.52,137.655,0.0,0.0,0.0,0.0
934,2/8/2012 22:00,8.8132,167.2473,2.444,8.8132,0.8840000000000001,21.732699999999998,59.419999999999995,141.73499999999999,0.0,0.0,0.0,0.0
935,2/8/2012 23:00,4.939,5.7879,0.31600000000000006,4.939,3.1304,0.7521,50.96000000000001,4.905,0.0,0.0,0.0,0.0
936,2/9/2012 0:00,0.16169999999999998,160.6806,9.911999999999999,0.16169999999999998,2.9301999999999997,20.8794,45.64,136.17000000000002,0.0,0.0,0.0,0.0
937,2/9/2012 1:00,9.298300000000001,82.4289,8.372,9.298300000000001,0.0,10.7111,39.94,69.855,0.0,0.0,0.0,0.0
938,2/9/2012 2:00,5.5825,119.3688,7.351999999999999,5.5825,14.812199999999999,15.5112,34.08,101.16,0.0,0.0,0.0,0.0
939,2/9/2012 3:00,10.5809,52.39200000000001,6.018,10.5809,21.325200000000002,6.808000000000001,29.94,44.400000000000006,0.0,0.0,0.0,0.0
940,2/9/2012 4:00,6.034599999999999,28.9572,4.648,6.034599999999999,1.9604,3.7628,27.96,24.54,0.0,0.0,0.0,0.0
941,2/9/2012 5:00,0.0,36.408899999999996,6.734,0.0,4.5604,4.7311,27.439999999999998,30.855,0.0,0.0,0.0,0.0
942,2/9/2012 6:00,7.909000000000001,37.701,18.914,7.909000000000001,2.691,4.899,26.1,31.95,0.0,0.0,0.0,0.0
943,2/9/2012 7:00,8.055299999999999,20.8506,20.0,8.055299999999999,1.7706,2.7094,24.44,17.67,0.0,0.0,0.0,0.0
944,2/9/2012 8:00,2.8731999999999998,0.0,0.368,2.8731999999999998,1.2635999999999998,0.0,6.7,0.0,0.0,0.0,0.0,0.0
945,2/9/2012 9:00,0.5148,82.7829,1.782,0.5148,4.9868,10.7571,198.18,70.155,2.28872381,2.28872381,2.28872381,2.28872381
946,2/9/2012 10:00,1.1506,111.75779999999999,17.564,1.1506,4.7528,14.5222,197.66,94.71,2.25902218,2.25902218,2.25902218,2.25902218
947,2/9/2012 11:00,8.8429,105.2796,2.098,8.8429,23.7562,13.6804,195.74,89.22,2.8114060299999997,2.8114060299999997,2.8114060299999997,2.8114060299999997
948,2/9/2012 12:00,0.0,64.8882,1.7879999999999998,0.0,24.3672,8.431799999999999,189.12,54.989999999999995,3.5673876900000003,3.5673876900000003,3.5673876900000003,3.5673876900000003
949,2/9/2012 13:00,0.0,82.0926,1.33,0.0,25.308400000000002,10.6674,171.82,69.57,3.0937129899999998,3.0937129899999998,3.0937129899999998,3.0937129899999998
950,2/9/2012 14:00,9.6129,57.879000000000005,0.8199999999999998,9.6129,6.7132,7.521,154.32,49.050000000000004,2.53553401,2.53553401,2.53553401,2.53553401
951,2/9/2012 15:00,9.1828,53.7903,0.298,9.1828,24.9366,6.9897,138.28,45.585,3.11162516,3.11162516,3.11162516,3.11162516
952,2/9/2012 16:00,9.531500000000001,59.4189,0.0,9.531500000000001,25.0458,7.7211,118.38,50.355,3.3373374699999996,3.3373374699999996,3.3373374699999996,3.3373374699999996
953,2/9/2012 17:00,10.67,49.4007,0.0,10.67,8.6216,6.419300000000001,92.24,41.865,2.06680244,2.06680244,2.06680244,2.06680244
954,2/9/2012 18:00,8.7494,63.897,0.0,8.7494,6.0996,8.302999999999999,81.10000000000001,54.15,0.0,0.0,0.0,0.0
955,2/9/2012 19:00,8.0938,138.1662,0.28400000000000003,8.0938,3.7076000000000002,17.953799999999998,60.4,117.08999999999999,0.0,0.0,0.0,0.0
956,2/9/2012 20:00,0.20020000000000002,60.6048,0.604,0.20020000000000002,0.5382,7.8751999999999995,55.98,51.36,0.0,0.0,0.0,0.0
957,2/9/2012 21:00,0.1848,49.2414,13.118,0.1848,0.351,6.3986,143.92000000000002,41.730000000000004,0.0,0.0,0.0,0.0
958,2/9/2012 22:00,0.15289999999999998,34.337999999999994,8.656,0.15289999999999998,0.2652,4.462,157.48,29.099999999999998,0.0,0.0,0.0,0.0
959,2/9/2012 23:00,0.0858,39.294000000000004,5.238,0.0858,0.2314,5.106,7.539999999999999,33.3,0.0,0.0,0.0,0.0
960,2/10/2012 0:00,0.0,88.1991,3.9579999999999997,0.0,0.20020000000000002,11.4609,3.58,74.745,0.0,0.0,0.0,0.0
961,2/10/2012 1:00,0.0,169.1766,2.67,0.0,0.21320000000000003,21.9834,2.04,143.37,0.0,0.0,0.0,0.0
962,2/10/2012 2:00,0.0,171.3714,3.902,0.0,0.2236,22.2686,160.35999999999999,145.23,0.0,0.0,0.0,0.0
963,2/10/2012 3:00,0.0,13.0803,2.7960000000000003,0.0,0.0,1.6996999999999998,188.02,11.084999999999999,0.0,0.0,0.0,0.0
964,2/10/2012 4:00,7.7715000000000005,12.8502,1.6480000000000001,7.7715000000000005,1.014,1.6698,196.88000000000002,10.89,0.0,0.0,0.0,0.0
965,2/10/2012 5:00,8.6669,13.682099999999998,0.0,8.6669,11.674,1.7778999999999998,197.42,11.594999999999999,0.0,0.0,0.0,0.0
966,2/10/2012 6:00,2.0922,15.381300000000001,4.808,2.0922,2.7092,1.9987000000000001,197.28,13.035,0.0,0.0,0.0,0.0
967,2/10/2012 7:00,3.8841,18.8505,6.555999999999999,3.8841,4.043,2.4495,197.3,15.975,0.0,0.0,0.0,0.0
968,2/10/2012 8:00,5.1348,23.8065,8.304,5.1348,2.717,3.0935,196.36,20.175,0.0,0.0,0.0,0.0
969,2/10/2012 9:00,5.2019,29.523600000000002,14.54,5.2019,3.25,3.8364000000000003,192.38,25.02,0.63131135,0.63131135,0.63131135,0.63131135
970,2/10/2012 10:00,6.7661,34.8336,0.0,6.7661,22.206599999999998,4.5264,182.94,29.52,1.8941585100000002,1.8941585100000002,1.8941585100000002,1.8941585100000002
971,2/10/2012 11:00,7.9915,80.9244,4.26,7.9915,21.351200000000002,10.5156,175.16,68.58,3.15666854,3.15666854,3.15666854,3.15666854
972,2/10/2012 12:00,8.8154,122.34240000000001,0.0,8.8154,20.607599999999998,15.8976,175.14000000000001,103.68,4.16209266,4.16209266,4.16209266,4.16209266
973,2/10/2012 13:00,9.229000000000001,136.6617,0.0,9.229000000000001,10.14,17.7583,161.16,115.815,5.083066499999999,5.083066499999999,5.083066499999999,5.083066499999999
974,2/10/2012 14:00,9.341199999999999,6.9561,10.178,9.341199999999999,0.0,0.9039,166.01999999999998,5.8950000000000005,5.16871588,5.16871588,5.16871588,5.16871588
975,2/10/2012 15:00,9.310400000000001,4.3011,0.0,9.310400000000001,0.0,0.5589,143.8,3.645,4.5689165,4.5689165,4.5689165,4.5689165
976,2/10/2012 16:00,8.8154,2.3541,0.0,8.8154,0.1976,0.3059,90.56,1.9949999999999999,3.36150609,3.36150609,3.36150609,3.36150609
977,2/10/2012 17:00,7.9255,2.5311,12.123999999999999,7.9255,10.7042,0.3289,185.51999999999998,2.145,1.9080117699999999,1.9080117699999999,1.9080117699999999,1.9080117699999999
978,2/10/2012 18:00,7.4426,1.9293,6.459999999999999,7.4426,9.568,0.2507,85.7,1.635,0.0,0.0,0.0,0.0
979,2/10/2012 19:00,8.4788,1.4868,3.1979999999999995,8.4788,7.610200000000001,0.19319999999999998,68.58,1.26,0.0,0.0,0.0,0.0
980,2/10/2012 20:00,9.365400000000001,57.6312,15.622,9.365400000000001,5.8500000000000005,7.4888,83.7,48.84,0.0,0.0,0.0,0.0
981,2/10/2012 21:00,9.7614,56.4276,0.0,9.7614,5.083,7.3324,8.74,47.81999999999999,0.0,0.0,0.0,0.0
982,2/10/2012 22:00,10.0595,55.3656,0.0,10.0595,1.4143999999999999,7.194400000000001,54.26,46.92,0.0,0.0,0.0,0.0
983,2/10/2012 23:00,10.4753,47.7369,0.0,10.4753,0.8086,6.2031,14.14,40.455,0.0,0.0,0.0,0.0
984,2/11/2012 0:00,8.9969,169.0527,0.0,8.9969,0.5876,21.967299999999998,17.34,143.265,0.0,0.0,0.0,0.0
985,2/11/2012 1:00,9.6184,164.2914,19.772000000000002,9.6184,3.0212,21.3486,23.6,139.23,0.0,0.0,0.0,0.0
986,2/11/2012 2:00,10.0056,21.1338,19.612000000000002,10.0056,7.4932,2.7462,30.080000000000002,17.91,0.0,0.0,0.0,0.0
987,2/11/2012 3:00,7.2094,28.833299999999998,0.15,7.2094,12.7634,3.7466999999999997,79.6,24.435,0.0,0.0,0.0,0.0
988,2/11/2012 4:00,8.2346,29.3997,1.258,8.2346,15.345199999999998,3.8203,169.74,24.915,0.0,0.0,0.0,0.0
989,2/11/2012 5:00,8.4854,25.5765,1.508,8.4854,0.1898,3.3234999999999997,5.08,21.674999999999997,0.0,0.0,0.0,0.0
990,2/11/2012 6:00,8.0872,22.514400000000002,19.838,8.0872,1.2168,2.9256,30.159999999999997,19.080000000000002,0.0,0.0,0.0,0.0
991,2/11/2012 7:00,7.2435,18.939,20.0,7.2435,21.8348,2.461,6.0600000000000005,16.05,0.0,0.0,0.0,0.0
992,2/11/2012 8:00,7.0917,14.6556,1.3239999999999998,7.0917,24.6064,1.9043999999999999,198.5,12.42,0.0,0.0,0.0,0.0
993,2/11/2012 9:00,6.7463,10.2129,1.864,6.7463,20.527,1.3271,200.0,8.655,2.7693076999999997,2.7693076999999997,2.7693076999999997,2.7693076999999997
994,2/11/2012 10:00,6.748500000000001,92.87190000000001,2.372,6.748500000000001,19.396,12.068100000000001,200.0,78.70500000000001,2.60546937,2.60546937,2.60546937,2.60546937
995,2/11/2012 11:00,6.9201,86.8185,2.7960000000000003,6.9201,18.4626,11.2815,14.940000000000001,73.575,3.8269706299999995,3.8269706299999995,3.8269706299999995,3.8269706299999995
996,2/11/2012 12:00,6.4823,11.6643,2.7300000000000004,6.4823,16.7388,1.5157,0.0,9.885,4.5562176,4.5562176,4.5562176,4.5562176
997,2/11/2012 13:00,4.785,19.6293,2.622,4.785,11.5778,2.5507,0.0,16.634999999999998,3.98323966,3.98323966,3.98323966,3.98323966
998,2/11/2012 14:00,4.4803,27.7005,2.5700000000000003,4.4803,12.225200000000001,3.5995,38.519999999999996,23.475,3.13322948,3.13322948,3.13322948,3.13322948
999,2/11/2012 15:00,4.1811,177.0,1.85,4.1811,22.3288,23.0,68.6,150.0,2.647339,2.647339,2.647339,2.647339
1000,2/11/2012 16:00,3.6167999999999996,101.6865,1.16,3.6167999999999996,25.4072,13.2135,197.04,86.175,1.8440703,1.8440703,1.8440703,1.8440703
1001,2/11/2012 17:00,1.0681,115.72260000000001,3.096,1.0681,13.0182,15.037400000000002,196.34,98.07000000000001,0.78131252,0.78131252,0.78131252,0.78131252
1002,2/11/2012 18:00,0.7403,116.8908,19.650000000000002,0.7403,26.0,15.1892,162.52,99.06,0.0,0.0,0.0,0.0
1003,2/11/2012 19:00,0.5192,20.0364,19.71,0.5192,19.4506,2.6035999999999997,36.980000000000004,16.98,0.0,0.0,0.0,0.0
1004,2/11/2012 20:00,9.2411,18.7974,4.054,9.2411,18.0466,2.4426,179.38,15.93,0.0,0.0,0.0,0.0
1005,2/11/2012 21:00,8.6867,19.5762,4.3759999999999994,8.6867,1.6198000000000001,2.5438,179.12,16.59,0.0,0.0,0.0,0.0
1006,2/11/2012 22:00,1.6852,162.2205,4.85,1.6852,25.8154,21.0795,200.0,137.475,0.0,0.0,0.0,0.0
1007,2/11/2012 23:00,3.2582000000000004,8.0535,5.208,3.2582000000000004,25.7868,1.0465,53.300000000000004,6.825,0.0,0.0,0.0,0.0
1008,2/12/2012 0:00,4.1569,12.8325,5.4159999999999995,4.1569,25.8024,1.6675,61.839999999999996,10.875,0.0,0.0,0.0,0.0
1009,2/12/2012 1:00,0.1232,0.0,5.464,0.1232,25.7634,0.0,124.44,0.0,0.0,0.0,0.0,0.0
1010,2/12/2012 2:00,0.3157,68.322,5.714,0.3157,25.7452,8.878,151.72,57.9,0.0,0.0,0.0,0.0
1011,2/12/2012 3:00,0.3509,0.0,6.482,0.3509,23.985,0.0,1.76,0.0,0.0,0.0,0.0,0.0
1012,2/12/2012 4:00,1.2023,0.0,6.504,1.2023,5.8006,0.0,44.36,0.0,0.0,0.0,0.0,0.0
1013,2/12/2012 5:00,0.7656,55.224,9.469999999999999,0.7656,7.490600000000001,7.176,3.2,46.8,0.0,0.0,0.0,0.0
1014,2/12/2012 6:00,3.0107,68.5344,12.85,3.0107,3.471,8.9056,44.04,58.08,0.0,0.0,0.0,0.0
1015,2/12/2012 7:00,2.2384999999999997,28.709400000000002,14.994,2.2384999999999997,2.6884,3.7306000000000004,34.74,24.330000000000002,0.0,0.0,0.0,0.0
1016,2/12/2012 8:00,1.6192,27.5589,15.86,1.6192,1.9084,3.5811,44.28,23.355,0.0,0.0,0.0,0.0
1017,2/12/2012 9:00,1.9184,0.0,16.394,1.9184,0.8814,0.0,98.4,0.0,0.5436367200000001,0.5436367200000001,0.5436367200000001,0.5436367200000001
1018,2/12/2012 10:00,0.418,21.2223,16.63,0.418,0.6968,2.7577000000000003,40.38,17.985,0.84445831,0.84445831,0.84445831,0.84445831
1019,2/12/2012 11:00,3.5596,29.2404,0.27999999999999997,3.5596,0.6058,3.7996000000000003,110.22000000000001,24.78,1.1989342900000002,1.1989342900000002,1.1989342900000002,1.1989342900000002
1020,2/12/2012 12:00,2.9062,22.9392,19.154,2.9062,0.507,2.9808,109.79999999999998,19.439999999999998,2.55467616,2.55467616,2.55467616,2.55467616
1021,2/12/2012 13:00,9.7735,46.002300000000005,19.154,9.7735,0.4966,5.9777000000000005,2.92,38.985,3.81355149,3.81355149,3.81355149,3.81355149
1022,2/12/2012 14:00,4.0458,11.044799999999999,19.038,4.0458,0.5486,1.4352,3.8600000000000003,9.36,3.43862928,3.43862928,3.43862928,3.43862928
1023,2/12/2012 15:00,2.2352,4.8852,19.166,2.2352,0.6344000000000001,0.6348,4.22,4.14,2.94845633,2.94845633,2.94845633,2.94845633
1024,2/12/2012 16:00,1.5081,0.0,1.064,1.5081,0.8528000000000001,0.0,4.9,0.0,2.45794927,2.45794927,2.45794927,2.45794927
1025,2/12/2012 17:00,11.0,0.0,0.906,11.0,1.3598,0.0,50.5,0.0,1.34843166,1.34843166,1.34843166,1.34843166
1026,2/12/2012 18:00,1.0384,0.0,0.66,1.0384,0.0,0.0,171.88000000000002,0.0,0.0,0.0,0.0,0.0
1027,2/12/2012 19:00,5.8355,0.0,0.424,5.8355,0.1976,0.0,179.54000000000002,0.0,0.0,0.0,0.0,0.0
1028,2/12/2012 20:00,0.0781,0.0,0.274,0.0781,0.2366,0.0,176.36,0.0,0.0,0.0,0.0,0.0
1029,2/12/2012 21:00,10.6062,1.7346,0.21600000000000003,10.6062,0.2288,0.2254,104.88,1.47,0.0,0.0,0.0,0.0
1030,2/12/2012 22:00,10.8218,9.2571,0.2,10.8218,0.2912,1.2029,162.54,7.845,0.0,0.0,0.0,0.0
1031,2/12/2012 23:00,7.757200000000001,50.2149,0.20400000000000001,7.757200000000001,0.20540000000000003,6.5251,13.52,42.555,0.0,0.0,0.0,0.0
1032,2/13/2012 0:00,5.729900000000001,2.655,0.214,5.729900000000001,0.0,0.345,15.540000000000001,2.25,0.0,0.0,0.0,0.0
1033,2/13/2012 1:00,2.1791,5.1152999999999995,0.20600000000000002,2.1791,0.0,0.6647,35.54,4.335,0.0,0.0,0.0,0.0
1034,2/13/2012 2:00,0.2629,7.8942000000000005,0.174,0.2629,0.0,1.0258,194.9,6.69,0.0,0.0,0.0,0.0
1035,2/13/2012 3:00,0.0,9.3633,0.0,0.0,0.0,1.2167000000000001,194.36,7.9350000000000005,0.0,0.0,0.0,0.0
1036,2/13/2012 4:00,2.8721,174.1326,19.09,2.8721,0.195,22.6274,38.98,147.57,0.0,0.0,0.0,0.0
1037,2/13/2012 5:00,11.0,175.61939999999998,11.204,11.0,0.7929999999999999,22.8206,4.9,148.82999999999998,0.0,0.0,0.0,0.0
1038,2/13/2012 6:00,10.902099999999999,175.46009999999998,9.9,10.902099999999999,0.754,22.799899999999997,51.300000000000004,148.695,0.0,0.0,0.0,0.0
1039,2/13/2012 7:00,5.6034,173.9379,0.482,5.6034,0.8034,22.6021,50.019999999999996,147.405,0.0,0.0,0.0,0.0
1040,2/13/2012 8:00,5.3262,0.0,0.424,5.3262,0.8216000000000001,0.0,6.4399999999999995,0.0,0.0,0.0,0.0,0.0
1041,2/13/2012 9:00,1.8689,3.6816,0.254,1.8689,0.4914,0.4784,116.6,3.1199999999999997,2.42067841,2.42067841,2.42067841,2.42067841
1042,2/13/2012 10:00,0.0,0.0,0.0,0.0,0.2652,0.0,110.02000000000001,0.0,2.44148742,2.44148742,2.44148742,2.44148742
1043,2/13/2012 11:00,0.0,1.5398999999999998,5.1339999999999995,0.0,0.20020000000000002,0.2001,8.24,1.305,3.3424756799999997,3.3424756799999997,3.3424756799999997,3.3424756799999997
1044,2/13/2012 12:00,2.6334,26.9925,0.0,2.6334,0.0,3.5075,174.04,22.875,3.8897500899999997,3.8897500899999997,3.8897500899999997,3.8897500899999997
1045,2/13/2012 13:00,1.5917,20.001,0.0,1.5917,0.0,2.599,158.22,16.95,6.171020629999999,6.171020629999999,6.171020629999999,6.171020629999999
1046,2/13/2012 14:00,0.9438,6.885299999999999,0.0,0.9438,0.2366,0.8946999999999999,10.74,5.835,2.6883918,2.6883918,2.6883918,2.6883918
1047,2/13/2012 15:00,0.7051000000000001,0.0,0.194,0.7051000000000001,0.5095999999999999,0.0,34.54,0.0,3.3655445100000003,3.3655445100000003,3.3655445100000003,3.3655445100000003
1048,2/13/2012 16:00,1.1473,79.70309999999999,5.1659999999999995,1.1473,0.9308,10.3569,142.14,67.545,2.80100427,2.80100427,2.80100427,2.80100427
1049,2/13/2012 17:00,10.6887,31.3644,18.902,10.6887,1.235,4.0756,86.04,26.58,1.70405673,1.70405673,1.70405673,1.70405673
1050,2/13/2012 18:00,11.0,131.63490000000002,19.014,11.0,1.6041999999999998,17.1051,10.8,111.555,0.0,0.0,0.0,0.0
1051,2/13/2012 19:00,11.0,148.2729,1.6,11.0,2.1034,19.2671,6.6000000000000005,125.655,0.0,0.0,0.0,0.0
1052,2/13/2012 20:00,10.685400000000001,40.798500000000004,13.24,10.685400000000001,4.1678,5.3015,67.75999999999999,34.575,0.0,0.0,0.0,0.0
1053,2/13/2012 21:00,10.8878,157.6008,13.142,10.8878,4.5812,20.4792,55.74,133.56,0.0,0.0,0.0,0.0
1054,2/13/2012 22:00,10.7371,161.4594,12.338000000000001,10.7371,4.8515999999999995,20.9806,48.980000000000004,136.83,0.0,0.0,0.0,0.0
1055,2/13/2012 23:00,0.0,170.5218,10.549999999999999,0.0,5.7356,22.1582,39.28,144.51,0.0,0.0,0.0,0.0
1056,2/14/2012 0:00,0.0,5.522399999999999,5.061999999999999,0.0,0.8605999999999999,0.7176,31.04,4.68,0.0,0.0,0.0,0.0
1057,2/14/2012 1:00,0.0,154.3971,7.984,0.0,6.3309999999999995,20.0629,22.46,130.845,0.0,0.0,0.0,0.0
1058,2/14/2012 2:00,0.0,72.9594,2.0180000000000002,0.0,8.4058,9.4806,18.26,61.83,0.0,0.0,0.0,0.0
1059,2/14/2012 3:00,3.5376,57.029399999999995,9.422,3.5376,0.22619999999999998,7.4106,13.38,48.33,0.0,0.0,0.0,0.0
1060,2/14/2012 4:00,5.2822000000000005,18.5673,2.33,5.2822000000000005,14.1336,2.4127,8.16,15.735,0.0,0.0,0.0,0.0
1061,2/14/2012 5:00,8.8011,0.0,4.676,8.8011,2.0176,0.0,3.9800000000000004,0.0,0.0,0.0,0.0,0.0
1062,2/14/2012 6:00,10.7448,44.993399999999994,4.818,10.7448,4.6384,5.8466,1.72,38.129999999999995,0.0,0.0,0.0,0.0
1063,2/14/2012 7:00,7.1995,95.0844,4.866,7.1995,4.4746,12.3556,0.0,80.58,0.0,0.0,0.0,0.0
1064,2/14/2012 8:00,1.7809,64.8174,2.602,1.7809,4.7424,8.422600000000001,10.68,54.93000000000001,0.0,0.0,0.0,0.0
1065,2/14/2012 9:00,0.5159,101.4741,17.42,0.5159,4.654,13.1859,1.6,85.995,0.32030986000000006,0.32030986000000006,0.32030986000000006,0.32030986000000006
1066,2/14/2012 10:00,1.2419,134.9802,7.632,1.2419,20.969,17.5398,11.42,114.38999999999999,0.77116776,0.77116776,0.77116776,0.77116776
1067,2/14/2012 11:00,0.3443,8.6199,4.13,0.3443,25.1004,1.1201,67.25999999999999,7.305,1.15971609,1.15971609,1.15971609,1.15971609
1068,2/14/2012 12:00,0.0,0.0,2.9959999999999996,0.0,4.505800000000001,0.0,151.58,0.0,1.63313183,1.63313183,1.63313183,1.63313183
1069,2/14/2012 13:00,0.17049999999999998,0.0,0.0,0.17049999999999998,4.144399999999999,0.0,188.66,0.0,1.9416583699999999,1.9416583699999999,1.9416583699999999,1.9416583699999999
1070,2/14/2012 14:00,0.0,0.0,0.0,0.0,2.9068,0.0,197.38,0.0,4.05625116,4.05625116,4.05625116,4.05625116
1071,2/14/2012 15:00,0.0,21.5232,0.0,0.0,2.8028000000000004,2.7968,200.0,18.24,1.89590143,1.89590143,1.89590143,1.89590143
1072,2/14/2012 16:00,0.7777,5.7171,0.674,0.7777,5.759,0.7429,200.0,4.845000000000001,1.8140745,1.8140745,1.8140745,1.8140745
1073,2/14/2012 17:00,0.4664,151.9191,0.646,0.4664,9.729199999999999,19.7409,200.0,128.745,0.72320886,0.72320886,0.72320886,0.72320886
1074,2/14/2012 18:00,1.1011,162.7338,0.762,1.1011,25.116,21.1462,200.0,137.91,0.0,0.0,0.0,0.0
1075,2/14/2012 19:00,7.0499,165.6189,0.7879999999999999,7.0499,25.0614,21.5211,197.28,140.355,0.0,0.0,0.0,0.0
1076,2/14/2012 20:00,6.6891,166.8402,16.782,6.6891,24.9418,21.6798,193.26000000000002,141.39,0.0,0.0,0.0,0.0
1077,2/14/2012 21:00,0.0,168.50400000000002,17.478,0.0,24.6142,21.896,2.52,142.8,0.0,0.0,0.0,0.0
1078,2/14/2012 22:00,0.0,168.7518,17.334,0.0,23.293400000000002,21.9282,2.64,143.01,0.0,0.0,0.0,0.0
1079,2/14/2012 23:00,0.0,168.858,17.128,0.0,26.0,21.942,3.74,143.10000000000002,0.0,0.0,0.0,0.0
1080,2/15/2012 0:00,0.0,168.1146,0.178,0.0,26.0,21.845399999999998,200.0,142.47,0.0,0.0,0.0,0.0
1081,2/15/2012 1:00,0.0,167.5482,0.156,0.0,1.8018,21.7718,200.0,141.99,0.0,0.0,0.0,0.0
1082,2/15/2012 2:00,0.0,166.02599999999998,0.144,0.0,1.8044,21.573999999999998,200.0,140.7,0.0,0.0,0.0,0.0
1083,2/15/2012 3:00,0.1452,162.0435,1.5939999999999999,0.1452,3.5126,21.0565,200.0,137.325,0.0,0.0,0.0,0.0
1084,2/15/2012 4:00,2.8005999999999998,154.6449,1.006,2.8005999999999998,3.952,20.095100000000002,198.28,131.055,0.0,0.0,0.0,0.0
1085,2/15/2012 5:00,5.5011,121.4574,0.0,5.5011,2.7248,15.7826,196.48000000000002,102.93,0.0,0.0,0.0,0.0
1086,2/15/2012 6:00,5.9081,75.1011,0.40599999999999997,5.9081,10.3896,9.7589,194.66000000000003,63.645,0.0,0.0,0.0,0.0
1087,2/15/2012 7:00,5.6771,74.3577,8.608,5.6771,16.3618,9.6623,195.4,63.01499999999999,0.0,0.0,0.0,0.0
1088,2/15/2012 8:00,6.4140999999999995,82.6236,0.68,6.4140999999999995,0.31980000000000003,10.7364,197.23999999999998,70.02,0.0,0.0,0.0,0.0
1089,2/15/2012 9:00,6.677,87.86280000000001,1.174,6.677,0.0,11.4172,184.6,74.46000000000001,2.0736843300000003,2.0736843300000003,2.0736843300000003,2.0736843300000003
1090,2/15/2012 10:00,6.7925,96.6774,8.454,6.7925,0.0,12.5626,176.29999999999998,81.93,3.01838489,3.01838489,3.01838489,3.01838489
1091,2/15/2012 11:00,6.9311,108.3594,15.818000000000001,6.9311,1.5210000000000001,14.080599999999999,157.7,91.83,3.8578654799999996,3.8578654799999996,3.8578654799999996,3.8578654799999996
1092,2/15/2012 12:00,6.7683,117.38640000000001,0.0,6.7683,0.3354,15.2536,130.94,99.48,4.45265907,4.45265907,4.45265907,4.45265907
1093,2/15/2012 13:00,6.2766,110.89049999999999,1.216,6.2766,1.0191999999999999,14.4095,87.44,93.975,4.86714553,4.86714553,4.86714553,4.86714553
1094,2/15/2012 14:00,0.3135,100.0758,0.0,0.3135,2.2516,13.0042,1.46,84.81,4.95647846,4.95647846,4.95647846,4.95647846
1095,2/15/2012 15:00,11.0,92.87190000000001,17.96,11.0,2.2438000000000002,12.068100000000001,0.0,78.70500000000001,4.80653844,4.80653844,4.80653844,4.80653844
1096,2/15/2012 16:00,11.0,76.7649,9.746,11.0,10.5976,9.9751,200.0,65.05499999999999,4.25955775,4.25955775,4.25955775,4.25955775
1097,2/15/2012 17:00,0.0,135.0864,4.408,0.0,23.79,17.5536,0.0,114.48,3.0745155000000004,3.0745155000000004,3.0745155000000004,3.0745155000000004
1098,2/15/2012 18:00,0.0,131.9358,6.968,0.0,24.564799999999998,17.144199999999998,92.28,111.80999999999999,0.0,0.0,0.0,0.0
1099,2/15/2012 19:00,0.1661,122.6433,0.7979999999999999,0.1661,0.0,15.936699999999998,180.51999999999998,103.93499999999999,0.0,0.0,0.0,0.0
1100,2/15/2012 20:00,0.3553,5.9117999999999995,4.912,0.3553,23.4468,0.7682,174.24,5.01,0.0,0.0,0.0,0.0
1101,2/15/2012 21:00,0.6886,7.911899999999999,5.004,0.6886,24.206,1.0281,0.0,6.704999999999999,0.0,0.0,0.0,0.0
1102,2/15/2012 22:00,9.464400000000001,9.4341,15.022,9.464400000000001,25.017200000000003,1.2259,88.32,7.995,0.0,0.0,0.0,0.0
1103,2/15/2012 23:00,9.7438,65.6493,2.014,9.7438,4.4512,8.5307,1.6,55.635,0.0,0.0,0.0,0.0
1104,2/16/2012 0:00,9.6129,47.4537,1.7080000000000002,9.6129,3.6946000000000003,6.1663,2.46,40.215,0.0,0.0,0.0,0.0
1105,2/16/2012 1:00,2.7279999999999998,9.6996,2.0580000000000003,2.7279999999999998,2.9301999999999997,1.2604,25.5,8.22,0.0,0.0,0.0,0.0
1106,2/16/2012 2:00,2.7456,10.8324,2.5380000000000003,2.7456,2.4336,1.4076,37.76,9.18,0.0,0.0,0.0,0.0
1107,2/16/2012 3:00,2.3859,63.472199999999994,2.662,2.3859,2.0436,8.2478,8.18,53.79,0.0,0.0,0.0,0.0
1108,2/16/2012 4:00,1.8183,75.5082,19.212,1.8183,4.8515999999999995,9.8118,3.8600000000000003,63.989999999999995,0.0,0.0,0.0,0.0
1109,2/16/2012 5:00,1.3639999999999999,90.624,2.436,1.3639999999999999,6.9966,11.776,6.12,76.8,0.0,0.0,0.0,0.0
1110,2/16/2012 6:00,10.440100000000001,99.06689999999999,0.14800000000000002,10.440100000000001,25.225199999999997,12.873099999999999,8.32,83.955,0.0,0.0,0.0,0.0
1111,2/16/2012 7:00,10.3136,103.2441,0.15800000000000003,10.3136,0.21320000000000003,13.4159,192.54,87.495,0.0,0.0,0.0,0.0
1112,2/16/2012 8:00,10.241,102.4653,0.194,10.241,0.21320000000000003,13.314699999999998,198.45999999999998,86.835,0.0,0.0,0.0,0.0
1113,2/16/2012 9:00,10.3191,3.2391,3.752,10.3191,1.053,0.4209,173.16,2.745,3.5300290799999994,3.5300290799999994,3.5300290799999994,3.5300290799999994
1114,2/16/2012 10:00,1.2187999999999999,158.5035,4.024,1.2187999999999999,1.1674,20.5965,146.36,134.325,3.2844201699999998,3.2844201699999998,3.2844201699999998,3.2844201699999998
1115,2/16/2012 11:00,1.3475,114.62519999999999,3.6759999999999997,1.3475,1.5262,14.894799999999998,129.38,97.13999999999999,4.37377578,4.37377578,4.37377578,4.37377578
1116,2/16/2012 12:00,1.2595,52.3743,5.838,1.2595,1.6691999999999998,6.8057,119.24,44.385,4.776196,4.776196,4.776196,4.776196
1117,2/16/2012 13:00,10.8977,62.5518,15.484,10.8977,1.5366,8.1282,77.25999999999999,53.01,5.16126382,5.16126382,5.16126382,5.16126382
1118,2/16/2012 14:00,10.9186,8.2659,5.294,10.9186,14.144000000000002,1.0741,52.739999999999995,7.005,5.30409241,5.30409241,5.30409241,5.30409241
1119,2/16/2012 15:00,10.911999999999999,11.0625,5.322,10.911999999999999,6.864000000000001,1.4375,52.16,9.375,5.03696193,5.03696193,5.03696193,5.03696193
1120,2/16/2012 16:00,10.8636,6.672899999999999,4.372,10.8636,15.9926,0.8671,128.62,5.654999999999999,4.56107246,4.56107246,4.56107246,4.56107246
1121,2/16/2012 17:00,10.7217,112.749,2.18,10.7217,16.25,14.651,30.36,95.55,3.0340368499999997,3.0340368499999997,3.0340368499999997,3.0340368499999997
1122,2/16/2012 18:00,10.663400000000001,8.6376,1.842,10.663400000000001,25.8024,1.1224,52.54,7.32,0.0,0.0,0.0,0.0
1123,2/16/2012 19:00,10.4588,22.231199999999998,1.7979999999999998,10.4588,19.299799999999998,2.8888,107.55999999999999,18.84,0.0,0.0,0.0,0.0
1124,2/16/2012 20:00,10.6766,31.9485,3.004,10.6766,0.0,4.1514999999999995,2.2800000000000002,27.075,0.0,0.0,0.0,0.0
1125,2/16/2012 21:00,10.8999,69.7734,4.792,10.8999,1.209,9.0666,7.16,59.13,0.0,0.0,0.0,0.0
1126,2/16/2012 22:00,11.0,55.524899999999995,5.046,11.0,15.834,7.2151,4.74,47.055,0.0,0.0,0.0,0.0
1127,2/16/2012 23:00,1.7941,1.9293,4.286,1.7941,16.25,0.2507,6.02,1.635,0.0,0.0,0.0,0.0
1128,2/17/2012 0:00,4.4022,159.5124,19.805999999999997,4.4022,15.321800000000001,20.7276,0.0,135.18,0.0,0.0,0.0,0.0
1129,2/17/2012 1:00,0.1199,158.5212,19.77,0.1199,13.881400000000001,20.598799999999997,0.0,134.34,0.0,0.0,0.0,0.0
1130,2/17/2012 2:00,6.1831000000000005,157.45919999999998,19.69,6.1831000000000005,13.0598,20.4608,0.0,133.44,0.0,0.0,0.0,0.0
1131,2/17/2012 3:00,11.0,0.0,19.588,11.0,12.896,0.0,0.0,0.0,0.0,0.0,0.0,0.0
1132,2/17/2012 4:00,11.0,8.6553,19.394,11.0,12.285,1.1247,0.0,7.335,0.0,0.0,0.0,0.0
1133,2/17/2012 5:00,11.0,114.2004,19.124000000000002,11.0,11.1462,14.8396,0.0,96.78,0.0,0.0,0.0,0.0
1134,2/17/2012 6:00,11.0,17.629199999999997,18.358,11.0,14.403999999999998,2.2908,0.0,14.94,0.0,0.0,0.0,0.0
1135,2/17/2012 7:00,11.0,164.4684,16.862,11.0,7.4958,21.3716,13.700000000000001,139.38,0.0,0.0,0.0,0.0
1136,2/17/2012 8:00,11.0,170.3625,0.0,11.0,7.7818000000000005,22.1375,0.0,144.375,0.0,0.0,0.0,0.0
1137,2/17/2012 9:00,0.4961,169.5306,13.002,0.4961,9.4978,22.0294,0.0,143.67,3.21803738,3.21803738,3.21803738,3.21803738
1138,2/17/2012 10:00,1.1583,21.1515,12.922,1.1583,13.052,2.7485,0.0,17.925,3.19863625,3.19863625,3.19863625,3.19863625
1139,2/17/2012 11:00,7.580100000000001,29.9307,1.32,7.580100000000001,17.5136,3.8893,0.0,25.365,4.0087295,4.0087295,4.0087295,4.0087295
1140,2/17/2012 12:00,0.39049999999999996,13.5405,1.036,0.39049999999999996,18.7122,1.7595,0.0,11.475,4.5824693,4.5824693,4.5824693,4.5824693
1141,2/17/2012 13:00,7.5977,3.4869,0.806,7.5977,18.4548,0.45309999999999995,0.0,2.9549999999999996,4.9629552100000005,4.9629552100000005,4.9629552100000005,4.9629552100000005
1142,2/17/2012 14:00,1.4806,4.8498,0.44000000000000006,1.4806,0.0,0.6302,0.0,4.11,5.56897648,5.56897648,5.56897648,5.56897648
1143,2/17/2012 15:00,10.4896,0.0,0.426,10.4896,0.0,0.0,194.23999999999998,0.0,5.2121265,5.2121265,5.2121265,5.2121265
1144,2/17/2012 16:00,10.5908,0.0,15.79,10.5908,0.0,0.0,194.98,0.0,4.39685852,4.39685852,4.39685852,4.39685852
1145,2/17/2012 17:00,0.1397,0.0,16.286,0.1397,24.6402,0.0,194.70000000000002,0.0,2.9984876700000003,2.9984876700000003,2.9984876700000003,2.9984876700000003
1146,2/17/2012 18:00,0.0,0.0,17.722,0.0,25.2226,0.0,193.46,0.0,0.0,0.0,0.0,0.0
1147,2/17/2012 19:00,4.6783,3.3453,16.788,4.6783,25.5164,0.4347,190.94,2.835,0.0,0.0,0.0,0.0
1148,2/17/2012 20:00,11.0,133.1748,0.0,11.0,25.584000000000003,17.3052,185.2,112.86,0.0,0.0,0.0,0.0
1149,2/17/2012 21:00,0.1903,154.7157,0.48800000000000004,0.1903,18.7408,20.1043,179.7,131.115,0.0,0.0,0.0,0.0
1150,2/17/2012 22:00,7.001499999999999,0.0,0.548,7.001499999999999,17.4824,0.0,191.16,0.0,0.0,0.0,0.0,0.0
1151,2/17/2012 23:00,8.1235,0.0,0.736,8.1235,15.9926,0.0,26.68,0.0,0.0,0.0,0.0,0.0
1152,2/18/2012 0:00,0.0869,1.6638000000000002,1.128,0.0869,14.588600000000001,0.2162,165.52,1.4100000000000001,0.0,0.0,0.0,0.0
1153,2/18/2012 1:00,0.0,1.8231,12.436,0.0,13.5668,0.2369,155.18,1.545,0.0,0.0,0.0,0.0
1154,2/18/2012 2:00,0.0,1.4337,11.986,0.0,13.0416,0.1863,142.78,1.2149999999999999,0.0,0.0,0.0,0.0
1155,2/18/2012 3:00,6.9432,174.1857,11.434,6.9432,11.908,22.6343,149.0,147.615,0.0,0.0,0.0,0.0
1156,2/18/2012 4:00,5.548399999999999,170.9112,10.25,5.548399999999999,9.424999999999999,22.2088,145.16,144.84,0.0,0.0,0.0,0.0
1157,2/18/2012 5:00,0.0,94.81889999999999,19.534,0.0,8.489,12.3211,76.5,80.35499999999999,0.0,0.0,0.0,0.0
1158,2/18/2012 6:00,1.2639,74.95949999999999,19.526,1.2639,15.7248,9.740499999999999,4.06,63.525,0.0,0.0,0.0,0.0
1159,2/18/2012 7:00,0.8019000000000001,49.931700000000006,19.452,0.8019000000000001,9.5134,6.488300000000001,141.08,42.315000000000005,0.0,0.0,0.0,0.0
1160,2/18/2012 8:00,2.5476,26.213700000000003,19.48,2.5476,12.1238,3.4063000000000003,46.2,22.215,0.0,0.0,0.0,0.0
1161,2/18/2012 9:00,1.3013000000000001,82.8714,19.536,1.3013000000000001,12.1862,10.7686,28.54,70.23,3.5749454700000003,3.5749454700000003,3.5749454700000003,3.5749454700000003
1162,2/18/2012 10:00,0.42019999999999996,0.0,19.614,0.42019999999999996,11.803999999999998,0.0,189.78,0.0,3.31503294,3.31503294,3.31503294,3.31503294
1163,2/18/2012 11:00,0.3443,66.4281,19.688000000000002,0.3443,12.8596,8.6319,185.92,56.295,4.13704026,4.13704026,4.13704026,4.13704026
1164,2/18/2012 12:00,0.7425,69.2778,0.0,0.7425,14.3832,9.0022,177.89999999999998,58.71,4.78613636,4.78613636,4.78613636,4.78613636
1165,2/18/2012 13:00,0.0,2.4249,8.372,0.0,1.456,0.3151,163.2,2.055,5.16066758,5.16066758,5.16066758,5.16066758
1166,2/18/2012 14:00,0.0,3.8763,8.284,0.0,25.1628,0.5037,133.6,3.2849999999999997,5.2615842,5.2615842,5.2615842,5.2615842
1167,2/18/2012 15:00,3.5221999999999998,6.141900000000001,19.442,3.5221999999999998,7.6778,0.7981,131.0,5.205,5.12210952,5.12210952,5.12210952,5.12210952
1168,2/18/2012 16:00,0.231,69.82650000000001,19.168,0.231,6.050199999999999,9.073500000000001,13.420000000000002,59.175000000000004,4.4661985600000005,4.4661985600000005,4.4661985600000005,4.4661985600000005
1169,2/18/2012 17:00,0.6006,6.1065000000000005,0.292,0.6006,5.3222,0.7935000000000001,2.6599999999999997,5.175000000000001,3.27752577,3.27752577,3.27752577,3.27752577
1170,2/18/2012 18:00,1.0395,5.31,0.402,1.0395,4.9192,0.69,2.06,4.5,0.0,0.0,0.0,0.0
1171,2/18/2012 19:00,1.0977999999999999,17.3106,0.546,1.0977999999999999,4.7398,2.2494,185.42000000000002,14.67,0.0,0.0,0.0,0.0
1172,2/18/2012 20:00,5.5792,2.2656,1.4680000000000002,5.5792,24.0396,0.2944,148.58,1.9200000000000002,0.0,0.0,0.0,0.0
1173,2/18/2012 21:00,7.3282,35.046,15.828,7.3282,24.1566,4.554,167.26000000000002,29.700000000000003,0.0,0.0,0.0,0.0
1174,2/18/2012 22:00,8.5701,20.638199999999998,0.548,8.5701,24.362000000000002,2.6818,180.06,17.49,0.0,0.0,0.0,0.0
1175,2/18/2012 23:00,9.2653,132.219,9.559999999999999,9.2653,20.176,17.181,185.92,112.05,0.0,0.0,0.0,0.0
1176,2/19/2012 0:00,10.5171,172.752,10.982000000000001,10.5171,20.228,22.448,188.76,146.4,0.0,0.0,0.0,0.0
1177,2/19/2012 1:00,7.177499999999999,4.3896,9.878,7.177499999999999,19.9342,0.5704,1.54,3.7199999999999998,0.0,0.0,0.0,0.0
1178,2/19/2012 2:00,6.0115,148.8039,6.854,6.0115,19.8874,19.336100000000002,106.78,126.105,0.0,0.0,0.0,0.0
1179,2/19/2012 3:00,4.6563,88.6947,6.242,4.6563,22.7552,11.5253,3.92,75.16499999999999,0.0,0.0,0.0,0.0
1180,2/19/2012 4:00,3.0877,155.2644,5.098000000000001,3.0877,25.09,20.1756,2.7199999999999998,131.57999999999998,0.0,0.0,0.0,0.0
1181,2/19/2012 5:00,0.0,2.0709,4.068,0.0,2.3634,0.2691,2.06,1.7550000000000001,0.0,0.0,0.0,0.0
1182,2/19/2012 6:00,0.8118000000000001,137.9007,3.356,0.8118000000000001,0.6734,17.9193,1.6,116.86500000000001,0.0,0.0,0.0,0.0
1183,2/19/2012 7:00,1.8799,146.6622,3.01,1.8799,26.0,19.0578,174.76,124.29,0.0,0.0,0.0,0.0
1184,2/19/2012 8:00,0.5313,112.3773,3.512,0.5313,26.0,14.6027,180.24,95.235,0.44433524,0.44433524,0.44433524,0.44433524
1185,2/19/2012 9:00,1.9767,0.0,3.3579999999999997,1.9767,26.0,0.0,85.76,0.0,2.76313894,2.76313894,2.76313894,2.76313894
1186,2/19/2012 10:00,1.4355,177.0,2.18,1.4355,26.0,23.0,0.0,150.0,2.73906403,2.73906403,2.73906403,2.73906403
1187,2/19/2012 11:00,0.2079,177.0,20.0,0.2079,16.5594,23.0,0.0,150.0,3.9902271700000003,3.9902271700000003,3.9902271700000003,3.9902271700000003
1188,2/19/2012 12:00,10.6018,64.6404,1.9620000000000002,10.6018,14.268799999999999,8.399600000000001,0.0,54.78,4.87458809,4.87458809,4.87458809,4.87458809
1189,2/19/2012 13:00,0.4708,0.0,1.2640000000000002,0.4708,25.201800000000002,0.0,0.0,0.0,5.58278047,5.58278047,5.58278047,5.58278047
1190,2/19/2012 14:00,8.9133,0.0,6.962000000000001,8.9133,25.0562,0.0,0.0,0.0,5.39826647,5.39826647,5.39826647,5.39826647
1191,2/19/2012 15:00,10.604000000000001,0.0,0.97,10.604000000000001,24.947,0.0,160.7,0.0,5.10029402,5.10029402,5.10029402,5.10029402
1192,2/19/2012 16:00,7.901300000000001,0.0,1.172,7.901300000000001,25.012,0.0,7.62,0.0,4.38684776,4.38684776,4.38684776,4.38684776
1193,2/19/2012 17:00,7.342499999999999,1.5576,1.916,7.342499999999999,24.9132,0.20240000000000002,7.200000000000001,1.32,2.8210634499999996,2.8210634499999996,2.8210634499999996,2.8210634499999996
1194,2/19/2012 18:00,7.167599999999999,1.9647000000000001,3.0580000000000003,7.167599999999999,0.8553999999999999,0.2553,6.9,1.665,0.0,0.0,0.0,0.0
1195,2/19/2012 19:00,0.0,119.9883,0.594,0.0,12.8492,15.5917,3.4000000000000004,101.68499999999999,0.0,0.0,0.0,0.0
1196,2/19/2012 20:00,0.0847,122.7849,0.518,0.0847,24.4478,15.9551,194.04,104.05499999999999,0.0,0.0,0.0,0.0
1197,2/19/2012 21:00,1.5180000000000002,43.825199999999995,0.528,1.5180000000000002,24.024,5.6948,195.76,37.14,0.0,0.0,0.0,0.0
1198,2/19/2012 22:00,1.2606,29.027999999999995,0.558,1.2606,4.2432,3.7719999999999994,0.0,24.599999999999998,0.0,0.0,0.0,0.0
1199,2/19/2012 23:00,5.2503,17.912399999999998,0.5700000000000001,5.2503,2.0592,2.3276,0.0,15.18,0.0,0.0,0.0,0.0
1200,2/20/2012 0:00,0.0,11.6643,0.552,0.0,1.027,1.5157,0.0,9.885,0.0,0.0,0.0,0.0
1201,2/20/2012 1:00,0.0,6.9384,8.964,0.0,0.19240000000000002,0.9016,2.1,5.88,0.0,0.0,0.0,0.0
1202,2/20/2012 2:00,0.9669000000000001,3.717,15.922,0.9669000000000001,0.6682,0.48300000000000004,8.28,3.1500000000000004,0.0,0.0,0.0,0.0
1203,2/20/2012 3:00,0.21119999999999997,2.2125,3.1380000000000003,0.21119999999999997,0.2574,0.28750000000000003,139.2,1.875,0.0,0.0,0.0,0.0
1204,2/20/2012 4:00,0.2376,1.3629,7.556000000000001,0.2376,0.20540000000000003,0.1771,104.80000000000001,1.155,0.0,0.0,0.0,0.0
1205,2/20/2012 5:00,0.3399,0.0,7.188,0.3399,1.131,0.0,114.3,0.0,0.0,0.0,0.0,0.0
1206,2/20/2012 6:00,0.5907,0.0,6.682,0.5907,4.108,0.0,105.84,0.0,0.0,0.0,0.0,0.0
1207,2/20/2012 7:00,3.2504999999999997,0.0,6.021999999999999,3.2504999999999997,0.7071999999999999,0.0,197.45999999999998,0.0,0.0,0.0,0.0,0.0
1208,2/20/2012 8:00,0.0814,0.0,5.97,0.0814,9.3444,0.0,196.66,0.0,0.0648808,0.0648808,0.0648808,0.0648808
1209,2/20/2012 9:00,0.0,0.0,6.348000000000001,0.0,0.9906,0.0,200.0,0.0,0.39016924000000003,0.39016924000000003,0.39016924000000003,0.39016924000000003
1210,2/20/2012 10:00,0.0,48.3387,6.258,0.0,0.2834,6.2813,198.48,40.965,1.9489205,1.9489205,1.9489205,1.9489205
1211,2/20/2012 11:00,0.0,29.9484,6.292,0.0,7.9508,3.8916,80.56,25.38,3.12611401,3.12611401,3.12611401,3.12611401
1212,2/20/2012 12:00,2.9139000000000004,14.761800000000001,0.208,2.9139000000000004,6.3986,1.9182000000000001,200.0,12.51,4.27296821,4.27296821,4.27296821,4.27296821
1213,2/20/2012 13:00,0.1815,5.026800000000001,16.148,0.1815,0.2288,0.6532,195.6,4.260000000000001,4.58338703,4.58338703,4.58338703,4.58338703
1214,2/20/2012 14:00,0.1298,0.0,16.878,0.1298,2.1034,0.0,195.23999999999998,0.0,4.15176973,4.15176973,4.15176973,4.15176973
1215,2/20/2012 15:00,0.0,0.0,6.934,0.0,1.9812,0.0,195.16,0.0,3.5100331799999998,3.5100331799999998,3.5100331799999998,3.5100331799999998
1216,2/20/2012 16:00,0.0,1.7169,8.962,0.0,1.3052000000000001,0.22310000000000002,122.96000000000001,1.455,2.75416705,2.75416705,2.75416705,2.75416705
1217,2/20/2012 17:00,0.0,9.1686,18.698,0.0,0.7618,1.1914,118.78,7.77,1.79680225,1.79680225,1.79680225,1.79680225
1218,2/20/2012 18:00,0.0803,22.089599999999997,0.182,0.0803,4.6774000000000004,2.8704,116.06,18.72,0.0,0.0,0.0,0.0
1219,2/20/2012 19:00,0.20459999999999998,34.0017,0.186,0.20459999999999998,3.1382,4.4182999999999995,0.0,28.814999999999998,0.0,0.0,0.0,0.0
1220,2/20/2012 20:00,0.3597,92.3055,0.0,0.3597,3.1096,11.994499999999999,0.0,78.225,0.0,0.0,0.0,0.0
1221,2/20/2012 21:00,0.44439999999999996,89.1726,0.0,0.44439999999999996,2.9665999999999997,11.5874,74.02,75.57000000000001,0.0,0.0,0.0,0.0
1222,2/20/2012 22:00,0.5005,105.29729999999999,0.0,0.5005,0.0,13.6827,98.44000000000001,89.235,0.0,0.0,0.0,0.0
1223,2/20/2012 23:00,0.45539999999999997,99.63329999999999,15.294,0.45539999999999997,0.0,12.9467,0.0,84.43499999999999,0.0,0.0,0.0,0.0
1224,2/21/2012 0:00,0.3432,102.5361,11.562,0.3432,2.509,13.3239,101.2,86.89500000000001,0.0,0.0,0.0,0.0
1225,2/21/2012 1:00,0.1628,101.42099999999999,12.398,0.1628,7.360600000000001,13.178999999999998,103.8,85.94999999999999,0.0,0.0,0.0,0.0
1226,2/21/2012 2:00,0.0814,90.9957,12.490000000000002,0.0814,6.5208,11.824300000000001,9.700000000000001,77.115,0.0,0.0,0.0,0.0
1227,2/21/2012 3:00,1.4508999999999999,163.8135,7.954,1.4508999999999999,6.2114,21.2865,106.98,138.825,0.0,0.0,0.0,0.0
1228,2/21/2012 4:00,2.5333,171.33599999999998,6.9879999999999995,2.5333,0.585,22.264,106.08,145.2,0.0,0.0,0.0,0.0
1229,2/21/2012 5:00,3.2626,174.6282,2.68,3.2626,0.65,22.6918,9.16,147.99,0.0,0.0,0.0,0.0
1230,2/21/2012 6:00,3.6124,174.4866,7.683999999999999,3.6124,0.7071999999999999,22.6734,11.219999999999999,147.87,0.0,0.0,0.0,0.0
1231,2/21/2012 7:00,3.9864,48.4272,20.0,3.9864,0.8293999999999999,6.292800000000001,13.98,41.04,0.0,0.0,0.0,0.0
1232,2/21/2012 8:00,4.212999999999999,46.5156,20.0,4.212999999999999,1.2558,6.0443999999999996,17.4,39.419999999999995,0.82997502,0.82997502,0.82997502,0.82997502
1233,2/21/2012 9:00,0.1804,39.541799999999995,20.0,0.1804,15.5584,5.138199999999999,24.46,33.51,3.71191294,3.71191294,3.71191294,3.71191294
1234,2/21/2012 10:00,0.0,49.56,13.586,0.0,26.0,6.44,196.78,42.00000000000001,3.48384684,3.48384684,3.48384684,3.48384684
1235,2/21/2012 11:00,10.8658,87.66810000000001,0.356,10.8658,21.4006,11.3919,196.45999999999998,74.295,4.2897178600000005,4.2897178600000005,4.2897178600000005,4.2897178600000005
1236,2/21/2012 12:00,1.5180000000000002,93.5091,0.22000000000000003,1.5180000000000002,1.1804000000000001,12.1509,196.94,79.245,4.872969449999999,4.872969449999999,4.872969449999999,4.872969449999999
1237,2/21/2012 13:00,0.8403999999999999,138.8919,0.0,0.8403999999999999,5.1662,18.048099999999998,7.739999999999999,117.705,5.273518189999999,5.273518189999999,5.273518189999999,5.273518189999999
1238,2/21/2012 14:00,0.4609,37.152300000000004,0.0,0.4609,26.0,4.8277,174.62,31.485,5.161996800000001,5.161996800000001,5.161996800000001,5.161996800000001
1239,2/21/2012 15:00,0.2024,65.49,3.4899999999999998,0.2024,15.420599999999999,8.51,173.42,55.5,5.012021170000001,5.012021170000001,5.012021170000001,5.012021170000001
1240,2/21/2012 16:00,0.0,6.761399999999999,3.836,0.0,0.2886,0.8785999999999999,160.7,5.7299999999999995,4.491823220000001,4.491823220000001,4.491823220000001,4.491823220000001
1241,2/21/2012 17:00,0.0,111.47460000000001,0.0,0.0,0.41859999999999997,14.4854,10.14,94.47,3.10448344,3.10448344,3.10448344,3.10448344
1242,2/21/2012 18:00,7.7704,6.0710999999999995,0.0,7.7704,0.45500000000000007,0.7888999999999999,200.0,5.145,0.0,0.0,0.0,0.0
1243,2/21/2012 19:00,8.4216,2.5665,0.0,8.4216,17.8776,0.3335,66.67999999999999,2.1750000000000003,0.0,0.0,0.0,0.0
1244,2/21/2012 20:00,8.7087,0.0,0.0,8.7087,0.0,0.0,12.520000000000001,0.0,0.0,0.0,0.0,0.0
1245,2/21/2012 21:00,8.8429,7.8588000000000005,9.872,8.8429,0.6994,1.0212,9.56,6.66,0.0,0.0,0.0,0.0
1246,2/21/2012 22:00,9.0805,6.761399999999999,5.064,9.0805,14.929200000000002,0.8785999999999999,11.6,5.7299999999999995,0.0,0.0,0.0,0.0
1247,2/21/2012 23:00,9.812,4.2657,2.798,9.812,0.0,0.5543,7.000000000000001,3.6149999999999998,0.0,0.0,0.0,0.0
1248,2/22/2012 0:00,11.0,2.5134000000000003,1.8279999999999998,11.0,0.0,0.3266,77.34,2.1300000000000003,0.0,0.0,0.0,0.0
1249,2/22/2012 1:00,11.0,0.0,6.218,11.0,0.0,0.0,196.98,0.0,0.0,0.0,0.0,0.0
1250,2/22/2012 2:00,11.0,58.374599999999994,7.683999999999999,11.0,0.22100000000000003,7.5854,195.28,49.47,0.0,0.0,0.0,0.0
1251,2/22/2012 3:00,11.0,46.4625,8.726,11.0,22.1988,6.0375000000000005,0.0,39.375,0.0,0.0,0.0,0.0
1252,2/22/2012 4:00,0.9998999999999999,9.7704,8.334,0.9998999999999999,7.1786,1.2696,0.0,8.28,0.0,0.0,0.0,0.0
1253,2/22/2012 5:00,0.7216,3.2391,1.246,0.7216,9.0402,0.4209,0.0,2.745,0.0,0.0,0.0,0.0
1254,2/22/2012 6:00,0.4752,4.1595,0.764,0.4752,13.010399999999999,0.5405,185.3,3.525,0.0,0.0,0.0,0.0
1255,2/22/2012 7:00,0.3322,113.5101,1.146,0.3322,14.3078,14.7499,190.24,96.195,0.0,0.0,0.0,0.0
1256,2/22/2012 8:00,0.7930999999999999,78.42869999999999,0.518,0.7930999999999999,21.3824,10.1913,193.2,66.465,0.04569915,0.04569915,0.04569915,0.04569915
1257,2/22/2012 9:00,0.9481999999999999,54.2859,0.428,0.9481999999999999,24.1462,7.054099999999999,193.66,46.004999999999995,0.4425694400000001,0.4425694400000001,0.4425694400000001,0.4425694400000001
1258,2/22/2012 10:00,0.0,41.1525,1.342,0.0,24.2424,5.3475,193.14,34.875,1.00778244,1.00778244,1.00778244,1.00778244
1259,2/22/2012 11:00,0.0,116.0235,0.918,0.0,23.8342,15.0765,191.86,98.32499999999999,1.30387755,1.30387755,1.30387755,1.30387755
1260,2/22/2012 12:00,0.506,10.4076,0.27,0.506,14.9188,1.3524,84.6,8.82,2.03530211,2.03530211,2.03530211,2.03530211
1261,2/22/2012 13:00,6.963,2.655,0.252,6.963,11.4192,0.345,5.82,2.25,2.80956721,2.80956721,2.80956721,2.80956721
1262,2/22/2012 14:00,6.345899999999999,84.783,0.212,6.345899999999999,22.2742,11.017,75.96000000000001,71.85,1.17884631,1.17884631,1.17884631,1.17884631
1263,2/22/2012 15:00,11.0,90.1992,0.18000000000000002,11.0,22.503,11.7208,71.3,76.44000000000001,0.97618816,0.97618816,0.97618816,0.97618816
1264,2/22/2012 16:00,1.5158,19.2222,4.298,1.5158,22.4094,2.4978000000000002,63.22,16.29,0.66980308,0.66980308,0.66980308,0.66980308
1265,2/22/2012 17:00,1.4453999999999998,22.248900000000003,14.456,1.4453999999999998,22.516,2.8911000000000002,51.68000000000001,18.855,0.59338342,0.59338342,0.59338342,0.59338342
1266,2/22/2012 18:00,1.9789,71.4372,4.114,1.9789,1.5158,9.2828,46.7,60.54,0.03156989,0.03156989,0.03156989,0.03156989
1267,2/22/2012 19:00,1.9249999999999998,18.284100000000002,4.056,1.9249999999999998,0.78,2.3759,137.74,15.495000000000001,0.0,0.0,0.0,0.0
1268,2/22/2012 20:00,11.0,69.36630000000001,20.0,11.0,0.4888,9.0137,143.18,58.785000000000004,0.0,0.0,0.0,0.0
1269,2/22/2012 21:00,0.0,53.949600000000004,1.454,0.0,11.315199999999999,7.010400000000001,142.08,45.72,0.0,0.0,0.0,0.0
1270,2/22/2012 22:00,2.8072,173.7255,0.0,2.8072,0.3458,22.5745,173.16,147.225,0.0,0.0,0.0,0.0
1271,2/22/2012 23:00,3.1669,173.2476,13.008,3.1669,0.2496,22.5124,176.56,146.82,0.0,0.0,0.0,0.0
1272,2/23/2012 0:00,3.465,17.9301,8.732,3.465,0.0,2.3299,171.76,15.195,0.0,0.0,0.0,0.0
1273,2/23/2012 1:00,0.7986,18.3903,3.066,0.7986,0.0,2.3897,18.38,15.585,0.0,0.0,0.0,0.0
1274,2/23/2012 2:00,1.1869,2.8497,1.058,1.1869,0.0,0.3703,11.4,2.415,0.0,0.0,0.0,0.0
1275,2/23/2012 3:00,2.5366,4.0887,7.08,2.5366,0.0,0.5313,8.98,3.465,0.0,0.0,0.0,0.0
1276,2/23/2012 4:00,1.0053999999999998,5.31,6.498,1.0053999999999998,0.0,0.69,7.86,4.5,0.0,0.0,0.0,0.0
1277,2/23/2012 5:00,1.6643,7.9827,1.156,1.6643,0.0,1.0373,7.02,6.765000000000001,0.0,0.0,0.0,0.0
1278,2/23/2012 6:00,1.5202,159.9372,1.1400000000000001,1.5202,0.0,20.782799999999998,66.44,135.54,0.0,0.0,0.0,0.0
1279,2/23/2012 7:00,1.0087000000000002,36.515100000000004,0.738,1.0087000000000002,0.0,4.7449,47.74,30.945,0.0,0.0,0.0,0.0
1280,2/23/2012 8:00,0.7304,24.426000000000002,0.282,0.7304,0.0,3.1740000000000004,41.56,20.700000000000003,0.05682688000000001,0.05682688000000001,0.05682688000000001,0.05682688000000001
1281,2/23/2012 9:00,0.6545,3.3099000000000003,0.236,0.6545,0.0,0.43010000000000004,127.03999999999999,2.805,0.46288763,0.46288763,0.46288763,0.46288763
1282,2/23/2012 10:00,10.3411,165.7428,0.16,10.3411,0.0,21.5372,109.58000000000001,140.46,3.3930160299999996,3.3930160299999996,3.3930160299999996,3.3930160299999996
1283,2/23/2012 11:00,9.795499999999999,169.8669,7.812,9.795499999999999,0.0,22.0731,3.58,143.955,4.46049971,4.46049971,4.46049971,4.46049971
1284,2/23/2012 12:00,0.1375,171.513,6.870000000000001,0.1375,0.2314,22.287000000000003,54.779999999999994,145.35000000000002,2.51391867,2.51391867,2.51391867,2.51391867
1285,2/23/2012 13:00,0.3102,170.8758,19.759999999999998,0.3102,0.715,22.2042,55.779999999999994,144.81,4.9235970899999995,4.9235970899999995,4.9235970899999995,4.9235970899999995
1286,2/23/2012 14:00,4.9962,166.8048,9.17,4.9962,1.0218,21.6752,127.38000000000001,141.36,5.76331782,5.76331782,5.76331782,5.76331782
1287,2/23/2012 15:00,5.761800000000001,164.4507,7.156000000000001,5.761800000000001,0.9152,21.369300000000003,5.94,139.365,5.56849401,5.56849401,5.56849401,5.56849401
1288,2/23/2012 16:00,6.9212,124.8204,13.088,6.9212,0.585,16.2196,66.67999999999999,105.78,4.95602867,4.95602867,4.95602867,4.95602867
1289,2/23/2012 17:00,8.4392,104.8017,13.271999999999998,8.4392,0.3432,13.6183,153.24,88.815,3.9541053200000005,3.9541053200000005,3.9541053200000005,3.9541053200000005
1290,2/23/2012 18:00,9.377500000000001,18.9744,19.034,9.377500000000001,0.6058,2.4656000000000002,9.04,16.080000000000002,0.49498577,0.49498577,0.49498577,0.49498577
1291,2/23/2012 19:00,5.5616,61.50749999999999,18.796,5.5616,0.5277999999999999,7.9925,196.84,52.12499999999999,0.0,0.0,0.0,0.0
1292,2/23/2012 20:00,4.2999,3.8409,18.284,4.2999,0.8605999999999999,0.4991,192.88,3.255,0.0,0.0,0.0,0.0
1293,2/23/2012 21:00,2.6752,3.0267,7.588,2.6752,0.8034,0.39330000000000004,190.2,2.565,0.0,0.0,0.0,0.0
1294,2/23/2012 22:00,1.551,177.0,17.724,1.551,0.5746,23.0,172.45999999999998,150.0,0.0,0.0,0.0,0.0
1295,2/23/2012 23:00,0.9702,24.2136,20.0,0.9702,7.347600000000001,3.1464000000000003,185.42000000000002,20.52,0.0,0.0,0.0,0.0
1296,2/24/2012 0:00,1.7512,106.6956,19.85,1.7512,3.3982,13.8644,28.660000000000004,90.42,0.0,0.0,0.0,0.0
1297,2/24/2012 1:00,9.6503,174.1149,0.328,9.6503,1.0452,22.6251,191.86,147.555,0.0,0.0,0.0,0.0
1298,2/24/2012 2:00,0.0,3.2214,9.459999999999999,0.0,1.0659999999999998,0.4186,188.16,2.73,0.0,0.0,0.0,0.0
1299,2/24/2012 3:00,0.0,4.0179,7.028,0.0,0.7644,0.5221,185.8,3.4050000000000002,0.0,0.0,0.0,0.0
1300,2/24/2012 4:00,7.0432999999999995,2.0178000000000003,4.588,7.0432999999999995,0.8865999999999999,0.2622,186.14,1.71,0.0,0.0,0.0,0.0
1301,2/24/2012 5:00,7.3139,162.76919999999998,2.9299999999999997,7.3139,1.4014000000000002,21.1508,15.24,137.94,0.0,0.0,0.0,0.0
1302,2/24/2012 6:00,7.9728,153.4413,1.938,7.9728,25.727,19.9387,17.96,130.035,0.0,0.0,0.0,0.0
1303,2/24/2012 7:00,2.3705,105.72210000000001,3.252,2.3705,26.0,13.737900000000002,22.82,89.59500000000001,0.0,0.0,0.0,0.0
1304,2/24/2012 8:00,0.7942,1.2744,6.26,0.7942,6.2244,0.1656,35.86,1.08,1.5387383499999998,1.5387383499999998,1.5387383499999998,1.5387383499999998
1305,2/24/2012 9:00,9.438,0.0,3.0359999999999996,9.438,1.1154,0.0,43.22,0.0,4.30485816,4.30485816,4.30485816,4.30485816
1306,2/24/2012 10:00,9.8813,93.5268,4.412,9.8813,3.7596000000000003,12.1532,46.54,79.25999999999999,3.8904662100000005,3.8904662100000005,3.8904662100000005,3.8904662100000005
1307,2/24/2012 11:00,0.10229999999999999,68.02109999999999,9.904,0.10229999999999999,3.4268,8.838899999999999,44.96,57.644999999999996,4.80216782,4.80216782,4.80216782,4.80216782
1308,2/24/2012 12:00,10.4786,57.6312,4.7139999999999995,10.4786,3.458,7.4888,43.9,48.84,5.45618232,5.45618232,5.45618232,5.45618232
1309,2/24/2012 13:00,0.0,150.87480000000002,17.452,0.0,0.9178,19.6052,63.2,127.86000000000001,5.959780029999999,5.959780029999999,5.959780029999999,5.959780029999999
1310,2/24/2012 14:00,0.0,12.230699999999999,17.918,0.0,0.0,1.5893,84.17999999999999,10.364999999999998,6.13190162,6.13190162,6.13190162,6.13190162
1311,2/24/2012 15:00,0.12100000000000001,6.7437000000000005,0.19,0.12100000000000001,25.8076,0.8763000000000001,98.44000000000001,5.715,5.99690293,5.99690293,5.99690293,5.99690293
1312,2/24/2012 16:00,10.1794,5.2746,0.0,10.1794,0.0,0.6854,110.17999999999999,4.47,5.2854570700000005,5.2854570700000005,5.2854570700000005,5.2854570700000005
1313,2/24/2012 17:00,0.1045,157.6893,0.0,0.1045,0.0,20.4907,114.66000000000001,133.635,3.8843489399999998,3.8843489399999998,3.8843489399999998,3.8843489399999998
1314,2/24/2012 18:00,0.0836,152.5917,0.0,0.0836,0.0,19.8283,126.02,129.315,0.5221390400000001,0.5221390400000001,0.5221390400000001,0.5221390400000001
1315,2/24/2012 19:00,0.0,114.8553,0.0,0.0,0.2418,14.924700000000001,148.5,97.33500000000001,0.0,0.0,0.0,0.0
1316,2/24/2012 20:00,10.8592,56.887800000000006,0.17,10.8592,0.6006,7.392200000000001,165.72,48.21,0.0,0.0,0.0,0.0
1317,2/24/2012 21:00,10.7756,35.4531,0.252,10.7756,4.4408,4.6069,171.0,30.045,0.0,0.0,0.0,0.0
1318,2/24/2012 22:00,10.747,159.47699999999998,0.29000000000000004,10.747,4.1106,20.723,174.07999999999998,135.14999999999998,0.0,0.0,0.0,0.0
1319,2/24/2012 23:00,0.2937,62.1801,0.24,0.2937,2.6390000000000002,8.0799,183.72,52.695,0.0,0.0,0.0,0.0
1320,2/25/2012 0:00,1.463,106.377,1.792,1.463,2.2724,13.823,190.01999999999998,90.14999999999999,0.0,0.0,0.0,0.0
1321,2/25/2012 1:00,1.3343,105.49199999999999,3.9779999999999998,1.3343,2.4934,13.708,68.02,89.39999999999999,0.0,0.0,0.0,0.0
1322,2/25/2012 2:00,0.0,118.02359999999999,1.4480000000000002,0.0,20.3892,15.3364,12.4,100.02,0.0,0.0,0.0,0.0
1323,2/25/2012 3:00,0.0,102.6246,1.318,0.0,0.0,13.3354,189.46,86.97,0.0,0.0,0.0,0.0
1324,2/25/2012 4:00,0.0,19.0629,1.188,0.0,0.0,2.4771,187.7,16.155,0.0,0.0,0.0,0.0
1325,2/25/2012 5:00,0.0,16.5141,1.23,0.0,1.9032,2.1458999999999997,183.12,13.995,0.0,0.0,0.0,0.0
1326,2/25/2012 6:00,0.7490999999999999,14.3901,1.588,0.7490999999999999,1.6458,1.8699,6.18,12.195,0.0,0.0,0.0,0.0
1327,2/25/2012 7:00,5.1722,0.0,2.2800000000000002,5.1722,1.7107999999999999,0.0,16.439999999999998,0.0,0.0,0.0,0.0,0.0
1328,2/25/2012 8:00,5.1194,2.1417,0.742,5.1194,4.263999999999999,0.2783,34.28,1.815,0.18008803,0.18008803,0.18008803,0.18008803
1329,2/25/2012 9:00,4.5188,12.3546,0.522,4.5188,1.2298,1.6054,55.50000000000001,10.47,1.01109095,1.01109095,1.01109095,1.01109095
1330,2/25/2012 10:00,3.4848000000000003,34.8513,0.342,3.4848000000000003,3.0705999999999998,4.5287,79.02,29.535,4.153678579999999,4.153678579999999,4.153678579999999,4.153678579999999
1331,2/25/2012 11:00,2.6389,49.2237,0.288,2.6389,23.8394,6.3963,101.14000000000001,41.715,5.41827002,5.41827002,5.41827002,5.41827002
1332,2/25/2012 12:00,3.003,59.4366,0.322,3.003,0.3744,7.7234,127.56,50.37,6.631399060000001,6.631399060000001,6.631399060000001,6.631399060000001
1333,2/25/2012 13:00,3.8423,73.27799999999999,6.1739999999999995,3.8423,0.21839999999999998,9.522,153.46,62.099999999999994,6.59527144,6.59527144,6.59527144,6.59527144
1334,2/25/2012 14:00,4.7619,92.35860000000001,0.0,4.7619,0.0,12.0014,172.32,78.27000000000001,6.03214818,6.03214818,6.03214818,6.03214818
1335,2/25/2012 15:00,5.0842,173.0529,0.0,5.0842,0.585,22.4871,181.12,146.655,5.78736352,5.78736352,5.78736352,5.78736352
1336,2/25/2012 16:00,3.9478999999999997,172.0086,13.98,3.9478999999999997,0.43939999999999996,22.351399999999998,2.48,145.77,4.99597774,4.99597774,4.99597774,4.99597774
1337,2/25/2012 17:00,2.0273,171.9378,0.21000000000000002,2.0273,19.4922,22.342200000000002,179.29999999999998,145.71,2.8508598399999996,2.8508598399999996,2.8508598399999996,2.8508598399999996
1338,2/25/2012 18:00,0.8921000000000001,172.8582,2.336,0.8921000000000001,22.2222,22.4618,163.54,146.49,0.388384,0.388384,0.388384,0.388384
1339,2/25/2012 19:00,0.9295000000000001,173.70780000000002,2.5119999999999996,0.9295000000000001,23.075,22.572200000000002,169.18,147.21,0.0,0.0,0.0,0.0
1340,2/25/2012 20:00,1.0934,175.2831,0.144,1.0934,22.5186,22.776899999999998,99.24,148.545,0.0,0.0,0.0,0.0
1341,2/25/2012 21:00,1.0604,177.0,0.39,1.0604,22.4042,23.0,129.9,150.0,0.0,0.0,0.0,0.0
1342,2/25/2012 22:00,1.0527,177.0,1.762,1.0527,22.136400000000002,23.0,0.0,150.0,0.0,0.0,0.0,0.0
1343,2/25/2012 23:00,1.1440000000000001,177.0,1.5959999999999999,1.1440000000000001,21.590400000000002,23.0,36.84,150.0,0.0,0.0,0.0,0.0
1344,2/26/2012 0:00,1.4014000000000002,177.0,0.0,1.4014000000000002,2.275,23.0,58.32000000000001,150.0,0.0,0.0,0.0,0.0
1345,2/26/2012 1:00,1.6995,51.276900000000005,0.0,1.6995,1.2272,6.6631,88.06,43.455000000000005,0.0,0.0,0.0,0.0
1346,2/26/2012 2:00,1.8568,49.2414,19.663999999999998,1.8568,0.5928,6.3986,170.34,41.730000000000004,0.0,0.0,0.0,0.0
1347,2/26/2012 3:00,1.9074,44.5686,19.284,1.9074,0.2704,5.7914,148.14000000000001,37.77,0.0,0.0,0.0,0.0
1348,2/26/2012 4:00,2.541,51.0114,14.55,2.541,0.0,6.6286000000000005,120.22,43.230000000000004,0.0,0.0,0.0,0.0
1349,2/26/2012 5:00,4.2691,50.462700000000005,14.174,4.2691,0.0,6.557300000000001,0.0,42.765,0.0,0.0,0.0,0.0
1350,2/26/2012 6:00,6.2964,141.6354,14.008000000000001,6.2964,0.0,18.404600000000002,2.2399999999999998,120.03,0.0,0.0,0.0,0.0
1351,2/26/2012 7:00,0.26180000000000003,101.7042,13.572,0.26180000000000003,0.0,13.2158,1.44,86.19,0.0,0.0,0.0,0.0
1352,2/26/2012 8:00,0.7645000000000001,59.525099999999995,19.55,0.7645000000000001,0.0,7.7349,4.14,50.445,1.7774569800000002,1.7774569800000002,1.7774569800000002,1.7774569800000002
1353,2/26/2012 9:00,1.4762000000000002,29.116500000000002,19.742,1.4762000000000002,9.1572,3.7835,10.639999999999999,24.675,3.71744203,3.71744203,3.71744203,3.71744203
1354,2/26/2012 10:00,1.8711,18.585,15.46,1.8711,9.074,2.415,48.32,15.75,4.44649119,4.44649119,4.44649119,4.44649119
1355,2/26/2012 11:00,4.8301,15.558300000000001,18.864,4.8301,1.4768000000000001,2.0217,20.16,13.185,5.63487447,5.63487447,5.63487447,5.63487447
1356,2/26/2012 12:00,6.267799999999999,16.000799999999998,19.03,6.267799999999999,0.20800000000000002,2.0791999999999997,21.52,13.559999999999999,6.45375321,6.45375321,6.45375321,6.45375321
1357,2/26/2012 13:00,5.4571,18.6558,19.259999999999998,5.4571,0.1898,2.4242,31.4,15.809999999999999,6.09308252,6.09308252,6.09308252,6.09308252
1358,2/26/2012 14:00,7.5108,7.5402,19.419999999999998,7.5108,0.0,0.9798,197.4,6.39,6.220206070000001,6.220206070000001,6.220206070000001,6.220206070000001
1359,2/26/2012 15:00,5.8046999999999995,115.8111,17.932,5.8046999999999995,0.0,15.0489,197.54,98.145,5.67553861,5.67553861,5.67553861,5.67553861
1360,2/26/2012 16:00,4.8741,94.42949999999999,2.012,4.8741,26.0,12.2705,115.74,80.02499999999999,4.80664933,4.80664933,4.80664933,4.80664933
1361,2/26/2012 17:00,4.5837,105.88139999999999,2.406,4.5837,26.0,13.7586,117.88000000000001,89.72999999999999,3.5163386,3.5163386,3.5163386,3.5163386
1362,2/26/2012 18:00,4.5144,100.5537,1.1500000000000001,4.5144,16.7232,13.066300000000002,197.64,85.215,0.5238469299999999,0.5238469299999999,0.5238469299999999,0.5238469299999999
1363,2/26/2012 19:00,4.360399999999999,9.823500000000001,1.3439999999999999,4.360399999999999,0.5304,1.2765,197.54,8.325,0.0,0.0,0.0,0.0
1364,2/26/2012 20:00,6.534,16.2486,1.3860000000000001,6.534,0.42379999999999995,2.1114,200.0,13.770000000000001,0.0,0.0,0.0,0.0
1365,2/26/2012 21:00,2.8897,18.7974,1.522,2.8897,0.4628,2.4426,200.0,15.93,0.0,0.0,0.0,0.0
1366,2/26/2012 22:00,2.4233,20.7444,1.7080000000000002,2.4233,12.2278,2.6955999999999998,200.0,17.58,0.0,0.0,0.0,0.0
1367,2/26/2012 23:00,2.1329,5.1507000000000005,1.916,2.1329,0.44200000000000006,0.6693,200.0,4.365,0.0,0.0,0.0,0.0
1368,2/27/2012 0:00,1.9822,6.2658000000000005,2.212,1.9822,0.0,0.8142,9.1,5.3100000000000005,0.0,0.0,0.0,0.0
1369,2/27/2012 1:00,1.7402000000000002,120.3777,2.544,1.7402000000000002,0.0,15.6423,9.1,102.015,0.0,0.0,0.0,0.0
1370,2/27/2012 2:00,7.4338,2.0000999999999998,2.584,7.4338,13.886600000000001,0.25989999999999996,10.42,1.6949999999999998,0.0,0.0,0.0,0.0
1371,2/27/2012 3:00,5.7772,1.4868,2.294,5.7772,1.9993999999999998,0.19319999999999998,13.120000000000001,1.26,0.0,0.0,0.0,0.0
1372,2/27/2012 4:00,4.2735,1.416,2.8560000000000003,4.2735,2.327,0.184,42.16,1.2,0.0,0.0,0.0,0.0
1373,2/27/2012 5:00,3.1702000000000004,2.0709,4.966,3.1702000000000004,2.4856000000000003,0.2691,32.379999999999995,1.7550000000000001,0.0,0.0,0.0,0.0
1374,2/27/2012 6:00,2.2143,149.6889,6.48,2.2143,25.3448,19.4511,24.12,126.855,0.0,0.0,0.0,0.0
1375,2/27/2012 7:00,1.1340999999999999,133.1925,7.2780000000000005,1.1340999999999999,25.225199999999997,17.307499999999997,21.86,112.87499999999999,0.0,0.0,0.0,0.0
1376,2/27/2012 8:00,1.8854,5.894100000000001,7.659999999999999,1.8854,25.025000000000002,0.7659,197.82,4.995,0.28452524,0.28452524,0.28452524,0.28452524
1377,2/27/2012 9:00,1.221,0.0,8.62,1.221,24.7728,0.0,198.3,0.0,1.35760212,1.35760212,1.35760212,1.35760212
1378,2/27/2012 10:00,0.44880000000000003,18.3903,9.488,0.44880000000000003,24.4556,2.3897,196.52,15.585,2.16224248,2.16224248,2.16224248,2.16224248
1379,2/27/2012 11:00,0.36850000000000005,13.1688,8.734,0.36850000000000005,24.299599999999998,1.7111999999999998,30.520000000000003,11.159999999999998,3.2528559,3.2528559,3.2528559,3.2528559
1380,2/27/2012 12:00,0.4972,3.9471000000000003,8.936,0.4972,24.299599999999998,0.5129,36.96,3.345,3.5500079,3.5500079,3.5500079,3.5500079
1381,2/27/2012 13:00,0.0,2.7081,10.362,0.0,0.0,0.3519,51.44,2.295,3.6155152299999997,3.6155152299999997,3.6155152299999997,3.6155152299999997
1382,2/27/2012 14:00,11.0,70.62299999999999,11.134,11.0,0.0,9.177,27.16,59.849999999999994,3.1294943600000003,3.1294943600000003,3.1294943600000003,3.1294943600000003
1383,2/27/2012 15:00,11.0,172.3626,16.561999999999998,11.0,0.0,22.3974,16.68,146.07,2.6575440500000003,2.6575440500000003,2.6575440500000003,2.6575440500000003
1384,2/27/2012 16:00,9.614,170.2032,10.404,9.614,0.0,22.1168,2.44,144.24,1.27716014,1.27716014,1.27716014,1.27716014
1385,2/27/2012 17:00,11.0,164.4861,9.868,11.0,0.0,21.3739,22.720000000000002,139.395,0.55653955,0.55653955,0.55653955,0.55653955
1386,2/27/2012 18:00,11.0,177.0,8.384,11.0,0.0,23.0,68.62,150.0,0.07118466,0.07118466,0.07118466,0.07118466
1387,2/27/2012 19:00,11.0,177.0,6.996,11.0,0.0,23.0,125.14,150.0,0.0,0.0,0.0,0.0
1388,2/27/2012 20:00,11.0,177.0,19.184,11.0,0.0,23.0,141.04000000000002,150.0,0.0,0.0,0.0,0.0
1389,2/27/2012 21:00,11.0,177.0,18.968,11.0,1.1284,23.0,127.06,150.0,0.0,0.0,0.0,0.0
1390,2/27/2012 22:00,3.2802000000000002,177.0,18.54,3.2802000000000002,2.0566,23.0,6.3,150.0,0.0,0.0,0.0,0.0
1391,2/27/2012 23:00,0.231,177.0,17.898,0.231,3.315,23.0,149.28,150.0,0.0,0.0,0.0,0.0
1392,2/28/2012 0:00,0.1914,177.0,17.14,0.1914,21.8608,23.0,179.85999999999999,150.0,0.0,0.0,0.0,0.0
1393,2/28/2012 1:00,0.1672,0.0,16.419999999999998,0.1672,22.373,0.0,51.25999999999999,0.0,0.0,0.0,0.0,0.0
1394,2/28/2012 2:00,1.8721999999999999,0.0,16.172,1.8721999999999999,22.575799999999997,0.0,188.02,0.0,0.0,0.0,0.0,0.0
1395,2/28/2012 3:00,3.5122999999999998,1.416,19.742,3.5122999999999998,22.401600000000002,0.184,195.66,1.2,0.0,0.0,0.0,0.0
1396,2/28/2012 4:00,2.2616,19.0275,20.0,2.2616,22.032400000000003,2.4725,198.36,16.125,0.0,0.0,0.0,0.0
1397,2/28/2012 5:00,2.0625,10.6731,20.0,2.0625,20.943,1.3869,200.0,9.045,0.0,0.0,0.0,0.0
1398,2/28/2012 6:00,1.7457,129.3162,19.738,1.7457,19.1698,16.8038,11.700000000000001,109.59,0.0,0.0,0.0,0.0
1399,2/28/2012 7:00,10.8207,8.000399999999999,19.59,10.8207,19.1204,1.0395999999999999,82.92,6.779999999999999,0.0,0.0,0.0,0.0
1400,2/28/2012 8:00,10.8185,8.0535,0.0,10.8185,16.5256,1.0465,147.54,6.825,1.40570592,1.40570592,1.40570592,1.40570592
1401,2/28/2012 9:00,4.6387,6.195,0.242,4.6387,12.1888,0.805,179.46,5.250000000000001,2.27606077,2.27606077,2.27606077,2.27606077
1402,2/28/2012 10:00,2.7796999999999996,4.9737,0.308,2.7796999999999996,8.119800000000001,0.6463,67.78,4.215,2.54706388,2.54706388,2.54706388,2.54706388
1403,2/28/2012 11:00,1.1726,177.0,5.876,1.1726,4.082,23.0,7.16,150.0,5.45311242,5.45311242,5.45311242,5.45311242
1404,2/28/2012 12:00,0.6908,169.5837,5.4799999999999995,0.6908,1.7524,22.036299999999997,31.259999999999998,143.715,6.225332960000001,6.225332960000001,6.225332960000001,6.225332960000001
1405,2/28/2012 13:00,5.2767,159.3177,4.792,5.2767,0.6162,20.7023,152.29999999999998,135.01500000000001,5.77004736,5.77004736,5.77004736,5.77004736
1406,2/28/2012 14:00,0.0,127.1568,12.764,0.0,1.1622,16.5232,151.44,107.76,3.92916751,3.92916751,3.92916751,3.92916751
1407,2/28/2012 15:00,2.1186,78.6411,12.362,2.1186,0.0,10.2189,156.68,66.645,4.26269598,4.26269598,4.26269598,4.26269598
1408,2/28/2012 16:00,1.1715,72.6231,11.238,1.1715,0.0,9.4369,160.12,61.545,3.0607899899999995,3.0607899899999995,3.0607899899999995,3.0607899899999995
1409,2/28/2012 17:00,3.0547,76.7826,9.436,3.0547,0.0,9.977400000000001,10.0,65.07000000000001,1.01306913,1.01306913,1.01306913,1.01306913
1410,2/28/2012 18:00,1.8414,68.7999,0.0,1.8414,0.8553999999999999,8.9401,3.56,58.305,0.08824481,0.08824481,0.08824481,0.08824481
1411,2/28/2012 19:00,1.0824,163.1409,0.0,1.0824,4.849,21.199099999999998,2.8400000000000003,138.255,0.0,0.0,0.0,0.0
1412,2/28/2012 20:00,0.8217,107.262,0.20400000000000001,0.8217,11.200800000000001,13.937999999999999,3.3000000000000003,90.89999999999999,0.0,0.0,0.0,0.0
1413,2/28/2012 21:00,0.8821999999999999,109.61609999999999,0.234,0.8821999999999999,17.849,14.2439,123.2,92.895,0.0,0.0,0.0,0.0
1414,2/28/2012 22:00,3.2373000000000003,4.3365,0.762,3.2373000000000003,20.4282,0.5635,99.68,3.6750000000000003,0.0,0.0,0.0,0.0
1415,2/28/2012 23:00,10.7118,17.3106,0.846,10.7118,20.157799999999998,2.2494,22.06,14.67,0.0,0.0,0.0,0.0
1416,2/29/2012 0:00,4.675,37.2585,18.416,4.675,3.1408,4.8415,24.4,31.575,0.0,0.0,0.0,0.0
1417,2/29/2012 1:00,10.6744,135.0333,4.47,10.6744,4.953,17.5467,36.88,114.435,0.0,0.0,0.0,0.0
1418,2/29/2012 2:00,3.6167999999999996,46.5864,19.668,3.6167999999999996,4.7658,6.053599999999999,34.760000000000005,39.48,0.0,0.0,0.0,0.0
1419,2/29/2012 3:00,10.2927,7.150799999999999,0.28600000000000003,10.2927,4.706,0.9291999999999999,43.76,6.06,0.0,0.0,0.0,0.0
1420,2/29/2012 4:00,9.738299999999999,4.602,0.246,9.738299999999999,5.0154,0.5980000000000001,96.66,3.9000000000000004,0.0,0.0,0.0,0.0
1421,2/29/2012 5:00,8.9815,0.0,0.14200000000000002,8.9815,0.3432,0.0,83.17999999999999,0.0,0.0,0.0,0.0,0.0
1422,2/29/2012 6:00,3.2021,165.9375,0.152,3.2021,0.0,21.5625,76.68,140.625,0.0,0.0,0.0,0.0
1423,2/29/2012 7:00,1.1462,76.46400000000001,0.496,1.1462,2.665,9.936000000000002,70.74000000000001,64.80000000000001,0.0,0.0,0.0,0.0
1424,2/29/2012 8:00,0.9174,5.1684,1.282,0.9174,7.228000000000001,0.6716,64.03999999999999,4.38,0.37269653,0.37269653,0.37269653,0.37269653
1425,2/29/2012 9:00,5.4879,3.8940000000000006,2.63,5.4879,3.9962,0.506,62.78,3.3000000000000003,1.58551896,1.58551896,1.58551896,1.58551896
1426,2/29/2012 10:00,0.8525,110.1117,3.09,0.8525,18.9306,14.3083,70.72,93.315,2.73566099,2.73566099,2.73566099,2.73566099
1427,2/29/2012 11:00,8.4216,0.0,7.196,8.4216,20.797400000000003,0.0,85.24000000000001,0.0,3.60428116,3.60428116,3.60428116,3.60428116
1428,2/29/2012 12:00,10.2168,23.4348,2.5280000000000005,10.2168,22.5264,3.0452,0.0,19.86,4.12059772,4.12059772,4.12059772,4.12059772
1429,2/29/2012 13:00,0.0,16.0716,3.0719999999999996,0.0,21.9934,2.0884,0.0,13.620000000000001,4.2647537799999995,4.2647537799999995,4.2647537799999995,4.2647537799999995
1430,2/29/2012 14:00,6.137999999999999,13.0272,2.338,6.137999999999999,23.857599999999998,1.6928,60.18,11.04,4.04137215,4.04137215,4.04137215,4.04137215
1431,2/29/2012 15:00,4.8697,41.6481,1.328,4.8697,2.158,5.4119,1.9800000000000002,35.295,3.45548001,3.45548001,3.45548001,3.45548001
1432,2/29/2012 16:00,4.6838,14.3901,0.868,4.6838,2.6675999999999997,1.8699,2.7199999999999998,12.195,2.54897201,2.54897201,2.54897201,2.54897201
1433,2/29/2012 17:00,10.6777,3.8940000000000006,0.78,10.6777,2.8287999999999998,0.506,3.5000000000000004,3.3000000000000003,1.38763479,1.38763479,1.38763479,1.38763479
1434,2/29/2012 18:00,9.3665,97.3677,1.984,9.3665,1.976,12.6523,3.42,82.515,0.22186772999999996,0.22186772999999996,0.22186772999999996,0.22186772999999996
1435,2/29/2012 19:00,0.0,79.5084,1.806,0.0,1.7342,10.3316,2.54,67.38,0.0,0.0,0.0,0.0
1436,2/29/2012 20:00,0.0,71.7204,0.6279999999999999,0.0,24.7962,9.3196,1.6400000000000001,60.78,0.0,0.0,0.0,0.0
1437,2/29/2012 21:00,10.740400000000001,63.454499999999996,0.2,10.740400000000001,0.3432,8.2455,0.0,53.775,0.0,0.0,0.0,0.0
1438,2/29/2012 22:00,9.819700000000001,54.0204,0.0,9.819700000000001,0.3094,7.0196000000000005,0.0,45.78,0.0,0.0,0.0,0.0
1439,2/29/2012 23:00,0.0,48.462599999999995,0.9279999999999999,0.0,0.0,6.2974,0.0,41.07,0.0,0.0,0.0,0.0
