Project Name,Owner,Location,Latitude,Longitude,Merra Grid Location,Substation Name,Substation Voltage,Start Year,Turbine Renewal Year,End Year,2018,2030,2050,Generator Type,Generator Type - CREST EMI,Installed Capacity,Dependable Capacity,Annual Average Energy - Unit,Capacity Factor,# of units,Cold Start,Warm Start,Hot Start,Inc Heat Rate @ Max ,Minimum Capacity,Maximum Capacity,Must Run,Minimum Up Time,Minimum Down Time,Operating Reserve Fraction,Spin Up Ramp Rate,Spin Down Ramp Rate,Ramp Rate Minimum,Ramp Rate Maximum,Start Up Ramp Limit,Shut Down Ramp Limit,Forced Outage Rate,Maintenance Days,Startup Fuel,Start Up Costs,Cycle Cold,Cycle Warm,Cycle Hot,Ramp Cost,Spinning Cost,Shut Down Costs,Fixed O&M Cost,Variable O&M Cost,Notes
Highway 101 Landfill,Highland Energy Inc,Sackville,44.8111611,-63.7758056,,Sackville 90H (69),69,2008,,2100,Yes,Yes,Yes,Biogas,waste,2,2,14.892,0.85,1,,,,,,,,,,,,,,,,,,,,,,,,,,,,,
Brooklyn Energy Centre,Emera Energy,Brooklyn,44.051547,-64.695611,,Milton 50W (138),69,1995,,2100,Yes,Yes,Yes,Biomass,waste,30,30,78.84,0.3,1,,,,,,,,,,,,,,,,,,,,,,,,,,,,,Assume 50% capacity factor
Port Hawkesbury Biomass,Nova Scotia Power Inc.,"Port Hawkesbury, CBI",45.5982,-61.3601,,St. Peters 59C,69,2013,,2100,Yes,Yes,Yes,Biomass,waste,61,0,161.622,0.302459016,1,,,,,,,T,,,,,,,,,,,,,,,,,,,,,,
Taylor Lumber,F W Taylor Ltd.,,45.0447486,-63.1389448,,Upper Musquodoboit 88H,69,1995,,2100,Yes,Yes,Yes,Biomass,waste,1.2,1.2,3.1536,0.3,1,,,,,,,,,,,,,,,,,,,,,,,,,,,,,Assume 50% capacity factor
Lingan_01,Nova Scotia Power Inc.,"Lingan, CBI",46.23939,-60.03802,,Lingan 88S (230),230,1979,,2039,Yes,Yes,No,Coal,coal,150,153,755.0244,0.5746,4,,,,10.237,70,146.5,,24,24,0.2,no cycling,no cycling,no cycling,no cycling,no cycling,no cycling,2.5,24,,,no cycling,no cycling,no cycling,,,,,,
Lingan_02,Nova Scotia Power Inc.,"Lingan, CBI",46.23939,-60.03802,,Lingan 88S (230),230,1980,,2020,Yes,No,No,Coal,coal,150,153,616.5288,0.5746,4,,,,10.246,70,146.5,,24,24,0.2,no cycling,no cycling,no cycling,no cycling,no cycling,no cycling,2.5,24,,,no cycling,no cycling,no cycling,,,,,,Assumed retirement mid-2020
Lingan_03,Nova Scotia Power Inc.,"Lingan, CBI",46.23939,-60.03802,,Lingan 88S (230),230,1983,,2039,Yes,Yes,No,Coal,coal,150,153,580.788,0.442,4,,,,10.19,70,149.7,T,24,24,0.19,no cycling,no cycling,no cycling,no cycling,no cycling,no cycling,2.5,24,,,no cycling,no cycling,no cycling,,,,,,
Lingan_04,Nova Scotia Power Inc.,"Lingan, CBI",46.23939,-60.03802,,Lingan 88S (230),230,1984,,2039,Yes,Yes,No,Coal,coal,153,153,835.4412,0.623333333,4,,,,10.037,70,146.5,,24,24,0.2,no cycling,no cycling,no cycling,no cycling,no cycling,no cycling,2.5,24,,,no cycling,no cycling,no cycling,,,,,,
Point Aconi Coal,Nova Scotia Power Inc.,"Point Aconi, CBI",46.320667,-60.330155,,Point Aconi 89S,230,1994,,2039,Yes,Yes,No,Coal,coal,165,171,1143.4428,0.791090909,1,,,,10.591,60,169.9,T,24,24,0,no cycling,no cycling,no cycling,no cycling,no cycling,no cycling,3,28,,,no cycling,no cycling,no cycling,,,,,,
Point Tupper Coal,Nova Scotia Power Inc.,"Point Tupper, CBI",45.587858,-61.348609,,Point Tupper 1C,138,1987,,2039,Yes,Yes,No,Coal,coal,150,152,940.9408,0.716088889,1,,,,9.855,65,149.4,,24,24,0.53,no cycling,no cycling,no cycling,no cycling,no cycling,no cycling,2,21,,,no cycling,no cycling,no cycling,,,,,,
Trenton_05,Nova Scotia Power Inc.,Trenton,45.6200697,-62.648179,,Trenton 50N,138,1969,2009,2035,Yes,Yes,No,Coal,coal,150,150,654.372,0.498,2,,,,9.993,70,139.7,,16,24,0.37,no cycling,no cycling,no cycling,no cycling,no cycling,no cycling,4,28,,,no cycling,no cycling,no cycling,,,,,,Summer Capacity = 135 MW
Trenton_06,Nova Scotia Power Inc.,Trenton,45.6200697,-62.648179,,Trenton 50N,138,1991,,2039,Yes,Yes,No,Coal,coal,160,157,1100.256,0.785,2,,,,10.007,70,155.4,,16,24,0.13,no cycling,no cycling,no cycling,no cycling,no cycling,no cycling,2.5,21,,,no cycling,no cycling,no cycling,,,,,,
Annapolis Tidal,Nova Scotia Power Inc.,Annapolis Royal,44.7530487,-65.5119483,,Annapolis 81V,69,1984,,2100,Yes,Yes,Yes,Hydro_daily,hydro_daily,19,2.3,29.266,0.175835136,1,,,,,0,19,,,,,,,,,,,,,,,,,,,,,,,
Avon_01,Nova Scotia Power Inc.,Windsor,44.881475,-64.2172948,,Avon 1V,69,1958,1992,2100,Yes,Yes,Yes,Hydro_daily,hydro_daily,3.75,3.75,11.279,0.343348554,2,,,,,0,3.75,,,,,,,,,,,,,,,,,,,,,,,
Avon_02,Nova Scotia Power Inc.,Windsor,44.881475,-64.2172948,,Avon 1V,69,1929,2004,2100,Yes,Yes,Yes,Hydro_daily,hydro_daily,3,3,11.41,0.434170472,2,,,,,0,3,,,,,,,,,,,,,,,,,,,,,,,
Bear River_01 (Gulch),Nova Scotia Power Inc.,Digby,44.567199,-65.6346243,,Gulch 13V,69,1952,,2100,Yes,Yes,Yes,Hydro_daily,hydro_daily,6.2,6.2,21.248,0.391221093,3,,,,,0,6.2,,,,,,,,,,,,,,,,,,,,,,,
Bear River_02 (Ridge),Nova Scotia Power Inc.,Digby,44.5537502,-65.5829562,,Ridge Hydro 14V,69,1957,,2100,Yes,Yes,Yes,Hydro_daily,hydro_daily,4.1,4.1,9.012,0.250918811,3,,,,,0,4.1,,,,,,,,,,,,,,,,,,,,,,,
Bear River_03 (Fourth Lake),Nova Scotia Power Inc.,Digby,44.3696145,-65.7192669,,Fourth Lake 91V,69,1983,1996,2100,Yes,Yes,Yes,Hydro_daily,hydro_daily,3.1,3.1,10.295,0.379105907,3,,,,,0,3.1,,,,,,,,,,,,,,,,,,,,,,,
Black River_01(Methals),Nova Scotia Power Inc.,Kentville,44.9396704,-64.431469,,Methals 7V,69,1949,1987,2100,Yes,Yes,Yes,Hydro_daily,hydro_daily,3.5,3.5,3.716,0.121200261,6,,,,,0.9,3.5,,,,,,,,,,,,,,,,,,,,,,,
Black River_02 (Hollow Bridge),Nova Scotia Power Inc.,Kentville,45.0036035,-64.376391,,Hollow Bridge 6V,69,1942,1996,2100,Yes,Yes,Yes,Hydro_daily,hydro_daily,5.5,5.5,23.186,0.481237028,6,,,,,1.5,5.5,,,,,,,,,,,,,,,,,,,,,,,
Black River_03 (Lumsden),Nova Scotia Power Inc.,Kentville,45.0274547,-64.3966973,,Lumsden 5V,69,1940,2012,2100,Yes,Yes,Yes,Hydro_daily,hydro_daily,2.9,2.9,10.641,0.418871044,6,,,,,0.8,2.9,,,,,,,,,,,,,,,,,,,,,,,
Black River_04 (Hell's Gate 1),Nova Scotia Power Inc.,Kentville,45.0466413,-64.412063,,Hells Gate 3V,69,1930,2005,2100,Yes,Yes,Yes,Hydro_daily,hydro_daily,3.5,3.5,17.548,0.572341813,6,,,,,0.9,3.5,,,,,,,,,,,,,,,,,,,,,,,
Black River_05 (Hell's Gate 2),Nova Scotia Power Inc.,Kentville,45.0466413,-64.412063,,Hells Gate 3V,69,1949,2003,2100,Yes,Yes,Yes,Hydro_daily,hydro_daily,3.7,3.7,15.603,0.481395779,6,,,,,1,3.7,,,,,,,,,,,,,,,,,,,,,,,
Black River_06 (White Rock),Nova Scotia Power Inc.,Kentville,45.0622527,-64.3806645,,Wolfville Ridge 83V,69,1952,1998,2100,Yes,Yes,Yes,Hydro_daily,hydro_daily,3.4,3.4,12.401,0.416364491,6,,,,,0.9,3.4,,,,,,,,,,,,,,,,,,,,,,,Presumed to be connected at Wolfville Ridge 83V
Dickie Brook_01,Nova Scotia Power Inc.,Guysborough,45.3491839,-61.5032432,,Dickie Brook 24C,69,1948,,2100,Yes,Yes,Yes,Hydro_daily,hydro_daily,1.2,1.2,3.756,0.357305936,2,,,,,0.03,1.2,,,,,,,,,,,,,,,,,,,,,,,
Dickie Brook_02,Nova Scotia Power Inc.,Guysborough,45.3491839,-61.5032432,,Dickie Brook 24C,69,1948,,2100,Yes,Yes,Yes,Hydro_daily,hydro_daily,2.6,2.6,3.756,0.164910432,2,,,,,0.07,2.6,,,,,,,,,,,,,,,,,,,,,,,
Lequille,Nova Scotia Power Inc.,Annapolis Royal,44.7266896,-65.4967373,,Lequille 12V,69,1968,1992,2100,Yes,Yes,Yes,Hydro_daily,hydro_daily,11.2,11.2,25.565,0.260569553,1,,,,,0,11.2,,,,,,,,,,,,,,,,,,,,,,,
Mersey_01 (Upper Lake Falls 1),Nova Scotia Power Inc.,Liverpool,44.1574147,-64.9983611,,Upper Lake Falls 1W,69,1929,,2100,Yes,Yes,Yes,Hydro_daily,hydro_daily,2.7,2.7,12.798,0.54109589,2,,,,,0.4,2.7,,,,,,,,,,,,,,,,,,,,,,,
Mersey_02 (Upper Lake Falls 2),Nova Scotia Power Inc.,Liverpool,44.1574147,-64.9983611,,Upper Lake Falls 1W,69,1929,,2100,Yes,Yes,Yes,Hydro_daily,hydro_daily,2.7,2.7,11.826,0.5,2,,,,,0.4,2.7,,,,,,,,,,,,,,,,,,,,,,,
Mersey_03 (Lower Lake Falls 1),Nova Scotia Power Inc.,Liverpool,44.1576852,-64.9772473,,Upper Lake Falls 1W,69,1929,,2100,Yes,Yes,Yes,Hydro_daily,hydro_daily,3.7,3.7,21.503,0.663427126,2,,,,,0.5,3.7,,,,,,,,,,,,,,,,,,,,,,,
Mersey_04 (Lower Lake Falls 2),Nova Scotia Power Inc.,Liverpool,44.1576852,-64.9772473,,Upper Lake Falls 1W,69,1929,,2100,Yes,Yes,Yes,Hydro_daily,hydro_daily,3.7,3.7,20.688,0.638282118,2,,,,,0.5,3.7,,,,,,,,,,,,,,,,,,,,,,,
Mersey_05 (Big Falls 1),Nova Scotia Power Inc.,Liverpool,44.1379675,-64.9353444,,Big Falls 3W,69,1929,,2100,Yes,Yes,Yes,Hydro_daily,hydro_daily,4.5,4.5,26.865,0.681506849,2,,,,,0.65,4.5,,,,,,,,,,,,,,,,,,,,,,,
Mersey_06 (Big Falls 2),Nova Scotia Power Inc.,Liverpool,44.1379675,-64.9353444,,Big Falls 3W,69,1929,,2100,Yes,Yes,Yes,Hydro_daily,hydro_daily,4.5,4.5,25.255,0.640664637,2,,,,,0.65,4.5,,,,,,,,,,,,,,,,,,,,,,,
Mersey_07 (Lower Great Brook 1),Nova Scotia Power Inc.,Liverpool,44.0900316,-64.8479533,,Lower Great Brook 4W,69,1955,,2100,Yes,Yes,Yes,Hydro_daily,hydro_daily,2.25,2.25,9.934,0.504008118,2,,,,,0.3,2.25,,,,,,,,,,,,,,,,,,,,,,,
Mersey_08 (Lower Great Brook 2),Nova Scotia Power Inc.,Liverpool,44.0900316,-64.8479533,,Lower Great Brook 4W,69,1955,,2100,Yes,Yes,Yes,Hydro_daily,hydro_daily,2.25,2.25,9.737,0.494013191,2,,,,,0.3,2.25,,,,,,,,,,,,,,,,,,,,,,,
Mersey_09 (Deep Brook 1),Nova Scotia Power Inc.,Liverpool,44.0804865,-64.790873,,Milton 50W (69),69,1950,,2100,Yes,Yes,Yes,Hydro_daily,hydro_daily,4.5,4.5,23.204,0.588635211,2,,,,,0.65,4.5,,,,,,,,,,,,,,,,,,,,,,,
Mersey_10 (Deep Brook 2),Nova Scotia Power Inc.,Liverpool,44.0804865,-64.790873,,Milton 50W (69),69,1950,,2100,Yes,Yes,Yes,Hydro_daily,hydro_daily,4.5,4.5,20.366,0.516641299,2,,,,,0.65,4.5,,,,,,,,,,,,,,,,,,,,,,,
Mersey_11(Cowie Falls 1),Nova Scotia Power Inc.,Liverpool,44.0743605,-64.7707187,,Milton 50W (69),69,1938,,2100,Yes,Yes,Yes,Hydro_daily,hydro_daily,3.6,3.6,18.449,0.585013952,2,,,,,0.5,3.6,,,,,,,,,,,,,,,,,,,,,,,
Mersey_12 (Cowie Falls 2),Nova Scotia Power Inc.,Liverpool,44.0743605,-64.7707187,,Milton 50W (69),69,1938,,2100,Yes,Yes,Yes,Hydro_daily,hydro_daily,3.6,3.6,17.35,0.550164891,2,,,,,0.5,3.6,,,,,,,,,,,,,,,,,,,,,,,
Nictaux,Nova Scotia Power Inc.,Annapolis Royal,44.9090621,-65.0298879,,Nictaux 10V,69,1954,2013,2100,Yes,Yes,Yes,Hydro_daily,hydro_daily,8.3,8.3,40.404,0.555702261,1,,,,,,,,,,,,,,,,,,,,,,,,,,,,,
Paradise,Nova Scotia Power Inc.,Annapolis Royal,44.8116915,-65.2185609,,Paradise 11V,69,1950,1999,2100,Yes,Yes,Yes,Hydro_daily,hydro_daily,4.7,4.7,23.028,0.559312154,1,,,,,,,,,,,,,,,,,,,,,,,,,,,,,
Sheet Harbour_01 (Ruth Falls 1),Nova Scotia Power Inc.,Sheet Harbour,44.9340747,-62.5005008,,Ruth Falls 96H,69,1925,,2100,Yes,Yes,Yes,Hydro_daily,hydro_daily,2.3,2.3,9.131994261,0.453245695,3,,,,,0.1,2.3,,,,,,,,,,,,,,,,,,,,,,,
Sheet Harbour_02 (Ruth Falls 2),Nova Scotia Power Inc.,Sheet Harbour,44.9340747,-62.5005008,,Ruth Falls 96H,69,1925,,2100,Yes,Yes,Yes,Hydro_daily,hydro_daily,2.8,2.8,9.131994261,0.372308964,3,,,,,0.1,2.8,,,,,,,,,,,,,,,,,,,,,,,
Sheet Harbour_03 (Ruth Falls 3),Nova Scotia Power Inc.,Sheet Harbour,44.9340747,-62.5005008,,Ruth Falls 96H,69,1936,,2100,Yes,Yes,Yes,Hydro_daily,hydro_daily,2.3,2.3,13.56101148,0.673069857,3,,,,,0.1,2.3,,,,,,,,,,,,,,,,,,,,,,,
Sheet Harbour_04 (Malay Falls 1),Nova Scotia Power Inc.,Sheet Harbour,44.9876604,-62.4840622,,Malay Falls  95H,69,1924,,2100,Yes,Yes,Yes,Hydro_daily,hydro_daily,1.15,1.15,4.087,0.405697836,3,,,,,0.03,1.15,,,,,,,,,,,,,,,,,,,,,,,
Sheet Harbour_05 (Malay Falls 2),Nova Scotia Power Inc.,Sheet Harbour,44.9876604,-62.4840622,,Malay Falls  95H,69,1924,,2100,Yes,Yes,Yes,Hydro_daily,hydro_daily,1.15,1.15,4.087,0.405697836,3,,,,,0.03,1.15,,,,,,,,,,,,,,,,,,,,,,,
Sheet Harbour_06 (Malay Falls 3),Nova Scotia Power Inc.,Sheet Harbour,44.9876604,-62.4840622,,Malay Falls  95H,69,1924,,2100,Yes,Yes,Yes,Hydro_daily,hydro_daily,1.1,1.1,4.087,0.424138647,3,,,,,0.03,1.1,,,,,,,,,,,,,,,,,,,,,,,
Sissiboo_01,Nova Scotia Power Inc.,Digby,44.4307563,-65.8722272,,Sissiboo 15V,69,1961,2015,2100,Yes,Yes,Yes,Hydro_daily,hydro_daily,5,5,25.731,0.587465753,1,,,,,1.2,5,,,,,,,,,,,,,,,,,,,,,,,
Sissiboo_02 (Weymouth 1),Nova Scotia Power Inc.,Digby,44.4075412,-65.9490865,,Weymouth 16V,69,1961,2010,2100,Yes,Yes,Yes,Hydro_daily,hydro_daily,9.5,9.5,20.479,0.246082672,2,,,,,2.4,9.5,,,,,,,,,,,,,,,,,,,,,,,
Sissiboo_03 (Weymouth 2),Nova Scotia Power Inc.,Digby,44.4075412,-65.9490865,,Weymouth 16V,69,1967,2013,2100,Yes,Yes,Yes,Hydro_daily,hydro_daily,9.5,9.5,20.479,0.246082672,2,,,,,2.4,9.5,,,,,,,,,,,,,,,,,,,,,,,
St. Margarets_01 (Mill Lake 1),Nova Scotia Power Inc.,Hubbards,44.711631,-63.8962257,,Tidewater 92H,138,1922,,2100,Yes,Yes,Yes,Hydro_daily,hydro_daily,1.3,1.3,1.865,0.16376888,2,,,,,0,1.3,,,,,,,,,,,,,,,,,,,,,,,
St. Margarets_02 (Mill Lake 2),Nova Scotia Power Inc.,Hubbards,44.711631,-63.8962257,,Tidewater 92H,138,1922,,2100,Yes,Yes,Yes,Hydro_daily,hydro_daily,1.3,1.3,1.821,0.159905163,2,,,,,0,1.3,,,,,,,,,,,,,,,,,,,,,,,
St. Margarets_03 (Sandy Lake 1),Nova Scotia Power Inc.,Hubbards,44.7116361,-63.8960403,,Tidewater 92H,138,1928,,2100,Yes,Yes,Yes,Hydro_daily,hydro_daily,1.8,1.8,6.445,0.408739219,2,,,,,0,1.8,,,,,,,,,,,,,,,,,,,,,,,
St. Margarets_04 (Sandy Lake 2),Nova Scotia Power Inc.,Hubbards,44.7116361,-63.8960403,,Tidewater 92H,138,1928,,2100,Yes,Yes,Yes,Hydro_daily,hydro_daily,1.8,1.8,4.624,0.293252156,2,,,,,0,1.8,,,,,,,,,,,,,,,,,,,,,,,
St. Margarets_05 (Tidewater 1),Nova Scotia Power Inc.,Hubbards,44.6914376,-63.8912912,,Tidewater 92H,138,1922,,2100,Yes,Yes,Yes,Hydro_daily,hydro_daily,2.3,2.3,5.383,0.26717292,2,,,,,0,2.3,,,,,,,,,,,,,,,,,,,,,,,
St. Margarets_06 (Tidewater 2),Nova Scotia Power Inc.,Hubbards,44.6914376,-63.8912912,,Tidewater 92H,138,1922,,2100,Yes,Yes,Yes,Hydro_daily,hydro_daily,2.3,2.3,5.238,0.259976176,2,,,,,0,2.3,,,,,,,,,,,,,,,,,,,,,,,
Tusket_01,Nova Scotia Power Inc.,Barrington,43.8821177,-65.9777568,,Tusket 9W (69),69,1929,1981,2100,Yes,Yes,Yes,Hydro_daily,hydro_daily,0.8,0.8,4.158666667,0.593417047,3,,,,,0.3,0.8,,,,,,,,,,,,,,,,,,,,,,,
Tusket_02,Nova Scotia Power Inc.,Barrington,43.8821177,-65.9777568,,Tusket 9W (69),69,1929,2014,2100,Yes,Yes,Yes,Hydro_daily,hydro_daily,0.8,0.8,4.158666667,0.593417047,3,,,,,0.3,0.8,,,,,,,,,,,,,,,,,,,,,,,
Tusket_03,Nova Scotia Power Inc.,Barrington,43.8821177,-65.9777568,,Tusket 9W (69),69,1929,2009,2100,Yes,Yes,Yes,Hydro_daily,hydro_daily,0.8,0.8,4.158666667,0.593417047,3,,,,,0.3,0.8,,,,,,,,,,,,,,,,,,,,,,,
Wreck Cove_01,Nova Scotia Power Inc.,"Wreck Cove, CBI",46.5676619,-60.5251892,,Wreck Cove 85S,138,1982,2007,2100,Yes,Yes,Yes,Hydro_daily,hydro_daily,106,106,157.66,0.169789782,1,,,,,0,106,,,,,,,,,,,,,,,,,,,,,,,"Limits: 500 MWh/day in Jun; 800 MWh/day in April, Jul-Nov; 1,100 MWh/day in Dec-Mar"
Wreck Cove_02,Nova Scotia Power Inc.,"Wreck Cove, CBI",46.5313884,-60.4402013,,Wreck Cove 85S,138,1978,1998,2100,Yes,Yes,Yes,Hydro_daily,hydro_daily,106,106,129.08,0.139010942,2,,,,,0,106,,,,,,,,,,,,,,,,,,,,,,,
Wreck Cove_03 (Gisborne),Nova Scotia Power Inc.,"Wreck Cove, CBI",46.5313884,-60.4402013,,Wreck Cove 85S,138,1978,2002,2100,Yes,Yes,Yes,Hydro_daily,hydro_daily,3.5,3.5,8.445,0.275440313,2,,,,,0,3.5,,,,,,,,,,,,,,,,,,,,,,,
Purchases - Newfoundland and Labrador,Nova Scotia Power Inc.,Woodbine,46.001905,-60.300171,,Woodbine 101S (345),345,2020,,2055,No,Yes,Yes,Hydro_monthly,hydro_monthly,153,151,894,0.667024801,1,,,,,,,,,,,,,,,,,,,,,,,,,,,,,
Tufts Cove_06,Nova Scotia Power Inc.,Dartmouth,44.676824,-63.595888,,Tuft's Cove 91H (138),138,2012,,2100,Yes,Yes,Yes,NG_CC,gas,49,49,115.70208,0.26955102,6,,,,8.256,0,50,,6,16,0.25,,,5,5,,,4,7,,,,,,,,,,,
Tufts Cove_04,Nova Scotia Power Inc.,Dartmouth,44.676824,-63.595888,,Tuft's Cove 91H (138),138,2003,,2100,Yes,Yes,Yes,NG_CT,gas,47,49,209.583,0.509042553,6,,,,9.826,0,49,,1,16,0.49,,,5,5,,,4,7,,,,,,,,,,,Summer Capacity = 47 MW
Tufts Cove_05,Nova Scotia Power Inc.,Dartmouth,44.676824,-63.595888,,Tuft's Cove 91H (138),138,2005,,2100,Yes,Yes,Yes,NG_CT,gas,47,49,215.3646,0.523085106,6,,,,9.826,0,49,,1,16,0.49,,,5,5,,,4,7,,,,,,,,,,,Summer capacity = 47 MW
Burnside_01,Nova Scotia Power Inc.,Dartmouth,44.713605,-63.582608,,Burnside GS 108H,138,1976,,2100,Yes,Yes,Yes,Oil_CT,peaker,30,33,1.890408,0.007193333,4,,,,11.678,0,33,,0,0,50,,,5,5,,,10,21,,,,,,,,,,,Summer Capacity = 25 MW
Burnside_02,Nova Scotia Power Inc.,Dartmouth,44.713605,-63.582608,,Burnside GS 108H,138,1976,,2100,Yes,Yes,Yes,Oil_CT,peaker,30,33,2.18124,0.0083,4,,,,11.678,0,33,,0,0,50,,,5,5,,,10,21,,,,,,,,,,,Summer Capacity = 25 MW
Burnside_03,Nova Scotia Power Inc.,Dartmouth,44.713605,-63.582608,,Burnside GS 108H,138,1976,,2100,Yes,Yes,Yes,Oil_CT,peaker,30,33,0.799788,0.003043333,4,,,,11.678,0,33,,0,0,50,,,5,5,,,10,21,,,,,,,,,,,Summer Capacity = 25 MW
Burnside_04,Nova Scotia Power Inc.,Dartmouth,44.713605,-63.582608,,Burnside GS 108H,138,1976,2018,2100,Yes,Yes,Yes,Oil_CT,peaker,30,33,0,0,4,,,,11.678,0,33,,0,0,50,,,5,5,,,10,21,,,,,,,,,,,Summer Capacity = 25 MW
Tusket Oil,Nova Scotia Power Inc.,Tusket,43.869748,-65.96841,,Tusket Oil GS 10W,69,1971,,2100,Yes,Yes,Yes,Oil_CT,peaker,24,24,0.1744992,0.00083,1,,,,13.435,0,25,,0,0,0.5,,,5,5,,,10,21,,,,,,,,,,,Summer Capacity = 21 MW
Victoria Junction_01,Nova Scotia Power Inc.,Victoria Junction,46.168098,-60.105435,,Victoria Junction 2S (138),138,1975,,2100,Yes,Yes,Yes,Oil_CT,peaker,30,33,0.145416,0.000553333,2,,,,11.678,0,33,,0,0,0.5,,,5,5,,,10,21,,,,,,,,,,,Summer Capacity = 25 MW
Victoria Junction_02,Nova Scotia Power Inc.,Victoria Junction,46.168098,-60.105435,,Victoria Junction 2S (138),138,1975,,2100,Yes,Yes,Yes,Oil_CT,peaker,30,33,0.145416,0.000553333,2,,,,11.678,0,33,,0,0,0.5,,,5,5,,,10,21,,,,,,,,,,,Summer Capacity = 25 MW
Tufts Cove_01,Nova Scotia Power Inc.,Dartmouth,44.676824,-63.595888,,Tuft's Cove 91H (138),138,2000,,2025,Yes,No,No,Oil_ST,diesel,100,81,184.4856,0.2106,6,,,,10.711,45,77,,16,16,0,,,no cycling,no cycling,no cycling,no cycling,2,14,,,,,,,,,,,
Tufts Cove_02,Nova Scotia Power Inc.,Dartmouth,44.676824,-63.595888,,Tuft's Cove 91H (138),138,2000,,2032,Yes,Yes,No,Oil_ST,diesel,100,93,312.294,0.3565,6,,,,10.668,30,88.4,,8,16,0.33,,,1,2,,,2,14,,,,,,,,,,,
Tufts Cove_03,Nova Scotia Power Inc.,Dartmouth,44.676824,-63.595888,,Tuft's Cove 91H (138),138,2000,,2036,Yes,Yes,No,Oil_ST,diesel,150,147,476.4564,0.3626,6,,,,10.23,40,139.7,,8,16,0.61,,,1,2,,,2,14,,,,,,,,,,,
Amherst,Amherst Wind Power LP,Amherst,45.8266631,-64.2417221,,Amherst 92N,138,2012,,2032,Yes,Yes,No,Wind_Onshore,wind,30,5.7,91.98,0.35,,,,,,,,,,,,,,,,,,,,,,,,,,,,,,
Amherst Community Wind,Mi'kmaq Wind4All Communities Limited Partnership ,Amherst,45.83,-64.144,,Amherst 92N,138,2017,,2037,Yes,Yes,No,Wind_Onshore,wind,6,1.14,18.396,0.35,,,,,,,,,,,,,,,,,,,,,,,,,,,,,,
Aulds Mountain,BA Wind Limited Partnership (Natural Forces Wind Inc.),Antigonish,45.5949098,-62.3745089,,Lochaber Road 4C (69),69,2015,,2035,Yes,Yes,No,Wind_Onshore,wind,4.6,0.874,14.1036,0.35,,,,,,,,,,,,,,,,,,,,,,,,,,,,,,
Avondale,Avondale Community Wind Park Limited Partnership,Windsor,45.633,-62.2783523,,Three Mile Plains 79V,69,2015,,2035,Yes,Yes,No,Wind_Onshore,wind,1.6,0.304,4.9056,0.35,,,,,,,,,,,,,,,,,,,,,,,,,,,,,,
Baddeck,ScotianWEB II Limited Partnership,Baddeck,46.147,-60.6962087,,Baddeck 104S,138,2017,,2037,Yes,Yes,No,Wind_Onshore,wind,1.7,0.323,5.2122,0.35,,,,,,,,,,,,,,,,,,,,,,,,,,,,,,
Barrachois,EM Wind Limited Partnership ,"Sydney, CBI",46.1528637,-60.4070575,,Victoria Junction 2S (69),69,2015,,2035,Yes,Yes,No,Wind_Onshore,wind,4,0.76,12.264,0.35,,,,,,,,,,,,,,,,,,,,,,,,,,,,,,
Bateston,Celtic Current Limited Partnership,"Sydney, CBI",45.993,-59.9077432,,Donkin Road 97S,69,2015,,2035,Yes,Yes,No,Wind_Onshore,wind,2.3,0.437,7.0518,0.35,,,,,,,,,,,,,,,,,,,,,,,,,,,,,,
Black Pond,ScotianWEB Limited Partnership,Yarmouth,43.7516311,-66.0203539,,Yarmouth 11W,69,2015,,2035,Yes,Yes,No,Wind_Onshore,wind,1.99,0.3781,6.10134,0.35,,,,,,,,,,,,,,,,,,,,,,,,,,,,,,
Brenton,ScotianWEB II Limited Partnership,Yarmouth,43.974,-66.0826047,,Hebron 16W,69,2017,,2037,Yes,Yes,No,Wind_Onshore,wind,1.99,0.3781,6.10134,0.35,,,,,,,,,,,,,,,,,,,,,,,,,,,,,,
Brookfield,Renewable Energy Services Ltd.,Truro,45.25526,-63.283334,,Onslow 1N (69),69,2005,,2025,Yes,No,No,Wind_Onshore,wind,0.6,0.114,1.8396,0.35,,,,,,,,,,,,,,,,,,,,,,,,,,,,,,
Chebucto Pockwock,Pockwock Wind Limited Partnership,Halifax,44.7707082,-63.8378909,,Lakeside 103H (138),138,2015,,2035,Yes,Yes,No,Wind_Onshore,wind,10,1.9,30.66,0.35,,,,,,,,,,,,,,,,,,,,,,,,,,,,,,
Cheticamp,Celtic Current Limited Partnership,Cheticamp,46.624807,-61.009511,,Cheticamp 103C,69,2015,,2035,Yes,Yes,No,Wind_Onshore,wind,0.9,0.171,2.7594,0.35,,,,,,,,,,,,,,,,,,,,,,,,,,,,,,
Creighnish Rear,Black River Wind Ltd.,"Judique, CBI",45.7262124,-61.4167178,,Port Hastings 2C (69),69,2013,,2033,Yes,Yes,No,Wind_Onshore,wind,1.99,0.3781,6.10134,0.35,,,,,,,,,,,,,,,,,,,,,,,,,,,,,,
Dalhousie Mountain,RMS Energy,Truro,45.5757165,-62.9755213,,Dalhousie Mountain 91N,230,2010,,2030,Yes,Yes,No,Wind_Onshore,wind,51,9.69,156.366,0.35,,,,,,,,,,,,,,,,,,,,,,,,,,,,,,
Digby,Renewable Energy Services Ltd.,Digby,44.5913933,-65.9444467,,Gullivers Cove 98V,69,2006,,2026,Yes,No,No,Wind_Onshore,wind,0.8,0.152,2.4528,0.35,,,,,,,,,,,,,,,,,,,,,,,,,,,,,,
Digby Neck,NS Power,Digby,44.5913933,-65.9444467,,Gullivers Cove 98V,69,2011,,2031,Yes,Yes,No,Wind_Onshore,wind,30,5.7,91.98,0.35,,,,,,,,,,,,,,,,,,,,,,,,,,,,,,
Donkin,Glace Bay Lingan Wind Power Ltd.,"Sydney, CBI",46.2180293,-59.9809642,,Donkin Road 97S,69,2005,,2025,Yes,No,No,Wind_Onshore,wind,0.8,0.152,2.4528,0.35,,,,,,,,,,,,,,,,,,,,,,,,,,,,,,
Ellerhouse,"Berwick, Antognish and Mahone Bay Municipalities",Ellerhouse,44.9315908,-64.0275959,,Ellershouse 102V,69,2016,,2036,Yes,Yes,No,Wind_Onshore,wind,24,4.56,73.584,0.35,,,,,,,,,,,,,,,,,,,,,,,,,,,,,,
Fairmont,Wind Prospect Inc.,Antigonish,45.6824306,-61.9912844,,Lochaber Road 4C (69),69,2012,,2032,Yes,Yes,No,Wind_Onshore,wind,4.6,0.874,14.1036,0.35,,,,,,,,,,,,,,,,,,,,,,,,,,,,,,
Fitzpatrick Mountain,Affinity Renewables Inc.,Pictou,45.6264458,-62.901342,,Pictou 55N,69,2007,,2027,Yes,No,No,Wind_Onshore,wind,1.4,0.266,4.2924,0.35,,,,,,,,,,,,,,,,,,,,,,,,,,,,,,
Gaetz Brook,HG Wind Limited Partnership (Natural Forces Wind Inc.) ,Musquodoboit Harbour,44.7588067,-63.2042898,,Musquodoboit Harbour 87H,69,2014,,2034,Yes,Yes,No,Wind_Onshore,wind,2.3,0.437,7.0518,0.35,,,,,,,,,,,,,,,,,,,,,,,,,,,,,,
Gardiner Mines,Gardiner Mines Wind Farm Limited Partnership,"Sydney, CBI",46.195,-60.0838922,,Victoria Junction 2S (69),69,2016,,2036,Yes,Yes,No,Wind_Onshore,wind,5.4,1.026,16.5564,0.35,,,,,,,,,,,,,,,,,,,,,,,,,,,,,,
Glace Bay,Glace Bay Lingan Wind Power Ltd.,"Sydney, CBI",46.2180293,-59.9809642,,Seaboard 1S,69,2005,,2025,Yes,No,No,Wind_Onshore,wind,0.8,0.152,2.4528,0.35,,,,,,,,,,,,,,,,,,,,,,,,,,,,,,
Glen Dhu,Shear Wind,Antigonish,45.64666,-62.2216187,,Glen Dhu 93N,138,2011,,2031,Yes,Yes,No,Wind_Onshore,wind,62.1,11.799,190.3986,0.35,,,,,,,,,,,,,,,,,,,,,,,,,,,,,,
Goodwood,Renewable Energy Services Ltd.,Halifax,44.60065,-63.680402,,Lakeside 103H (69),69,2005,,2025,Yes,No,No,Wind_Onshore,wind,0.6,0.114,1.8396,0.35,,,,,,,,,,,,,,,,,,,,,,,,,,,,,,
Granville Ferry,Scotian Web Limited Partnership,Digby,44.765328,-65.511803,,Annapolis 81V,69,2014,,2034,Yes,Yes,No,Wind_Onshore,wind,2,0.38,6.132,0.35,,,,,,,,,,,,,,,,,,,,,,,,,,,,,,
Greenfield,Affinity Wind LP,Truro,45.3467012,-63.139022,,Onslow 1N (69),69,2015,,2035,Yes,Yes,No,Wind_Onshore,wind,3.2,0.608,9.8112,0.35,,,,,,,,,,,,,,,,,,,,,,,,,,,,,,
Hardwood Lands,ScotianWEB II Limited Partnership,Enfield,45.0891869,-63.5177581,,Elmsdale 82V,69,2017,,2037,Yes,Yes,No,Wind_Onshore,wind,6,1.14,18.396,0.35,,,,,,,,,,,,,,,,,,,,,,,,,,,,,,
Higgins Mountain,Confederation Power Ltd. ,Springhill,45.5891549,-63.6140135,,Springhill 74N (69),69,2007,,2027,Yes,No,No,Wind_Onshore,wind,3.6,0.684,11.0376,0.35,,,,,,,,,,,,,,,,,,,,,,,,,,,,,,
Hillside-Boularderie,HG Wind Limited Partnership (Natural Forces Wind Inc.),"Sydney, CBI",46.2448216,-60.3487554,,Victoria Junction 2S (69),69,2015,,2035,Yes,Yes,No,Wind_Onshore,wind,4,0.76,12.264,0.35,,,,,,,,,,,,,,,,,,,,,,,,,,,,,,
Irish Mountain,Black River Wind Ltd. ,Antigonish,45.4932814,-62.6245341,,Lochaber Road 4C (69),69,2013,,2033,Yes,Yes,No,Wind_Onshore,wind,1.99,0.3781,6.10134,0.35,,,,,,,,,,,,,,,,,,,,,,,,,,,,,,
Isle Madame,ScotianWEB Limited Partnership ,Isle Madame,45.569014,-61.0744568,,St. Peters 59C,69,2015,,2035,Yes,Yes,No,Wind_Onshore,wind,1.99,0.3781,6.10134,0.35,,,,,,,,,,,,,,,,,,,,,,,,,,,,,,
Kaizer Meadow,Municipality of the District of Chester ,Chester,44.7277713,-64.2543839,,Robinson's Corner 84W,69,2014,,2034,Yes,Yes,No,Wind_Onshore,wind,2,0.38,6.132,0.35,,,,,,,,,,,,,,,,,,,,,,,,,,,,,,
Kemptown,Affinity Wind LP,Truro,45.4484895,-63.1147607,,Onslow 1N (69),69,2015,,2035,Yes,Yes,No,Wind_Onshore,wind,4.99,0.9481,15.29934,0.35,,,,,,,,,,,,,,,,,,,,,,,,,,,,,,
Ketch Harbour,Watts Wind 4 Limited Partnership ,Halifax,44.5371556,-63.6098222,,Lakeside 103H (138),69,2016,,2036,Yes,Yes,No,Wind_Onshore,wind,4.6,0.874,14.1036,0.35,,,,,,,,,,,,,,,,,,,,,,,,,,,,,,
Limerock,Affinity Wind LP,New Glasgow,45.5396934,-62.822482,,Trenton 50N (69),69,2015,,2035,Yes,Yes,No,Wind_Onshore,wind,4.99,0.9481,15.29934,0.35,,,,,,,,,,,,,,,,,,,,,,,,,,,,,,
Lingan,Glace Bay Lingan Wind Power Ltd.,"Lingan, CBI",46.2452575,-60.0386753,,Lingan Wind 109S,69,2012,,2032,Yes,Yes,No,Wind_Onshore,wind,16.3,3.097,49.9758,0.35,,,,,,,,,,,,,,,,,,,,,,,,,,,,,,
Little River,ScotianWEB Limited Partnership,Digby,43.7532012,-66.030252,,Gullivers Cove 98V,69,2014,,2034,Yes,Yes,No,Wind_Onshore,wind,1.99,0.3781,6.10134,0.35,,,,,,,,,,,,,,,,,,,,,,,,,,,,,,
Marshville,Renewable Energy Services Ltd.,Tatamagouche,45.75352,-63.118357,,Tatamagouche 4N,69,2006,,2026,Yes,No,No,Wind_Onshore,wind,0.8,0.152,2.4528,0.35,,,,,,,,,,,,,,,,,,,,,,,,,,,,,,
Martock Ridge,ScotianWEB Limited Partnership,Windsor,44.9269718,-64.1191807,,Three Mile Plains 79V,69,2015,,2035,Yes,Yes,No,Wind_Onshore,wind,6,1.14,18.396,0.35,,,,,,,,,,,,,,,,,,,,,,,,,,,,,,
Maryvale,Maryvale Wind LP,Antigonish,45.7287663,-62.063502,,Lochaber Road 4C (69),69,2010,,2030,Yes,Yes,No,Wind_Onshore,wind,6,1.14,18.396,0.35,,,,,,,,,,,,,,,,,,,,,,,,,,,,,,
Mulgrave,Celtic Current Limited Partnership,Antigonish,45.6206617,-61.434329,,Lochaber Road 4C (69),69,2015,,2035,Yes,Yes,No,Wind_Onshore,wind,2.3,0.437,7.0518,0.35,,,,,,,,,,,,,,,,,,,,,,,,,,,,,,
New Glasgow,Watts Wind II Limited Partnership,New Glasgow,45.5056592,-62.6098996,,Trenton 50N (69),69,2015,,2035,Yes,Yes,No,Wind_Onshore,wind,6.4,1.216,19.6224,0.35,,,,,,0,153,,,,,,,,,,,,,,,,,,,,,,,Replaces Lingan_02
Nine Mile River,ScotianWEB Limited Partnership,Enfield,45.0222001,-63.6551848,,Elmsdale 82V,69,2015,,2035,Yes,Yes,No,Wind_Onshore,wind,4,0.76,12.264,0.35,,,,,,0,8.3,,,,,,,,,,,,,,,,,,,,,,,
North Beaverbank,ScotianWEB Limited Partnership,Truro,44.9155108,-63.6815181,,Onslow 1N (69),69,2015,,2035,Yes,Yes,No,Wind_Onshore,wind,8,1.52,24.528,0.35,,,,,,,,,,,,,,,,,,,,,,,,,,,,,,
Nuttby Mountain,NS Power,Truro,45.5598989,-63.219437,,Nuttby Mountain 89N,69,2011,,2031,Yes,Yes,No,Wind_Onshore,wind,50.6,9.614,155.1396,0.35,,,,,,,,,,,,,,,,,,,,,,,,,,,,,,
Parker Mountain,Scotia Windfields Inc.,,44.7860407,-65.4904601,,Conway 77V,69,2014,,2034,Yes,Yes,No,Wind_Onshore,wind,2,0.38,6.132,0.35,,,,,,2,4.7,,,,,,,,,,,,,,,,,,,,,,,
Pictou Landing,Mi'kmaq Wind4All Communities Limited Partnership ,Pictou,45.6667897,-62.688006,,Pictou 55N,69,2017,,2037,Yes,Yes,No,Wind_Onshore,wind,1.6,0.304,4.9056,0.35,,,,,,,,,,,,,,,,,,,,,,,,,,,,,,
Point Aconi Wind,Celtic Current Limited Partnership,"Sydney, CBI",46.322,-60.319976,,Point Aconi 89S,69,2015,,2035,Yes,Yes,No,Wind_Onshore,wind,1.9,0.361,5.8254,0.35,,,,,10591,,,,,,,,,,,,,,,,,,,,,,,,,
Point Tupper Wind,Renewable Energy Services Ltd./NS Power (47.4%),Point Tupper,45.5719729,-61.3111743,,Point Tupper 1C,69,2010,,2030,Yes,Yes,No,Wind_Onshore,wind,22.8,4.332,69.9048,0.35,,,,,9855,,,,,,,,,,,,,,,,,,,,,,,,,
Porters Lake,Watts wind III Limited Partnership,Musquodoboit Harbour,44.725,-63.3569206,,Musquodoboit Harbour 87H,69,2016,,2036,Yes,Yes,No,Wind_Onshore,wind,3.2,0.608,9.8112,0.35,,,,,,,,,,,,,,,,,,,,,,,,,,,,,,Plant does not operate year-round
Pubnico Point,Pubnico Point Wind Farm Inc.,Yarmouth,43.6029982,-65.8038267,,Pubnico Point 106W,69,2005,,2025,Yes,No,No,Wind_Onshore,wind,30.6,5.814,93.8196,0.35,,,,,,,,,,,,,,,,,,,,,,,,,,,,,,
Sable,Municipality of the District of Guysborough ,Guysborough,45.3160906,-60.9995107,,Dickie Brook 24C,69,2015,,2035,Yes,Yes,No,Wind_Onshore,wind,13.8,2.622,42.3108,0.35,,,,,,,,,,,,,,,,,,,,,,,,,,,,,,
Shag Harbour,Watts Wind II Limited Partnership,Barrington,43.5196384,-65.6624079,,Woods Harbour 21W,69,2015,,2035,Yes,Yes,No,Wind_Onshore,wind,3.2,0.608,9.8112,0.35,,,,,,,,,,,,,,,,,,,,,,,,,,,,,,
South Canoe,South Canoe Development Partnership,Bridgewater,44.7668121,-64.3349987,,South Canoe 110W,138,2015,,2035,Yes,Yes,No,Wind_Onshore,wind,102,19.38,312.732,0.35,,,,,,,,,,,,,,,,,,,,,,,,,,,,,,
South Cape Mabou,Black River Wind Ltd.,"Mabou, CBI",46.1508401,-61.3816085,,Whycocomagh 67C (69),69,2013,,2033,Yes,Yes,No,Wind_Onshore,wind,1.99,0.3781,6.10134,0.35,,,,,,,,,,,,,,,,,,,,,,,,,,,,,,
Spiddle Hill,Colchester-Cumberland Wind Field Inc. ,Truro,45.553156,-63.222853,,Nuttby Mountain 89N,69,2013,,2033,Yes,Yes,No,Wind_Onshore,wind,1.6,0.304,4.9056,0.35,,,,,,,,,,,,,,,,,,,,,,,,,,,,,,
Springhill,Confederation Power Ltd.,Springhill,45.6114915,-64.0239033,,Springhill 74N (69),69,2012,,2032,Yes,Yes,No,Wind_Onshore,wind,2.1,0.399,6.4386,0.35,,,,,,,,,,,,,,,,,,,,,,,,,,,,,,
St.Rose,ScotianWEB Limited Partnership,Margaree Harbour,46.3307368,-61.1768331,,SW Margaree 58C,69,2014,,2034,Yes,Yes,No,Wind_Onshore,wind,1.99,0.3781,6.10134,0.35,,,,,,,,,,,,,,,,,,,,,,,,,,,,,,
Terence Bay,Chebucto Terence Bay Wind Field Ltd. ,Halifax,44.541873,-63.603571,,Lakeside 103H (69),69,2017,,2037,Yes,Yes,No,Wind_Onshore,wind,7.05,1.3395,21.6153,0.35,,,,,,,,,,,,,,,,,,,,,,,,,,,,,,
Tiverton,Confederation Power Ltd.,Digby,44.419495,-66.221981,,Gullivers Cove 98V,69,2009,,2029,Yes,No,No,Wind_Onshore,wind,0.9,0.171,2.7594,0.35,,,,,,,,,,,,,,,,,,,,,,,,,,,,,,
Truro Heights,Truro Heights Wind Limited Partnership,Truro,45.3181248,-63.3411176,,Willow Lane 15N,69,2014,,2034,Yes,Yes,No,Wind_Onshore,wind,4,0.76,12.264,0.35,,,,,,,,,,,,,,,,,,,,,,,,,,,,,,
Truro-Millbrook,Truro-Millbrook Wind Limited Partnership,Truro,45.3262737,-63.3440767,,Lafarge 11N,69,2014,,2034,Yes,Yes,No,Wind_Onshore,wind,6,1.14,18.396,0.35,,,,,,,,,,,,,,,,,,,,,,,,,,,,,,
Walton,ScotianWEB II Limited Partnership,Kentville,45.197,-63.9688049,,Upper Burlington 18V,69,2016,,2036,Yes,Yes,No,Wind_Onshore,wind,1.99,0.3781,6.10134,0.35,,,,,,,,,,,,,,,,,,,,,,,,,,,,,,
Watt Section,Watts Wind Energy Inc.,Sheet Harbour,44.8991215,-62.466091,,Ruth Falls 96H,69,2011,,2031,Yes,Yes,No,Wind_Onshore,wind,1.5,0.285,4.599,0.35,,,,,,,,,,,,,,,,,,,,,,,,,,,,,,
Wedgeport,Watts Wind II Limited Partnership,Yarmouth,43.7528398,-66.0138972,,Pleasant St. 88W,69,2015,,2035,Yes,Yes,No,Wind_Onshore,wind,1.68,0.3192,5.15088,0.35,,,,,,,,,,,,,,,,,,,,,,,,,,,,,,
Whynotts,Whynotts Wind Limited Partnership ,Bridgewater,44.4078313,-64.4662176,,Bridgewater 99W (69),69,2014,,2034,Yes,Yes,No,Wind_Onshore,wind,4,0.76,12.264,0.35,,,,,,,,,,,,,,,,,,,,,,,,,,,,,,
