Project Name,Owner,Location,Latitude,Longitude,Balancing Area,Merra Grid Location,Substation Name,Bus Voltage,Start Year,Contract Term,End Year,2018,2030,2050,Generator Type, Generation Type - CREST EMI,Installed Capacity,Dependable Capacity,Annual Average Energy,Capacity Factor,# of units,gas,peaker,coal,diesel,waste,nuclear,wind,solar,hydro_run,hydro_daily,hydro_monthly,hydro_pump,gas.1,peaker.1,coal.1,diesel.1,waste.1,nuclear.1,wind.1,solar.1,hydro_run.1,hydro_daily.1,hydro_monthly.1,hydro_pump.1,gas.2,peaker.2,coal.2,diesel.2,waste.2,nuclear.2,wind.2,solar.2,hydro_run.2,hydro_daily.2,hydro_monthly.2,hydro_pump.2,Notes,Other References
Bécancour,Hydro-Quebec Production,Becancour,46.3919,-72.3523,Quebec.a,,,,1993,,2100,Yes,Yes,Yes,NG_CC,gas,411,411,1274.456445,0.353980281,4,411,0,0,0,0,0,0,0,0,0,0,0,411,0,0,0,0,0,0,0,0,0,0,0,411,0,0,0,0,0,0,0,0,0,0,0,,
Bécancour TCE,TransCanada Energy Ltd,Bécancour,46.3675,-72.4037,Quebec.a,,Bécancour,230,2000,,2100,Yes,Yes,Yes,NG_CG,gas,547,547,1572.139702,0.328095069,,547,0,0,0,0,0,0,0,0,0,0,0,547,0,0,0,0,0,0,0,0,0,0,0,547,0,0,0,0,0,0,0,0,0,0,0,,https://www.tcenergy.com/operations/power/becancour-cogeneration-plant/#documents
CEPSA-INDORAMA,Indorama Ventures,Montréal-Est,45.657546,-73.492439,Quebec.a,,Montréal-Est,120,2000,,2100,Yes,Yes,Yes,NG_CG,gas,7.5,7.5,,0,,7.5,0,0,0,0,0,0,0,0,0,0,0,7.5,0,0,0,0,0,0,0,0,0,0,0,7.5,0,0,0,0,0,0,0,0,0,0,0,,
Beaumont,Hydro-Quebec Production,Saint-Maurice,47.5561,-72.8362,Quebec.a,,,,1959,,2100,Yes,Yes,Yes,hydro_daily,hydro_daily,270,270,1280.257055,0.541289132,6,0,0,0,0,0,0,0,0,0,270,0,0,0,0,0,0,0,0,0,0,0,270,0,0,0,0,0,0,0,0,0,0,0,270,0,0,,http://www.hydroquebec.com/production/images/centrales/beaumont-01.jpg
Bersimis-2,Hydro-Quebec Production,Betsiamites,49.1754,-69.2263,Quebec.b,,,,1960,,2100,Yes,Yes,Yes,hydro_daily,hydro_daily,845,845,4120.531041,0.556663025,5,0,0,0,0,0,0,0,0,0,845,0,0,0,0,0,0,0,0,0,0,0,845,0,0,0,0,0,0,0,0,0,0,0,845,0,0,Daily - downstream from monthly storage,http://www.hydroquebec.com/production/images/centrales/bersimis2-01.jpg
Chute-à-Caron,Rio Tinto Alcan,,48.4506,-71.2536,Quebec.b,,,,1931,,2100,Yes,Yes,Yes,hydro_daily,hydro_daily,222,222,1062.139187,0.546165611,,0,0,0,0,0,0,0,0,0,222,0,0,0,0,0,0,0,0,0,0,0,222,0,0,0,0,0,0,0,0,0,0,0,222,0,0,Serves Rio Tinto Alcan internal load,
Chute-à-la-Savane,Rio Tinto Alcan,,48.7536,-71.8395,Quebec.b,,,,1953,,2100,Yes,Yes,Yes,hydro_daily,hydro_daily,245,245,1223.356742,0.570010596,,0,0,0,0,0,0,0,0,0,245,0,0,0,0,0,0,0,0,0,0,0,245,0,0,0,0,0,0,0,0,0,0,0,245,0,0,Serves Rio Tinto Alcan internal load,
Chute-des-Passes,Rio Tinto Alcan,,49.8374,-71.1665,Quebec.b,,,,1959,,2100,Yes,Yes,Yes,hydro_daily,hydro_daily,833,833,4051.302326,0.555194999,,0,0,0,0,0,0,0,0,0,833,0,0,0,0,0,0,0,0,0,0,0,833,0,0,0,0,0,0,0,0,0,0,0,833,0,0,Serves Rio Tinto Alcan internal load,
Chute-du-Diable,Rio Tinto Alcan,,48.7807,-71.6974,Quebec.b,,,,1952,2008,2100,Yes,Yes,Yes,hydro_daily,hydro_daily,224,224,1450.009658,0.738956324,,0,0,0,0,0,0,0,0,0,224,0,0,0,0,0,0,0,0,0,0,0,224,0,0,0,0,0,0,0,0,0,0,0,224,0,0,Serves Rio Tinto Alcan internal load,
Jim-Gray,Produits forestiers Résolu - Hydro-Saguenay,,48.6987,-71.2125,Quebec.b,,,,1953,,2100,Yes,Yes,Yes,hydro_daily,hydro_daily,63,63,410,0.742915126,2,0,0,0,0,0,0,0,0,0,63,0,0,0,0,0,0,0,0,0,0,0,63,0,0,0,0,0,0,0,0,0,0,0,63,0,0,Serves Resolute Forest Products internal load.,
L'Isle-Maligne,Rio Tinto Alcan,,48.5771,-71.6347,Quebec.b,,,,1926,,2100,Yes,Yes,Yes,hydro_daily,hydro_daily,448,448,2199.19712,0.56037924,,0,0,0,0,0,0,0,0,0,448,0,0,0,0,0,0,0,0,0,0,0,448,0,0,0,0,0,0,0,0,0,0,0,448,0,0,Serves Rio Tinto Alcan internal load,https://www.hydroquebec.com/data/projets/ligne-micoua-saguenay/pdf/inventaire-milieu-feuillet-7.pdf
La Grande-1,Hydro-Quebec Production,Grande Rivière,53.7323,-78.5712,Quebec.b,,,,1995,,2100,Yes,Yes,Yes,hydro_daily,hydro_daily,1436,1436,6809.070858,0.541289132,12,0,0,0,0,0,0,0,0,0,1436,0,0,0,0,0,0,0,0,0,0,0,1436,0,0,0,0,0,0,0,0,0,0,0,1436,0,0,Daily - below reservoir and downstream from large reservoir,
Laforge-2,Hydro-Quebec Production,Laforge,54.5909,-71.2787,Quebec.b,,,,1996,,2100,Yes,Yes,Yes,hydro_daily,hydro_daily,319,319,1512.600002,0.541289132,2,0,0,0,0,0,0,0,0,0,319,0,0,0,0,0,0,0,0,0,0,0,319,0,0,0,0,0,0,0,0,0,0,0,319,0,0,Daily - below reservoir and downstream from large reservoir,
Manic-1,Hydro-Quebec Production,Manicouagan,49.1913,-68.3294,Quebec.b,,,,1967,,2100,Yes,Yes,Yes,hydro_daily,hydro_daily,184,184,872.4714748,0.541289132,3,0,0,0,0,0,0,0,0,0,184,0,0,0,0,0,0,0,0,0,0,0,184,0,0,0,0,0,0,0,0,0,0,0,184,0,0,Daily - below reservoir and downstream from large reservoir,
Manic-2,Hydro-Quebec Production,Manicouagan,49.3213,-68.3467,Quebec.b,,,,1967,,2100,Yes,Yes,Yes,hydro_daily,hydro_daily,1229,1229,5827.540448,0.541289132,8,0,0,0,0,0,0,0,0,0,1229,0,0,0,0,0,0,0,0,0,0,0,1229,0,0,0,0,0,0,0,0,0,0,0,1229,0,0,Daily - below reservoir and downstream from large reservoir,
Manic-3,Hydro-Quebec Production,Manicouagan,49.7408,-68.5945,Quebec.b,,,,1976,,2100,Yes,Yes,Yes,hydro_daily,hydro_daily,1326,1326,6287.48465,0.541289132,6,0,0,0,0,0,0,0,0,0,1326,0,0,0,0,0,0,0,0,0,0,0,1326,0,0,0,0,0,0,0,0,0,0,0,1326,0,0,Daily - below reservoir and downstream from large reservoir,
McCormick,"Hydro-Quebec Production (60%), Alcoa (40%)",Manicouagan,49.193,-68.3268,Quebec.b,,,,1952,,2100,Yes,Yes,Yes,hydro_daily,hydro_daily,235,235,,0,7,0,0,0,0,0,0,0,0,0,235,0,0,0,0,0,0,0,0,0,0,0,235,0,0,0,0,0,0,0,0,0,0,0,235,0,0,Daily - below reservoir and downstream from large reservoir,http://www.hydroquebec.com/production/images/centrales/mccormick-1.jpg
Murdock-Willson,Produits forestiers Résolu - Hydro-Saguenay,,48.452,-71.2132,Quebec.b,,,,1957,,2100,Yes,Yes,Yes,hydro_daily,hydro_daily,55,55,360,0.747198007,,0,0,0,0,0,0,0,0,0,55,0,0,0,0,0,0,0,0,0,0,0,55,0,0,0,0,0,0,0,0,0,0,0,55,0,0,Serves Resolute Forest Products internal load.,
Outardes-2,Hydro-Quebec Production,Aux Outardes,49.1448,-68.3894,Quebec.b,,,,1978,,2100,Yes,Yes,Yes,hydro_daily,hydro_daily,523,523,2479.905333,0.541289132,3,0,0,0,0,0,0,0,0,0,523,0,0,0,0,0,0,0,0,0,0,0,523,0,0,0,0,0,0,0,0,0,0,0,523,0,0,Daily - below reservoir and downstream from large reservoir,http://www.hydroquebec.com/production/images/centrales/outardes2-01.jpg
Outardes-3,Hydro-Quebec Production,Aux Outardes,49.5576,-68.7256,Quebec.b,,,,1969,,2100,Yes,Yes,Yes,hydro_daily,hydro_daily,1026,1026,4864.97681,0.541289132,4,0,0,0,0,0,0,0,0,0,1026,0,0,0,0,0,0,0,0,0,0,0,1026,0,0,0,0,0,0,0,0,0,0,0,1026,0,0,Daily - below reservoir and downstream from large reservoir,http://www.hydroquebec.com/production/images/centrales/outardes3-01.jpg
Paugan,Hydro-Quebec Production,Gatineau,45.8097,-75.9309,Quebec.a,,,,1956,,2100,Yes,Yes,Yes,hydro_daily,hydro_daily,226,226,1071.622572,0.541289132,8,0,0,0,0,0,0,0,0,0,226,0,0,0,0,0,0,0,0,0,0,0,226,0,0,0,0,0,0,0,0,0,0,0,226,0,0,Daily - below reservoir and downstream from large reservoir,
Première-Chute,Hydro-Quebec Production,Outaouais,47.6007,-79.4524,Quebec.a,,,,1975,,2100,Yes,Yes,Yes,hydro_daily,hydro_daily,131,131,621.1617565,0.541289132,4,0,0,0,0,0,0,0,0,0,131,0,0,0,0,0,0,0,0,0,0,0,131,0,0,0,0,0,0,0,0,0,0,0,131,0,0,Daily - below reservoir and downstream from large reservoir,
Rapides-des-Îles,Hydro-Quebec Production,Outaouais,47.5768,-79.3546,Quebec.a,,,,1973,,2100,Yes,Yes,Yes,hydro_daily,hydro_daily,176,176,834.5379324,0.541289132,4,0,0,0,0,0,0,0,0,0,176,0,0,0,0,0,0,0,0,0,0,0,176,0,0,0,0,0,0,0,0,0,0,0,176,0,0,Daily - below reservoir and downstream from large reservoir,
Rapides-des-Quinze,Hydro-Quebec Production,Outaouais,47.5906,-79.2944,Quebec.a,,,,1955,,2100,Yes,Yes,Yes,hydro_daily,hydro_daily,109,109,488.3943582,0.5114934,6,0,0,0,0,0,0,0,0,0,109,0,0,0,0,0,0,0,0,0,0,0,109,0,0,0,0,0,0,0,0,0,0,0,109,0,0,Daily - below reservoir and downstream from large reservoir,
Romaine-1,Hydro-Quebec Production,Romaine,50.3854,-63.2607,Quebec.b,,,,2015,,2100,Yes,Yes,Yes,hydro_daily,hydro_daily,270,270,1280.257055,0.541289132,2,0,0,0,0,0,0,0,0,0,270,0,0,0,0,0,0,0,0,0,0,0,270,0,0,0,0,0,0,0,0,0,0,0,270,0,0,Daily - below reservoir and downstream from large reservoir,https://www.portailconstructo.com/actualites/grands_chantiers/romaine
Sainte-Marguerite-2,Compagnie Gulf Power,,50.2123,-66.6583,Quebec.b,,,,2000,,2100,Yes,Yes,Yes,hydro_daily,hydro_daily,24,24,113.8006271,0.541289132,,0,0,0,0,0,0,0,0,0,24,0,0,0,0,0,0,0,0,0,0,0,24,0,0,0,0,0,0,0,0,0,0,0,24,0,0,Daily - below reservoir and downstream from large reservoir,
Sarcelle,Hydro-Quebec Production,Rivière Eastmain,52.6678,-76.6326,Quebec.b,,,,2013,,2100,Yes,Yes,Yes,hydro_daily,hydro_daily,150,150,711.2539197,0.541289132,3,0,0,0,0,0,0,0,0,0,150,0,0,0,0,0,0,0,0,0,0,0,150,0,0,0,0,0,0,0,0,0,0,0,150,0,0,Daily - substantial reservoir stroage,
Shawinigan-2,Hydro-Quebec Production,Saint-Maurice,46.5359,-72.7673,Quebec.a,,,,1929,,2100,Yes,Yes,Yes,hydro_daily,hydro_daily,200,200,948.3385595,0.541289132,8,0,0,0,0,0,0,0,0,0,200,0,0,0,0,0,0,0,0,0,0,0,200,0,0,0,0,0,0,0,0,0,0,0,200,0,0,Daily - substantial reservoir stroage,http://www.hydroquebec.com/production/images/centrales/shawinigan3-01.jpg
Shawinigan-3,Hydro-Quebec Production,Saint-Maurice,46.5338,-72.7656,Quebec.a,,,,1949,,2100,Yes,Yes,Yes,hydro_daily,hydro_daily,194,194,919.8884028,0.541289132,3,0,0,0,0,0,0,0,0,0,194,0,0,0,0,0,0,0,0,0,0,0,194,0,0,0,0,0,0,0,0,0,0,0,194,0,0,Daily - substantial reservoir stroage,
Shipshaw,Rio Tinto Alcan,,48.4484,-71.2148,Quebec.b,,,,1943,,2100,Yes,Yes,Yes,hydro_daily,hydro_daily,947,947,4547.757562,0.548205287,,0,0,0,0,0,0,0,0,0,947,0,0,0,0,0,0,0,0,0,0,0,947,0,0,0,0,0,0,0,0,0,0,0,947,0,0,Serves Rio Tinto Alcan internal load,
Trenche,Hydro-Quebec Production,Saint-Maurice,47.7521,-72.8783,Quebec.b,,,,1955,,2100,Yes,Yes,Yes,hydro_daily,hydro_daily,302,302,1431.991225,0.541289132,6,0,0,0,0,0,0,0,0,0,302,0,0,0,0,0,0,0,0,0,0,0,302,0,0,0,0,0,0,0,0,0,0,0,302,0,0,Daily - substantial reservoir stroage,
Bersimis-1,Hydro-Quebec Production,Betsiamites,49.2947,-69.5514,Quebec.b,,,,1959,,2100,Yes,Yes,Yes,hydro_monthly,hydro_monthly,1178,1178,5585.714116,0.541289132,8,0,0,0,0,0,0,0,0,0,0,1178,0,0,0,0,0,0,0,0,0,0,0,1178,0,0,0,0,0,0,0,0,0,0,0,1178,0,Monthly - large storage reservoir,
Brisay,Hydro-Quebec Production,Caniapiscau,54.4491,-70.5121,Quebec.b,,,,1993,,2100,Yes,Yes,Yes,hydro_monthly,hydro_monthly,469,469,2223.853922,0.541289132,2,0,0,0,0,0,0,0,0,0,0,469,0,0,0,0,0,0,0,0,0,0,0,469,0,0,0,0,0,0,0,0,0,0,0,469,0,Monthly - large storage reservoir,
Eastmain-1,Hydro-Quebec Production,Rivière Eastmain,52.1818,-76.051,Quebec.b,,,,2006,,2100,Yes,Yes,Yes,hydro_monthly,hydro_monthly,480,480,2276.012543,0.541289132,3,0,0,0,0,0,0,0,0,0,0,480,0,0,0,0,0,0,0,0,0,0,0,480,0,0,0,0,0,0,0,0,0,0,0,480,0,monthly - large reservoir storage,http://www.hydroquebec.com/sebj/en/eastmain1.html
Eastmain-1-A,Hydro-Quebec Production,Rivière Eastmain,52.1793,-76.0418,Quebec.b,,,,2012,,2100,Yes,Yes,Yes,hydro_monthly,hydro_monthly,768,768,3641.620069,0.541289132,3,0,0,0,0,0,0,0,0,0,0,768,0,0,0,0,0,0,0,0,0,0,0,768,0,0,0,0,0,0,0,0,0,0,0,768,0,monthly - large reservoir storage,http://www.hydroquebec.com/sebj/en/eastmain1.html
Hart-Jaune,Hydro-Quebec Production,Hart-Jaune,51.7849,-67.9119,Quebec.b,,,,1960,,2100,Yes,Yes,Yes,hydro_monthly,hydro_monthly,51,51,241.8263327,0.541289132,3,0,0,0,0,0,0,0,0,0,0,51,0,0,0,0,0,0,0,0,0,0,0,51,0,0,0,0,0,0,0,0,0,0,0,51,0,Monthly - large reservoir storage,
La Grande-2-A,Hydro-Quebec Production,Grande Rivière,53.7808,-77.5483,Quebec.b,,,,1992,,2100,Yes,Yes,Yes,hydro_monthly,hydro_monthly,2106,2106,9986.005032,0.541289132,6,0,0,0,0,0,0,0,0,0,0,2106,0,0,0,0,0,0,0,0,0,0,0,2106,0,0,0,0,0,0,0,0,0,0,0,2106,0,Monthly - large reservoir storage,
La Grande-3,Hydro-Quebec Production,Grande Rivière,53.7274,-75.9874,Quebec.b,,,,1984,,2100,Yes,Yes,Yes,hydro_monthly,hydro_monthly,2417,2417,11460.67149,0.541289132,12,0,0,0,0,0,0,0,0,0,0,2417,0,0,0,0,0,0,0,0,0,0,0,2417,0,0,0,0,0,0,0,0,0,0,0,2417,0,Monthly - large reservoir storage,
La Grande-4,Hydro-Quebec Production,Grande Rivière,53.8864,-73.466,Quebec.b,,,,1986,,2100,Yes,Yes,Yes,hydro_monthly,hydro_monthly,2779,2779,13177.16428,0.541289132,9,0,0,0,0,0,0,0,0,0,0,2779,0,0,0,0,0,0,0,0,0,0,0,2779,0,0,0,0,0,0,0,0,0,0,0,2779,0,Monthly - large reservoir storage,
Laforge-1,Hydro-Quebec Production,Laforge,54.1693,-72.6146,Quebec.b,,,,1994,,2100,Yes,Yes,Yes,hydro_monthly,hydro_monthly,878,878,4163.206276,0.541289132,6,0,0,0,0,0,0,0,0,0,0,878,0,0,0,0,0,0,0,0,0,0,0,878,0,0,0,0,0,0,0,0,0,0,0,878,0,Monthly - large reservoir storage,
Manic-5,Hydro-Quebec Production,Manicouagan,50.6398,-68.7267,Quebec.b,,,,1971,,2100,Yes,Yes,Yes,hydro_monthly,hydro_monthly,1596,1596,7567.741705,0.541289132,8,0,0,0,0,0,0,0,0,0,0,1596,0,0,0,0,0,0,0,0,0,0,0,1596,0,0,0,0,0,0,0,0,0,0,0,1596,0,Monthly - large reservoir storage,
Manic-5-PA,Hydro-Quebec Production,Manicouagan,50.6467,-68.7395,Quebec.b,,,,1990,,2100,Yes,Yes,Yes,hydro_monthly,hydro_monthly,1064,1064,5045.161137,0.541289132,4,0,0,0,0,0,0,0,0,0,0,1064,0,0,0,0,0,0,0,0,0,0,0,1064,0,0,0,0,0,0,0,0,0,0,0,1064,0,Monthly - large reservoir storage,
Mercier,Hydro-Quebec Production,Gatineau,46.7173,-75.9825,Quebec.a,,,,2007,,2100,Yes,Yes,Yes,hydro_monthly,hydro_monthly,55,55,260.7931039,0.541289132,5,0,0,0,0,0,0,0,0,0,0,55,0,0,0,0,0,0,0,0,0,0,0,55,0,0,0,0,0,0,0,0,0,0,0,55,0,Monthly - large reservoir storage,http://www.hydroquebec.com/production/images/centrales/mercier-01.jpg
Outardes-4,Hydro-Quebec Production,Aux Outardes,49.7037,-68.9038,Quebec.b,,,,1969,,2100,Yes,Yes,Yes,hydro_monthly,hydro_monthly,785,785,3722.228846,0.541289132,4,0,0,0,0,0,0,0,0,0,0,785,0,0,0,0,0,0,0,0,0,0,0,785,0,0,0,0,0,0,0,0,0,0,0,785,0,Monthly - large reservoir storage,
PURCHASES - NLb-QBb PPA_01 (CFLCo Contract + GWAC),Churchill Fall (Labrador Corporation),"Churchill Falls, Labrador",53.5294132,-63.9650853,Quebec.b,,Montagnais,735,1971,,2041,Yes,Yes,No,hydro_monthly,hydro_monthly,4903,4903,28665,0.667399607,,0,0,0,0,0,0,0,0,0,0,4903,0,0,0,0,0,0,0,0,0,0,0,4903,0,0,0,0,0,0,0,0,0,0,0,0,0,,
Rapide-7,Hydro-Quebec Production,Outaouais,47.7685,-78.3102,Quebec.b,,,,1949,,2100,Yes,Yes,Yes,hydro_monthly,hydro_monthly,67,67,317.6934174,0.541289132,4,0,0,0,0,0,0,0,0,0,0,67,0,0,0,0,0,0,0,0,0,0,0,67,0,0,0,0,0,0,0,0,0,0,0,67,0,Monthly - large reservoir storage,
Rapide-Blanc,Hydro-Quebec Production,Saint-Maurice,47.7964,-72.9735,Quebec.b,,,,1955,,2100,Yes,Yes,Yes,hydro_monthly,hydro_monthly,204,204,967.3053307,0.541289132,6,0,0,0,0,0,0,0,0,0,0,204,0,0,0,0,0,0,0,0,0,0,0,204,0,0,0,0,0,0,0,0,0,0,0,204,0,Monthly - large reservoir storage,
Robert-Bourassa,Hydro-Quebec Production,Grande Rivière,53.7818,-77.5305,Quebec.b,,,,1981,,2100,Yes,Yes,Yes,hydro_monthly,hydro_monthly,5616,5616,26629.34675,0.541289132,16,0,0,0,0,0,0,0,0,0,0,5616,0,0,0,0,0,0,0,0,0,0,0,5616,0,0,0,0,0,0,0,0,0,0,0,5616,0,Monthly - large reservoir storage,
Romaine-2,Hydro-Quebec Production,Romaine,50.6246,-63.1941,Quebec.b,,,,2014,,2100,Yes,Yes,Yes,hydro_monthly,hydro_monthly,640,640,3034.683391,0.541289132,2,0,0,0,0,0,0,0,0,0,0,640,0,0,0,0,0,0,0,0,0,0,0,640,0,0,0,0,0,0,0,0,0,0,0,640,0,Monthly - large reservoir storage,http://plus.lapresse.ca/screens/47c0bc7e-707f-4ab8-927f-da0fbee54526__7C___0.html
Romaine-3,Hydro-Quebec Production,Romaine,51.114557,-63.399807,Quebec.b,,,,2017,,2100,Yes,Yes,Yes,hydro_monthly,hydro_monthly,395,395,,0,2,0,0,0,0,0,0,0,0,0,0,395,0,0,0,0,0,0,0,0,0,0,0,395,0,0,0,0,0,0,0,0,0,0,0,395,0,Monthly - large reservoir storage,
Romaine-4,Hydro-Quebec Production,Romaine,51.368044,-63.506959,Quebec.b,,,,2020,,2100,No,Yes,Yes,hydro_monthly,hydro_monthly,245,245,,0,2,0,0,0,0,0,0,0,0,0,0,0,0,0,0,0,0,0,0,0,0,0,0,245,0,0,0,0,0,0,0,0,0,0,0,245,0,Monthly - large reservoir storage,
Sainte-Marguerite-3,Hydro-Quebec Production,Sainte-Marguerite,50.7128,-66.7814,Quebec.b,,,,2003,,2100,Yes,Yes,Yes,hydro_monthly,hydro_monthly,882,882,4182.173048,0.541289132,2,0,0,0,0,0,0,0,0,0,0,882,0,0,0,0,0,0,0,0,0,0,0,882,0,0,0,0,0,0,0,0,0,0,0,882,0,Monthly - large reservoir storage,
SALES - Cornwall (ON),Hydro-Quebec Production,Les Cèdres,45.309469,74.061194,Quebec.a,,Dorion,120,2009,20,2029,Yes,No,No,hydro_monthly,hydro_monthly,-145,-145,-600,0.472366556,,0,0,0,0,0,0,0,0,0,0,-145,0,0,0,0,0,0,0,0,0,0,0,0,0,0,0,0,0,0,0,0,0,0,0,0,0,,https://www.cornwallnewswatch.com/2016/08/22/cornwall-electric-10-year-hydro-quebec-deal-in-the-works/
SALES - Vermont (USA),Hydro-Quebec Production,Bedford,45.121761,72.987801,Quebec.a,,Bedford,120,2013,25,2038,Yes,Yes,No,hydro_monthly,hydro_monthly,-225,-225,-1300,0.659563673,,0,0,0,0,0,0,0,0,0,0,-225,0,0,0,0,0,0,0,0,0,0,0,-225,0,0,0,0,0,0,0,0,0,0,0,0,0,http://www.hydroquebec.com/international/en/exports/markets/new-england.html,
Toulnustouc,Hydro-Quebec Production,Toulnustouc,49.9705,-68.1591,Quebec.b,,,,2005,,2100,Yes,Yes,Yes,hydro_monthly,hydro_monthly,526,526,2494.130412,0.541289132,2,0,0,0,0,0,0,0,0,0,0,526,0,0,0,0,0,0,0,0,0,0,0,526,0,0,0,0,0,0,0,0,0,0,0,526,0,Monthly - large reservoir storage,
Abénaquis,Ville de Sherbrooke /Hydro Sherbrooke,,45.4052,-71.8932,Quebec.a,,,,2000,,2100,Yes,Yes,Yes,hydro_run,hydro_run,2.1,0.315,9.957554875,0.541289132,,0,0,0,0,0,0,0,0,2.1,0,0,0,0,0,0,0,0,0,0,0,2.1,0,0,0,0,0,0,0,0,0,0,0,2.1,0,0,0,,
Adam-Cunningham,Produits forestiers Résolu - Hydro-Saguenay,,48.6581,-71.1708,Quebec.b,,,,1953,,2100,Yes,Yes,Yes,hydro_run,hydro_run,7,1.05,36,0.587084149,1,0,0,0,0,0,0,0,0,7,0,0,0,0,0,0,0,0,0,0,0,7,0,0,0,0,0,0,0,0,0,0,0,7,0,0,0,Serves Resolute Forest Products internal load.,
Ayers 1,Ayers Limité,Lachute,45.6367,-74.3605,Quebec.a,,Lachute,25,2000,,2100,Yes,Yes,Yes,hydro_run,hydro_run,3.4,0.51,22.76012543,0.764172892,,0,0,0,0,0,0,0,0,3.4,0,0,0,0,0,0,0,0,0,0,0,3.4,0,0,0,0,0,0,0,0,0,0,0,3.4,0,0,0,,
Ayers 2,Ayers Limité,Lachute,45.6436,-74.3539,Quebec.a,,Lachute,25,2000,,2100,Yes,Yes,Yes,hydro_run,hydro_run,1,0.15,4.741692798,0.541289132,,0,0,0,0,0,0,0,0,1,0,0,0,0,0,0,0,0,0,0,0,1,0,0,0,0,0,0,0,0,0,0,0,1,0,0,0,,
Barrage Larocque,Hydro Bromptonville Inc/Kruger,Bromptonville,45.4791,-71.9532,Quebec.a,,Des Cantons,120,2000,,2100,Yes,Yes,Yes,hydro_run,hydro_run,10,1.5,50.26194366,0.57376648,,0,0,0,0,0,0,0,0,10,0,0,0,0,0,0,0,0,0,0,0,10,0,0,0,0,0,0,0,0,0,0,0,10,0,0,0,Capacity injected into the network is zero.,
Beauharnois,Hydro-Quebec Production,Lac Saint-François and canal de Beauharnois,45.3141,-73.9088,Quebec.a,,,,1961,,2100,Yes,Yes,Yes,hydro_run,hydro_run,1900,285,8900.157381,0.534736685,36,0,0,0,0,0,0,0,0,1900,0,0,0,0,0,0,0,0,0,0,0,1900,0,0,0,0,0,0,0,0,0,0,0,1900,0,0,0,,http://www.hydroquebec.com/production/images/centrales/beauharnois-01.jpg
Beauport,Boralex Inc,Montmorency River,46.895588,-71.154622,Quebec.a,,,,2015,20,2035,Yes,Yes,No,hydro_run,hydro_run,4,0.6,,0,,0,0,0,0,0,0,0,0,4,0,0,0,0,0,0,0,0,0,0,0,4,0,0,0,0,0,0,0,0,0,0,0,0,0,0,0,,
Belding,Ville de Coaticook,,45.146,-71.8078,Quebec.a,,,,2000,,2100,Yes,Yes,Yes,hydro_run,hydro_run,1.6,0.24,7.586708476,0.541289132,,0,0,0,0,0,0,0,0,1.6,0,0,0,0,0,0,0,0,0,0,0,1.6,0,0,0,0,0,0,0,0,0,0,0,1.6,0,0,0,,
Belleterre (Winneway),Algonquin Power,Winneway,47.5739,-78.5576,Quebec.a,,Lorrainville,25,2000,,2100,Yes,Yes,Yes,hydro_run,hydro_run,3.3,0.495,10.43172416,0.360859422,,0,0,0,0,0,0,0,0,3.3,0,0,0,0,0,0,0,0,0,0,0,3.3,0,0,0,0,0,0,0,0,0,0,0,3.3,0,0,0,,
Bésy,Produits forestiers Résolu - Hydro-Saguenay,,48.4403,-71.2467,Quebec.b,,,,2006,,2100,Yes,Yes,Yes,hydro_run,hydro_run,18,2.7,120,0.761035008,1,0,0,0,0,0,0,0,0,18,0,0,0,0,0,0,0,0,0,0,0,18,0,0,0,0,0,0,0,0,0,0,0,18,0,0,0,Serves Resolute Forest Products internal load.,
Bird,Boralex Inc,Pont-Rouge,46.7489,-71.7104,Quebec.a,,Leneuf,69,2000,,2100,Yes,Yes,Yes,hydro_run,hydro_run,5,0.75,22.76012543,0.519637567,,0,0,0,0,0,0,0,0,5,0,0,0,0,0,0,0,0,0,0,0,5,0,0,0,0,0,0,0,0,0,0,0,5,0,0,0,,
Bryson,Hydro-Quebec Production,Outaouais,45.6611,-76.6318,Quebec.a,,,,1949,,2100,Yes,Yes,Yes,hydro_run,hydro_run,56,8.4,265.5347967,0.541289132,3,0,0,0,0,0,0,0,0,56,0,0,0,0,0,0,0,0,0,0,0,56,0,0,0,0,0,0,0,0,0,0,0,56,0,0,0,Run - limited storage on a branch of the Ottawa River,
Buckingham,Boralex Inc,Buckingham,45.5895,-75.4223,Quebec.a,,Buckingham,25,1994,,2100,Yes,Yes,Yes,hydro_run,hydro_run,20,3,106,0.605022831,,0,0,0,0,0,0,0,0,20,0,0,0,0,0,0,0,0,0,0,0,20,0,0,0,0,0,0,0,0,0,0,0,20,0,0,0,,
Carillon,Hydro-Quebec Production,Outaouais,45.5687,-74.383,Quebec.a,,,,1964,,2100,Yes,Yes,Yes,hydro_run,hydro_run,753,112.95,3570.494677,0.541289132,14,0,0,0,0,0,0,0,0,753,0,0,0,0,0,0,0,0,0,0,0,753,0,0,0,0,0,0,0,0,0,0,0,753,0,0,0,Run - limited storage on a branch of the Ottawa River,
Centrale Lefrançois,Innergex Inc,,46.4235,-72.9684,Quebec.a,,,,2000,,2100,Yes,Yes,Yes,hydro_run,hydro_run,7.9,1.185,37.4593731,0.541289132,,0,0,0,0,0,0,0,0,7.9,0,0,0,0,0,0,0,0,0,0,0,7.9,0,0,0,0,0,0,0,0,0,0,0,7.9,0,0,0,,
Chelsea,Hydro-Quebec Production,Gatineau,45.5125,-75.7775,Quebec.a,,,,1939,,2100,Yes,Yes,Yes,hydro_run,hydro_run,152,22.8,720.7373053,0.541289132,5,0,0,0,0,0,0,0,0,152,0,0,0,0,0,0,0,0,0,0,0,152,0,0,0,0,0,0,0,0,0,0,0,152,0,0,0,Run - limited storage on a branch of the Gatineau River,
Chicoutimi,Produits forestiers Résolu - Hydro-Saguenay,,48.4262,-71.0763,Quebec.b,,,,1923,,2100,Yes,Yes,Yes,hydro_run,hydro_run,8,1.2,38.88188094,0.55482136,1,0,0,0,0,0,0,0,0,8,0,0,0,0,0,0,0,0,0,0,0,8,0,0,0,0,0,0,0,0,0,0,0,8,0,0,0,Serves Resolute Forest Products internal load.,
Chute à Magnan,,St-Paulin,46.424815,-72.968985,Quebec.a,,Charette,25,2000,,2100,Yes,Yes,Yes,hydro_run,hydro_run,7.7,1.155,,0,,0,0,0,0,0,0,0,0,7.7,0,0,0,0,0,0,0,0,0,0,0,7.7,0,0,0,0,0,0,0,0,0,0,0,7.7,0,0,0,,
Chute Bell,,Calumet,45.773663,-74.686259,Quebec.a,,Calumet,25,2000,,2100,Yes,Yes,Yes,hydro_run,hydro_run,10,1.5,,0,,0,0,0,0,0,0,0,0,10,0,0,0,0,0,0,0,0,0,0,0,10,0,0,0,0,0,0,0,0,0,0,0,10,0,0,0,,
Chute Blanche,Hydro-Morin (Soci√©t√© en Nom Collectif),Ste-Jeanne-d'Arc,48.8425,-72.0661,Quebec.b,,Mistassini,25,2000,,2100,Yes,Yes,Yes,hydro_run,hydro_run,1.2,0.18,6.638369917,0.631503988,,0,0,0,0,0,0,0,0,1.2,0,0,0,0,0,0,0,0,0,0,0,1.2,0,0,0,0,0,0,0,0,0,0,0,1.2,0,0,0,,
Chute du Quatre Milles,,Forestville,48.72505,-69.091604,Quebec.b,,Forestville,25,2021,,2100,No,Yes,Yes,hydro_run,hydro_run,5.5,0.825,,0,,0,0,0,0,0,0,0,0,0,0,0,0,0,0,0,0,0,0,0,0,5.5,0,0,0,0,0,0,0,0,0,0,0,5.5,0,0,0,,
Chute du Six Milles,,Forestville,48.724852,-69.15763,Quebec.b,,Forestville,25,2021,,2100,No,Yes,Yes,hydro_run,hydro_run,13.2,1.98,,0,,0,0,0,0,0,0,0,0,0,0,0,0,0,0,0,0,0,0,0,0,13.2,0,0,0,0,0,0,0,0,0,0,0,13.2,0,0,0,,
Chute Garneau,Ville de Saguenay¬†/Hydro-Jonqui√®re,Ville de Saguenay,48.3864,-71.1289,Quebec.b,,Dubuc,25,2000,,2100,Yes,Yes,Yes,hydro_run,hydro_run,5.9,0.885,25.13097183,0.48624278,,0,0,0,0,0,0,0,0,5.9,0,0,0,0,0,0,0,0,0,0,0,5.9,0,0,0,0,0,0,0,0,0,0,0,5.9,0,0,0,,
Chute-Allard,Hydro-Quebec Production,Saint-Maurice,47.8929,-73.7183,Quebec.b,,,,2009,,2100,Yes,Yes,Yes,hydro_run,hydro_run,62,9.3,293.9849535,0.541289132,6,0,0,0,0,0,0,0,0,62,0,0,0,0,0,0,0,0,0,0,0,62,0,0,0,0,0,0,0,0,0,0,0,62,0,0,0,Run - located in-stream on the St. Mauricie River,
Chute-aux-Galets,Hydro Saguenay,,48.6511,-71.2034,Quebec.b,,,,2000,,2100,Yes,Yes,Yes,hydro_run,hydro_run,13.6,2.04,64.48702205,0.541289132,,0,0,0,0,0,0,0,0,13.6,0,0,0,0,0,0,0,0,0,0,0,13.6,0,0,0,0,0,0,0,0,0,0,0,13.6,0,0,0,Run - assumed lacking other evidence,
Chute-Bell,Hydro-Quebec Production,Rouge,45.774,-74.6844,Quebec.a,,,,1999,,2100,Yes,Yes,Yes,hydro_run,hydro_run,10,1.5,47.41692798,0.541289132,2,0,0,0,0,0,0,0,0,10,0,0,0,0,0,0,0,0,0,0,0,10,0,0,0,0,0,0,0,0,0,0,0,10,0,0,0,,
Chute-Burroughs,Hydro-Quebec Distribution,,45.1463,-72.0186,Quebec.a,,,,2000,,2100,Yes,Yes,Yes,hydro_run,hydro_run,1.6,0.24,7.586708476,0.541289132,,0,0,0,0,0,0,0,0,1.6,0,0,0,0,0,0,0,0,0,0,0,1.6,0,0,0,0,0,0,0,0,0,0,0,1.6,0,0,0,,
Chute-des-Chats,Hydro-Quebec Production,Outaouais,45.773981,-74.685362,Quebec.a,,,,1931,,2100,Yes,Yes,Yes,hydro_run,hydro_run,92,13.8,,0,4,0,0,0,0,0,0,0,0,92,0,0,0,0,0,0,0,0,0,0,0,92,0,0,0,0,0,0,0,0,0,0,0,92,0,0,0,Run - limited storage on a branch of the Ottawa River,
Chute-Hemmings,Hydro-Quebec Production,Saint-François,45.8632,-72.4502,Quebec.a,,,,1925,,2100,Yes,Yes,Yes,hydro_run,hydro_run,29,4.35,137.5090911,0.541289132,6,0,0,0,0,0,0,0,0,29,0,0,0,0,0,0,0,0,0,0,0,29,0,0,0,0,0,0,0,0,0,0,0,29,0,0,0,Run - limited storage on the St. Francois River,
Chutes de la Chaudière,Innergex Inc,Bernière,46.7154,-71.285,Quebec.a,,Chaudière,25,2000,,2100,Yes,Yes,Yes,hydro_run,hydro_run,23,3.45,118.5423199,0.588357752,,0,0,0,0,0,0,0,0,23,0,0,0,0,0,0,0,0,0,0,0,23,0,0,0,0,0,0,0,0,0,0,0,23,0,0,0,Run - located in-stream on the Chaudiere River,https://www.innergex.com/sites/chaudiere/
Chutes-à-Gorry,Société d'Énergie de Columbus,,46.7904,-72.0082,Quebec.a,,,,2000,,2100,Yes,Yes,Yes,hydro_run,hydro_run,10.8,1.62,51.21028222,0.541289132,,0,0,0,0,0,0,0,0,10.8,0,0,0,0,0,0,0,0,0,0,0,10.8,0,0,0,0,0,0,0,0,0,0,0,10.8,0,0,0,Run - located in-stream on the Ste. Anne River,
Côte Ste-Catherine,Algonquin Power,Ste-Catherine,45.4066,-73.5691,Quebec.a,,Delson,25,2000,,2100,Yes,Yes,Yes,hydro_run,hydro_run,11.7,1.755,52.63279005,0.513530715,,0,0,0,0,0,0,0,0,11.7,0,0,0,0,0,0,0,0,0,0,0,11.7,0,0,0,0,0,0,0,0,0,0,0,11.7,0,0,0,,
Donnacona,Algonquin Power,Donnacona,46.6785,-71.7458,Quebec.a,,Donnacona,25,2000,,2100,Yes,Yes,Yes,hydro_run,hydro_run,4.2,0.63,22.76012543,0.618616151,,0,0,0,0,0,0,0,0,4.2,0,0,0,0,0,0,0,0,0,0,0,4.2,0,0,0,0,0,0,0,0,0,0,0,4.2,0,0,0,Run - limited storage on the Lievre River,https://energielalievre.com/en/
Drummondville,Hydro-Quebec Production,Saint-François,45.8869,-72.4841,Quebec.a,,,,1925,,2100,Yes,Yes,Yes,hydro_run,hydro_run,16,2.4,75.86708476,0.541289132,4,0,0,0,0,0,0,0,0,16,0,0,0,0,0,0,0,0,0,0,0,16,0,0,0,0,0,0,0,0,0,0,0,16,0,0,0,Run - limited storage on the St. Francois River,
Dufferin,Brookfield Renewable Energy,,45.5844,-75.4178,Quebec.a,,,,2000,,2100,Yes,Yes,Yes,hydro_run,hydro_run,40.6,6.09,192.5127276,0.541289132,,0,0,0,0,0,0,0,0,40.6,0,0,0,0,0,0,0,0,0,0,0,40.6,0,0,0,0,0,0,0,0,0,0,0,40.6,0,0,0,,
East Angus,Boralex Inc,East Angus,45.4827,-71.6623,Quebec.a,,East-Angus,25,1993,,2100,Yes,Yes,Yes,hydro_run,hydro_run,2.2,0.33,10.90589343,0.565893183,,0,0,0,0,0,0,0,0,2.2,0,0,0,0,0,0,0,0,0,0,0,2.2,0,0,0,0,0,0,0,0,0,0,0,2.2,0,0,0,,
Forestville,Boralex Inc,Forestville,48.7319,-69.1706,Quebec.b,,Les Basques,69,1995,,2100,Yes,Yes,Yes,hydro_run,hydro_run,12,1.8,,0,,0,0,0,0,0,0,0,0,12,0,0,0,0,0,0,0,0,0,0,0,12,0,0,0,0,0,0,0,0,0,0,0,12,0,0,0,,
Franquelin–Chutes-à-Thompson,Soci√©t√© d‚Äô√©nergie Rivi√®re Franquelin Inc,Franquelin,49.3083,-67.86,Quebec.b,,Haute-Rive,161,2000,,2100,Yes,Yes,Yes,hydro_run,hydro_run,9.9,1.485,46.9427587,0.541289132,,0,0,0,0,0,0,0,0,9.9,0,0,0,0,0,0,0,0,0,0,0,9.9,0,0,0,0,0,0,0,0,0,0,0,9.9,0,0,0,,
Frontenac,Ville de Sherbrooke /Hydro Sherbrooke,,45.4023,-71.8984,Quebec.a,,,,2000,,2100,Yes,Yes,Yes,hydro_run,hydro_run,2.2,0.33,10.43172416,0.541289132,,0,0,0,0,0,0,0,0,2.2,0,0,0,0,0,0,0,0,0,0,0,2.2,0,0,0,0,0,0,0,0,0,0,0,2.2,0,0,0,,
Glenford (Chute Ford),Algonquin Power,Ste-Christine d'Auvergne,46.8385,-71.9405,Quebec.a,,St-Raymond,25,2000,,2100,Yes,Yes,Yes,hydro_run,hydro_run,4.5,0.675,23.70846399,0.601432369,,0,0,0,0,0,0,0,0,4.5,0,0,0,0,0,0,0,0,0,0,0,4.5,0,0,0,0,0,0,0,0,0,0,0,4.5,0,0,0,,
Grand-Mère,Hydro-Quebec Production,Saint-Maurice,46.6152,-72.6793,Quebec.a,,,,1930,,2100,Yes,Yes,Yes,hydro_run,hydro_run,67,10.05,317.6934174,0.541289132,4,0,0,0,0,0,0,0,0,67,0,0,0,0,0,0,0,0,0,0,0,67,0,0,0,0,0,0,0,0,0,0,0,67,0,0,0,Run - located instream,https://fr.wikipedia.org/wiki/Centrale_de_Grand-Mère#Fin_de_vie_de_la_centrale
Grande-Dame,Ville de Magog,,45.2727,-72.1054,Quebec.a,,,,2000,,2100,Yes,Yes,Yes,hydro_run,hydro_run,1.7,0.255,8.060877756,0.541289132,,0,0,0,0,0,0,0,0,1.7,0,0,0,0,0,0,0,0,0,0,0,1.7,0,0,0,0,0,0,0,0,0,0,0,1.7,0,0,0,,
High Falls,Brookfield Renewable Energy,Lievre,45.8396,-75.6456,Quebec.a,,,,2000,,2100,Yes,Yes,Yes,hydro_run,hydro_run,109,16.35,541.0271482,0.566615504,,0,0,0,0,0,0,0,0,109,0,0,0,0,0,0,0,0,0,0,0,109,0,0,0,0,0,0,0,0,0,0,0,109,0,0,0,Run - limited storage on the Lievre River,https://energielalievre.com/en/
Hydraska (Ste-Hyacinthe),,St-Hyacinthe,45.627306,-72.950036,Quebec.a,,Casavant,25,2000,,2100,Yes,Yes,Yes,hydro_run,hydro_run,2.55,0.3825,,0,,0,0,0,0,0,0,0,0,2.55,0,0,0,0,0,0,0,0,0,0,0,2.55,0,0,0,0,0,0,0,0,0,0,0,2.55,0,0,0,,
Hydro-Canyon St-Joachim,Société Hydro-Canyon Saint-Joachim Inc,St-Joachim,47.072,-70.877,Quebec.a,,Beaupré,69,2000,,2100,Yes,Yes,Yes,hydro_run,hydro_run,23.2,3.48,110.0072729,0.541289132,,0,0,0,0,0,0,0,0,23.2,0,0,0,0,0,0,0,0,0,0,0,23.2,0,0,0,0,0,0,0,0,0,0,0,23.2,0,0,0,Run - located instream,http://www.cima.ca/en/project/hydro-canyon-saint-joachim/
Hydro-Fraser,Hydro-Fraser Inc,Rivière-du-Loup,47.841,-69.5317,Quebec.b,,Grand-Portage,25,2000,,2100,Yes,Yes,Yes,hydro_run,hydro_run,2.25,0.3375,13.75090911,0.697661548,,0,0,0,0,0,0,0,0,2.25,0,0,0,0,0,0,0,0,0,0,0,2.25,0,0,0,0,0,0,0,0,0,0,0,2.25,0,0,0,,
Jean Guérin,Société d'Énergie de Columbus,St-Henri,46.6353,-71.0477,Quebec.a,,Ste-Claire,25,2000,,2100,Yes,Yes,Yes,hydro_run,hydro_run,5.5,0.825,27.97598751,0.580655615,,0,0,0,0,0,0,0,0,5.5,0,0,0,0,0,0,0,0,0,0,0,5.5,0,0,0,0,0,0,0,0,0,0,0,5.5,0,0,0,,
Joey-Tanenbaum,Coulonge Eenergie/Hydro-Pontiac Inc,Fort Coulonge,45.8781,-76.6961,Quebec.a,,Cadieux,25,2000,,2100,Yes,Yes,Yes,hydro_run,hydro_run,17,2.55,80.60877756,0.541289132,,0,0,0,0,0,0,0,0,17,0,0,0,0,0,0,0,0,0,0,0,17,0,0,0,0,0,0,0,0,0,0,0,17,0,0,0,,
Jonquière,Produits forestiers Résolu - Hydro-Saguenay,,48.4167,-71.2555,Quebec.b,,,,1923,,2100,Yes,Yes,Yes,hydro_run,hydro_run,4.5,0.675,30,0.761035008,,0,0,0,0,0,0,0,0,4.5,0,0,0,0,0,0,0,0,0,0,0,4.5,0,0,0,0,0,0,0,0,0,0,0,4.5,0,0,0,Serves Resolute Forest Products internal load.,
Jonquière 1,Ville de Saguenay,,48.4221,-71.2534,Quebec.b,,,,2000,,2100,Yes,Yes,Yes,hydro_run,hydro_run,4.5,0.675,21.33761759,0.541289132,,0,0,0,0,0,0,0,0,4.5,0,0,0,0,0,0,0,0,0,0,0,4.5,0,0,0,0,0,0,0,0,0,0,0,4.5,0,0,0,,
La Gabelle,Hydro-Quebec Production,Saint-Maurice,46.4491,-72.7393,Quebec.a,,,,1931,,2100,Yes,Yes,Yes,hydro_run,hydro_run,131,19.65,621.1617565,0.541289132,5,0,0,0,0,0,0,0,0,131,0,0,0,0,0,0,0,0,0,0,0,131,0,0,0,0,0,0,0,0,0,0,0,131,0,0,0,Run - limited storage on the St. Maurice River,
La Sarre I,Centrale Hydro√©lectrique La Sarre 1/Hydro-Abitibi Inc,La Sarre,48.8473,-79.1497,Quebec.b,,Palmarolle,25,2000,,2100,Yes,Yes,Yes,hydro_run,hydro_run,1.1,0.165,5.215862078,0.541289132,,0,0,0,0,0,0,0,0,1.1,0,0,0,0,0,0,0,0,0,0,0,1.1,0,0,0,0,0,0,0,0,0,0,0,1.1,0,0,0,Run - limited storage on the St. Maurice River,
La Tuque,Hydro-Quebec Production,Saint-Maurice,47.4446,-72.7987,Quebec.a,,,,1955,,2100,Yes,Yes,Yes,hydro_run,hydro_run,294,44.1,1394.057683,0.541289132,6,0,0,0,0,0,0,0,0,294,0,0,0,0,0,0,0,0,0,0,0,294,0,0,0,0,0,0,0,0,0,0,0,294,0,0,0,,
Lebreux,Hydro Canomore Inc,,48.1545,-65.3474,Quebec.b,,,,2000,,2100,Yes,Yes,Yes,hydro_run,hydro_run,1,0.15,4.741692798,0.541289132,,0,0,0,0,0,0,0,0,1,0,0,0,0,0,0,0,0,0,0,0,1,0,0,0,0,0,0,0,0,0,0,0,1,0,0,0,,
Les Cèdres,Hydro-Quebec Production,Saint-Laurent,45.3089,-74.0273,Quebec.a,,,,1924,,2100,Yes,Yes,Yes,hydro_run,hydro_run,113,16.95,535.8112861,0.541289132,12,0,0,0,0,0,0,0,0,113,0,0,0,0,0,0,0,0,0,0,0,113,0,0,0,0,0,0,0,0,0,0,0,113,0,0,0,Run - located in-stream on the St. Lawrence River,
Magpie,Innergex Inc,Magpie,50.3228,-64.4542,Quebec.b,,Arnaud,161,2000,,2100,Yes,Yes,Yes,hydro_run,hydro_run,42,6.3,192.5127276,0.523246161,,0,0,0,0,0,0,0,0,42,0,0,0,0,0,0,0,0,0,0,0,42,0,0,0,0,0,0,0,0,0,0,0,42,0,0,0,Run - located in-stream on the Magpie River,https://www.innergex.com/sites/magpie/
Manouane Sipi,Ville de La Tuque / Atikamekw de Wemotaci,Manouane,47.459065,-72.765524,Quebec.a,,Chute Allard,230,2020,,2100,No,Yes,Yes,hydro_run,hydro_run,22,3.3,,0,,0,0,0,0,0,0,0,0,0,0,0,0,0,0,0,0,0,0,0,0,22,0,0,0,0,0,0,0,0,0,0,0,22,0,0,0,Run - located instream,
Maquatua,,Wemindji,53.0035,-78.7935,Quebec.b,,Wemindji,25,2000,,2100,Yes,Yes,Yes,hydro_run,hydro_run,1.1,0.165,5.215862078,0.541289132,,0,0,0,0,0,0,0,0,1.1,0,0,0,0,0,0,0,0,0,0,0,1.1,0,0,0,0,0,0,0,0,0,0,0,1.1,0,0,0,,http://www.ville.latuque.qc.ca/fr/affaires/manouane
Marches Naturelles,,Montmorency,46.8941,-71.1587,Quebec.a,,Beauport,25,2000,,2100,Yes,Yes,Yes,hydro_run,hydro_run,4.2,0.63,19.91510975,0.541289132,,0,0,0,0,0,0,0,0,4.2,0,0,0,0,0,0,0,0,0,0,0,4.2,0,0,0,0,0,0,0,0,0,0,0,4.2,0,0,0,,
Masson,Brookfield Renewable Energy,,45.5432,-75.4203,Quebec.a,,,,2000,,2100,Yes,Yes,Yes,hydro_run,hydro_run,119.4,17.91,566.1581201,0.541289132,,0,0,0,0,0,0,0,0,119.4,0,0,0,0,0,0,0,0,0,0,0,119.4,0,0,0,0,0,0,0,0,0,0,0,119.4,0,0,0,Run - limited storage,https://energielalievre.com/en/
McDougall,Fiducie R.S.P. Hydro Inc/ Boralex Inc,Pont-Rouge,46.7405,-71.6955,Quebec.a,,Leneuf,69,2000,,2100,Yes,Yes,Yes,hydro_run,hydro_run,8.5,1.275,40.77855806,0.54765724,,0,0,0,0,0,0,0,0,8.5,0,0,0,0,0,0,0,0,0,0,0,8.5,0,0,0,0,0,0,0,0,0,0,0,8.5,0,0,0,,
Memphrémagog,Ville de Magog,,45.263,-72.1435,Quebec.a,,,,2000,,2100,Yes,Yes,Yes,hydro_run,hydro_run,1.8,0.27,8.535047036,0.541289132,,0,0,0,0,0,0,0,0,1.8,0,0,0,0,0,0,0,0,0,0,0,1.8,0,0,0,0,0,0,0,0,0,0,0,1.8,0,0,0,,
Minashtuk,Minashtuk (Société en Commandite),Mistassini,48.9062,-72.2053,Quebec.b,,Mistassini,25,2000,,2100,Yes,Yes,Yes,hydro_run,hydro_run,10,1.5,57.37448285,0.65495985,,0,0,0,0,0,0,0,0,10,0,0,0,0,0,0,0,0,0,0,0,10,0,0,0,0,0,0,0,0,0,0,0,10,0,0,0,,
Mistassini (11ème Chute),Société en commandite Énergie Hydroélectrique Mistassini ,ND de Laurette et Girardville,48.978026,-72.288539,Quebec.b,,Normandin,25,2017,,2100,Yes,Yes,Yes,hydro_run,hydro_run,18.3,2.745,,0,,0,0,0,0,0,0,0,0,18.3,0,0,0,0,0,0,0,0,0,0,0,18.3,0,0,0,0,0,0,0,0,0,0,0,18.3,0,0,0,,
Mitis-1,Hydro-Quebec Production,Mitis,48.6036,-68.1376,Quebec.b,,,,1929,,2100,Yes,Yes,Yes,hydro_run,hydro_run,6,0.9,28.45015679,0.541289132,2,0,0,0,0,0,0,0,0,6,0,0,0,0,0,0,0,0,0,0,0,6,0,0,0,0,0,0,0,0,0,0,0,6,0,0,0,,
Mitis-2,Hydro-Quebec Production,Mitis,48.6219,-68.1378,Quebec.b,,,,1947,,2100,Yes,Yes,Yes,hydro_run,hydro_run,4,0.6,18.96677119,0.541289132,1,0,0,0,0,0,0,0,0,4,0,0,0,0,0,0,0,0,0,0,0,4,0,0,0,0,0,0,0,0,0,0,0,4,0,0,0,,
Mont-Laurier,Algonquin Power,Mont-Laurier,46.5547,-75.4999,Quebec.a,,Mont-Laurier,25,2000,,2100,Yes,Yes,Yes,hydro_run,hydro_run,2.4,0.36,12.80257055,0.608950273,,0,0,0,0,0,0,0,0,2.4,0,0,0,0,0,0,0,0,0,0,0,2.4,0,0,0,0,0,0,0,0,0,0,0,2.4,0,0,0,,
Montmagny,Innergex Montmagny (Société en Commandite),Montmagny,46.9872,-70.5492,Quebec.a,,Taché,25,2000,,2100,Yes,Yes,Yes,hydro_run,hydro_run,2.1,0.315,9.957554875,0.541289132,,0,0,0,0,0,0,0,0,2.1,0,0,0,0,0,0,0,0,0,0,0,2.1,0,0,0,0,0,0,0,0,0,0,0,2.1,0,0,0,,
Paton,Ville de Sherbrooke /Hydro Sherbrooke,,45.3994,-71.8996,Quebec.a,,,,2000,,2100,Yes,Yes,Yes,hydro_run,hydro_run,1.6,0.24,7.586708476,0.541289132,,0,0,0,0,0,0,0,0,1.6,0,0,0,0,0,0,0,0,0,0,0,1.6,0,0,0,0,0,0,0,0,0,0,0,1.6,0,0,0,,
Pentecôte,Pouvoir Riverin Inc (Société en Commandite) /Algonquin Power Fund (Canada)¬† Inc,Rivière-Pentecôte,49.7858,-67.157,Quebec.b,,Pentecôte,25,2000,,2100,Yes,Yes,Yes,hydro_run,hydro_run,1.7,0.255,9.483385595,0.636810744,,0,0,0,0,0,0,0,0,1.7,0,0,0,0,0,0,0,0,0,0,0,1.7,0,0,0,0,0,0,0,0,0,0,0,1.7,0,0,0,,
Péribonka,Hydro-Quebec Production,Péribonka,49.5077,-71.1824,Quebec.b,,,,2008,,2100,Yes,Yes,Yes,hydro_run,hydro_run,385,57.75,1825.551727,0.541289132,3,0,0,0,0,0,0,0,0,385,0,0,0,0,0,0,0,0,0,0,0,385,0,0,0,0,0,0,0,0,0,0,0,385,0,0,0,Run - limited storage,
Petites Bergeronnes,Société d'Énergie de Columbus,Petites-Bergeronnes,48.2614,-69.6265,Quebec.b,,Les Basques,25,2000,,2100,Yes,Yes,Yes,hydro_run,hydro_run,4.1,0.615,19.91510975,0.554491306,,0,0,0,0,0,0,0,0,4.1,0,0,0,0,0,0,0,0,0,0,0,4.1,0,0,0,0,0,0,0,0,0,0,0,4.1,0,0,0,,
Pont Arnaud,Ville de Saguenay¬†/Hydro-Jonqui√®re,Ville de Saguenay,48.4069,-71.1232,Quebec.b,,Dubuc,25,2000,,2100,Yes,Yes,Yes,hydro_run,hydro_run,9.1,1.365,37.93354238,0.475858578,,0,0,0,0,0,0,0,0,9.1,0,0,0,0,0,0,0,0,0,0,0,9.1,0,0,0,0,0,0,0,0,0,0,0,9.1,0,0,0,,
Portneuf I,Innergex Inc,Ste-Anne-de-Portneuf,48.6585,-69.1325,Quebec.b,,Les Basques,69,2000,,2100,Yes,Yes,Yes,hydro_run,hydro_run,7.6,1.14,35.56269598,0.534166907,,0,0,0,0,0,0,0,0,7.6,0,0,0,0,0,0,0,0,0,0,0,7.6,0,0,0,0,0,0,0,0,0,0,0,7.6,0,0,0,,
Portneuf II,Innergex Inc,Ste-Anne-de-Portneuf,48.6548,-69.1762,Quebec.b,,Les Basques,69,2000,,2100,Yes,Yes,Yes,hydro_run,hydro_run,9.9,1.485,55.47780573,0.639705338,,0,0,0,0,0,0,0,0,9.9,0,0,0,0,0,0,0,0,0,0,0,9.9,0,0,0,0,0,0,0,0,0,0,0,9.9,0,0,0,,
Portneuf III,Innergex Inc,Ste-Anne-de-Portneuf,48.6913,-69.3389,Quebec.b,,Les Basques,69,2000,,2100,Yes,Yes,Yes,hydro_run,hydro_run,8.7,1.305,41.25272734,0.541289132,,0,0,0,0,0,0,0,0,8.7,0,0,0,0,0,0,0,0,0,0,0,8.7,0,0,0,0,0,0,0,0,0,0,0,8.7,0,0,0,,
Rapide-2,Hydro-Quebec Production,Outaouais,47.9336,-78.5761,Quebec.b,,,,1964,,2100,Yes,Yes,Yes,hydro_run,hydro_run,67,10.05,317.6934174,0.541289132,4,0,0,0,0,0,0,0,0,67,0,0,0,0,0,0,0,0,0,0,0,67,0,0,0,0,0,0,0,0,0,0,0,67,0,0,0,Run - limited storage,
Rapide-des-Cœurs,Hydro-Quebec Production,Saint-Maurice,47.7866,-73.3753,Quebec.b,,,,2009,,2100,Yes,Yes,Yes,hydro_run,hydro_run,76,11.4,360.3686526,0.541289132,6,0,0,0,0,0,0,0,0,76,0,0,0,0,0,0,0,0,0,0,0,76,0,0,0,0,0,0,0,0,0,0,0,76,0,0,0,Run - limited storage,
Rapides-des-Cèdres,Brookfield Renewable Energy,Notre-Dame-du-Laus,46.1009,-75.648,Quebec.a,,Notre-Dame-du-Laus,25,2000,,2100,Yes,Yes,Yes,hydro_run,hydro_run,9,1.35,44.09774302,0.559332103,,0,0,0,0,0,0,0,0,9,0,0,0,0,0,0,0,0,0,0,0,9,0,0,0,0,0,0,0,0,0,0,0,9,0,0,0,Run - limited storage,https://energielalievre.com/en/
Rapides-Farmer,Hydro-Quebec Production,Gatineau,45.4989,-75.7632,Quebec.a,,,,1947,,2100,Yes,Yes,Yes,hydro_run,hydro_run,104,15.6,493.136051,0.541289132,5,0,0,0,0,0,0,0,0,104,0,0,0,0,0,0,0,0,0,0,0,104,0,0,0,0,0,0,0,0,0,0,0,104,0,0,0,Run - limited storage,
Rawdon,Algonquin Power,Rawdon,46.0458,-73.7294,Quebec.a,,Magnan,25,2000,,2100,Yes,Yes,Yes,hydro_run,hydro_run,2.4,0.36,11.85423199,0.563842846,,0,0,0,0,0,0,0,0,2.4,0,0,0,0,0,0,0,0,0,0,0,2.4,0,0,0,0,0,0,0,0,0,0,0,2.4,0,0,0,,
Rimouski (La Pulpe),Boralex Inc,Rimouski,48.4112,-68.5532,Quebec.b,,Ste-Odile,25,1997,,2100,Yes,Yes,Yes,hydro_run,hydro_run,3.7,0.555,17.54426335,0.541289132,,0,0,0,0,0,0,0,0,3.7,0,0,0,0,0,0,0,0,0,0,0,3.7,0,0,0,0,0,0,0,0,0,0,0,3.7,0,0,0,,
Rivière Ste-Anne,,Ste-Christine (d'Auvergne),46.821715,71.972221,Quebec.a,,Alain-Grandbois,25,2000,,2100,Yes,Yes,Yes,hydro_run,hydro_run,9.7,1.455,,0,,0,0,0,0,0,0,0,0,9.7,0,0,0,0,0,0,0,0,0,0,0,9.7,0,0,0,0,0,0,0,0,0,0,0,9.7,0,0,0,,
Rivière-des-Prairies,Hydro-Quebec Production,Rivière-des-Prairies,45.5895,-73.6572,Quebec.a,,,,1930,,2100,Yes,Yes,Yes,hydro_run,hydro_run,54,8.1,256.0514111,0.541289132,6,0,0,0,0,0,0,0,0,54,0,0,0,0,0,0,0,0,0,0,0,54,0,0,0,0,0,0,0,0,0,0,0,54,0,0,0,Run - located instream,
Rivière-du-Loup,Algonquin Power,Rivière-du-Loup,47.8305,-69.53,Quebec.b,,Grand-Portage,25,2000,,2100,Yes,Yes,Yes,hydro_run,hydro_run,2.65,0.3975,12.32840127,0.531076129,,0,0,0,0,0,0,0,0,2.65,0,0,0,0,0,0,0,0,0,0,0,2.65,0,0,0,0,0,0,0,0,0,0,0,2.65,0,0,0,,
Rocher-de-Grand-Mère,Hydro-Quebec Production,Saint-Maurice,46.6139,-72.6751,Quebec.a,,,,2004,,2100,Yes,Yes,Yes,hydro_run,hydro_run,230,34.5,1090.589343,0.541289132,3,0,0,0,0,0,0,0,0,230,0,0,0,0,0,0,0,0,0,0,0,230,0,0,0,0,0,0,0,0,0,0,0,230,0,0,0,,
Rock Forest,Ville de Sherbrooke /hydro_run Sherbrooke,,45.3418,-71.9935,Quebec.a,,,,2000,,2100,Yes,Yes,Yes,hydro_run,hydro_run,2.9,0.435,13.75090911,0.541289132,,0,0,0,0,0,0,0,0,2.9,0,0,0,0,0,0,0,0,0,0,0,2.9,0,0,0,0,0,0,0,0,0,0,0,2.9,0,0,0,,
S.P.C.,Centrale S.P.C. Inc,,48.4212,-71.0839,Quebec.b,,,,2000,,2100,Yes,Yes,Yes,hydro_run,hydro_run,38,5.7,180.1843263,0.541289132,,0,0,0,0,0,0,0,0,38,0,0,0,0,0,0,0,0,0,0,0,38,0,0,0,0,0,0,0,0,0,0,0,38,0,0,0,Run - located instream,
Saint-Narcisse,Hydro-Quebec Production,Batiscan,46.5484,-72.4102,Quebec.a,,,,1926,,2100,Yes,Yes,Yes,hydro_run,hydro_run,15,2.25,71.12539197,0.541289132,2,0,0,0,0,0,0,0,0,15,0,0,0,0,0,0,0,0,0,0,0,15,0,0,0,0,0,0,0,0,0,0,0,15,0,0,0,Run - located instream,
Sainte-Margeurite-1-1A,Innergex Inc (50%) / Desjardins Group Pension Plan (50%),Clarke City,50.1971,-66.6362,Quebec.b,,Laure,25,2000,,2100,Yes,Yes,Yes,hydro_run,hydro_run,28.9,4.335,144.6216303,0.571256696,,0,0,0,0,0,0,0,0,28.9,0,0,0,0,0,0,0,0,0,0,0,28.9,0,0,0,0,0,0,0,0,0,0,0,28.9,0,0,0,Run - limited storage on the Ste. Margeurite River ,https://www.innergex.com/sites/sm-1/
SEC Windsor,Hydro-Windsor (Société en Commandite) /Innergex,,45.558,-72.0077,Quebec.a,,,,2000,,2100,Yes,Yes,Yes,hydro_run,hydro_run,5.7,0.855,27.02764895,0.541289132,,0,0,0,0,0,0,0,0,5.7,0,0,0,0,0,0,0,0,0,0,0,5.7,0,0,0,0,0,0,0,0,0,0,0,5.7,0,0,0,,
Sept-Chutes,Hydro-Quebec Production,Sainte-Anne,47.1227,-70.8286,Quebec.a,,,,1999,,2100,Yes,Yes,Yes,hydro_run,hydro_run,22,3.3,104.3172416,0.541289132,4,0,0,0,0,0,0,0,0,22,0,0,0,0,0,0,0,0,0,0,0,22,0,0,0,0,0,0,0,0,0,0,0,22,0,0,0,,
Sheldrake – Courbe-du-Sault,Société D'Énergie Rivière Sheldrake Inc,Rivière au Tonnerre,50.3135,-64.9098,Quebec.b,,Rivière au Tonnerre,161,2000,,2100,Yes,Yes,Yes,hydro_run,hydro_run,25,3.75,118.5423199,0.541289132,,0,0,0,0,0,0,0,0,25,0,0,0,0,0,0,0,0,0,0,0,25,0,0,0,0,0,0,0,0,0,0,0,25,0,0,0,,http://www.environnement.gouv.qc.ca/evaluations/decret/2010/1016-2010.pdf
St-Alban,Algonquin Power,St-Alban,46.71,-72.0768,Quebec.a,,Alain Grandbois,25,2000,,2100,Yes,Yes,Yes,hydro_run,hydro_run,8.2,1.23,38.88188094,0.541289132,,0,0,0,0,0,0,0,0,8.2,0,0,0,0,0,0,0,0,0,0,0,8.2,0,0,0,0,0,0,0,0,0,0,0,8.2,0,0,0,,
St-Lambert,Boralex Inc,St-Lambert,45.4959,-73.5153,Quebec.a,,St-Maxime,25,1995,,2100,Yes,Yes,Yes,hydro_run,hydro_run,5.8,0.87,27.50181823,0.541289132,,0,0,0,0,0,0,0,0,5.8,0,0,0,0,0,0,0,0,0,0,0,5.8,0,0,0,0,0,0,0,0,0,0,0,5.8,0,0,0,,
St-Raphaël,Algonquin Power,St-Raphaël,46.7982,-70.7366,Quebec.a,,La Durantaye,25,2000,,2100,Yes,Yes,Yes,hydro_run,hydro_run,4.05,0.6075,16.59592479,0.467780731,,0,0,0,0,0,0,0,0,4.05,0,0,0,0,0,0,0,0,0,0,0,4.05,0,0,0,0,0,0,0,0,0,0,0,4.05,0,0,0,,
Ste-Brigitte,Algonquin Power,Ste-Brigitte-des-Saults,46.0312,-72.4791,Quebec.a,,Ste-Perpétue,25,2000,,2100,Yes,Yes,Yes,hydro_run,hydro_run,3.5,0.525,19.91510975,0.649546959,,0,0,0,0,0,0,0,0,3.5,0,0,0,0,0,0,0,0,0,0,0,3.5,0,0,0,0,0,0,0,0,0,0,0,3.5,0,0,0,,
T.-D.-Bouchard,Algonquin Power,,45.6219,-72.9498,Quebec.a,,,,2000,,2100,Yes,Yes,Yes,hydro_run,hydro_run,2.3,0.345,10.90589343,0.541289132,,0,0,0,0,0,0,0,0,2.3,0,0,0,0,0,0,0,0,0,0,0,2.3,0,0,0,0,0,0,0,0,0,0,0,2.3,0,0,0,,
Thibaudeau-Ricard,Thibaudeau-Ricard Inc,Shawinigan,46.5529,-72.7587,Quebec.a,,Thibaudeau,25,2000,,2100,Yes,Yes,Yes,hydro_run,hydro_run,4.9,0.735,25.13097183,0.585476,,0,0,0,0,0,0,0,0,4.9,0,0,0,0,0,0,0,0,0,0,0,4.9,0,0,0,0,0,0,0,0,0,0,0,4.9,0,0,0,,
Val-Jalbert,Énergie Hydroélectrique Ouiatchouan,Chambord,48.4334,-72.1672,Quebec.b,,Roberval,161,2000,,2100,Yes,Yes,Yes,hydro_run,hydro_run,17.6,2.64,75.86708476,0.492081029,,0,0,0,0,0,0,0,0,17.6,0,0,0,0,0,0,0,0,0,0,0,17.6,0,0,0,0,0,0,0,0,0,0,0,17.6,0,0,0,Run - limited storage,
W.R. Beatty,Waltham Énergie  Sec/Hydro-Pontiac Inc,Waltham,45.9167,-76.9223,Quebec.a,,,,2000,,2100,Yes,Yes,Yes,hydro_run,hydro_run,11.7,1.755,55.47780573,0.541289132,,0,0,0,0,0,0,0,0,11.7,0,0,0,0,0,0,0,0,0,0,0,11.7,0,0,0,0,0,0,0,0,0,0,0,11.7,0,0,0,Run - limited storage,
Weedon,Ville de Sherbrooke /Hydro Sherbrooke,,45.6617,-71.4636,Quebec.a,,,,2000,,2100,Yes,Yes,Yes,hydro_run,hydro_run,4.5,0.675,21.33761759,0.541289132,,0,0,0,0,0,0,0,0,4.5,0,0,0,0,0,0,0,0,0,0,0,4.5,0,0,0,0,0,0,0,0,0,0,0,4.5,0,0,0,,
Westbury,Ville de Sherbrooke /Hydro Sherbrooke,,45.498,-71.6201,Quebec.a,,,,2000,,2100,Yes,Yes,Yes,hydro_run,hydro_run,4.3,0.645,20.38927903,0.541289132,,0,0,0,0,0,0,0,0,4.3,0,0,0,0,0,0,0,0,0,0,0,4.3,0,0,0,0,0,0,0,0,0,0,0,4.3,0,0,0,,
Windsor,Innergex Inc,Windsor,45.563542,72.00434,Quebec.a,,Windsor,25,1996,,2036,Yes,Yes,No,hydro_run,hydro_run,5.5,0.825,,0,,0,0,0,0,0,0,0,0,5.5,0,0,0,0,0,0,0,0,0,0,0,5.5,0,0,0,0,0,0,0,0,0,0,0,0,0,0,0,,https://www.innergex.com/sites/windsor/
Winston,Winston Hydro,St-Antoine de RdLoup,47.751457,-69.527391,Quebec.b,,Grand Portage,25,2021,,2100,No,Yes,Yes,hydro_run,hydro_run,2.5,0.375,,0,,0,0,0,0,0,0,0,0,0,0,0,0,0,0,0,0,0,0,0,0,2.5,0,0,0,0,0,0,0,0,0,0,0,2.5,0,0,0,,
Béarn Sawmill,,,47.2847,-79.3356,Quebec.a,,,,2000,,2100,Yes,Yes,Yes,Biomass,waste,7,7,12.99463875,0.211915179,,0,0,0,0,7,0,0,0,0,0,0,0,0,0,0,0,7,0,0,0,0,0,0,0,0,0,0,0,7,0,0,0,0,0,0,0,,
Biomont,Biomont Énergie,Montréal,45.559244,-73.617313,Quebec.a,,Charland,25,2000,,2100,Yes,Yes,Yes,Biogas,waste,4.8,4.8,,0,,0,0,0,0,4.8,0,0,0,0,0,0,0,0,0,0,0,4.8,0,0,0,0,0,0,0,0,0,0,0,4.8,0,0,0,0,0,0,0,,
Chapais,Brookfield Renewable Energy,Chapais,49.7709,-74.8568,Quebec.b,,Chapais,25,2000,,2100,Yes,Yes,Yes,Biomass,waste,31,31,51.97855502,0.191407258,,0,0,0,0,31,0,0,0,0,0,0,0,0,0,0,0,31,0,0,0,0,0,0,0,0,0,0,0,31,0,0,0,0,0,0,0,,https://energielalievre.com/en/
Cogénération Valleyfield,Les Industries JPB Inc.,Valleyfield,45.230193,-74.083753,Quebec.a,,Valleyfield,25,2020,,2100,No,Yes,Yes,Biomass,waste,9.75,9.75,,0,,0,0,0,0,0,0,0,0,0,0,0,0,0,0,0,0,9.75,0,0,0,0,0,0,0,0,0,0,0,9.75,0,0,0,0,0,0,0,,
Dolbeau,,Dolbeau,48.8794,-72.2174,Quebec.b,,Mistassini,161,2000,,2100,Yes,Yes,Yes,Biomass,waste,28.8,28.8,49.19398957,0.194991397,,0,0,0,0,28.8,0,0,0,0,0,0,0,0,0,0,0,28.8,0,0,0,0,0,0,0,0,0,0,0,28.8,0,0,0,0,0,0,0,,
Domtar-Windsor TG1,,Windsor,45.564537,-71.978148,Quebec.a,,Des Cantons,120,2000,,2100,Yes,Yes,Yes,Biomass,waste,30,30,,0,,0,0,0,0,30,0,0,0,0,0,0,0,0,0,0,0,30,0,0,0,0,0,0,0,0,0,0,0,30,0,0,0,0,0,0,0,Capacity injected into the network is zero.,
Domtar-Windsor TG2,,Windsor,45.564537,-71.978148,Quebec.a,,Des Cantons,120,2000,,2100,Yes,Yes,Yes,Biomass,waste,18,18,,0,,0,0,0,0,18,0,0,0,0,0,0,0,0,0,0,0,18,0,0,0,0,0,0,0,0,0,0,0,18,0,0,0,0,0,0,0,Capacity injected into the network is zero.,
Fibrek (Résolu St-Félicien),PF Résolu Canada Inc,St-Félicien,48.7465,-72.5128,Quebec.b,,St-Félicien,161,2000,,2100,Yes,Yes,Yes,Biomass,waste,43,43,79.2672964,0.210436701,,0,0,0,0,43,0,0,0,0,0,0,0,0,0,0,0,43,0,0,0,0,0,0,0,0,0,0,0,43,0,0,0,0,0,0,0,Capacity injected into the network is limited compared to the installed capacity.,
Fortress Cellulose,,Thurso,45.59891,-75.256214,Quebec.a,,Thurso,120,2000,,2100,Yes,Yes,Yes,Biomass,waste,24.3,24.3,,0,,0,0,0,0,24.3,0,0,0,0,0,0,0,0,0,0,0,24.3,0,0,0,0,0,0,0,0,0,0,0,24.3,0,0,0,0,0,0,0,,
Haute-Yamaska (Terreau Biogaz),,Ste-Cécile de Milton,45.4634,-72.7809,Quebec.a,,Leclerc,25,2000,,2100,Yes,Yes,Yes,Biogas,waste,2.1,2.1,5.569130895,0.30273597,,0,0,0,0,2.1,0,0,0,0,0,0,0,0,0,0,0,2.1,0,0,0,0,0,0,0,0,0,0,0,2.1,0,0,0,0,0,0,0,,
Kruger Bromptonville,,Bromptonville,45.483183,-71.949142,Quebec.a,,Sherbrooke,120,2000,,2100,Yes,Yes,Yes,Biomass,waste,26.5,26.5,,0,,0,0,0,0,26.5,0,0,0,0,0,0,0,0,0,0,0,26.5,0,0,0,0,0,0,0,0,0,0,0,26.5,0,0,0,0,0,0,0,Capacity injected into the network is limited compared to the installed capacity.,
Lachenaie Landfill,,Lachenie,45.7326,-73.5346,Quebec.a,,,,2000,,2100,Yes,Yes,Yes,Biomass,waste,4,4,7.42550786,0.211915179,,0,0,0,0,4,0,0,0,0,0,0,0,0,0,0,0,4,0,0,0,0,0,0,0,0,0,0,0,4,0,0,0,0,0,0,0,,
Lachute,Lidya Energy,Lachute,45.6093,-74.2492,Quebec.a,,Lachute,25,2000,,2100,Yes,Yes,Yes,Biogas,waste,9.9,9.9,18.56376965,0.214055736,,0,0,0,0,9.9,0,0,0,0,0,0,0,0,0,0,0,9.9,0,0,0,0,0,0,0,0,0,0,0,9.9,0,0,0,0,0,0,0,,
Lebel-sur-Quévillon (Nordic),Nexolia Bioénergie,Lebel-sur-Quévillon,49.93165,-74.369739,Quebec.b,,Quévillon,120,2020,,2100,No,Yes,Yes,Biomass,waste,55.3,55.3,,0,,0,0,0,0,0,0,0,0,0,0,0,0,0,0,0,0,55.3,0,0,0,0,0,0,0,0,0,0,0,55.3,0,0,0,0,0,0,0,Capacity injected into the network is zero.,
PF Résolu Gatineau,,Gatineau,45.4792,-75.6552,Quebec.a,,Vignan,120,2000,,2100,Yes,Yes,Yes,Biomass,waste,16.5,16.5,27.84565447,0.192650162,,0,0,0,0,16.5,0,0,0,0,0,0,0,0,0,0,0,16.5,0,0,0,0,0,0,0,0,0,0,0,16.5,0,0,0,0,0,0,0,,
Rayonier (Témiscaming 1),,Témiscaming,46.71305,-79.093767,Quebec.a,,Kipawa,120,2000,,2100,Yes,Yes,Yes,Biomass,waste,9.4,9.4,,0,,0,0,0,0,9.4,0,0,0,0,0,0,0,0,0,0,0,9.4,0,0,0,0,0,0,0,0,0,0,0,9.4,0,0,0,0,0,0,0,Capacity injected into the network is zero.,
Rayonier (Témiscaming 2),,Témiscaming,46.71305,-79.093767,Quebec.a,,Kipawa,120,2000,,2100,Yes,Yes,Yes,Biomass,waste,50.8,50.8,,0,,0,0,0,0,50.8,0,0,0,0,0,0,0,0,0,0,0,50.8,0,0,0,0,0,0,0,0,0,0,0,50.8,0,0,0,0,0,0,0,Capacity injected into the network is zero.,
Senneterre,Boralex Inc,Senneterre,48.3838,-77.223,Quebec.b,,Senneterre,120,2000,,2100,Yes,Yes,Yes,Biomass,waste,31,31,64.97319377,0.239259073,,0,0,0,0,31,0,0,0,0,0,0,0,0,0,0,0,31,0,0,0,0,0,0,0,0,0,0,0,31,0,0,0,0,0,0,0,,
St-Félicien,Green Leaf,St-Félicien,48.6379,-72.4337,Quebec.b,,St-Félicien,161,2000,,2100,Yes,Yes,Yes,Biomass,waste,23,23,38.98391626,0.193487772,,0,0,0,0,23,0,0,0,0,0,0,0,0,0,0,0,23,0,0,0,0,0,0,0,0,0,0,0,23,0,0,0,0,0,0,0,,
St-Nicéphore,,St-Nicéphore,45.8228,-72.3688,Quebec.a,,Marcotte,25,2000,,2100,Yes,Yes,Yes,Biogas,waste,7.6,7.6,14.10846493,0.211915179,,0,0,0,0,7.6,0,0,0,0,0,0,0,0,0,0,0,7.6,0,0,0,0,0,0,0,0,0,0,0,7.6,0,0,0,0,0,0,0,,
St-Thomas,,St-Thomas,46.0639,-73.2555,Quebec.a,,Berthier,25,2000,,2100,Yes,Yes,Yes,Biogas,waste,9.9,9.9,17.44994347,0.201212392,,0,0,0,0,9.9,0,0,0,0,0,0,0,0,0,0,0,9.9,0,0,0,0,0,0,0,0,0,0,0,9.9,0,0,0,0,0,0,0,,
Tembec Témiscaming 1-2,Tembec Inc,,46.7094,-79.0954,Quebec.a,,,,2000,,2100,Yes,Yes,Yes,Biomass,waste,58.1,58.1,107.8555017,0.211915179,,0,0,0,0,58.1,0,0,0,0,0,0,0,0,0,0,0,58.1,0,0,0,0,0,0,0,0,0,0,0,58.1,0,0,0,0,0,0,0,,
Thurso 1-2,,Thurso,45.5982,-75.2557,Quebec.a,,Thurso,,2000,,2100,Yes,Yes,Yes,Biomass,waste,24,24,44.55304716,0.211915179,,0,0,0,0,24,0,0,0,0,0,0,0,0,0,0,0,24,0,0,0,0,0,0,0,0,0,0,0,24,0,0,0,0,0,0,0,,
Anse-à-Valleau,Cartier Wind Energy,Anse-à-Valleau,49.0798,-64.6289,Quebec.b,,Rivière-au-Renard,161,2007,20,2027,Yes,No,No,wind_onshore,wind,100.5,29.346,186.6743312,0.21203836,,0,0,0,0,0,0,100.5,0,0,0,0,0,0,0,0,0,0,0,0,0,0,0,0,0,0,0,0,0,0,0,0,0,0,0,0,0,,
Baie-des-Sables,TransCanada Wind (72%) / Innergex Inc (38%),Baie-des-Sables,48.7066,-67.8841,Quebec.b,,Les Boules,230,2006,20,2026,Yes,No,No,wind_onshore,wind,109.5,31.974,203.3914355,0.21203836,,0,0,0,0,0,0,109.5,0,0,0,0,0,0,0,0,0,0,0,0,0,0,0,0,0,0,0,0,0,0,0,0,0,0,0,0,0,,
Belle-Rivière (anc. Val-Éo),La Société d'Énergie Belle-Rivière Inc.,St-Gédéon,48.4417,-71.7389,Quebec.b,,Alma,25,2020,20,2040,No,Yes,No,wind_onshore,wind,23.5,6.862,,0,,0,0,0,0,0,0,0,0,0,0,0,0,0,0,0,0,0,0,23.5,0,0,0,0,0,0,0,0,0,0,0,0,0,0,0,0,0,,
Carleton,Cartier Wind Energy,Carleton,48.168583,-66.114,Quebec.b,,66.114,230,2008,20,2028,Yes,No,No,wind_onshore,wind,109.5,31.974,,0,,0,0,0,0,0,0,109.5,0,0,0,0,0,0,0,0,0,0,0,0,0,0,0,0,0,0,0,0,0,0,0,0,0,0,0,0,0,,
Côte-de-Beaupré,Boralex,Beaupré,47.3006,-70.881,Quebec.a,,Laurentides,315,2015,20,2035,Yes,Yes,No,wind_onshore,wind,23.5,6.862,43.65021675,0.21203836,,0,0,0,0,0,0,23.5,0,0,0,0,0,0,0,0,0,0,0,23.5,0,0,0,0,0,0,0,0,0,0,0,0,0,0,0,0,0,,
De l'Érable,Elecnor,Ste-Sophie d'Halifax,46.1059,-71.6839,Quebec.a,,Bois-Francs,230,2013,20,2033,Yes,Yes,No,wind_onshore,wind,100,29.2,185.7456032,0.21203836,,0,0,0,0,0,0,100,0,0,0,0,0,0,0,0,0,0,0,100,0,0,0,0,0,0,0,0,0,0,0,0,0,0,0,0,0,,
Des Moulins,Invenergy Wind Canada,Thetford Mines,46.1637,-71.3546,Quebec.a,,Thetford,230,2014,20,2034,Yes,Yes,No,wind_onshore,wind,135.7,39.6244,252.0567835,0.21203836,,0,0,0,0,0,0,135.7,0,0,0,0,0,0,0,0,0,0,0,135.7,0,0,0,0,0,0,0,0,0,0,0,0,0,0,0,0,0,,
Des Moulins 2,Invenergy Wind Canada,Matapédia,48.0433,-67.5268,Quebec.b,,Rimouski,315,2014,20,2034,Yes,Yes,No,wind_onshore,wind,21.2,6.1904,39.37806788,0.21203836,,0,0,0,0,0,0,21.2,0,0,0,0,0,0,0,0,0,0,0,21.2,0,0,0,0,0,0,0,0,0,0,0,0,0,0,0,0,0,,
Frampton,Boralex,Frampton,46.4445,-70.737,Quebec.a,,Ste-Marie/St-Joseph,25,2015,20,2035,Yes,Yes,No,wind_onshore,wind,24,7.008,44.57894477,0.21203836,,0,0,0,0,0,0,24,0,0,0,0,0,0,0,0,0,0,0,24,0,0,0,0,0,0,0,0,0,0,0,0,0,0,0,0,0,,
Gros Morne,Cartier Wind Energy,Gros-Morne,49.181,-65.4615,Quebec.b,,Goémon,230,2011,20,2031,Yes,Yes,No,wind_onshore,wind,211.5,61.758,392.8519507,0.21203836,,0,0,0,0,0,0,211.5,0,0,0,0,0,0,0,0,0,0,0,211.5,0,0,0,0,0,0,0,0,0,0,0,0,0,0,0,0,0,,
Jardin d'Éole,Northland Power Inc,St-Ulric/St-Léandre,48.7355,-67.6658,Quebec.b,,,,2009,20,2029,Yes,No,No,wind_onshore,wind,133.3,38.9236,247.5988891,0.21203836,,0,0,0,0,0,0,133.3,0,0,0,0,0,0,0,0,0,0,0,0,0,0,0,0,0,0,0,0,0,0,0,0,0,0,0,0,0,,
La Mitis,EDF Energies Nouvelles (70%) / Energie Renouvelable de La Mitis (30%),Lac Alfred,48.3694,-67.8251,Quebec.b,,Rivière-du-Loup,315,2014,20,2034,Yes,Yes,No,wind_onshore,wind,24.6,7.1832,45.69341839,0.21203836,,0,0,0,0,0,0,24.6,0,0,0,0,0,0,0,0,0,0,0,24.6,0,0,0,0,0,0,0,0,0,0,0,0,0,0,0,0,0,,
Lac Alfred,Enbridge (67.5%) / EDF Energies Nouvelles (20%) / Mrc of La Mitis & Matapedia (12.5%),Lac Alfred,48.4194,-67.7137,Quebec.b,,Rivière-du-Loup,315,2013,20,2033,Yes,Yes,No,wind_onshore,wind,300,87.6,557.2368096,0.21203836,,0,0,0,0,0,0,300,0,0,0,0,0,0,0,0,0,0,0,300,0,0,0,0,0,0,0,0,0,0,0,0,0,0,0,0,0,,
Le Granit,EDF Energies Nouvelles (70%) / Energie du Granit (30%),St-Robert-Bellarmin,45.6994,-70.58,Quebec.a,,Beauceville,120,2014,20,2034,Yes,Yes,No,wind_onshore,wind,24.6,7.1832,45.69341839,0.21203836,,0,0,0,0,0,0,24.6,0,0,0,0,0,0,0,0,0,0,0,24.6,0,0,0,0,0,0,0,0,0,0,0,0,0,0,0,0,0,,
Le Nordais 1 - Cap-Chat,Transalta,Cap-Chat,49.0673,-66.7573,Quebec.b,,Goémon,230,1999,20,2019,Yes,No,No,wind_onshore,wind,57,16.644,104.5747746,0.20943438,,0,0,0,0,0,0,57,0,0,0,0,0,0,0,0,0,0,0,0,0,0,0,0,0,0,0,0,0,0,0,0,0,0,0,0,0,,
Le Nordais 2 - Matane,TransAlta,Matane,48.7816,-67.6097,Quebec.b,,Matane,230,1999,20,2019,Yes,No,No,wind_onshore,wind,43,12.556,79.49911817,0.211052135,,0,0,0,0,0,0,43,0,0,0,0,0,0,0,0,0,0,0,0,0,0,0,0,0,0,0,0,0,0,0,0,0,0,0,0,0,,
Le Plateau 1,Invenergy Wind Canada,Matapédia,48.0503,-67.4303,Quebec.b,,Rimouski,315,2012,20,2032,Yes,Yes,No,wind_onshore,wind,138.6,40.4712,257.443406,0.21203836,,0,0,0,0,0,0,138.6,0,0,0,0,0,0,0,0,0,0,0,138.6,0,0,0,0,0,0,0,0,0,0,0,0,0,0,0,0,0,,
Le Plateau 2,Invenergy Wind Canada,Matapédia,48.0532,-67.4782,Quebec.b,,Rimouski,315,2014,20,2034,Yes,Yes,No,wind_onshore,wind,21.2,6.1904,39.37806788,0.21203836,,0,0,0,0,0,0,21.2,0,0,0,0,0,0,0,0,0,0,0,21.2,0,0,0,0,0,0,0,0,0,0,0,0,0,0,0,0,0,,
Massif du Sud,EDF Energies Nouvelles,Massif du Sud,46.5668,-70.4849,Quebec.a,,Beauceville,120,2013,20,2033,Yes,Yes,No,wind_onshore,wind,150,43.8,278.6184048,0.21203836,,0,0,0,0,0,0,150,0,0,0,0,0,0,0,0,0,0,0,150,0,0,0,0,0,0,0,0,0,0,0,0,0,0,0,0,0,,
Mont Copper,NextEra Energy,Murdochville,48.9399,-65.5271,Quebec.b,,Copper Mountain,69,2006,20,2026,Yes,No,No,wind_onshore,wind,54,15.768,100.3026257,0.21203836,,0,0,0,0,0,0,54,0,0,0,0,0,0,0,0,0,0,0,0,0,0,0,0,0,0,0,0,0,0,0,0,0,0,0,0,0,,
Mont Miller,NextEra Energy,Murdochville,48.98,-65.4958,Quebec.b,,Copper Mountain,161,2006,20,2026,Yes,No,No,wind_onshore,wind,54,15.768,100.3026257,0.21203836,,0,0,0,0,0,0,54,0,0,0,0,0,0,0,0,0,0,0,0,0,0,0,0,0,0,0,0,0,0,0,0,0,0,0,0,0,,
Mont Rothery,EDF Energies Nouvelles / MDI Wind LP,Murdochville,48.972,-65.3796,Quebec.b,,Copper Mountain,161,2015,20,2035,Yes,Yes,No,wind_onshore,wind,74,21.608,137.4517464,0.21203836,,0,0,0,0,0,0,74,0,0,0,0,0,0,0,0,0,0,0,74,0,0,0,0,0,0,0,0,0,0,0,0,0,0,0,0,0,,
Mont Sainte-Marguerite,Pattern Energy,Saint-Séverin,46.196056,-71.087333,Quebec.a,,Beauceville,120,2018,20,2038,Yes,Yes,No,wind_onshore,wind,147.2,42.9824,,0,,0,0,0,0,0,0,147.2,0,0,0,0,0,0,0,0,0,0,0,147.2,0,0,0,0,0,0,0,0,0,0,0,0,0,0,0,0,0,,
Mont-Louis,Northland Power,Mont-Louis,49.1818,-65.6502,Quebec.b,,Goémon,230,2011,20,2031,Yes,Yes,No,wind_onshore,wind,100.5,29.346,186.6743312,0.21203836,,0,0,0,0,0,0,100.5,0,0,0,0,0,0,0,0,0,0,0,100.5,0,0,0,0,0,0,0,0,0,0,0,0,0,0,0,0,0,,
Montagne Sèche,Innergex Inc (38%) / TransCanada (42%),Cloridorme,49.178,-64.9418,Quebec.b,,Goémon,230,2011,20,2031,Yes,Yes,No,wind_onshore,wind,58.5,17.082,108.6611779,0.21203836,,0,0,0,0,0,0,58.5,0,0,0,0,0,0,0,0,0,0,0,58.5,0,0,0,0,0,0,0,0,0,0,0,0,0,0,0,0,0,,
Montérégie,Kruger Energie,St-Rémi,45.2748,-73.5774,Quebec.a,,S-Rémi,120,2012,20,2032,Yes,Yes,No,wind_onshore,wind,101.2,29.5504,187.9745504,0.21203836,,0,0,0,0,0,0,101.2,0,0,0,0,0,0,0,0,0,0,0,101.2,0,0,0,0,0,0,0,0,0,0,0,0,0,0,0,0,0,,
New Richmond,TransAlta,New Richmond,48.1999,-65.7166,Quebec.b,,Cascapédia,230,2013,20,2033,Yes,Yes,No,wind_onshore,wind,67.8,19.7976,125.935519,0.21203836,,0,0,0,0,0,0,67.8,0,0,0,0,0,0,0,0,0,0,0,67.8,0,0,0,0,0,0,0,0,0,0,0,0,0,0,0,0,0,,
Nicolas-Riou,EDF Energies Nouvelles,Rivière-du-Loup,48.065556,-68.991389,Quebec.b,,Rivière-du-Loup,315,2017,20,2037,Yes,Yes,No,wind_onshore,wind,224.4,65.5248,,0,,0,0,0,0,0,0,224.4,0,0,0,0,0,0,0,0,0,0,0,224.4,0,0,0,0,0,0,0,0,0,0,0,0,0,0,0,0,0,,
Pierre de Saurel,Pierre-De Saurel MCR,St-Robert,45.967,-72.9274,Quebec.a,,Yamaska,25,2016,20,2036,Yes,Yes,No,wind_onshore,wind,24.6,7.1832,45.69341839,0.21203836,,0,0,0,0,0,0,24.6,0,0,0,0,0,0,0,0,0,0,0,24.6,0,0,0,0,0,0,0,0,0,0,0,0,0,0,0,0,0,,
Rivière du Moulin,EDF Energies Nouvelles,Charlevoix,47.9745,-71.0996,Quebec.b,,Laurentides,345,2014,20,2034,Yes,Yes,No,wind_onshore,wind,350,102.2,650.1096112,0.21203836,,0,0,0,0,0,0,350,0,0,0,0,0,0,0,0,0,0,0,350,0,0,0,0,0,0,0,0,0,0,0,0,0,0,0,0,0,,
Rivière-Nouvelle (Mesgi'g Ugju's'n),Innergex Inc (50%) / Miôgmawei Mawiomi Business Corp (50%),Rivière-Nouvelle,48.2505,-66.7255,Quebec.b,,Matapédia,230,2016,20,2036,Yes,Yes,No,wind_onshore,wind,149.3,43.5956,277.3181856,0.21203836,,0,0,0,0,0,0,149.3,0,0,0,0,0,0,0,0,0,0,0,149.3,0,0,0,0,0,0,0,0,0,0,0,0,0,0,0,0,0,,
Roncevaux,Invenergy Wind Canada,L’Ascension de Patapédia,48.1381,-67.4388,Quebec.b,,Rimouski,315,2016,20,2036,Yes,Yes,No,wind_onshore,wind,74.8,21.8416,138.9377112,0.21203836,,0,0,0,0,0,0,74.8,0,0,0,0,0,0,0,0,0,0,0,74.8,0,0,0,0,0,0,0,0,0,0,0,0,0,0,0,0,0,,
Seigneurie de Beaupré 2,Boralex Inc / Gazmetro,Beaupré,47.3715,-70.8698,Quebec.a,,Laurentides,315,2014,20,2034,Yes,Yes,No,wind_onshore,wind,131.2,38.3104,243.6982314,0.21203836,,0,0,0,0,0,0,131.2,0,0,0,0,0,0,0,0,0,0,0,131.2,0,0,0,0,0,0,0,0,0,0,0,0,0,0,0,0,0,,
Seigneurie de Beaupré 3,Boralex Inc / Gazmetro,Beaupré,47.3317,-70.8905,Quebec.a,,Laurentides,315,2014,20,2034,Yes,Yes,No,wind_onshore,wind,140.6,41.0552,261.1583181,0.21203836,,0,0,0,0,0,0,140.6,0,0,0,0,0,0,0,0,0,0,0,140.6,0,0,0,0,0,0,0,0,0,0,0,0,0,0,0,0,0,,
Seigneurie de Beaupré 4,Boralex Inc / Gazmetro,Beaupré,47.2665,-70.9456,Quebec.a,,Laurentides,315,2014,20,2034,Yes,Yes,No,wind_onshore,wind,67.9,19.8268,126.1212646,0.21203836,,0,0,0,0,0,0,67.9,0,0,0,0,0,0,0,0,0,0,0,67.9,0,0,0,0,0,0,0,0,0,0,0,0,0,0,0,0,0,,
St-Cyprien,Kahnawake Sustainable Energy,St-Cyprien de Napierville,45.18606,-73.425857,Quebec.a,,Napierreville,25,2021,20,2041,No,Yes,No,wind_onshore,wind,18.8,5.4896,,0,,0,0,0,0,0,0,0,0,0,0,0,0,0,0,0,0,0,0,18.8,0,0,0,0,0,0,0,0,0,0,0,0,0,0,0,0,0,,
St-Damase,Algonquin Power,St-Damase,48.6248,-67.8674,Quebec.b,,Les Boules,120,2014,20,2034,Yes,Yes,No,wind_onshore,wind,23.5,6.862,43.65021675,0.21203836,,0,0,0,0,0,0,23.5,0,0,0,0,0,0,0,0,0,0,0,23.5,0,0,0,0,0,0,0,0,0,0,0,0,0,0,0,0,0,,
St-Philémon,Capstone (51%),St-Philémon,46.6594,-70.3566,Quebec.a,,Armagh/Daaquam,25,2014,20,2034,Yes,Yes,No,wind_onshore,wind,24,7.008,44.57894477,0.21203836,,0,0,0,0,0,0,24,0,0,0,0,0,0,0,0,0,0,0,24,0,0,0,0,0,0,0,0,0,0,0,0,0,0,0,0,0,,
St-Robert-Bellarmin,Enbridge (50%) / EDF Energies Nouvelles (20%) / Fiera Axium & Régime & Desjardins (30%),St-Robert-Bellarmin,45.6746,-70.5751,Quebec.a,,Beauceville,120,2012,20,2032,Yes,Yes,No,wind_onshore,wind,80,23.36,148.5964826,0.21203836,,0,0,0,0,0,0,80,0,0,0,0,0,0,0,0,0,0,0,80,0,0,0,0,0,0,0,0,0,0,0,0,0,0,0,0,0,,
St. Columban,St. Columban Energy LP,St. Columban,43.5505,-81.2896,Quebec.a,,,,2015,20,2035,Yes,Yes,No,wind_onshore,wind,33,9.636,61.29604905,0.21203836,,0,0,0,0,0,0,33,0,0,0,0,0,0,0,0,0,0,0,33,0,0,0,0,0,0,0,0,0,0,0,0,0,0,0,0,0,,
TechnoCentre Corus,Nergica,Rivière-au-Renard,48.9869,-64.4527,Quebec.b,,Rivière-au-Renard,25,2010,20,2030,Yes,Yes,No,wind_onshore,wind,4.1,1.1972,8,0.222741953,,0,0,0,0,0,0,4.1,0,0,0,0,0,0,0,0,0,0,0,4.1,0,0,0,0,0,0,0,0,0,0,0,0,0,0,0,0,0,,https://www.thewindpower.net/windfarm_en_9996_site-nordique-experimental-en-eolien-corus.php
Témiscouata I,Boralex,St-Honoré de Témiscouata,47.6363,-69.1225,Quebec.a,,Rivière-du-Loup,120,2014,20,2034,Yes,Yes,No,wind_onshore,wind,23.5,6.862,43.65021675,0.21203836,,0,0,0,0,0,0,23.5,0,0,0,0,0,0,0,0,0,0,0,23.5,0,0,0,0,0,0,0,0,0,0,0,0,0,0,0,0,0,,
Témiscouata II,Boralex,St-Honoré de Témiscouata,47.6212,-69.1296,Quebec.a,,Rivière-du-Loup,120,2015,20,2035,Yes,Yes,No,wind_onshore,wind,51.7,15.0964,96.03047685,0.21203836,,0,0,0,0,0,0,51.7,0,0,0,0,0,0,0,0,0,0,0,51.7,0,0,0,0,0,0,0,0,0,0,0,0,0,0,0,0,0,,
Vents du Kempt,Le Club Éolectric (51%),Causapscal,48.3172,-67.1408,Quebec.b,,Causapscal,120,2014,20,2034,Yes,Yes,No,wind_onshore,wind,101.1,29.5212,187.7888048,0.21203836,,0,0,0,0,0,0,101.1,0,0,0,0,0,0,0,0,0,0,0,101.1,0,0,0,0,0,0,0,0,0,0,0,0,0,0,0,0,0,,
Viger-Denonville,Innergex Inc (50%) / RCM of Rivi√®re-du-Loup,St-Paul de la Croix,47.9173,-69.216,Quebec.b,,Rivière-du-Loup,120,2013,20,2033,Yes,Yes,No,wind_onshore,wind,24.6,7.1832,45.69341839,0.21203836,,0,0,0,0,0,0,24.6,0,0,0,0,0,0,0,0,0,0,0,24.6,0,0,0,0,0,0,0,0,0,0,0,0,0,0,0,0,0,,
