2030,British Columbia.a,coal,0.0
2030,British Columbia.a,diesel,0.0
2030,British Columbia.a,gasCC,0.0
2030,British Columbia.a,nuclear,142.0460988357737
2030,British Columbia.a,gasSC,0.0
2030,British Columbia.a,biomass,0.0
2030,Alberta.a,coal,0.0
2030,Alberta.a,diesel,0.0
2030,Alberta.a,gasCC,0.0
2030,Alberta.a,nuclear,0.0
2030,Alberta.a,gasSC,0.0
2030,Alberta.a,biomass,0.0
2030,Saskatchewan.a,coal,0.0
2030,Saskatchewan.a,diesel,0.0
2030,Saskatchewan.a,gasCC,0.0
2030,Saskatchewan.a,nuclear,0.0
2030,Saskatchewan.a,gasSC,0.0
2030,Saskatchewan.a,biomass,0.0
2030,Manitoba.a,coal,0.0
2030,Manitoba.a,diesel,0.0
2030,Manitoba.a,gasCC,0.0
2030,Manitoba.a,nuclear,0.0
2030,Manitoba.a,gasSC,0.0
2030,Manitoba.a,biomass,0.0
2030,Ontario.a,coal,0.0
2030,Ontario.a,diesel,0.0
2030,Ontario.a,gasCC,0.0
2030,Ontario.a,nuclear,0.0
2030,Ontario.a,gasSC,0.0
2030,Ontario.a,biomass,0.0
2030,Ontario.b,coal,0.0
2030,Ontario.b,diesel,0.0
2030,Ontario.b,gasCC,0.0
2030,Ontario.b,nuclear,0.0
2030,Ontario.b,gasSC,0.0
2030,Ontario.b,biomass,0.0
2030,Quebec.a,coal,0.0
2030,Quebec.a,diesel,0.0
2030,Quebec.a,gasCC,0.0
2030,Quebec.a,nuclear,0.0
2030,Quebec.a,gasSC,0.0
2030,Quebec.a,biomass,0.0
2030,Quebec.b,coal,0.0
2030,Quebec.b,diesel,0.0
2030,Quebec.b,gasCC,0.0
2030,Quebec.b,nuclear,0.0
2030,Quebec.b,gasSC,0.0
2030,Quebec.b,biomass,0.0
2030,New Brunswick.a,coal,0.0
2030,New Brunswick.a,diesel,0.0
2030,New Brunswick.a,gasCC,0.0
2030,New Brunswick.a,nuclear,1080.7703482452239
2030,New Brunswick.a,gasSC,0.0
2030,New Brunswick.a,biomass,0.0
2030,Newfoundland and Labrador.a,coal,0.0
2030,Newfoundland and Labrador.a,diesel,0.0
2030,Newfoundland and Labrador.a,gasCC,0.0
2030,Newfoundland and Labrador.a,nuclear,0.0
2030,Newfoundland and Labrador.a,gasSC,0.0
2030,Newfoundland and Labrador.a,biomass,0.0
2030,Newfoundland and Labrador.b,coal,0.0
2030,Newfoundland and Labrador.b,diesel,0.0
2030,Newfoundland and Labrador.b,gasCC,0.0
2030,Newfoundland and Labrador.b,nuclear,0.0
2030,Newfoundland and Labrador.b,gasSC,0.0
2030,Newfoundland and Labrador.b,biomass,0.0
2030,Nova Scotia.a,coal,0.0
2030,Nova Scotia.a,diesel,0.0
2030,Nova Scotia.a,gasCC,0.0
2030,Nova Scotia.a,nuclear,404.50799651762
2030,Nova Scotia.a,gasSC,0.0
2030,Nova Scotia.a,biomass,0.0
2030,Prince Edward Island.a,coal,0.0
2030,Prince Edward Island.a,diesel,0.0
2030,Prince Edward Island.a,gasCC,0.0
2030,Prince Edward Island.a,nuclear,0.0
2030,Prince Edward Island.a,gasSC,0.0
2030,Prince Edward Island.a,biomass,0.0
2040,British Columbia.a,coal,0.0
2040,British Columbia.a,diesel,0.0
2040,British Columbia.a,gasCC,0.0
2040,British Columbia.a,nuclear,1579.8219544799988
2040,British Columbia.a,gasSC,0.0
2040,British Columbia.a,biomass,0.0
2040,Alberta.a,coal,0.0
2040,Alberta.a,diesel,0.0
2040,Alberta.a,gasCC,0.0
2040,Alberta.a,nuclear,2263.5260450408605
2040,Alberta.a,gasSC,0.0
2040,Alberta.a,biomass,0.0
2040,Saskatchewan.a,coal,0.0
2040,Saskatchewan.a,diesel,0.0
2040,Saskatchewan.a,gasCC,0.0
2040,Saskatchewan.a,nuclear,0.0
2040,Saskatchewan.a,gasSC,0.0
2040,Saskatchewan.a,biomass,0.0
2040,Manitoba.a,coal,0.0
2040,Manitoba.a,diesel,0.0
2040,Manitoba.a,gasCC,0.0
2040,Manitoba.a,nuclear,0.0
2040,Manitoba.a,gasSC,0.0
2040,Manitoba.a,biomass,0.0
2040,Ontario.a,coal,0.0
2040,Ontario.a,diesel,0.0
2040,Ontario.a,gasCC,0.0
2040,Ontario.a,nuclear,0.0
2040,Ontario.a,gasSC,0.0
2040,Ontario.a,biomass,0.0
2040,Ontario.b,coal,0.0
2040,Ontario.b,diesel,0.0
2040,Ontario.b,gasCC,0.0
2040,Ontario.b,nuclear,0.0
2040,Ontario.b,gasSC,0.0
2040,Ontario.b,biomass,0.0
2040,Quebec.a,coal,0.0
2040,Quebec.a,diesel,0.0
2040,Quebec.a,gasCC,0.0
2040,Quebec.a,nuclear,3357.9783188868864
2040,Quebec.a,gasSC,0.0
2040,Quebec.a,biomass,0.0
2040,Quebec.b,coal,0.0
2040,Quebec.b,diesel,0.0
2040,Quebec.b,gasCC,0.0
2040,Quebec.b,nuclear,0.0
2040,Quebec.b,gasSC,0.0
2040,Quebec.b,biomass,0.0
2040,New Brunswick.a,coal,0.0
2040,New Brunswick.a,diesel,0.0
2040,New Brunswick.a,gasCC,0.0
2040,New Brunswick.a,nuclear,1081.3427790272483
2040,New Brunswick.a,gasSC,0.0
2040,New Brunswick.a,biomass,0.0
2040,Newfoundland and Labrador.a,coal,0.0
2040,Newfoundland and Labrador.a,diesel,0.0
2040,Newfoundland and Labrador.a,gasCC,0.0
2040,Newfoundland and Labrador.a,nuclear,0.0
2040,Newfoundland and Labrador.a,gasSC,0.0
2040,Newfoundland and Labrador.a,biomass,0.0
2040,Newfoundland and Labrador.b,coal,0.0
2040,Newfoundland and Labrador.b,diesel,0.0
2040,Newfoundland and Labrador.b,gasCC,0.0
2040,Newfoundland and Labrador.b,nuclear,0.0
2040,Newfoundland and Labrador.b,gasSC,0.0
2040,Newfoundland and Labrador.b,biomass,0.0
2040,Nova Scotia.a,coal,0.0
2040,Nova Scotia.a,diesel,0.0
2040,Nova Scotia.a,gasCC,0.0
2040,Nova Scotia.a,nuclear,618.8377243686451
2040,Nova Scotia.a,gasSC,0.0
2040,Nova Scotia.a,biomass,0.0
2040,Prince Edward Island.a,coal,0.0
2040,Prince Edward Island.a,diesel,0.0
2040,Prince Edward Island.a,gasCC,0.0
2040,Prince Edward Island.a,nuclear,80.31878729916656
2040,Prince Edward Island.a,gasSC,0.0
2040,Prince Edward Island.a,biomass,0.0
2050,British Columbia.a,coal,0.0
2050,British Columbia.a,diesel,0.0
2050,British Columbia.a,gasCC,-0.0
2050,British Columbia.a,nuclear,0.0
2050,British Columbia.a,gasSC,0.0
2050,British Columbia.a,biomass,1811.9481867169377
2050,Alberta.a,coal,0.0
2050,Alberta.a,diesel,0.0
2050,Alberta.a,gasCC,-0.0
2050,Alberta.a,nuclear,0.0
2050,Alberta.a,gasSC,0.0
2050,Alberta.a,biomass,0.0
2050,Saskatchewan.a,coal,0.0
2050,Saskatchewan.a,diesel,0.0
2050,Saskatchewan.a,gasCC,0.0
2050,Saskatchewan.a,nuclear,0.0
2050,Saskatchewan.a,gasSC,0.0
2050,Saskatchewan.a,biomass,0.0
2050,Manitoba.a,coal,0.0
2050,Manitoba.a,diesel,0.0
2050,Manitoba.a,gasCC,0.0
2050,Manitoba.a,nuclear,0.0
2050,Manitoba.a,gasSC,0.0
2050,Manitoba.a,biomass,0.0
2050,Ontario.a,coal,0.0
2050,Ontario.a,diesel,0.0
2050,Ontario.a,gasCC,0.0
2050,Ontario.a,nuclear,0.0
2050,Ontario.a,gasSC,0.0
2050,Ontario.a,biomass,0.0
2050,Ontario.b,coal,0.0
2050,Ontario.b,diesel,0.0
2050,Ontario.b,gasCC,0.0
2050,Ontario.b,nuclear,0.0
2050,Ontario.b,gasSC,0.0
2050,Ontario.b,biomass,0.0
2050,Quebec.a,coal,0.0
2050,Quebec.a,diesel,0.0
2050,Quebec.a,gasCC,0.0
2050,Quebec.a,nuclear,0.0
2050,Quebec.a,gasSC,0.0
2050,Quebec.a,biomass,2666.1863689970755
2050,Quebec.b,coal,0.0
2050,Quebec.b,diesel,0.0
2050,Quebec.b,gasCC,0.0
2050,Quebec.b,nuclear,0.0
2050,Quebec.b,gasSC,0.0
2050,Quebec.b,biomass,0.0
2050,New Brunswick.a,coal,0.0
2050,New Brunswick.a,diesel,0.0
2050,New Brunswick.a,gasCC,0.0
2050,New Brunswick.a,nuclear,0.0
2050,New Brunswick.a,gasSC,0.0
2050,New Brunswick.a,biomass,436.6160004356566
2050,Newfoundland and Labrador.a,coal,0.0
2050,Newfoundland and Labrador.a,diesel,0.0
2050,Newfoundland and Labrador.a,gasCC,0.0
2050,Newfoundland and Labrador.a,nuclear,0.0
2050,Newfoundland and Labrador.a,gasSC,0.0
2050,Newfoundland and Labrador.a,biomass,0.0
2050,Newfoundland and Labrador.b,coal,0.0
2050,Newfoundland and Labrador.b,diesel,0.0
2050,Newfoundland and Labrador.b,gasCC,0.0
2050,Newfoundland and Labrador.b,nuclear,0.0
2050,Newfoundland and Labrador.b,gasSC,0.0
2050,Newfoundland and Labrador.b,biomass,0.0
2050,Nova Scotia.a,coal,0.0
2050,Nova Scotia.a,diesel,0.0
2050,Nova Scotia.a,gasCC,-0.0
2050,Nova Scotia.a,nuclear,0.0
2050,Nova Scotia.a,gasSC,0.0
2050,Nova Scotia.a,biomass,7.604490605887349
2050,Prince Edward Island.a,coal,0.0
2050,Prince Edward Island.a,diesel,-0.0
2050,Prince Edward Island.a,gasCC,0.0
2050,Prince Edward Island.a,nuclear,0.0
2050,Prince Edward Island.a,gasSC,0.0
2050,Prince Edward Island.a,biomass,0.0
