('2030', 'RN_ALO'),0.0
('2030', 'RN_ASH'),0.0
('2030', 'RN_ELK'),0.0
('2030', 'RN_FSR'),0.0
('2030', 'RN_LAD'),0.0
('2030', 'RN_LAJ'),0.0
('2030', 'RN_PUN'),0.0
('2030', 'RN_SET'),0.0
('2030', 'RN_SEV'),0.0
('2030', 'RN_SHU'),0.0
('2030', 'RN_WAH'),0.0
('2030', 'GF_BOR'),0.0
('2030', 'GF_DUN'),0.0
('2030', 'GF_ELA'),0.0
('2030', 'GF_ISK'),0.0
('2030', 'GF_MRC'),0.0
('2030', 'GF_MOS'),0.0
('2030', 'GF_MUR'),0.0
('2030', 'GF_NUD'),0.0
('2030', 'GF_STE'),0.0
('2030', 'GF_WAD'),0.0
('2030', 'RN_BRA'),0.0
('2030', 'GF_SRD'),0.0
('2030', 'GF_AMK'),0.0
('2030', 'GF_TAZ'),0.0
('2030', 'GF_EMG'),0.0
('2030', 'GF_BON'),0.0
('2030', 'GF_NOT'),0.0
('2030', 'GF_GRV'),0.0
('2030', 'GF_FRP'),0.0
('2030', 'GF_MSN'),0.0
('2030', 'GF_ON01'),0.0
('2030', 'GF_ON02'),0.0
('2030', 'GF_ON03'),0.0
('2030', 'GF_ON05'),0.0
('2030', 'GF_ON06'),0.0
('2030', 'GF_ON08'),0.0
('2030', 'GF_ON09'),0.0
('2030', 'GF_ON11'),0.0
('2030', 'GF_ON12'),0.0
('2030', 'GF_ON13'),0.0
('2030', 'GF_ON14'),0.0
('2030', 'GF_ON15'),0.0
('2030', 'GF_ON16'),0.0
('2030', 'GF_ON17'),0.0
('2030', 'GF_ON18'),0.0
('2030', 'GF_ON20'),0.0
('2030', 'GF_ON21'),0.0
('2030', 'GF_ON22'),0.0
('2030', 'GF_ON23'),0.0
('2030', 'GF_ON24'),0.0
('2030', 'GF_ON25'),0.0
('2030', 'GF_ON26'),0.0
('2030', 'GF_ON27'),0.0
('2030', 'GF_ON28'),0.0
('2030', 'GF_ON29'),0.0
('2030', 'GF_ON30'),0.0
('2030', 'GF_ON31'),0.0
('2030', 'GF_ON33'),0.0
('2030', 'GF_ON34'),0.0
('2030', 'GF_ON35'),0.0
('2030', 'GF_ON37'),0.0
('2030', 'GF_TBR'),0.0
('2030', 'RN_GFL'),0.0
('2030', 'RN_CAT'),0.0
('2030', 'GF_ALX'),0.0
('2030', 'GF_BDC'),0.0
('2030', 'GF_EAG'),0.0
('2030', 'GF_FIG'),0.0
('2030', 'GF_KNR'),0.0
('2030', 'GF_MIN'),0.0
('2030', 'GF_NSK'),0.0
('2030', 'GF_PAR'),0.0
('2030', 'GF_PNW'),0.0
('2030', 'GF_RIF'),0.0
('2030', 'GF_STL'),0.0
('2030', 'RC_6'),0.0
('2030', 'RC_7'),0.0
('2030', 'RC_8'),0.0
('2030', 'RC_9'),0.0
('2040', 'RN_ALO'),0.0
('2040', 'RN_ASH'),0.0
('2040', 'RN_ELK'),0.0
('2040', 'RN_FSR'),0.0
('2040', 'RN_LAD'),0.0
('2040', 'RN_LAJ'),0.0
('2040', 'RN_PUN'),0.0
('2040', 'RN_SET'),0.0
('2040', 'RN_SEV'),0.0
('2040', 'RN_SHU'),0.0
('2040', 'RN_WAH'),0.0
('2040', 'GF_BOR'),0.0
('2040', 'GF_DUN'),0.0
('2040', 'GF_ELA'),0.0
('2040', 'GF_ISK'),0.0
('2040', 'GF_MRC'),0.0
('2040', 'GF_MOS'),0.0
('2040', 'GF_MUR'),0.0
('2040', 'GF_NUD'),0.0
('2040', 'GF_STE'),0.0
('2040', 'GF_WAD'),0.0
('2040', 'RN_BRA'),1.0
('2040', 'GF_SRD'),0.0
('2040', 'GF_AMK'),0.0
('2040', 'GF_TAZ'),0.0
('2040', 'GF_EMG'),0.0
('2040', 'GF_BON'),0.0
('2040', 'GF_NOT'),0.0
('2040', 'GF_GRV'),0.0
('2040', 'GF_FRP'),0.0
('2040', 'GF_MSN'),0.0
('2040', 'GF_ON01'),0.0
('2040', 'GF_ON02'),0.0
('2040', 'GF_ON03'),0.0
('2040', 'GF_ON05'),0.0
('2040', 'GF_ON06'),0.0
('2040', 'GF_ON08'),0.0
('2040', 'GF_ON09'),0.0
('2040', 'GF_ON11'),0.0
('2040', 'GF_ON12'),0.0
('2040', 'GF_ON13'),0.0
('2040', 'GF_ON14'),0.0
('2040', 'GF_ON15'),0.0
('2040', 'GF_ON16'),0.0
('2040', 'GF_ON17'),0.0
('2040', 'GF_ON18'),0.0
('2040', 'GF_ON20'),0.0
('2040', 'GF_ON21'),0.0
('2040', 'GF_ON22'),0.0
('2040', 'GF_ON23'),0.0
('2040', 'GF_ON24'),0.0
('2040', 'GF_ON25'),0.0
('2040', 'GF_ON26'),0.0
('2040', 'GF_ON27'),0.0
('2040', 'GF_ON28'),0.0
('2040', 'GF_ON29'),0.0
('2040', 'GF_ON30'),0.0
('2040', 'GF_ON31'),0.0
('2040', 'GF_ON33'),0.0
('2040', 'GF_ON34'),0.0
('2040', 'GF_ON35'),0.0
('2040', 'GF_ON37'),0.0
('2040', 'GF_TBR'),0.0
('2040', 'RN_GFL'),0.0
('2040', 'RN_CAT'),0.0
('2040', 'GF_ALX'),0.0
('2040', 'GF_BDC'),0.0
('2040', 'GF_EAG'),0.0
('2040', 'GF_FIG'),0.0
('2040', 'GF_KNR'),0.0
('2040', 'GF_MIN'),0.0
('2040', 'GF_NSK'),0.0
('2040', 'GF_PAR'),0.0
('2040', 'GF_PNW'),0.0
('2040', 'GF_RIF'),0.0
('2040', 'GF_STL'),0.0
('2040', 'RC_6'),0.0
('2040', 'RC_7'),0.0
('2040', 'RC_8'),0.0
('2040', 'RC_9'),0.0
('2050', 'RN_ALO'),0.0
('2050', 'RN_ASH'),0.0
('2050', 'RN_ELK'),0.0
('2050', 'RN_FSR'),0.0
('2050', 'RN_LAD'),0.0
('2050', 'RN_LAJ'),0.0
('2050', 'RN_PUN'),0.0
('2050', 'RN_SET'),0.0
('2050', 'RN_SEV'),1.0
('2050', 'RN_SHU'),0.0
('2050', 'RN_WAH'),1.0
('2050', 'GF_BOR'),0.0
('2050', 'GF_DUN'),0.0
('2050', 'GF_ELA'),0.0
('2050', 'GF_ISK'),0.0
('2050', 'GF_MRC'),0.0
('2050', 'GF_MOS'),0.0
('2050', 'GF_MUR'),0.0
('2050', 'GF_NUD'),0.0
('2050', 'GF_STE'),0.0
('2050', 'GF_WAD'),0.0
('2050', 'RN_BRA'),0.0
('2050', 'GF_SRD'),0.0
('2050', 'GF_AMK'),0.0
('2050', 'GF_TAZ'),0.0
('2050', 'GF_EMG'),0.0
('2050', 'GF_BON'),0.0
('2050', 'GF_NOT'),0.0
('2050', 'GF_GRV'),0.0
('2050', 'GF_FRP'),0.0
('2050', 'GF_MSN'),0.0
('2050', 'GF_ON01'),0.0
('2050', 'GF_ON02'),0.0
('2050', 'GF_ON03'),0.0
('2050', 'GF_ON05'),0.0
('2050', 'GF_ON06'),0.0
('2050', 'GF_ON08'),0.0
('2050', 'GF_ON09'),0.0
('2050', 'GF_ON11'),0.0
('2050', 'GF_ON12'),0.0
('2050', 'GF_ON13'),0.0
('2050', 'GF_ON14'),0.0
('2050', 'GF_ON15'),0.0
('2050', 'GF_ON16'),0.0
('2050', 'GF_ON17'),0.0
('2050', 'GF_ON18'),0.0
('2050', 'GF_ON20'),0.0
('2050', 'GF_ON21'),0.0
('2050', 'GF_ON22'),0.0
('2050', 'GF_ON23'),0.0
('2050', 'GF_ON24'),0.0
('2050', 'GF_ON25'),0.0
('2050', 'GF_ON26'),0.0
('2050', 'GF_ON27'),0.0
('2050', 'GF_ON28'),0.0
('2050', 'GF_ON29'),0.0
('2050', 'GF_ON30'),0.0
('2050', 'GF_ON31'),0.0
('2050', 'GF_ON33'),0.0
('2050', 'GF_ON34'),0.0
('2050', 'GF_ON35'),0.0
('2050', 'GF_ON37'),0.0
('2050', 'GF_TBR'),0.0
('2050', 'RN_GFL'),0.0
('2050', 'RN_CAT'),0.0
('2050', 'GF_ALX'),0.0
('2050', 'GF_BDC'),0.0
('2050', 'GF_EAG'),0.0
('2050', 'GF_FIG'),0.0
('2050', 'GF_KNR'),0.0
('2050', 'GF_MIN'),0.0
('2050', 'GF_NSK'),0.0
('2050', 'GF_PAR'),0.0
('2050', 'GF_PNW'),0.0
('2050', 'GF_RIF'),0.0
('2050', 'GF_STL'),0.0
('2050', 'RC_6'),0.0
('2050', 'RC_7'),0.0
('2050', 'RC_8'),0.0
('2050', 'RC_9'),0.0
