AP,2025,2030,2035,2040,2045,2050
British Columbia,0,0.014423875,0,0.012438112,0,0.011060813
Alberta,0,0.014423875,0,0.012438112,0,0.011060813
Saskatchewan,0,0.014423875,0,0.012438112,0,0.011060813
Manitoba,0,0.014423875,0,0.012438112,0,0.011060813
Ontario,0,0.014423875,0,0.012438112,0,0.011060813
Quebec,0,0.014423875,0,0.012438112,0,0.011060813
New Brunswick,0,0.014423875,0,0.012438112,0,0.011060813
Prince Edward Island,0,0.014423875,0,0.012438112,0,0.011060813
Nova Scotia,0,0.014423875,0,0.012438112,0,0.011060813
Newfoundland and Labrador,0,0.014423875,0,0.012438112,0,0.011060813
