('2030', 'GF_HGN'),-0.0
('2030', 'GF_ISP'),-0.0
('2030', 'GF_POC'),-0.0
('2030', 'GF_ROP'),-0.0
('2030', 'RC_1'),-0.0
('2030', 'RC_2'),-0.0
('2030', 'RC_3'),-0.0
('2030', 'RC_4'),-0.0
('2030', 'RC_5'),-0.0
('2030', 'RC_10'),-0.0
('2030', 'RC_11'),-0.0
('2040', 'GF_HGN'),-0.0
('2040', 'GF_ISP'),-0.0
('2040', 'GF_POC'),-0.0
('2040', 'GF_ROP'),-0.0
('2040', 'RC_1'),-0.0
('2040', 'RC_2'),-0.0
('2040', 'RC_3'),-0.0
('2040', 'RC_4'),-0.0
('2040', 'RC_5'),-0.0
('2040', 'RC_10'),-0.0
('2040', 'RC_11'),-0.0
('2050', 'GF_HGN'),-0.0
('2050', 'GF_ISP'),-0.0
('2050', 'GF_POC'),-0.0
('2050', 'GF_ROP'),-0.0
('2050', 'RC_1'),-0.0
('2050', 'RC_2'),-0.0
('2050', 'RC_3'),-0.0
('2050', 'RC_4'),-0.0
('2050', 'RC_5'),-0.0
('2050', 'RC_10'),-0.0
('2050', 'RC_11'),-0.0
