,date,Wind_1,Wind_2
720,1/31/2012 0:00,2.3322,21.864
721,1/31/2012 1:00,1.8767999999999998,22.248
722,1/31/2012 2:00,1.7802,4.608
723,1/31/2012 3:00,1.863,8.927999999999999
724,1/31/2012 4:00,5.0508,3.8760000000000003
725,1/31/2012 5:00,2.8428,3.6119999999999997
726,1/31/2012 6:00,37.246199999999995,18.215999999999998
727,1/31/2012 7:00,53.0058,38.82
728,1/31/2012 8:00,58.470600000000005,86.58
729,1/31/2012 9:00,10.0326,75.804
730,1/31/2012 10:00,22.797600000000003,54.468
731,1/31/2012 11:00,32.6784,57.791999999999994
732,1/31/2012 12:00,31.0776,73.44
733,1/31/2012 13:00,15.9528,33.168
734,1/31/2012 14:00,13.8414,32.748
735,1/31/2012 15:00,11.5092,32.016
736,1/31/2012 16:00,29.532,30.72
737,1/31/2012 17:00,14.973,27.696
738,1/31/2012 18:00,43.8564,25.548000000000002
739,1/31/2012 19:00,37.053000000000004,23.472
740,1/31/2012 20:00,31.988400000000002,77.904
741,1/31/2012 21:00,33.189,14.004
742,1/31/2012 22:00,36.9288,14.52
743,1/31/2012 23:00,36.3906,1.26
744,2/1/2012 0:00,32.154,1.824
745,2/1/2012 1:00,24.1086,0.9480000000000001
746,2/1/2012 2:00,13.5792,0.0
747,2/1/2012 3:00,17.0982,0.0
748,2/1/2012 4:00,115.22999999999999,0.0
749,2/1/2012 5:00,107.4192,0.912
750,2/1/2012 6:00,70.2558,1.368
751,2/1/2012 7:00,84.7458,1.812
752,2/1/2012 8:00,92.9844,1.92
753,2/1/2012 9:00,99.1116,5.34
754,2/1/2012 10:00,105.8322,3.336
755,2/1/2012 11:00,110.41380000000001,0.0
756,2/1/2012 12:00,109.7928,0.0
757,2/1/2012 13:00,23.5566,0.0
758,2/1/2012 14:00,74.8374,1.068
759,2/1/2012 15:00,73.00200000000001,5.808
760,2/1/2012 16:00,98.75280000000001,24.384
761,2/1/2012 17:00,108.6336,21.456
762,2/1/2012 18:00,109.14420000000001,15.3
763,2/1/2012 19:00,111.6558,10.968
764,2/1/2012 20:00,117.4794,7.692
765,2/1/2012 21:00,23.391000000000002,0.0
766,2/1/2012 22:00,28.3728,1.452
767,2/1/2012 23:00,57.421800000000005,3.336
768,2/2/2012 0:00,52.5228,7.823999999999999
769,2/2/2012 1:00,39.523199999999996,6.959999999999999
770,2/2/2012 2:00,54.013200000000005,34.716
771,2/2/2012 3:00,72.45,21.695999999999998
772,2/2/2012 4:00,56.0418,8.16
773,2/2/2012 5:00,82.37219999999999,120.0
774,2/2/2012 6:00,59.2848,5.159999999999999
775,2/2/2012 7:00,101.4438,82.33200000000001
776,2/2/2012 8:00,109.917,72.228
777,2/2/2012 9:00,112.0836,1.032
778,2/2/2012 10:00,112.15259999999999,112.69200000000001
779,2/2/2012 11:00,0.0,82.18799999999999
780,2/2/2012 12:00,0.0,2.052
781,2/2/2012 13:00,0.0,2.916
782,2/2/2012 14:00,0.0,17.988
783,2/2/2012 15:00,1.0488,38.388000000000005
784,2/2/2012 16:00,100.8642,97.104
785,2/2/2012 17:00,0.0,3.7199999999999998
786,2/2/2012 18:00,0.0,6.119999999999999
787,2/2/2012 19:00,0.0,10.452
788,2/2/2012 20:00,1.8354,88.824
789,2/2/2012 21:00,5.009399999999999,98.01599999999999
790,2/2/2012 22:00,135.723,105.05999999999999
791,2/2/2012 23:00,0.0,13.584
792,2/3/2012 0:00,138.0,8.916
793,2/3/2012 1:00,138.0,6.359999999999999
794,2/3/2012 2:00,138.0,3.324
795,2/3/2012 3:00,4.9818,3.7920000000000003
796,2/3/2012 4:00,4.4712,26.604
797,2/3/2012 5:00,3.8639999999999994,1.2240000000000002
798,2/3/2012 6:00,3.4638,9.636
799,2/3/2012 7:00,3.5604,1.764
800,2/3/2012 8:00,9.591000000000001,2.184
801,2/3/2012 9:00,123.75840000000001,101.532
802,2/3/2012 10:00,13.0686,115.068
803,2/3/2012 11:00,8.7078,117.996
804,2/3/2012 12:00,5.933999999999999,118.692
805,2/3/2012 13:00,7.2588,119.016
806,2/3/2012 14:00,5.9478,120.0
807,2/3/2012 15:00,13.3032,120.0
808,2/3/2012 16:00,13.675799999999999,120.0
809,2/3/2012 17:00,30.0426,120.0
810,2/3/2012 18:00,126.546,118.644
811,2/3/2012 19:00,34.983,115.68
812,2/3/2012 20:00,37.0806,100.224
813,2/3/2012 21:00,60.126599999999996,68.412
814,2/3/2012 22:00,41.8554,46.980000000000004
815,2/3/2012 23:00,52.812599999999996,32.22
816,2/4/2012 0:00,5.5062,20.292
817,2/4/2012 1:00,62.2242,11.28
818,2/4/2012 2:00,58.4982,6.468
819,2/4/2012 3:00,0.0,95.94
820,2/4/2012 4:00,0.0,105.96000000000001
821,2/4/2012 5:00,124.614,28.284
822,2/4/2012 6:00,2.7876,117.888
823,2/4/2012 7:00,115.35419999999999,38.556
824,2/4/2012 8:00,134.6328,30.348000000000003
825,2/4/2012 9:00,138.0,20.76
826,2/4/2012 10:00,50.797799999999995,117.66000000000001
827,2/4/2012 11:00,38.6262,117.264
828,2/4/2012 12:00,9.2874,116.388
829,2/4/2012 13:00,5.727,112.488
830,2/4/2012 14:00,9.66,104.52
831,2/4/2012 15:00,1.3800000000000001,100.08000000000001
832,2/4/2012 16:00,29.877,96.516
833,2/4/2012 17:00,18.6852,99.084
834,2/4/2012 18:00,13.4412,43.812
835,2/4/2012 19:00,9.9498,43.776
836,2/4/2012 20:00,7.6866,0.0
837,2/4/2012 21:00,4.968000000000001,0.0
838,2/4/2012 22:00,4.9403999999999995,0.0
839,2/4/2012 23:00,4.14,1.992
840,2/5/2012 0:00,3.1602,2.82
841,2/5/2012 1:00,129.9822,3.636
842,2/5/2012 2:00,131.1966,4.308
843,2/5/2012 3:00,132.1764,4.476
844,2/5/2012 4:00,133.4046,2.184
845,2/5/2012 5:00,2.6496,3.888
846,2/5/2012 6:00,3.8087999999999997,117.528
847,2/5/2012 7:00,3.8778,3.468
848,2/5/2012 8:00,3.8502,3.324
849,2/5/2012 9:00,3.795,81.492
850,2/5/2012 10:00,49.2522,95.22
851,2/5/2012 11:00,24.218999999999998,21.108
852,2/5/2012 12:00,39.0816,15.527999999999999
853,2/5/2012 13:00,48.4104,20.292
854,2/5/2012 14:00,0.0,9.912
855,2/5/2012 15:00,0.0,7.128
856,2/5/2012 16:00,0.0,6.372
857,2/5/2012 17:00,7.9902,7.5120000000000005
858,2/5/2012 18:00,46.368,10.356
859,2/5/2012 19:00,0.0,24.564
860,2/5/2012 20:00,0.0,11.652000000000001
861,2/5/2012 21:00,108.3024,8.016
862,2/5/2012 22:00,118.2798,3.7319999999999998
863,2/5/2012 23:00,124.2552,4.776
864,2/6/2012 0:00,125.58,102.996
865,2/6/2012 1:00,124.97279999999999,5.316
866,2/6/2012 2:00,125.511,89.52
867,2/6/2012 3:00,0.0,2.508
868,2/6/2012 4:00,0.0,0.888
869,2/6/2012 5:00,29.1732,0.0
870,2/6/2012 6:00,37.191,0.0
871,2/6/2012 7:00,0.0,118.116
872,2/6/2012 8:00,2.0148,116.56800000000001
873,2/6/2012 9:00,7.9902,112.91999999999999
874,2/6/2012 10:00,27.296400000000002,106.68
875,2/6/2012 11:00,51.5292,5.676
876,2/6/2012 12:00,59.809200000000004,11.124
877,2/6/2012 13:00,44.1462,6.192
878,2/6/2012 14:00,138.0,24.972
879,2/6/2012 15:00,14.49,7.8839999999999995
880,2/6/2012 16:00,13.179,4.944
881,2/6/2012 17:00,12.323400000000001,60.708
882,2/6/2012 18:00,11.7852,62.772
883,2/6/2012 19:00,10.3914,53.4
884,2/6/2012 20:00,90.94200000000001,7.176
885,2/6/2012 21:00,2.277,51.768
886,2/6/2012 22:00,63.7008,5.8919999999999995
887,2/6/2012 23:00,52.2468,5.0040000000000004
888,2/7/2012 0:00,38.43300000000001,3.888
889,2/7/2012 1:00,28.855800000000002,18.72
890,2/7/2012 2:00,21.873,17.412
891,2/7/2012 3:00,11.178,2.94
892,2/7/2012 4:00,8.2248,5.328
893,2/7/2012 5:00,12.5028,3.0599999999999996
894,2/7/2012 6:00,18.5196,113.52
895,2/7/2012 7:00,19.044,120.0
896,2/7/2012 8:00,18.699,117.984
897,2/7/2012 9:00,16.1322,3.624
898,2/7/2012 10:00,12.765,77.60400000000001
899,2/7/2012 11:00,11.4402,118.96799999999999
900,2/7/2012 12:00,107.64,8.4
901,2/7/2012 13:00,93.219,50.82
902,2/7/2012 14:00,0.0,35.891999999999996
903,2/7/2012 15:00,0.0,3.0
904,2/7/2012 16:00,0.0,1.812
905,2/7/2012 17:00,0.0,66.372
906,2/7/2012 18:00,0.9935999999999999,6.768
907,2/7/2012 19:00,14.7384,9.792000000000002
908,2/7/2012 20:00,1.7802,12.312
909,2/7/2012 21:00,38.295,11.58
910,2/7/2012 22:00,2.4012,4.9319999999999995
911,2/7/2012 23:00,4.3746,41.364000000000004
912,2/8/2012 0:00,4.0572,52.464
913,2/8/2012 1:00,3.9330000000000003,61.488
914,2/8/2012 2:00,47.3754,64.404
915,2/8/2012 3:00,0.0,44.724
916,2/8/2012 4:00,134.8398,2.0279999999999996
917,2/8/2012 5:00,129.927,1.416
918,2/8/2012 6:00,113.9742,27.107999999999997
919,2/8/2012 7:00,76.0656,1.392
920,2/8/2012 8:00,13.4274,18.084
921,2/8/2012 9:00,11.6886,16.896
922,2/8/2012 10:00,3.4223999999999997,15.936
923,2/8/2012 11:00,3.45,15.72
924,2/8/2012 12:00,9.315000000000001,11.124
925,2/8/2012 13:00,1.3938,9.444
926,2/8/2012 14:00,135.5436,29.555999999999997
927,2/8/2012 15:00,1.0212,7.236
928,2/8/2012 16:00,129.41639999999998,6.744
929,2/8/2012 17:00,128.8506,6.648
930,2/8/2012 18:00,73.91279999999999,1.8359999999999999
931,2/8/2012 19:00,22.7286,1.2
932,2/8/2012 20:00,10.7364,0.9359999999999999
933,2/8/2012 21:00,11.9784,1.38
934,2/8/2012 22:00,129.996,8.616
935,2/8/2012 23:00,6.6377999999999995,10.896
936,2/9/2012 0:00,63.9906,13.452
937,2/9/2012 1:00,53.9028,15.780000000000001
938,2/9/2012 2:00,34.6794,17.412
939,2/9/2012 3:00,24.163800000000002,120.0
940,2/9/2012 4:00,18.8232,9.024000000000001
941,2/9/2012 5:00,17.4432,7.32
942,2/9/2012 6:00,16.628999999999998,39.504
943,2/9/2012 7:00,15.897599999999999,30.516000000000002
944,2/9/2012 8:00,14.283,32.616
945,2/9/2012 9:00,104.81099999999999,118.296
946,2/9/2012 10:00,89.64479999999999,117.408
947,2/9/2012 11:00,71.56679999999999,116.92800000000001
948,2/9/2012 12:00,25.737,115.248
949,2/9/2012 13:00,43.4562,116.39999999999999
950,2/9/2012 14:00,1.2558,118.44
951,2/9/2012 15:00,0.0,118.692
952,2/9/2012 16:00,55.062,86.41199999999999
953,2/9/2012 17:00,60.2508,67.548
954,2/9/2012 18:00,42.3522,93.744
955,2/9/2012 19:00,19.389000000000003,22.62
956,2/9/2012 20:00,10.3086,90.048
957,2/9/2012 21:00,4.9956000000000005,84.372
958,2/9/2012 22:00,134.481,89.628
959,2/9/2012 23:00,134.3706,94.64399999999999
960,2/10/2012 0:00,132.4662,15.611999999999998
961,2/10/2012 1:00,129.6096,63.012
962,2/10/2012 2:00,7.037999999999999,54.576
963,2/10/2012 3:00,0.0,44.916000000000004
964,2/10/2012 4:00,13.317,1.8359999999999999
965,2/10/2012 5:00,4.6782,21.575999999999997
966,2/10/2012 6:00,0.0,21.252000000000002
967,2/10/2012 7:00,0.0,23.712
968,2/10/2012 8:00,0.0,118.848
969,2/10/2012 9:00,0.0,120.0
970,2/10/2012 10:00,130.96200000000002,3.072
971,2/10/2012 11:00,2.7048,2.112
972,2/10/2012 12:00,5.7408,6.144
973,2/10/2012 13:00,8.3766,17.22
974,2/10/2012 14:00,14.131200000000002,34.739999999999995
975,2/10/2012 15:00,5.7822,1.776
976,2/10/2012 16:00,133.2942,73.944
977,2/10/2012 17:00,134.21880000000002,64.80000000000001
978,2/10/2012 18:00,134.34300000000002,59.364
979,2/10/2012 19:00,134.2602,62.436
980,2/10/2012 20:00,132.70080000000002,73.26
981,2/10/2012 21:00,6.6377999999999995,56.364000000000004
982,2/10/2012 22:00,2.7048,37.728
983,2/10/2012 23:00,1.1178,5.4239999999999995
984,2/11/2012 0:00,0.0,12.995999999999999
985,2/11/2012 1:00,0.0,8.052000000000001
986,2/11/2012 2:00,0.0,4.584
987,2/11/2012 3:00,0.0,114.384
988,2/11/2012 4:00,0.0,22.644000000000002
989,2/11/2012 5:00,1.3524,18.215999999999998
990,2/11/2012 6:00,2.0148,17.508
991,2/11/2012 7:00,124.26899999999999,22.032
992,2/11/2012 8:00,122.94420000000001,116.016
993,2/11/2012 9:00,118.1142,117.612
994,2/11/2012 10:00,9.715200000000001,0.0
995,2/11/2012 11:00,27.2412,119.10000000000001
996,2/11/2012 12:00,48.0516,120.0
997,2/11/2012 13:00,68.7792,3.624
998,2/11/2012 14:00,81.0612,13.044
999,2/11/2012 15:00,83.3382,13.452
1000,2/11/2012 16:00,84.111,12.948
1001,2/11/2012 17:00,79.23960000000001,12.9
1002,2/11/2012 18:00,24.978,10.716000000000001
1003,2/11/2012 19:00,20.1756,8.556000000000001
1004,2/11/2012 20:00,14.5038,6.132
1005,2/11/2012 21:00,7.534800000000001,2.244
1006,2/11/2012 22:00,6.9828,1.08
1007,2/11/2012 23:00,4.623,0.0
1008,2/12/2012 0:00,3.5189999999999997,0.0
1009,2/12/2012 1:00,2.9394,0.0
1010,2/12/2012 2:00,1.9871999999999999,120.0
1011,2/12/2012 3:00,86.73299999999999,2.904
1012,2/12/2012 4:00,84.4008,117.276
1013,2/12/2012 5:00,32.016,1.5
1014,2/12/2012 6:00,40.5858,27.588
1015,2/12/2012 7:00,51.6948,36.552
1016,2/12/2012 8:00,63.2868,113.184
1017,2/12/2012 9:00,78.039,115.14
1018,2/12/2012 10:00,92.15639999999999,1.212
1019,2/12/2012 11:00,11.7714,115.524
1020,2/12/2012 12:00,10.1982,115.476
1021,2/12/2012 13:00,10.3914,115.512
1022,2/12/2012 14:00,8.790600000000001,6.1080000000000005
1023,2/12/2012 15:00,122.7234,3.324
1024,2/12/2012 16:00,123.2202,27.36
1025,2/12/2012 17:00,117.8934,20.052
1026,2/12/2012 18:00,0.0,0.0
1027,2/12/2012 19:00,80.15039999999999,13.08
1028,2/12/2012 20:00,61.1892,8.256
1029,2/12/2012 21:00,71.19420000000001,14.52
1030,2/12/2012 22:00,110.193,2.784
1031,2/12/2012 23:00,0.0,47.028000000000006
1032,2/13/2012 0:00,2.8428,51.18
1033,2/13/2012 1:00,2.622,53.64
1034,2/13/2012 2:00,1.4352,93.636
1035,2/13/2012 3:00,138.0,81.25200000000001
1036,2/13/2012 4:00,4.9266000000000005,65.22
1037,2/13/2012 5:00,120.6672,46.128
1038,2/13/2012 6:00,117.4932,9.72
1039,2/13/2012 7:00,111.5868,9.012
1040,2/13/2012 8:00,0.0,8.268
1041,2/13/2012 9:00,1.7940000000000003,6.888
1042,2/13/2012 10:00,19.7202,5.952
1043,2/13/2012 11:00,1.6560000000000001,5.076
1044,2/13/2012 12:00,2.0148,3.9000000000000004
1045,2/13/2012 13:00,4.0296,2.46
1046,2/13/2012 14:00,6.1824,1.44
1047,2/13/2012 15:00,3.1877999999999997,0.0
1048,2/13/2012 16:00,1.9596,0.0
1049,2/13/2012 17:00,6.6240000000000006,83.82000000000001
1050,2/13/2012 18:00,33.1338,99.06
1051,2/13/2012 19:00,66.3366,106.77600000000001
1052,2/13/2012 20:00,18.078,110.46
1053,2/13/2012 21:00,23.7084,112.836
1054,2/13/2012 22:00,27.807000000000002,109.392
1055,2/13/2012 23:00,27.586199999999998,111.744
1056,2/14/2012 0:00,23.1288,113.64000000000001
1057,2/14/2012 1:00,18.4644,115.66799999999999
1058,2/14/2012 2:00,14.931600000000001,116.976
1059,2/14/2012 3:00,12.7374,117.012
1060,2/14/2012 4:00,9.9084,110.652
1061,2/14/2012 5:00,5.0784,107.148
1062,2/14/2012 6:00,7.7418,108.456
1063,2/14/2012 7:00,8.6664,105.31200000000001
1064,2/14/2012 8:00,38.5434,98.01599999999999
1065,2/14/2012 9:00,23.7774,88.32
1066,2/14/2012 10:00,13.11,80.424
1067,2/14/2012 11:00,11.8404,77.976
1068,2/14/2012 12:00,0.0,79.296
1069,2/14/2012 13:00,43.0008,83.184
1070,2/14/2012 14:00,11.6748,39.35999999999999
1071,2/14/2012 15:00,3.1602,32.232
1072,2/14/2012 16:00,4.788600000000001,23.208
1073,2/14/2012 17:00,73.0296,38.076
1074,2/14/2012 18:00,93.74340000000001,36.72
1075,2/14/2012 19:00,111.4074,27.696
1076,2/14/2012 20:00,126.1734,0.0
1077,2/14/2012 21:00,132.0798,0.0
1078,2/14/2012 22:00,133.8048,0.0
1079,2/14/2012 23:00,4.9266000000000005,0.0
1080,2/15/2012 0:00,1.6698,1.08
1081,2/15/2012 1:00,3.5880000000000005,71.388
1082,2/15/2012 2:00,11.4816,17.304
1083,2/15/2012 3:00,128.9334,19.692
1084,2/15/2012 4:00,132.92159999999998,20.964
1085,2/15/2012 5:00,133.791,22.02
1086,2/15/2012 6:00,133.998,17.28
1087,2/15/2012 7:00,134.7294,92.736
1088,2/15/2012 8:00,135.6816,19.824
1089,2/15/2012 9:00,135.9714,28.259999999999998
1090,2/15/2012 10:00,136.0542,33.252
1091,2/15/2012 11:00,135.7644,120.0
1092,2/15/2012 12:00,135.3918,120.0
1093,2/15/2012 13:00,8.1144,115.704
1094,2/15/2012 14:00,7.7832,41.988
1095,2/15/2012 15:00,7.6866,52.559999999999995
1096,2/15/2012 16:00,43.2492,56.196
1097,2/15/2012 17:00,107.295,84.564
1098,2/15/2012 18:00,126.822,38.868
1099,2/15/2012 19:00,130.41,27.479999999999997
1100,2/15/2012 20:00,131.1552,19.356
1101,2/15/2012 21:00,131.41740000000001,64.05600000000001
1102,2/15/2012 22:00,130.83780000000002,13.392000000000001
1103,2/15/2012 23:00,130.6308,1.848
1104,2/16/2012 0:00,130.1754,98.208
1105,2/16/2012 1:00,55.7796,95.1
1106,2/16/2012 2:00,126.2976,89.76
1107,2/16/2012 3:00,122.1438,105.828
1108,2/16/2012 4:00,114.1122,6.516
1109,2/16/2012 5:00,92.9016,113.38799999999999
1110,2/16/2012 6:00,54.2892,5.184
1111,2/16/2012 7:00,31.4916,6.468
1112,2/16/2012 8:00,16.077,27.683999999999997
1113,2/16/2012 9:00,8.2524,20.532
1114,2/16/2012 10:00,4.5126,12.767999999999999
1115,2/16/2012 11:00,2.6082,8.94
1116,2/16/2012 12:00,1.4214,7.968
1117,2/16/2012 13:00,1.0764,12.648
1118,2/16/2012 14:00,1.6560000000000001,15.996
1119,2/16/2012 15:00,3.4914,2.04
1120,2/16/2012 16:00,124.17240000000001,1.38
1121,2/16/2012 17:00,100.39500000000001,1.104
1122,2/16/2012 18:00,4.3332,116.94
1123,2/16/2012 19:00,6.0858,118.128
1124,2/16/2012 20:00,4.7058,118.95599999999999
1125,2/16/2012 21:00,3.3810000000000002,119.05199999999999
1126,2/16/2012 22:00,2.9256,120.0
1127,2/16/2012 23:00,2.8013999999999997,4.992
1128,2/17/2012 0:00,2.6082,5.22
1129,2/17/2012 1:00,119.37,8.028
1130,2/17/2012 2:00,115.1748,14.244
1131,2/17/2012 3:00,96.324,19.056
1132,2/17/2012 4:00,82.6896,117.87599999999999
1133,2/17/2012 5:00,48.6312,15.011999999999999
1134,2/17/2012 6:00,59.8644,2.676
1135,2/17/2012 7:00,74.451,58.931999999999995
1136,2/17/2012 8:00,90.70739999999999,83.496
1137,2/17/2012 9:00,42.4902,48.012
1138,2/17/2012 10:00,33.5754,2.2199999999999998
1139,2/17/2012 11:00,22.7286,2.304
1140,2/17/2012 12:00,15.525,68.196
1141,2/17/2012 13:00,9.177,117.78
1142,2/17/2012 14:00,4.1537999999999995,2.172
1143,2/17/2012 15:00,1.9182,114.804
1144,2/17/2012 16:00,1.104,114.504
1145,2/17/2012 17:00,30.511799999999997,2.556
1146,2/17/2012 18:00,11.3712,3.6119999999999997
1147,2/17/2012 19:00,2.8704,15.671999999999999
1148,2/17/2012 20:00,0.0,7.4399999999999995
1149,2/17/2012 21:00,0.0,10.091999999999999
1150,2/17/2012 22:00,3.5880000000000005,12.239999999999998
1151,2/17/2012 23:00,22.9494,13.68
1152,2/18/2012 0:00,3.5189999999999997,15.048000000000002
1153,2/18/2012 1:00,0.0,16.596
1154,2/18/2012 2:00,51.2532,17.604
1155,2/18/2012 3:00,65.4534,17.424
1156,2/18/2012 4:00,78.8946,17.784
1157,2/18/2012 5:00,136.5786,18.384
1158,2/18/2012 6:00,95.9652,19.44
1159,2/18/2012 7:00,108.8544,12.239999999999998
1160,2/18/2012 8:00,114.9264,17.939999999999998
1161,2/18/2012 9:00,115.1748,24.264
1162,2/18/2012 10:00,107.5848,32.364
1163,2/18/2012 11:00,3.5466,42.588
1164,2/18/2012 12:00,4.1262,42.816
1165,2/18/2012 13:00,6.5412,44.928000000000004
1166,2/18/2012 14:00,10.2948,71.88
1167,2/18/2012 15:00,136.413,97.824
1168,2/18/2012 16:00,2.4840000000000004,111.036
1169,2/18/2012 17:00,135.61260000000001,116.844
1170,2/18/2012 18:00,134.136,118.548
1171,2/18/2012 19:00,7.8246,118.86
1172,2/18/2012 20:00,6.348,118.39200000000001
1173,2/18/2012 21:00,5.8512,115.66799999999999
1174,2/18/2012 22:00,5.7822,114.744
1175,2/18/2012 23:00,8.004,115.596
1176,2/19/2012 0:00,10.8468,116.292
1177,2/19/2012 1:00,12.2682,116.616
1178,2/19/2012 2:00,47.5548,117.20400000000001
1179,2/19/2012 3:00,6.002999999999999,116.796
1180,2/19/2012 4:00,99.015,114.948
1181,2/19/2012 5:00,112.7184,111.432
1182,2/19/2012 6:00,5.9754,106.164
1183,2/19/2012 7:00,7.134600000000001,98.472
1184,2/19/2012 8:00,55.1862,84.456
1185,2/19/2012 9:00,1.4352,64.188
1186,2/19/2012 10:00,46.726800000000004,45.168
1187,2/19/2012 11:00,14.1726,1.344
1188,2/19/2012 12:00,8.1144,0.9480000000000001
1189,2/19/2012 13:00,79.3638,0.0
1190,2/19/2012 14:00,67.9374,0.0
1191,2/19/2012 15:00,0.0,0.0
1192,2/19/2012 16:00,0.0,0.0
1193,2/19/2012 17:00,91.16279999999999,1.104
1194,2/19/2012 18:00,80.3712,0.0
1195,2/19/2012 19:00,0.0,0.0
1196,2/19/2012 20:00,0.0,0.0
1197,2/19/2012 21:00,8.1558,0.0
1198,2/19/2012 22:00,67.4544,0.0
1199,2/19/2012 23:00,1.4076000000000002,0.0
1200,2/20/2012 0:00,1.173,40.955999999999996
1201,2/20/2012 1:00,30.415200000000002,26.22
1202,2/20/2012 2:00,24.426,15.911999999999999
1203,2/20/2012 3:00,16.7256,70.128
1204,2/20/2012 4:00,11.5368,1.788
1205,2/20/2012 5:00,6.969,1.98
1206,2/20/2012 6:00,2.4288000000000003,2.82
1207,2/20/2012 7:00,2.7876,0.0
1208,2/20/2012 8:00,3.243,1.104
1209,2/20/2012 9:00,134.5362,1.512
1210,2/20/2012 10:00,135.2814,1.332
1211,2/20/2012 11:00,135.6816,1.068
1212,2/20/2012 12:00,135.6954,28.704
1213,2/20/2012 13:00,136.206,31.32
1214,2/20/2012 14:00,134.895,57.3
1215,2/20/2012 15:00,93.57780000000001,99.648
1216,2/20/2012 16:00,99.6774,100.272
1217,2/20/2012 17:00,1.2972000000000001,97.992
1218,2/20/2012 18:00,0.0,94.596
1219,2/20/2012 19:00,1.6284,1.308
1220,2/20/2012 20:00,8.293800000000001,2.3760000000000003
1221,2/20/2012 21:00,0.0,7.823999999999999
1222,2/20/2012 22:00,0.0,13.14
1223,2/20/2012 23:00,16.891199999999998,29.46
1224,2/21/2012 0:00,121.4676,41.016
1225,2/21/2012 1:00,122.544,67.81200000000001
1226,2/21/2012 2:00,125.30399999999999,59.040000000000006
1227,2/21/2012 3:00,128.7954,38.903999999999996
1228,2/21/2012 4:00,132.0798,17.496000000000002
1229,2/21/2012 5:00,132.8388,86.904
1230,2/21/2012 6:00,3.4086,13.764
1231,2/21/2012 7:00,126.0354,4.656000000000001
1232,2/21/2012 8:00,124.4208,4.344
1233,2/21/2012 9:00,120.9018,14.232
1234,2/21/2012 10:00,0.0,15.947999999999999
1235,2/21/2012 11:00,1.035,3.42
1236,2/21/2012 12:00,109.93079999999999,3.7560000000000002
1237,2/21/2012 13:00,97.5522,3.768
1238,2/21/2012 14:00,86.3604,1.08
1239,2/21/2012 15:00,78.50819999999999,88.152
1240,2/21/2012 16:00,71.98079999999999,25.668
1241,2/21/2012 17:00,67.0542,4.295999999999999
1242,2/21/2012 18:00,78.9774,32.388
1243,2/21/2012 19:00,100.6572,19.524
1244,2/21/2012 20:00,21.762600000000003,12.432
1245,2/21/2012 21:00,20.4654,5.712000000000001
1246,2/21/2012 22:00,21.886799999999997,54.444
1247,2/21/2012 23:00,26.979,9.06
1248,2/22/2012 0:00,33.7686,53.976
1249,2/22/2012 1:00,43.6632,45.216
1250,2/22/2012 2:00,49.7214,98.89200000000001
1251,2/22/2012 3:00,66.3642,10.884
1252,2/22/2012 4:00,69.06899999999999,7.176
1253,2/22/2012 5:00,48.3,20.496000000000002
1254,2/22/2012 6:00,32.940599999999996,102.42
1255,2/22/2012 7:00,24.646800000000002,4.536
1256,2/22/2012 8:00,19.7892,21.408
1257,2/22/2012 9:00,17.457,2.244
1258,2/22/2012 10:00,16.7118,19.692
1259,2/22/2012 11:00,16.905,14.879999999999999
1260,2/22/2012 12:00,15.455999999999998,1.8359999999999999
1261,2/22/2012 13:00,12.6684,1.14
1262,2/22/2012 14:00,7.507199999999999,114.168
1263,2/22/2012 15:00,5.451,18.228
1264,2/22/2012 16:00,4.7058,0.0
1265,2/22/2012 17:00,2.001,0.0
1266,2/22/2012 18:00,0.0,114.96
1267,2/22/2012 19:00,0.0,116.712
1268,2/22/2012 20:00,0.0,3.4080000000000004
1269,2/22/2012 21:00,0.0,11.724
1270,2/22/2012 22:00,0.0,6.804
1271,2/22/2012 23:00,0.0,7.176
1272,2/23/2012 0:00,103.98299999999999,10.068
1273,2/23/2012 1:00,1.3386,15.804000000000002
1274,2/23/2012 2:00,9.866999999999999,26.76
1275,2/23/2012 3:00,18.5748,38.94
1276,2/23/2012 4:00,138.0,48.108
1277,2/23/2012 5:00,138.0,55.668
1278,2/23/2012 6:00,120.8604,63.19199999999999
1279,2/23/2012 7:00,138.0,11.628
1280,2/23/2012 8:00,10.115400000000001,13.68
1281,2/23/2012 9:00,8.763,15.36
1282,2/23/2012 10:00,21.086399999999998,35.856
1283,2/23/2012 11:00,16.3944,20.904
1284,2/23/2012 12:00,131.3346,16.212
1285,2/23/2012 13:00,134.8812,18.384
1286,2/23/2012 14:00,136.0542,21.875999999999998
1287,2/23/2012 15:00,3.9606,28.020000000000003
1288,2/23/2012 16:00,48.8658,35.076
1289,2/23/2012 17:00,5.451,38.016000000000005
1290,2/23/2012 18:00,4.2918,34.92
1291,2/23/2012 19:00,1.8078,22.884
1292,2/23/2012 20:00,0.0,18.048000000000002
1293,2/23/2012 21:00,52.6332,14.244
1294,2/23/2012 22:00,30.429,119.11200000000001
1295,2/23/2012 23:00,78.4944,120.0
1296,2/24/2012 0:00,100.10520000000001,120.0
1297,2/24/2012 1:00,122.24040000000001,120.0
1298,2/24/2012 2:00,108.3024,120.0
1299,2/24/2012 3:00,85.0632,120.0
1300,2/24/2012 4:00,131.7348,120.0
1301,2/24/2012 5:00,4.9403999999999995,120.0
1302,2/24/2012 6:00,2.4564,120.0
1303,2/24/2012 7:00,3.8226,22.5
1304,2/24/2012 8:00,4.1262,120.0
1305,2/24/2012 9:00,5.0922,120.0
1306,2/24/2012 10:00,7.176000000000001,120.0
1307,2/24/2012 11:00,12.723600000000001,120.0
1308,2/24/2012 12:00,33.6582,118.848
1309,2/24/2012 13:00,78.25980000000001,10.091999999999999
1310,2/24/2012 14:00,3.1188,7.404
1311,2/24/2012 15:00,1.0488,5.28
1312,2/24/2012 16:00,134.42579999999998,4.008
1313,2/24/2012 17:00,102.0648,3.8160000000000003
1314,2/24/2012 18:00,10.3914,5.112
1315,2/24/2012 19:00,1.1868,6.756
1316,2/24/2012 20:00,84.2628,8.484
1317,2/24/2012 21:00,63.038399999999996,4.62
1318,2/24/2012 22:00,53.2818,4.536
1319,2/24/2012 23:00,47.6238,2.88
1320,2/25/2012 0:00,43.0698,1.92
1321,2/25/2012 1:00,36.8184,1.524
1322,2/25/2012 2:00,0.0,1.992
1323,2/25/2012 3:00,4.554,4.26
1324,2/25/2012 4:00,4.9403999999999995,9.228
1325,2/25/2012 5:00,6.4032,17.532
1326,2/25/2012 6:00,1.0212,31.512
1327,2/25/2012 7:00,1.3662,40.572
1328,2/25/2012 8:00,0.0,44.232
1329,2/25/2012 9:00,0.0,45.528
1330,2/25/2012 10:00,24.5364,49.908
1331,2/25/2012 11:00,117.06540000000001,58.716
1332,2/25/2012 12:00,133.929,33.444
1333,2/25/2012 13:00,134.3568,1.5
1334,2/25/2012 14:00,84.387,19.164
1335,2/25/2012 15:00,58.028999999999996,16.919999999999998
1336,2/25/2012 16:00,30.6774,21.864
1337,2/25/2012 17:00,17.9814,111.62400000000001
1338,2/25/2012 18:00,10.5846,110.964
1339,2/25/2012 19:00,5.589,0.0
1340,2/25/2012 20:00,3.6018000000000003,0.0
1341,2/25/2012 21:00,3.0498000000000003,39.312
1342,2/25/2012 22:00,2.7600000000000002,33.0
1343,2/25/2012 23:00,2.1666,18.096
1344,2/26/2012 0:00,2.0286,38.112
1345,2/26/2012 1:00,2.4426,5.388
1346,2/26/2012 2:00,2.5944000000000003,54.432
1347,2/26/2012 3:00,2.1113999999999997,67.28399999999999
1348,2/26/2012 4:00,1.9182,14.316
1349,2/26/2012 5:00,3.2844,23.136
1350,2/26/2012 6:00,6.4998000000000005,5.688
1351,2/26/2012 7:00,11.0538,26.268
1352,2/26/2012 8:00,1.7388,118.452
1353,2/26/2012 9:00,2.4288000000000003,118.056
1354,2/26/2012 10:00,4.5402,117.06
1355,2/26/2012 11:00,1.173,95.412
1356,2/26/2012 12:00,5.9064,32.940000000000005
1357,2/26/2012 13:00,7.314,48.768
1358,2/26/2012 14:00,6.7896,115.764
1359,2/26/2012 15:00,12.144000000000002,118.296
1360,2/26/2012 16:00,16.698,118.32
1361,2/26/2012 17:00,21.9696,118.056
1362,2/26/2012 18:00,72.5328,28.056
1363,2/26/2012 19:00,98.68379999999999,116.952
1364,2/26/2012 20:00,116.1684,115.00800000000001
1365,2/26/2012 21:00,5.8236,113.06400000000001
1366,2/26/2012 22:00,126.76679999999999,110.36399999999999
1367,2/26/2012 23:00,129.1404,108.92399999999999
1368,2/27/2012 0:00,129.8304,116.78399999999999
1369,2/27/2012 1:00,129.789,116.184
1370,2/27/2012 2:00,28.9248,115.57199999999999
1371,2/27/2012 3:00,52.7298,23.496
1372,2/27/2012 4:00,61.686,16.356
1373,2/27/2012 5:00,125.85600000000001,6.816000000000001
1374,2/27/2012 6:00,120.9156,6.192
1375,2/27/2012 7:00,13.9794,6.096
1376,2/27/2012 8:00,25.3644,4.44
1377,2/27/2012 9:00,112.5666,3.9719999999999995
1378,2/27/2012 10:00,98.5044,1.884
1379,2/27/2012 11:00,81.972,2.34
1380,2/27/2012 12:00,60.3198,2.8560000000000003
1381,2/27/2012 13:00,36.9012,9.048
1382,2/27/2012 14:00,23.9292,57.647999999999996
1383,2/27/2012 15:00,21.6798,5.0040000000000004
1384,2/27/2012 16:00,15.939,2.676
1385,2/27/2012 17:00,20.631,19.068
1386,2/27/2012 18:00,48.2724,15.792
1387,2/27/2012 19:00,54.4686,1.008
1388,2/27/2012 20:00,72.795,2.064
1389,2/27/2012 21:00,92.68079999999999,118.176
1390,2/27/2012 22:00,101.154,18.971999999999998
1391,2/27/2012 23:00,101.8992,108.288
1392,2/28/2012 0:00,95.35799999999999,108.94800000000001
1393,2/28/2012 1:00,94.3506,109.2
1394,2/28/2012 2:00,125.4834,109.716
1395,2/28/2012 3:00,94.9578,97.368
1396,2/28/2012 4:00,113.3118,95.4
1397,2/28/2012 5:00,122.4336,97.932
1398,2/28/2012 6:00,127.443,1.6440000000000001
1399,2/28/2012 7:00,131.2656,1.728
1400,2/28/2012 8:00,0.0,2.016
1401,2/28/2012 9:00,0.0,2.604
1402,2/28/2012 10:00,0.0,74.77199999999999
1403,2/28/2012 11:00,132.6732,71.436
1404,2/28/2012 12:00,131.7072,6.012
1405,2/28/2012 13:00,129.72,68.89200000000001
1406,2/28/2012 14:00,3.45,85.188
1407,2/28/2012 15:00,3.3396,86.748
1408,2/28/2012 16:00,121.1916,79.548
1409,2/28/2012 17:00,108.0678,14.16
1410,2/28/2012 18:00,4.8852,15.552
1411,2/28/2012 19:00,0.0,17.472
1412,2/28/2012 20:00,1.4628,19.427999999999997
1413,2/28/2012 21:00,4.788600000000001,1.044
1414,2/28/2012 22:00,11.3712,1.524
1415,2/28/2012 23:00,8.487,1.4280000000000002
1416,2/29/2012 0:00,89.7414,0.9359999999999999
1417,2/29/2012 1:00,102.0648,0.0
1418,2/29/2012 2:00,107.21220000000001,19.824
1419,2/29/2012 3:00,114.0846,20.352
1420,2/29/2012 4:00,20.355,19.607999999999997
1421,2/29/2012 5:00,21.3762,19.692
1422,2/29/2012 6:00,21.8592,21.264
1423,2/29/2012 7:00,18.8646,24.744
1424,2/29/2012 8:00,14.6418,25.188
1425,2/29/2012 9:00,11.661000000000001,26.772
1426,2/29/2012 10:00,15.663,33.324
1427,2/29/2012 11:00,29.159399999999998,35.664
1428,2/29/2012 12:00,59.823,115.092
1429,2/29/2012 13:00,135.9438,34.896
1430,2/29/2012 14:00,136.3164,30.036
1431,2/29/2012 15:00,103.4448,26.375999999999998
1432,2/29/2012 16:00,105.846,25.956
1433,2/29/2012 17:00,1.8078,26.028000000000002
1434,2/29/2012 18:00,2.208,25.2
1435,2/29/2012 19:00,1.8492,22.907999999999998
1436,2/29/2012 20:00,133.6944,20.520000000000003
1437,2/29/2012 21:00,132.8802,120.0
1438,2/29/2012 22:00,66.102,120.0
1439,2/29/2012 23:00,138.0,23.676000000000002
