,date,Wind_1,Wind_2
5040,7/29/2012 0:00,27.779400000000003,69.744
5041,7/29/2012 1:00,25.171200000000002,61.308
5042,7/29/2012 2:00,17.6364,52.668
5043,7/29/2012 3:00,8.418,41.112
5044,7/29/2012 4:00,3.3948,22.608
5045,7/29/2012 5:00,2.0286,57.708
5046,7/29/2012 6:00,30.8568,82.764
5047,7/29/2012 7:00,15.387,44.952
5048,7/29/2012 8:00,44.1048,62.556
5049,7/29/2012 9:00,26.1372,69.792
5050,7/29/2012 10:00,22.1766,68.136
5051,7/29/2012 11:00,29.739,62.916
5052,7/29/2012 12:00,32.7336,56.592
5053,7/29/2012 13:00,29.5734,48.936
5054,7/29/2012 14:00,2.6634,36.552
5055,7/29/2012 15:00,1.5732000000000002,24.564
5056,7/29/2012 16:00,0.0,18.204
5057,7/29/2012 17:00,0.0,16.223999999999997
5058,7/29/2012 18:00,0.0,9.540000000000001
5059,7/29/2012 19:00,1.0626,72.612
5060,7/29/2012 20:00,1.6008,43.296
5061,7/29/2012 21:00,2.4426,21.323999999999998
5062,7/29/2012 22:00,3.8364,10.032
5063,7/29/2012 23:00,9.4116,8.280000000000001
5064,7/30/2012 0:00,22.9218,13.872
5065,7/30/2012 1:00,36.7356,20.76
5066,7/30/2012 2:00,38.350199999999994,25.572000000000003
5067,7/30/2012 3:00,35.0244,38.82
5068,7/30/2012 4:00,42.78,97.368
5069,7/30/2012 5:00,49.3626,98.75999999999999
5070,7/30/2012 6:00,86.44319999999999,98.352
5071,7/30/2012 7:00,51.184200000000004,94.38
5072,7/30/2012 8:00,14.9592,5.436
5073,7/30/2012 9:00,6.279,3.588
5074,7/30/2012 10:00,5.589,2.9280000000000004
5075,7/30/2012 11:00,3.4362,1.32
5076,7/30/2012 12:00,2.0424,1.332
5077,7/30/2012 13:00,63.894,0.9359999999999999
5078,7/30/2012 14:00,69.38640000000001,0.0
5079,7/30/2012 15:00,74.9616,0.0
5080,7/30/2012 16:00,115.10579999999999,1.368
5081,7/30/2012 17:00,107.3226,4.9079999999999995
5082,7/30/2012 18:00,103.2654,4.0440000000000005
5083,7/30/2012 19:00,138.0,2.976
5084,7/30/2012 20:00,136.53719999999998,2.172
5085,7/30/2012 21:00,35.0382,1.5
5086,7/30/2012 22:00,22.411199999999997,1.1159999999999999
5087,7/30/2012 23:00,77.9976,71.148
5088,7/31/2012 0:00,57.3942,52.416000000000004
5089,7/31/2012 1:00,38.8884,45.708
5090,7/31/2012 2:00,21.4728,43.751999999999995
5091,7/31/2012 3:00,27.2274,45.684
5092,7/31/2012 4:00,19.802999999999997,49.26
5093,7/31/2012 5:00,15.1662,50.22
5094,7/31/2012 6:00,11.454,48.504
5095,7/31/2012 7:00,9.9498,43.62
5096,7/31/2012 8:00,100.56060000000001,42.744
5097,7/31/2012 9:00,96.71039999999999,43.8
5098,7/31/2012 10:00,8.901,40.727999999999994
5099,7/31/2012 11:00,11.3298,37.728
5100,7/31/2012 12:00,15.469800000000001,0.0
5101,7/31/2012 13:00,2.415,0.0
5102,7/31/2012 14:00,3.174,0.0
5103,7/31/2012 15:00,3.2982,1.344
5104,7/31/2012 16:00,5.009399999999999,2.3280000000000003
5105,7/31/2012 17:00,13.1928,3.456
5106,7/31/2012 18:00,22.245600000000003,4.56
5107,7/31/2012 19:00,88.89959999999999,4.811999999999999
5108,7/31/2012 20:00,86.7192,4.992
5109,7/31/2012 21:00,85.6014,4.836
5110,7/31/2012 22:00,85.86359999999999,2.46
5111,7/31/2012 23:00,83.51759999999999,0.9840000000000001
5112,8/1/2012 0:00,84.8976,118.416
5113,8/1/2012 1:00,88.0992,118.644
5114,8/1/2012 2:00,60.623400000000004,118.44
5115,8/1/2012 3:00,35.328,2.496
5116,8/1/2012 4:00,20.3136,3.5999999999999996
5117,8/1/2012 5:00,26.7444,3.588
5118,8/1/2012 6:00,50.1768,3.2880000000000003
5119,8/1/2012 7:00,74.727,3.1919999999999997
5120,8/1/2012 8:00,83.697,112.32
5121,8/1/2012 9:00,71.0562,120.0
5122,8/1/2012 10:00,26.095799999999997,120.0
5123,8/1/2012 11:00,26.1786,120.0
5124,8/1/2012 12:00,24.3846,120.0
5125,8/1/2012 13:00,18.7404,120.0
5126,8/1/2012 14:00,12.8478,102.48000000000002
5127,8/1/2012 15:00,11.8266,120.0
5128,8/1/2012 16:00,12.6546,120.0
5129,8/1/2012 17:00,13.261800000000001,120.0
5130,8/1/2012 18:00,12.061200000000001,120.0
5131,8/1/2012 19:00,16.6014,120.0
5132,8/1/2012 20:00,25.502399999999998,120.0
5133,8/1/2012 21:00,33.7272,120.0
5134,8/1/2012 22:00,39.123,120.0
5135,8/1/2012 23:00,40.958400000000005,120.0
5136,8/2/2012 0:00,51.06,120.0
5137,8/2/2012 1:00,60.5544,21.575999999999997
5138,8/2/2012 2:00,60.692400000000006,28.488
5139,8/2/2012 3:00,54.7722,35.099999999999994
5140,8/2/2012 4:00,44.7672,36.168
5141,8/2/2012 5:00,37.922399999999996,28.92
5142,8/2/2012 6:00,36.004200000000004,19.896
5143,8/2/2012 7:00,39.6336,13.956
5144,8/2/2012 8:00,45.3054,3.696
5145,8/2/2012 9:00,47.7342,118.896
5146,8/2/2012 10:00,101.5404,117.84
5147,8/2/2012 11:00,97.97999999999999,120.0
5148,8/2/2012 12:00,93.8124,0.0
5149,8/2/2012 13:00,87.975,5.232
5150,8/2/2012 14:00,86.3328,0.0
5151,8/2/2012 15:00,42.379799999999996,0.0
5152,8/2/2012 16:00,42.172799999999995,0.0
5153,8/2/2012 17:00,36.984,0.0
5154,8/2/2012 18:00,18.8922,0.0
5155,8/2/2012 19:00,9.3012,0.0
5156,8/2/2012 20:00,7.507199999999999,5.952
5157,8/2/2012 21:00,135.83339999999998,37.416000000000004
5158,8/2/2012 22:00,136.9374,15.216
5159,8/2/2012 23:00,138.0,8.472
5160,8/3/2012 0:00,130.3272,7.524000000000001
5161,8/3/2012 1:00,112.677,5.448
5162,8/3/2012 2:00,122.9718,2.172
5163,8/3/2012 3:00,128.4642,1.044
5164,8/3/2012 4:00,131.9142,2.424
5165,8/3/2012 5:00,134.7708,1.752
5166,8/3/2012 6:00,136.344,1.368
5167,8/3/2012 7:00,131.8452,1.5
5168,8/3/2012 8:00,133.9704,104.83200000000001
5169,8/3/2012 9:00,135.5436,105.22800000000001
5170,8/3/2012 10:00,136.3716,100.66799999999999
5171,8/3/2012 11:00,136.6614,105.108
5172,8/3/2012 12:00,136.77179999999998,106.44
5173,8/3/2012 13:00,130.5066,103.572
5174,8/3/2012 14:00,127.995,103.452
5175,8/3/2012 15:00,74.0094,103.476
5176,8/3/2012 16:00,79.1844,105.768
5177,8/3/2012 17:00,4.788600000000001,101.016
5178,8/3/2012 18:00,5.727,94.68
5179,8/3/2012 19:00,12.834000000000001,79.356
5180,8/3/2012 20:00,19.8996,44.76
5181,8/3/2012 21:00,23.1978,16.488
5182,8/3/2012 22:00,26.3166,6.048
5183,8/3/2012 23:00,31.0776,3.216
5184,8/4/2012 0:00,48.4932,1.728
5185,8/4/2012 1:00,58.373999999999995,0.0
5186,8/4/2012 2:00,58.5258,0.0
5187,8/4/2012 3:00,1.6422,0.0
5188,8/4/2012 4:00,1.6146,0.0
5189,8/4/2012 5:00,1.9182,0.0
5190,8/4/2012 6:00,138.0,0.0
5191,8/4/2012 7:00,1.0626,1.332
5192,8/4/2012 8:00,2.4564,2.892
5193,8/4/2012 9:00,2.3874,6.648
5194,8/4/2012 10:00,2.346,14.064
5195,8/4/2012 11:00,84.6216,26.232
5196,8/4/2012 12:00,138.0,42.096000000000004
5197,8/4/2012 13:00,138.0,57.036
5198,8/4/2012 14:00,138.0,31.055999999999997
5199,8/4/2012 15:00,20.217,44.136
5200,8/4/2012 16:00,18.6438,52.992
5201,8/4/2012 17:00,18.0228,40.848
5202,8/4/2012 18:00,17.581200000000003,24.683999999999997
5203,8/4/2012 19:00,17.0982,23.82
5204,8/4/2012 20:00,4.14,27.540000000000003
5205,8/4/2012 21:00,4.071,34.44
5206,8/4/2012 22:00,4.485,42.791999999999994
5207,8/4/2012 23:00,5.796,48.348
5208,8/5/2012 0:00,9.5082,2.1479999999999997
5209,8/5/2012 1:00,15.111,55.260000000000005
5210,8/5/2012 2:00,19.595999999999997,10.608
5211,8/5/2012 3:00,24.7848,2.1479999999999997
5212,8/5/2012 4:00,31.395,66.46799999999999
5213,8/5/2012 5:00,35.3832,3.864
5214,8/5/2012 6:00,38.1846,0.9840000000000001
5215,8/5/2012 7:00,42.1452,1.7040000000000002
5216,8/5/2012 8:00,48.037800000000004,2.556
5217,8/5/2012 9:00,47.955,3.4080000000000004
5218,8/5/2012 10:00,46.0368,5.052
5219,8/5/2012 11:00,42.3522,9.948
5220,8/5/2012 12:00,36.4596,15.336
5221,8/5/2012 13:00,31.836599999999997,14.184
5222,8/5/2012 14:00,93.8814,10.44
5223,8/5/2012 15:00,89.1066,10.608
5224,8/5/2012 16:00,80.03999999999999,12.204
5225,8/5/2012 17:00,57.132,13.308
5226,8/5/2012 18:00,45.6504,12.924000000000001
5227,8/5/2012 19:00,45.7608,8.316
5228,8/5/2012 20:00,39.5646,15.9
5229,8/5/2012 21:00,33.2028,60.852
5230,8/5/2012 22:00,25.2402,106.488
5231,8/5/2012 23:00,17.1948,116.172
5232,8/6/2012 0:00,13.4274,116.28000000000002
5233,8/6/2012 1:00,13.386,113.22
5234,8/6/2012 2:00,14.5038,111.636
5235,8/6/2012 3:00,75.1686,89.352
5236,8/6/2012 4:00,81.0336,86.496
5237,8/6/2012 5:00,76.3968,78.324
5238,8/6/2012 6:00,0.0,66.336
5239,8/6/2012 7:00,0.0,51.324000000000005
5240,8/6/2012 8:00,0.0,38.436
5241,8/6/2012 9:00,1.1178,19.116
5242,8/6/2012 10:00,6.361800000000001,16.332
5243,8/6/2012 11:00,39.702600000000004,21.624
5244,8/6/2012 12:00,84.63539999999999,78.732
5245,8/6/2012 13:00,90.5556,73.884
5246,8/6/2012 14:00,84.4008,101.28000000000002
5247,8/6/2012 15:00,71.4978,95.772
5248,8/6/2012 16:00,58.0152,86.256
5249,8/6/2012 17:00,50.2872,89.868
5250,8/6/2012 18:00,43.580400000000004,77.592
5251,8/6/2012 19:00,37.9914,56.232
5252,8/6/2012 20:00,31.519199999999998,36.3
5253,8/6/2012 21:00,26.6892,22.86
5254,8/6/2012 22:00,32.7474,13.836
5255,8/6/2012 23:00,28.0968,4.596
5256,8/7/2012 0:00,80.661,0.96
5257,8/7/2012 1:00,106.39799999999998,13.056
5258,8/7/2012 2:00,121.3296,18.324
5259,8/7/2012 3:00,126.7944,26.076
5260,8/7/2012 4:00,13.5654,17.483999999999998
5261,8/7/2012 5:00,133.5702,12.924000000000001
5262,8/7/2012 6:00,135.7506,26.532
5263,8/7/2012 7:00,136.9374,27.227999999999998
5264,8/7/2012 8:00,138.0,3.708
5265,8/7/2012 9:00,138.0,3.168
5266,8/7/2012 10:00,138.0,3.696
5267,8/7/2012 11:00,136.827,18.168
5268,8/7/2012 12:00,134.5776,20.520000000000003
5269,8/7/2012 13:00,130.6308,21.0
5270,8/7/2012 14:00,121.06739999999999,85.404
5271,8/7/2012 15:00,114.6228,87.552
5272,8/7/2012 16:00,107.50200000000001,96.684
5273,8/7/2012 17:00,97.35900000000001,106.04400000000001
5274,8/7/2012 18:00,3.8087999999999997,113.90400000000001
5275,8/7/2012 19:00,5.8788,116.364
5276,8/7/2012 20:00,9.8118,117.324
5277,8/7/2012 21:00,15.455999999999998,117.66000000000001
5278,8/7/2012 22:00,137.0202,116.292
5279,8/7/2012 23:00,18.3678,116.016
5280,8/8/2012 0:00,14.8212,115.548
5281,8/8/2012 1:00,12.5166,115.284
5282,8/8/2012 2:00,134.54999999999998,114.816
5283,8/8/2012 3:00,132.411,113.73599999999999
5284,8/8/2012 4:00,126.4632,112.26
5285,8/8/2012 5:00,114.15360000000001,106.008
5286,8/8/2012 6:00,98.8356,10.680000000000001
5287,8/8/2012 7:00,87.7128,12.251999999999999
5288,8/8/2012 8:00,87.42299999999999,99.552
5289,8/8/2012 9:00,89.38260000000001,101.292
5290,8/8/2012 10:00,0.0,103.152
5291,8/8/2012 11:00,0.0,32.903999999999996
5292,8/8/2012 12:00,32.416199999999996,40.764
5293,8/8/2012 13:00,29.104200000000002,37.356
5294,8/8/2012 14:00,18.9888,46.104
5295,8/8/2012 15:00,22.77,79.668
5296,8/8/2012 16:00,29.380200000000002,84.816
5297,8/8/2012 17:00,38.5986,81.276
5298,8/8/2012 18:00,8.2524,78.16799999999999
5299,8/8/2012 19:00,7.245,76.56
5300,8/8/2012 20:00,0.0,71.988
5301,8/8/2012 21:00,0.0,62.652
5302,8/8/2012 22:00,51.9018,53.448
5303,8/8/2012 23:00,91.03859999999999,52.452
5304,8/9/2012 0:00,20.037599999999998,55.800000000000004
5305,8/9/2012 1:00,26.634,60.024
5306,8/9/2012 2:00,125.8698,55.044
5307,8/9/2012 3:00,131.928,67.29599999999999
5308,8/9/2012 4:00,134.5776,94.092
5309,8/9/2012 5:00,2.6357999999999997,110.00399999999999
5310,8/9/2012 6:00,2.4426,18.96
5311,8/9/2012 7:00,2.553,10.512
5312,8/9/2012 8:00,2.8428,4.116
5313,8/9/2012 9:00,2.9256,1.32
5314,8/9/2012 10:00,2.3874,22.044
5315,8/9/2012 11:00,8.1006,9.792000000000002
5316,8/9/2012 12:00,17.8848,3.636
5317,8/9/2012 13:00,61.7688,1.452
5318,8/9/2012 14:00,111.7662,2.2199999999999998
5319,8/9/2012 15:00,120.0186,13.356
5320,8/9/2012 16:00,115.6716,20.676000000000002
5321,8/9/2012 17:00,122.7924,27.168
5322,8/9/2012 18:00,134.2878,35.376
5323,8/9/2012 19:00,138.0,47.388
5324,8/9/2012 20:00,129.1404,63.156
5325,8/9/2012 21:00,131.928,80.964
5326,8/9/2012 22:00,0.0,93.684
5327,8/9/2012 23:00,0.0,95.352
5328,8/10/2012 0:00,11.5092,61.32
5329,8/10/2012 1:00,9.66,117.948
5330,8/10/2012 2:00,8.5698,117.39599999999999
5331,8/10/2012 3:00,7.0518,100.248
5332,8/10/2012 4:00,0.0,101.736
5333,8/10/2012 5:00,0.0,116.66399999999999
5334,8/10/2012 6:00,0.0,110.208
5335,8/10/2012 7:00,0.0,87.612
5336,8/10/2012 8:00,0.0,64.92
5337,8/10/2012 9:00,1.0626,34.14
5338,8/10/2012 10:00,4.623,17.448
5339,8/10/2012 11:00,13.7724,10.536
5340,8/10/2012 12:00,29.049,6.768
5341,8/10/2012 13:00,41.6898,5.1000000000000005
5342,8/10/2012 14:00,0.0,4.308
5343,8/10/2012 15:00,0.0,5.1000000000000005
5344,8/10/2012 16:00,1.6974,6.359999999999999
5345,8/10/2012 17:00,3.5742,7.104
5346,8/10/2012 18:00,4.83,5.34
5347,8/10/2012 19:00,25.2402,5.376
5348,8/10/2012 20:00,25.3644,8.111999999999998
5349,8/10/2012 21:00,22.839000000000002,10.368
5350,8/10/2012 22:00,22.149,15.191999999999998
5351,8/10/2012 23:00,22.4802,20.76
5352,8/11/2012 0:00,29.118000000000002,80.484
5353,8/11/2012 1:00,40.15800000000001,72.03599999999999
5354,8/11/2012 2:00,58.0842,75.108
5355,8/11/2012 3:00,78.82560000000001,83.316
5356,8/11/2012 4:00,89.976,81.408
5357,8/11/2012 5:00,86.76060000000001,83.88000000000001
5358,8/11/2012 6:00,89.6172,94.956
5359,8/11/2012 7:00,90.34859999999999,106.116
5360,8/11/2012 8:00,94.2816,111.216
5361,8/11/2012 9:00,93.5226,32.016
5362,8/11/2012 10:00,84.4974,22.704
5363,8/11/2012 11:00,75.279,19.247999999999998
5364,8/11/2012 12:00,65.55,11.616
5365,8/11/2012 13:00,83.93159999999999,35.099999999999994
5366,8/11/2012 14:00,78.7704,30.888
5367,8/11/2012 15:00,50.4114,26.316
5368,8/11/2012 16:00,46.92,19.932
5369,8/11/2012 17:00,81.5856,17.388
5370,8/11/2012 18:00,101.1126,1.716
5371,8/11/2012 19:00,106.5222,1.74
5372,8/11/2012 20:00,103.5828,1.812
5373,8/11/2012 21:00,94.461,1.44
5374,8/11/2012 22:00,79.65360000000001,26.664
5375,8/11/2012 23:00,93.7296,24.108
5376,8/12/2012 0:00,90.12780000000001,22.355999999999998
5377,8/12/2012 1:00,93.0672,20.976000000000003
5378,8/12/2012 2:00,98.8494,18.192
5379,8/12/2012 3:00,103.1412,11.232000000000001
5380,8/12/2012 4:00,106.23240000000001,7.728
5381,8/12/2012 5:00,108.2334,5.712000000000001
5382,8/12/2012 6:00,110.0688,3.504
5383,8/12/2012 7:00,106.9362,1.992
5384,8/12/2012 8:00,0.0,1.284
5385,8/12/2012 9:00,86.4018,1.212
5386,8/12/2012 10:00,118.5282,1.608
5387,8/12/2012 11:00,125.26259999999999,2.628
5388,8/12/2012 12:00,1.8078,4.524
5389,8/12/2012 13:00,2.2632000000000003,6.696000000000001
5390,8/12/2012 14:00,2.7600000000000002,5.316
5391,8/12/2012 15:00,3.3810000000000002,6.408
5392,8/12/2012 16:00,34.2792,8.040000000000001
5393,8/12/2012 17:00,21.362399999999997,3.984
5394,8/12/2012 18:00,10.7502,2.556
5395,8/12/2012 19:00,6.3342,1.212
5396,8/12/2012 20:00,7.2312,0.0
5397,8/12/2012 21:00,8.763,2.352
5398,8/12/2012 22:00,8.5008,96.432
5399,8/12/2012 23:00,8.859599999999999,92.628
5400,8/13/2012 0:00,8.3214,87.216
5401,8/13/2012 1:00,8.5836,84.18
5402,8/13/2012 2:00,10.943399999999999,79.53599999999999
5403,8/13/2012 3:00,16.1874,70.19999999999999
5404,8/13/2012 4:00,22.245600000000003,58.908
5405,8/13/2012 5:00,28.358999999999998,47.940000000000005
5406,8/13/2012 6:00,51.6948,39.132
5407,8/13/2012 7:00,78.94980000000001,113.484
5408,8/13/2012 8:00,95.2476,110.712
5409,8/13/2012 9:00,100.56060000000001,102.56400000000001
5410,8/13/2012 10:00,97.35900000000001,91.332
5411,8/13/2012 11:00,79.764,77.69999999999999
5412,8/13/2012 12:00,46.8648,64.548
5413,8/13/2012 13:00,138.0,50.364000000000004
5414,8/13/2012 14:00,138.0,36.948
5415,8/13/2012 15:00,2.2632000000000003,27.072
5416,8/13/2012 16:00,0.0,20.508
5417,8/13/2012 17:00,0.0,17.160000000000004
5418,8/13/2012 18:00,125.4696,14.892
5419,8/13/2012 19:00,26.0544,17.724
5420,8/13/2012 20:00,23.4048,20.304
5421,8/13/2012 21:00,19.5408,25.284
5422,8/13/2012 22:00,21.2106,30.192
5423,8/13/2012 23:00,28.9938,32.44799999999999
5424,8/14/2012 0:00,118.14179999999999,31.488000000000003
5425,8/14/2012 1:00,117.4932,27.900000000000002
5426,8/14/2012 2:00,118.3902,103.176
5427,8/14/2012 3:00,38.226,98.952
5428,8/14/2012 4:00,123.45479999999999,94.548
5429,8/14/2012 5:00,117.35520000000001,80.088
5430,8/14/2012 6:00,111.1452,64.032
5431,8/14/2012 7:00,106.5222,67.55999999999999
5432,8/14/2012 8:00,100.51920000000001,78.768
5433,8/14/2012 9:00,96.8484,87.64800000000001
5434,8/14/2012 10:00,86.595,92.51999999999998
5435,8/14/2012 11:00,51.6672,94.65599999999999
5436,8/14/2012 12:00,39.19199999999999,90.56400000000001
5437,8/14/2012 13:00,37.0116,87.15599999999999
5438,8/14/2012 14:00,36.4596,79.596
5439,8/14/2012 15:00,33.2856,66.62400000000001
5440,8/14/2012 16:00,29.3526,55.428
5441,8/14/2012 17:00,95.7168,49.656
5442,8/14/2012 18:00,98.3802,40.644
5443,8/14/2012 19:00,98.8218,27.107999999999997
5444,8/14/2012 20:00,96.04799999999999,17.58
5445,8/14/2012 21:00,138.0,9.384
5446,8/14/2012 22:00,138.0,117.072
5447,8/14/2012 23:00,90.6798,117.852
5448,8/15/2012 0:00,72.39479999999999,3.372
5449,8/15/2012 1:00,56.0004,3.8760000000000003
5450,8/15/2012 2:00,66.654,4.86
5451,8/15/2012 3:00,58.3878,5.76
5452,8/15/2012 4:00,65.6328,6.816000000000001
5453,8/15/2012 5:00,75.1962,10.56
5454,8/15/2012 6:00,87.45060000000001,12.6
5455,8/15/2012 7:00,123.05460000000001,13.668
5456,8/15/2012 8:00,132.5904,21.384
5457,8/15/2012 9:00,129.9546,107.628
5458,8/15/2012 10:00,123.27539999999999,109.908
5459,8/15/2012 11:00,30.291,110.52
5460,8/15/2012 12:00,25.668000000000003,4.704
5461,8/15/2012 13:00,22.3422,4.068
5462,8/15/2012 14:00,20.5758,2.484
5463,8/15/2012 15:00,19.5822,4.2
5464,8/15/2012 16:00,19.8582,50.988
5465,8/15/2012 17:00,20.217,54.504
5466,8/15/2012 18:00,2.07,3.3599999999999994
5467,8/15/2012 19:00,0.9935999999999999,2.424
5468,8/15/2012 20:00,0.0,1.752
5469,8/15/2012 21:00,0.0,1.38
5470,8/15/2012 22:00,1.8767999999999998,1.1640000000000001
5471,8/15/2012 23:00,8.9286,1.14
5472,8/16/2012 0:00,31.836599999999997,1.236
5473,8/16/2012 1:00,117.23100000000001,1.3559999999999999
5474,8/16/2012 2:00,96.9864,88.332
5475,8/16/2012 3:00,60.0438,63.91199999999999
5476,8/16/2012 4:00,29.1732,46.692
5477,8/16/2012 5:00,69.276,39.852000000000004
5478,8/16/2012 6:00,58.788,24.227999999999998
5479,8/16/2012 7:00,55.7934,0.0
5480,8/16/2012 8:00,8.1006,0.0
5481,8/16/2012 9:00,5.313,0.0
5482,8/16/2012 10:00,3.657,0.0
5483,8/16/2012 11:00,3.0774,0.0
5484,8/16/2012 12:00,3.2292,0.9359999999999999
5485,8/16/2012 13:00,3.5880000000000005,0.0
5486,8/16/2012 14:00,3.7122,0.0
5487,8/16/2012 15:00,3.4638,0.0
5488,8/16/2012 16:00,3.0636,0.0
5489,8/16/2012 17:00,2.622,0.924
5490,8/16/2012 18:00,2.4840000000000004,1.1280000000000001
5491,8/16/2012 19:00,2.3598,1.296
5492,8/16/2012 20:00,2.0976,1.4280000000000002
5493,8/16/2012 21:00,11.9922,1.092
5494,8/16/2012 22:00,12.2682,0.0
5495,8/16/2012 23:00,10.6536,0.0
5496,8/17/2012 0:00,8.7078,0.0
5497,8/17/2012 1:00,7.245,0.0
5498,8/17/2012 2:00,4.3884,0.0
5499,8/17/2012 3:00,2.6634,0.0
5500,8/17/2012 4:00,2.415,0.0
5501,8/17/2012 5:00,2.4288000000000003,0.0
5502,8/17/2012 6:00,2.0562,1.8960000000000001
5503,8/17/2012 7:00,1.7664000000000002,3.24
5504,8/17/2012 8:00,1.9043999999999999,4.824
5505,8/17/2012 9:00,3.0636,5.064
5506,8/17/2012 10:00,5.0922,4.308
5507,8/17/2012 11:00,49.9008,3.564
5508,8/17/2012 12:00,62.7072,120.0
5509,8/17/2012 13:00,80.75760000000001,0.0
5510,8/17/2012 14:00,91.4388,1.572
5511,8/17/2012 15:00,94.9302,2.184
5512,8/17/2012 16:00,82.82759999999999,120.0
5513,8/17/2012 17:00,72.4086,118.92
5514,8/17/2012 18:00,62.7762,118.59599999999999
5515,8/17/2012 19:00,55.2138,118.212
5516,8/17/2012 20:00,49.3488,117.54
5517,8/17/2012 21:00,131.5692,0.0
5518,8/17/2012 22:00,130.341,0.0
5519,8/17/2012 23:00,128.3814,2.2560000000000002
5520,8/18/2012 0:00,122.2128,112.788
5521,8/18/2012 1:00,101.2782,21.108
5522,8/18/2012 2:00,73.5954,11.052
5523,8/18/2012 3:00,80.868,8.496
5524,8/18/2012 4:00,99.636,11.556
5525,8/18/2012 5:00,116.4858,16.919999999999998
5526,8/18/2012 6:00,112.51140000000001,24.624
5527,8/18/2012 7:00,107.9298,29.976
5528,8/18/2012 8:00,101.29200000000002,2.3280000000000003
5529,8/18/2012 9:00,138.0,1.92
5530,8/18/2012 10:00,138.0,1.7999999999999998
5531,8/18/2012 11:00,138.0,1.848
5532,8/18/2012 12:00,138.0,1.7999999999999998
5533,8/18/2012 13:00,1.1868,1.728
5534,8/18/2012 14:00,0.0,61.572
5535,8/18/2012 15:00,65.7156,62.028000000000006
5536,8/18/2012 16:00,73.9542,68.604
5537,8/18/2012 17:00,80.23320000000001,73.632
5538,8/18/2012 18:00,86.5536,69.10799999999999
5539,8/18/2012 19:00,90.1692,63.431999999999995
5540,8/18/2012 20:00,0.0,59.736000000000004
5541,8/18/2012 21:00,138.0,0.0
5542,8/18/2012 22:00,138.0,0.0
5543,8/18/2012 23:00,138.0,0.0
5544,8/19/2012 0:00,138.0,0.0
5545,8/19/2012 1:00,138.0,0.0
5546,8/19/2012 2:00,136.827,0.0
5547,8/19/2012 3:00,14.1726,0.0
5548,8/19/2012 4:00,22.245600000000003,50.736000000000004
5549,8/19/2012 5:00,33.2718,59.532
5550,8/19/2012 6:00,41.6622,63.828
5551,8/19/2012 7:00,104.5626,70.10400000000001
5552,8/19/2012 8:00,51.9846,74.05199999999999
5553,8/19/2012 9:00,4.9403999999999995,81.336
5554,8/19/2012 10:00,1.9734,85.29599999999999
5555,8/19/2012 11:00,10.405199999999999,81.636
5556,8/19/2012 12:00,61.5066,69.06
5557,8/19/2012 13:00,75.4722,62.556
5558,8/19/2012 14:00,97.2348,61.692
5559,8/19/2012 15:00,133.17,62.556
5560,8/19/2012 16:00,72.9744,7.62
5561,8/19/2012 17:00,58.6224,9.444
5562,8/19/2012 18:00,49.3212,11.772
5563,8/19/2012 19:00,59.4918,13.824
5564,8/19/2012 20:00,72.3396,8.532
5565,8/19/2012 21:00,74.4648,2.3760000000000003
5566,8/19/2012 22:00,90.94200000000001,0.0
5567,8/19/2012 23:00,2.4012,3.144
5568,8/20/2012 0:00,0.0,38.592
5569,8/20/2012 1:00,0.0,10.548
5570,8/20/2012 2:00,0.0,13.128
5571,8/20/2012 3:00,2.7738,16.067999999999998
5572,8/20/2012 4:00,58.1532,17.028
5573,8/20/2012 5:00,128.616,18.828000000000003
5574,8/20/2012 6:00,134.43959999999998,16.908
5575,8/20/2012 7:00,133.15619999999998,13.488
5576,8/20/2012 8:00,129.1818,16.716
5577,8/20/2012 9:00,124.7658,20.916
5578,8/20/2012 10:00,118.5282,26.556
5579,8/20/2012 11:00,95.0268,81.084
5580,8/20/2012 12:00,73.22279999999999,80.628
5581,8/20/2012 13:00,63.1902,72.792
5582,8/20/2012 14:00,57.269999999999996,68.496
5583,8/20/2012 15:00,45.3192,66.82799999999999
5584,8/20/2012 16:00,30.36,64.308
5585,8/20/2012 17:00,0.0,61.932
5586,8/20/2012 18:00,0.0,59.352
5587,8/20/2012 19:00,0.9798,58.848
5588,8/20/2012 20:00,1.0212,59.388
5589,8/20/2012 21:00,3.5466,32.352000000000004
5590,8/20/2012 22:00,1.2972000000000001,69.26400000000001
5591,8/20/2012 23:00,0.0,92.196
5592,8/21/2012 0:00,0.0,88.416
5593,8/21/2012 1:00,1.725,72.732
5594,8/21/2012 2:00,2.8428,64.344
5595,8/21/2012 3:00,3.1464000000000003,50.699999999999996
5596,8/21/2012 4:00,2.3736,112.98
5597,8/21/2012 5:00,1.2006,112.896
5598,8/21/2012 6:00,0.0,111.24000000000001
5599,8/21/2012 7:00,125.56620000000001,106.704
5600,8/21/2012 8:00,129.0162,91.61999999999999
5601,8/21/2012 9:00,131.583,47.832
5602,8/21/2012 10:00,131.4726,24.216
5603,8/21/2012 11:00,129.651,16.512
5604,8/21/2012 12:00,124.1862,8.363999999999999
5605,8/21/2012 13:00,108.6474,9.623999999999999
5606,8/21/2012 14:00,96.65520000000001,2.112
5607,8/21/2012 15:00,87.45060000000001,0.0
5608,8/21/2012 16:00,70.035,0.0
5609,8/21/2012 17:00,48.4794,0.0
5610,8/21/2012 18:00,28.0002,0.96
5611,8/21/2012 19:00,11.661000000000001,1.584
5612,8/21/2012 20:00,4.457400000000001,3.636
5613,8/21/2012 21:00,2.4012,2.976
5614,8/21/2012 22:00,3.4776,3.828
5615,8/21/2012 23:00,4.485,11.712000000000002
5616,8/22/2012 0:00,4.4022,40.488
5617,8/22/2012 1:00,3.7535999999999996,1.608
5618,8/22/2012 2:00,3.2292,4.404000000000001
5619,8/22/2012 3:00,2.139,9.204
5620,8/22/2012 4:00,1.9734,112.14
5621,8/22/2012 5:00,5.9202,1.044
5622,8/22/2012 6:00,138.0,1.272
5623,8/22/2012 7:00,138.0,80.232
5624,8/22/2012 8:00,138.0,93.42
5625,8/22/2012 9:00,135.4194,107.60400000000001
5626,8/22/2012 10:00,85.6014,10.596
5627,8/22/2012 11:00,96.8898,8.363999999999999
5628,8/22/2012 12:00,120.9018,67.092
5629,8/22/2012 13:00,130.9068,54.696
5630,8/22/2012 14:00,130.83780000000002,63.120000000000005
5631,8/22/2012 15:00,128.8782,3.768
5632,8/22/2012 16:00,129.8304,1.476
5633,8/22/2012 17:00,131.1,2.64
5634,8/22/2012 18:00,130.94819999999999,7.703999999999999
5635,8/22/2012 19:00,130.41,23.136
5636,8/22/2012 20:00,128.7954,49.14
5637,8/22/2012 21:00,125.30399999999999,76.848
5638,8/22/2012 22:00,118.45920000000001,47.172
5639,8/22/2012 23:00,108.1092,29.448
5640,8/23/2012 0:00,101.62320000000001,17.064
5641,8/23/2012 1:00,94.3506,9.107999999999999
5642,8/23/2012 2:00,79.0602,5.0040000000000004
5643,8/23/2012 3:00,58.5258,3.1919999999999997
5644,8/23/2012 4:00,40.171800000000005,2.136
5645,8/23/2012 5:00,34.486200000000004,3.048
5646,8/23/2012 6:00,138.0,4.919999999999999
5647,8/23/2012 7:00,138.0,6.948
5648,8/23/2012 8:00,138.0,9.168
5649,8/23/2012 9:00,138.0,11.352
5650,8/23/2012 10:00,138.0,12.78
5651,8/23/2012 11:00,100.2294,12.984
5652,8/23/2012 12:00,95.2476,11.831999999999999
5653,8/23/2012 13:00,74.89259999999999,10.716000000000001
5654,8/23/2012 14:00,46.6992,9.696
5655,8/23/2012 15:00,39.1644,70.824
5656,8/23/2012 16:00,50.8392,72.084
5657,8/23/2012 17:00,47.196000000000005,82.608
5658,8/23/2012 18:00,72.0912,91.272
5659,8/23/2012 19:00,44.022,95.076
5660,8/23/2012 20:00,21.7764,95.628
5661,8/23/2012 21:00,10.1982,94.608
5662,8/23/2012 22:00,4.1952,91.812
5663,8/23/2012 23:00,1.6422,92.196
5664,8/24/2012 0:00,30.5256,88.56
5665,8/24/2012 1:00,24.5916,84.084
5666,8/24/2012 2:00,0.0,82.34400000000001
5667,8/24/2012 3:00,0.0,79.2
5668,8/24/2012 4:00,18.3264,68.928
5669,8/24/2012 5:00,18.837,40.547999999999995
5670,8/24/2012 6:00,0.0,41.604
5671,8/24/2012 7:00,0.0,28.704
5672,8/24/2012 8:00,32.8026,23.784
5673,8/24/2012 9:00,135.792,19.631999999999998
5674,8/24/2012 10:00,136.0404,15.072
5675,8/24/2012 11:00,135.2676,12.0
5676,8/24/2012 12:00,135.03300000000002,8.904
5677,8/24/2012 13:00,136.48200000000003,3.864
5678,8/24/2012 14:00,136.9512,1.632
5679,8/24/2012 15:00,138.0,1.32
5680,8/24/2012 16:00,138.0,1.668
5681,8/24/2012 17:00,138.0,2.772
5682,8/24/2012 18:00,138.0,6.132
5683,8/24/2012 19:00,1.0764,93.816
5684,8/24/2012 20:00,1.2696,94.608
5685,8/24/2012 21:00,1.5594,88.632
5686,8/24/2012 22:00,1.8078,83.772
5687,8/24/2012 23:00,2.4701999999999997,83.16
5688,8/25/2012 0:00,2.9808000000000003,81.576
5689,8/25/2012 1:00,3.0498000000000003,83.64000000000001
5690,8/25/2012 2:00,3.2568,2.82
5691,8/25/2012 3:00,4.3056,1.032
5692,8/25/2012 4:00,6.7482,1.056
5693,8/25/2012 5:00,9.729,1.176
5694,8/25/2012 6:00,13.3446,1.14
5695,8/25/2012 7:00,3.7535999999999996,2.3160000000000003
5696,8/25/2012 8:00,7.7694,4.416
5697,8/25/2012 9:00,18.312600000000003,7.08
5698,8/25/2012 10:00,33.989399999999996,11.568
5699,8/25/2012 11:00,97.56600000000002,17.064
5700,8/25/2012 12:00,102.9618,19.164
5701,8/25/2012 13:00,112.60799999999999,12.372
5702,8/25/2012 14:00,127.8708,7.92
5703,8/25/2012 15:00,135.4332,4.787999999999999
5704,8/25/2012 16:00,138.0,4.308
5705,8/25/2012 17:00,138.0,6.5520000000000005
5706,8/25/2012 18:00,25.9578,13.235999999999999
5707,8/25/2012 19:00,44.9604,24.168
5708,8/25/2012 20:00,41.510400000000004,2.6999999999999997
5709,8/25/2012 21:00,39.19199999999999,52.08
5710,8/25/2012 22:00,44.5464,41.952000000000005
5711,8/25/2012 23:00,49.403999999999996,30.6
5712,8/26/2012 0:00,44.532599999999995,20.076
5713,8/26/2012 1:00,44.0358,13.728
5714,8/26/2012 2:00,43.332,10.847999999999999
5715,8/26/2012 3:00,36.2388,8.724
5716,8/26/2012 4:00,43.7322,9.252
5717,8/26/2012 5:00,27.1722,10.283999999999999
5718,8/26/2012 6:00,1.1868,9.6
5719,8/26/2012 7:00,4.9128,9.456
5720,8/26/2012 8:00,49.62479999999999,9.972
5721,8/26/2012 9:00,1.1178,10.752
5722,8/26/2012 10:00,2.2632000000000003,13.524
5723,8/26/2012 11:00,3.5742,73.932
5724,8/26/2012 12:00,5.451,76.008
5725,8/26/2012 13:00,6.072000000000001,108.156
5726,8/26/2012 14:00,3.6018000000000003,110.472
5727,8/26/2012 15:00,1.8906,111.432
5728,8/26/2012 16:00,1.587,109.452
5729,8/26/2012 17:00,127.8018,31.128000000000004
5730,8/26/2012 18:00,127.5672,27.516000000000002
5731,8/26/2012 19:00,126.0492,34.344
5732,8/26/2012 20:00,121.0812,23.88
5733,8/26/2012 21:00,112.62180000000001,19.176
5734,8/26/2012 22:00,20.0514,16.356
5735,8/26/2012 23:00,13.9242,14.028
5736,8/27/2012 0:00,83.7384,83.628
5737,8/27/2012 1:00,7.8384,108.096
5738,8/27/2012 2:00,4.9956000000000005,1.344
5739,8/27/2012 3:00,2.277,0.9359999999999999
5740,8/27/2012 4:00,0.0,13.74
5741,8/27/2012 5:00,0.0,13.187999999999999
5742,8/27/2012 6:00,0.0,18.54
5743,8/27/2012 7:00,125.8008,26.664
5744,8/27/2012 8:00,122.95799999999998,34.872
5745,8/27/2012 9:00,120.1704,35.724000000000004
5746,8/27/2012 10:00,115.5888,31.656
5747,8/27/2012 11:00,107.847,0.0
5748,8/27/2012 12:00,95.1786,0.0
5749,8/27/2012 13:00,78.108,0.0
5750,8/27/2012 14:00,55.3242,1.296
5751,8/27/2012 15:00,21.5832,2.424
5752,8/27/2012 16:00,6.969,4.416
5753,8/27/2012 17:00,2.622,8.82
5754,8/27/2012 18:00,1.0764,22.116
5755,8/27/2012 19:00,0.0,43.872
5756,8/27/2012 20:00,0.0,62.916
5757,8/27/2012 21:00,124.7658,19.62
5758,8/27/2012 22:00,124.1172,32.772
5759,8/27/2012 23:00,124.6554,117.0
